# Skin tones are 0 (light), 1 (tan), 2 (dark) and 3 (black)

#Dynasty
baratheongfx = {
	skin_tone = 0
}
lannistergfx = {
        skin_tone = 0
}
reynegfx = {
        skin_tone = 0
}
tullygfx = {
        skin_tone = 0
}
starkgfx = {
        skin_tone = 0
}
greyjoygfx = {
        skin_tone = 0
}
martellgfx = {
        skin_tone = 1
}
tyrellgfx = {
        skin_tone = 0
}
hoaregfx = {
        skin_tone = 0
}
arryngfx = {
        skin_tone = 0
}
blackwoodgfx = {
        skin_tone = 0
}
brackengfx = {
        skin_tone = 0
}
yronwoodgfx = {
        skin_tone = 0
}
boltongfx = {
        skin_tone = 0
}
conningtongfx = {
        skin_tone = 0
}
pipergfx = {
        skin_tone = 0
}
lothstongfx = {
        skin_tone = 0
}
marbrandgfx = {
        skin_tone = 0
}
dondarriongfx = {
        skin_tone = 0
}
mallistergfx = {
        skin_tone = 0
}
hightowergfx = {
        skin_tone = 0
}
redbeardgfx = {
        skin_tone = 0
}
belmoregfx = {
        skin_tone = 0
}
ballgfx = {
        skin_tone = 0
}
rowangfx = {
        skin_tone = 0
}
dothrakivalyriangfx = {
        skin_tone = 2
}