600.1.1={
	liege="d_jiangma"
}
7995.1.1 = { holder=10069106 }
8025.1.1 = { holder=10169106 }
8061.1.1 = { holder=10569106 }
8071.1.1 = { holder=10769106 }
8118.1.1 = { holder=11069106 }
8156.1.1 = { holder=11469106 }
8183.1.1 = { holder=11769106 }
8185.1.1 = { holder=12169106 }
8230.1.1 = { holder=12469106 }
8275.1.1 = { holder=12669106 }
8294.1.1 = { holder=12769106 }



