600.1.1={
	liege="d_guyan"
}
7995.1.1 = { holder=10069198 }
8035.1.1 = { holder=10269198 }
8039.1.1 = { holder=10469198 }
8058.1.1 = { holder=10569198 }
8078.1.1 = { holder=10769198 }
8112.1.1 = { holder=10869198 }
8134.1.1 = { holder=10969198 }
8153.1.1 = { holder=11169198 }
8174.1.1 = { holder=11469198 }
8201.1.1 = { holder=11669198 }
8249.1.1 = { holder=11969198 }
8296.1.1 = { holder=12369198 }


