600.1.1={
	liege="d_jinghu"
}
7995.1.1 = { holder=10069112 }
8026.1.1 = { holder=10169112 }
8060.1.1 = { holder=10369112 }
8084.1.1 = { holder=10769112 }
8108.1.1 = { holder=10969112 }
8134.1.1 = { holder=11169112 }
8171.1.1 = { holder=11569112 }
8187.1.1 = { holder=11769112 }
8206.1.1 = { holder=12069112 }
8209.1.1 = { holder=12369112 }
8251.1.1 = { holder=12669112 }
8276.1.1 = { holder=13069112 }
8286.1.1 = { holder=13169112 }


