name = "The War of Three Princes"

casus_belli={
	casus_belli=embargo_cb
	actor=102174372
	recipient=110286017
	landed_title=k_chroyane
	date=7128.1.1
}

7200.1.1 = {
	add_defender = 110286017 # Chroyane
	add_attacker = 102174372 # Volantis
}

7129.1.1 = {
	rem_defender = 110286017 # Chroyane
	rem_attacker = 102174372 # Volantis
}                                                                                                                                                                                                                                                                                                                