name = "Westerlands Invasion of the Iron Isles"

casus_belli={
	casus_belli=invasion
	actor=8002190
	recipient=371066
	landed_title=e_iron_isles
	date=7615.1.1
}

7615.1.1 = {
	add_defender = 371066
	add_attacker = 8002190
}

7622.1.1 = {
	rem_defender = 371066
	rem_attacker = 8002190
}                                                                                                                                                                                                                                                                                                                