###########################################
#                                         #
# Horse Lords Mercenaries Events  		  #
#                                         #
# ID HL.10000-HL.10999     	              #
#                                         #
###########################################

# 10100 - 10199 Military Education
# 10200 - 10299 Trait development
# 10300 - 10399 Prestigious events
# 10400 - 10499 Religious Events
# 10500 - 10599 Relationship events
# 10600 - 10699 Education events
# 10700 - 10799 External notification events

# Written by Henrik "Groogy" Hansson

namespace = HL

### Improve on military education
character_event = {
	id = HL.10100

	is_triggered_only = yes
	hide_window = yes
	only_rulers = yes
	capable_only = yes
	prisoner = no
	ai = yes
	has_character_flag = is_mercenary_leader
	
	weight_multiplier = {
		days = 1

		modifier = {
			factor = 2
			mercenary_employer = {
				is_alive = yes
			}
		}
		modifier = {
			factor = 0.66
			trait = slothful
		}
		modifier = {
			factor = 1.5
			trait = diligent
		}
		modifier = {
			factor = 0.66
			trait = content
		}
		modifier = {
			factor = 1.5
			trait = ambitious
		}
		modifier = {
			factor = 0.75
			NOT = { learning = 6 }
		}
		modifier = {
			factor = 0.75
			NOT = { learning = 3 }
		}
		modifier = {
			factor = 1.33
			learning = 10
		}
		modifier = {
			factor = 1.33
			learning = 14
		}
		modifier = {
			factor = 1.33
			learning = 18
		}
	}

	trigger = {
		primary_title = {
			NOT = { has_title_flag = ze_dyn_merc }
			mercenary = yes
		}
		OR = {
			trait = misguided_warrior
			trait = tough_soldier
			trait = skilled_tactician	
		}
	}
	
	immediate = {
		primary_title = {
			band_creator = {
				if = {
					limit = {
						is_alive = yes
					}
					character_event = { id = HL.10101 } # Notify daddy about progress
					break = yes
				}
			}
		}
		if = {	 # In case daddy is dead
			limit = {
				trait = misguided_warrior
			}
			remove_trait = misguided_warrior
			add_trait = tough_soldier
			break = yes
		}
		if = {
			limit = {
				trait = tough_soldier
			}
			remove_trait = tough_soldier
			add_trait = skilled_tactician
			break = yes
		}
		if = {
			limit = {
				trait = skilled_tactician
			}
			remove_trait = skilled_tactician
			add_trait = brilliant_strategist
			break = yes
		}
	}
}

### Notify band creator of education change
character_event = {
	id = HL.10101
	desc = EVTDESC_HL_10101
	picture = GFX_evt_steppe_mercenaries
	border = GFX_event_normal_frame_war

	is_triggered_only = yes

	option = {
		name = "EVTOPTA_HL_10101"
		FROM = {
			if = {
				limit = {
					trait = misguided_warrior
				}
				remove_trait = misguided_warrior
				add_trait = tough_soldier
				break = yes
			}
			if = {
				limit = {
					trait = tough_soldier
				}
				remove_trait = tough_soldier
				add_trait = skilled_tactician
				break = yes
			}
			if = {
				limit = {
					trait = skilled_tactician
				}
				remove_trait = skilled_tactician
				add_trait = brilliant_strategist
				break = yes
			}
		}
	}
}

### Mercenary captain stop being a silly coward
character_event = {
	id = HL.10200
	
	is_triggered_only = yes
	hide_window = yes
	
	only_rulers = yes
	capable_only = yes
	prisoner = no
	ai = yes
	has_character_flag = is_mercenary_leader
	
	weight_multiplier = {
		days = 1

		modifier = {
			factor = 2
			mercenary_employer = {
				is_alive = yes
			}
		}
		modifier = {
			factor = 0.66
			trait = slothful
		}
		modifier = {
			factor = 1.5
			trait = diligent
		}
		modifier = {
			factor = 0.66
			trait = content
		}
		modifier = {
			factor = 1.5
			trait = ambitious
		}
	}

	trigger = {
		primary_title = {
			NOT = { has_title_flag = ze_dyn_merc }
			mercenary = yes
		}
		trait = craven
	}

	immediate = {
		primary_title = {
			band_creator = {
				if = {
					limit = {
						is_alive = yes
					}
					character_event = { id = HL.10201 } # Notify daddy about progress
					break = yes
				}
			}
		}
		remove_trait = craven # In case daddy is dead
	}
}

### Notify band creator of craven removal
character_event = {
	id = HL.10201
	desc = EVTDESC_HL_10201
	picture = GFX_evt_steppe_mercenaries
	border = GFX_event_normal_frame_war

	is_triggered_only = yes

	option = {
		name = "EVTOPTA_HL_10201"
		FROM = {
			remove_trait = craven
		}
	}
}

### Mercenary captain becomes brave
character_event = {
	id = HL.10210
	
	is_triggered_only = yes
	hide_window = yes
	
	only_rulers = yes
	capable_only = yes
	prisoner = no
	ai = yes
	has_character_flag = is_mercenary_leader
	
	weight_multiplier = {
		days = 1

		modifier = {
			factor = 2
			mercenary_employer = {
				is_alive = yes
			}
		}
		modifier = {
			factor = 0.66
			trait = slothful
		}
		modifier = {
			factor = 1.5
			trait = diligent
		}
		modifier = {
			factor = 0.66
			trait = content
		}
		modifier = {
			factor = 1.5
			trait = ambitious
		}
	}

	trigger = {
		primary_title = {
			NOT = { has_title_flag = ze_dyn_merc }
			mercenary = yes
		}
		NOT = { trait = craven }
		NOT = { trait = brave }
		NOT = { personality_traits = 6 }
	}

	immediate = {
		primary_title = {
			band_creator = {
				if = {
					limit = {
						is_alive = yes
					}
					character_event = { id = HL.10211 } # Notify daddy about progress
					break = yes
				}
			}
		}
		add_trait = brave # In case daddy is dead
	}
}

### Notify band creator of brave added
character_event = {
	id = HL.10211
	desc = EVTDESC_HL_10211
	picture = GFX_evt_steppe_mercenaries
	border = GFX_event_normal_frame_war

	is_triggered_only = yes

	option = {
		name = "EVTOPTA_HL_10211"
		FROM = {
			add_trait = brave
		}
	}
}

### Mercenary captain becomes diligent
character_event = {
	id = HL.10220
	
	is_triggered_only = yes
	hide_window = yes
	
	only_rulers = yes
	capable_only = yes
	prisoner = no
	ai = yes
	has_character_flag = is_mercenary_leader
	
	weight_multiplier = {
		days = 1

		modifier = {
			factor = 2
			mercenary_employer = {
				is_alive = yes
			}
		}
		modifier = {
			factor = 0.66
			trait = content
		}
		modifier = {
			factor = 1.5
			trait = ambitious
		}
	}

	trigger = {
		primary_title = {
			NOT = { has_title_flag = ze_dyn_merc }
			mercenary = yes
		}
		NOT = { trait = diligent }
		NOT = { trait = slothful }
		NOT = { personality_traits = 6 }
	}

	immediate = {
		primary_title = {
			band_creator = {
				if = {
					limit = {
						is_alive = yes
					}
					character_event = { id = HL.10221 } # Notify daddy about progress
					break = yes
				}
			}
		}
		add_trait = diligent # In case daddy is dead
	}
}

### Notify band creator of brave added
character_event = {
	id = HL.10221
	desc = EVTDESC_HL_10221
	picture = GFX_evt_steppe_mercenaries
	border = GFX_event_normal_frame_war

	is_triggered_only = yes

	option = {
		name = "EVTOPTA_HL_10221"
		FROM = {
			add_trait = diligent
		}
	}
}

### Mercenary captain stopped being kind
character_event = {
	id = HL.10230
	
	is_triggered_only = yes
	hide_window = yes
	
	only_rulers = yes
	capable_only = yes
	prisoner = no
	ai = yes
	has_character_flag = is_mercenary_leader
	
	weight_multiplier = {
		days = 1

		modifier = {
			factor = 2
			mercenary_employer = {
				is_alive = yes
			}
		}
		modifier = {
			factor = 0.66
			trait = content
		}
		modifier = {
			factor = 1.5
			trait = ambitious
		}
		modifier = {
			factor = 0.66
			trait = honorable
		}
		modifier = {
			factor = 1.5
			trait = ruthless
		}
	}

	trigger = {
		primary_title = {
			NOT = { has_title_flag = ze_dyn_merc }
			mercenary = yes
		}
		trait = kind
	}

	immediate = {
		primary_title = {
			band_creator = {
				if = {
					limit = {
						is_alive = yes
					}
					character_event = { id = HL.10231 } # Notify daddy about progress
					break = yes
				}
			}
		}
		remove_trait = kind # In case daddy is dead
	}
}

### Notify band creator of kind removed
character_event = {
	id = HL.10231
	desc = EVTDESC_HL_10231
	picture = GFX_evt_steppe_mercenaries
	border = GFX_event_normal_frame_war

	is_triggered_only = yes

	option = {
		name = "EVTOPTA_HL_10231"
		FROM = {
			remove_trait = kind
		}
	}
}

### Mercenary captain stops being humble
character_event = {
	id = HL.10240
	
	is_triggered_only = yes
	hide_window = yes
	
	only_rulers = yes
	capable_only = yes
	prisoner = no
	ai = yes
	has_character_flag = is_mercenary_leader
	
	weight_multiplier = {
		days = 1

		modifier = {
			factor = 2
			mercenary_employer = {
				is_alive = yes
			}
		}
		modifier = {
			factor = 0.66
			trait = slothful
		}
		modifier = {
			factor = 1.5
			trait = diligent
		}
		modifier = {
			factor = 0.66
			trait = content
		}
		modifier = {
			factor = 1.5
			trait = ambitious
		}
		modifier = {
			factor = 0.66
			trait = honorable
		}
		modifier = {
			factor = 1.5
			trait = ruthless
		}
	}

	trigger = {
		primary_title = {
			NOT = { has_title_flag = ze_dyn_merc }
			mercenary = yes
		}
		trait = humble
	}

	immediate = {
		primary_title = {
			band_creator = {
				if = {
					limit = {
						is_alive = yes
					}
					character_event = { id = HL.10241 } # Notify daddy about progress
					break = yes
				}
			}
		}
		remove_trait = humble # In case daddy is dead
	}
}

### Notify band creator of humble removed
character_event = {
	id = HL.10241
	desc = EVTDESC_HL_10241
	picture = GFX_evt_steppe_mercenaries
	border = GFX_event_normal_frame_war

	is_triggered_only = yes

	option = {
		name = "EVTOPTA_HL_10241"
		FROM = {
			remove_trait = humble
		}
	}
}

### Mercenary captain becomes lustful
character_event = {
	id = HL.10250
	
	is_triggered_only = yes
	hide_window = yes
	
	only_rulers = yes
	capable_only = yes
	prisoner = no
	ai = yes
	has_character_flag = is_mercenary_leader
	
	weight_multiplier = {
		days = 1

		modifier = {
			factor = 2
			mercenary_employer = {
				is_alive = yes
			}
		}
		modifier = {
			factor = 0.66
			trait = honorable
		}
		modifier = {
			factor = 1.5
			trait = ruthless
		}
	}

	trigger = {
		primary_title = {
			NOT = { has_title_flag = ze_dyn_merc }
			mercenary = yes
		}
		NOT = { trait = lustful }
		NOT = { trait = chaste }
		NOT = { trait = celibate }
		NOT = { trait = eunuch }
		NOT = { personality_traits = 6 }
	}

	immediate = {
		primary_title = {
			band_creator = {
				if = {
					limit = {
						is_alive = yes
					}
					character_event = { id = HL.10251 } # Notify daddy about progress
					break = yes
				}
			}
		}
		add_trait = lustful # In case daddy is dead
	}
}

### Notify band creator of lustful added
character_event = {
	id = HL.10251
	desc = EVTDESC_HL_10251
	picture = GFX_evt_steppe_mercenaries
	border = GFX_event_normal_frame_war

	is_triggered_only = yes

	option = {
		name = "EVTOPTA_HL_10251"
		FROM = {
			add_trait = lustful
		}
	}
}

### Mercenary captain becomes very angry
character_event = {
	id = HL.10260
	
	is_triggered_only = yes
	hide_window = yes
	
	only_rulers = yes
	capable_only = yes
	prisoner = no
	ai = yes
	has_character_flag = is_mercenary_leader
	
	weight_multiplier = {
		days = 1

		modifier = {
			factor = 2
			mercenary_employer = {
				is_alive = yes
			}
		}
		modifier = {
			factor = 0.66
			trait = content
		}
		modifier = {
			factor = 1.5
			trait = ambitious
		}
		modifier = {
			factor = 0.66
			trait = honorable
		}
		modifier = {
			factor = 1.5
			trait = ruthless
		}
	}

	trigger = {
		primary_title = {
			NOT = { has_title_flag = ze_dyn_merc }
			mercenary = yes
		}
		NOT = { trait = wroth }
		NOT = { trait = patient }
		NOT = { personality_traits = 6 }
	}

	immediate = {
		primary_title = {
			band_creator = {
				if = {
					limit = {
						is_alive = yes
					}
					character_event = { id = HL.10261 } # Notify daddy about progress
					break = yes
				}
			}
		}
		add_trait = wroth # In case daddy is dead
	}
}

### Notify band creator of wroth added
character_event = {
	id = HL.10261
	desc = EVTDESC_HL_10261
	picture = GFX_evt_steppe_mercenaries
	border = GFX_event_normal_frame_war

	is_triggered_only = yes

	option = {
		name = "EVTOPTA_HL_10261"
		FROM = {
			add_trait = wroth
		}
	}
}

### Mercenary captain becomes cruel
character_event = {
	id = HL.10270
	
	is_triggered_only = yes
	hide_window = yes
	
	only_rulers = yes
	capable_only = yes
	prisoner = no
	ai = yes
	has_character_flag = is_mercenary_leader

	weight_multiplier = {
		days = 1

		modifier = {
			factor = 2
			mercenary_employer = {
				is_alive = yes
			}
		}
		modifier = {
			factor = 0.66
			trait = content
		}
		modifier = {
			factor = 1.5
			trait = ambitious
		}
		modifier = {
			factor = 0.66
			trait = honorable
		}
		modifier = {
			factor = 1.5
			trait = ruthless
		}
	}

	trigger = {
		primary_title = {
			NOT = { has_title_flag = ze_dyn_merc }
			mercenary = yes
		}
		NOT = { trait = cruel }
		NOT = { trait = kind }
		NOT = { personality_traits = 6 }
	}

	immediate = {
		primary_title = {
			band_creator = {
				if = {
					limit = {
						is_alive = yes
					}
					character_event = { id = HL.10271 } # Notify daddy about progress
					break = yes
				}
			}
		}
		add_trait = cruel # In case daddy is dead
	}
}

### Notify band creator of cruel added
character_event = {
	id = HL.10271
	desc = EVTDESC_HL_10271
	picture = GFX_evt_steppe_mercenaries
	border = GFX_event_normal_frame_war

	is_triggered_only = yes

	option = {
		name = "EVTOPTA_HL_10271"
		FROM = {
			add_trait = cruel
		}
	}
}

### Fighting a great commander
character_event = {
	id = HL.10300

	is_triggered_only = yes
	hide_window = yes
	
	only_rulers = yes
	capable_only = yes
	prisoner = no
	ai = yes

	immediate = {
		set_character_flag = fought_great_commander
		primary_title = {
			band_creator = {
				if = {
					limit = {
						is_alive = yes
					}
					character_event = { id = HL.10301 } # Notify daddy about progress
					break = yes
				}
			}
		}
		prestige = 100
	}
}

### Notify band creator of awesome fight with prestigious commander
character_event = {
	id = HL.10301
	desc = EVTDESC_HL_10301
	picture = GFX_evt_steppe_mercenaries
	border = GFX_event_normal_frame_war

	is_triggered_only = yes

	option = {
		name = "EVTOPTA_HL_10301"
		FROM = {
			prestige = 100
		}
	}
}

### Mercenary captain starts to gain sympathy for local religion
character_event = {
	id = HL.10400

	is_triggered_only = yes
	hide_window = yes
	
	only_rulers = yes
	capable_only = yes
	prisoner = no
	ai = yes
	has_character_flag = is_mercenary_leader

	trigger = {
		primary_title = {
			NOT = { has_title_flag = ze_dyn_merc }
			mercenary = yes
		}
		NOT = { trait = zealous }
		location = { 
			NOT = { religion_group = ROOT } 
			NOT = { religion_group = FROM }
			is_land = yes
		}
	}

	weight_multiplier = {
		days = 1

		modifier = {
			factor = 2
			mercenary_employer = {
				is_alive = yes
			}
		}
	}

	immediate = {
		location = {
			save_event_target_as = merc_location
		}
		primary_title = {		
			band_creator = {
				if = {
					limit = {
						is_alive = yes
					}
					character_event = { id = HL.10401 }
					break = yes
				}
			}
		}
		event_target:merc_location = {
			if = {
				limit = { religion_group = westerosi_religion }
				FROM = { add_trait = sympathy_westerosi }
			}
			if = {
				limit = { religion_group = drowned_god_group }
				FROM = { add_trait = sympathy_drowned_god }
			}	
			if = {
				limit = { religion_group = essos_group }
				FROM = { add_trait = sympathy_essos_group }
			}
			if = {
				limit = { religion_group = ghiscar_rel }
				FROM = { add_trait = sympathy_ghiscar_rel }
			}
			if = {
				limit = { religion_group = valyrian_rel_group }
				FROM = { add_trait = sympathy_valyrian_rel_group }
			}
			if = {
				limit = { religion_group = wildling_religion }
				FROM = { add_trait = sympathy_wildling_religion }
			}
			if = {
				limit = { religion_group = sarnor_rel }
				FROM = { add_trait = sympathy_sarnor_rel }
			}
			if = {
				limit = { religion_group = qarth_rel }
				FROM = { add_trait = sympathy_qarth_rel }
			}
			if = {
				limit = { religion_group = far_east_group }
				FROM = { add_trait = sympathy_far_east_group }
			}
			if = {
				limit = { religion_group = ibben_rel }
				FROM = { add_trait = sympathy_ibben_rel }
			}
			if = {
				limit = { religion_group = dothraki_rel_group }
				FROM = { add_trait = sympathy_dothraki_rel_group }
			}
			if = {
				limit = { religion_group = jogos_rel_group }
				FROM = { add_trait = sympathy_jogos_rel_group }
			}
			if = {
				limit = { religion_group = lhazar_rel_group }
				FROM = { add_trait = sympathy_lhazar_rel_group }
			}
			if = {
				limit = { religion_group = summer_rel_group }
				FROM = { add_trait = sympathy_summer_rel_group }
			}
			if = {
				limit = { religion_group = sothoryos_rel_group }
				FROM = { add_trait = sympathy_sothoryos_rel_group }
			}
			if = {
				limit = { religion_group = pirate_group }
				FROM = { add_trait = sympathy_pirate_group }
			}
			if = {
				limit = { religion_group = pagan_group }
				FROM = { add_trait = sympathy_pagans }
			}
		}
		clear_event_target = merc_location
	}
}

character_event = {
	id = HL.10401
	desc = EVTDESC_HL_10401
	picture = GFX_evt_steppe_mercenaries
	border = GFX_event_normal_frame_war

	is_triggered_only = yes

	option = {
		name = "EVTOPTA_HL_10401"
		event_target:merc_location = {
			if = {
				limit = { religion_group = westerosi_religion }
				FROM = { add_trait = sympathy_westerosi }
			}
			if = {
				limit = { religion_group = drowned_god_group }
				FROM = { add_trait = sympathy_drowned_god }
			}	
			if = {
				limit = { religion_group = essos_group }
				FROM = { add_trait = sympathy_essos_group }
			}
			if = {
				limit = { religion_group = ghiscar_rel }
				FROM = { add_trait = sympathy_ghiscar_rel }
			}
			if = {
				limit = { religion_group = valyrian_rel_group }
				FROM = { add_trait = sympathy_valyrian_rel_group }
			}
			if = {
				limit = { religion_group = wildling_religion }
				FROM = { add_trait = sympathy_wildling_religion }
			}
			if = {
				limit = { religion_group = sarnor_rel }
				FROM = { add_trait = sympathy_sarnor_rel }
			}
			if = {
				limit = { religion_group = qarth_rel }
				FROM = { add_trait = sympathy_qarth_rel }
			}
			if = {
				limit = { religion_group = far_east_group }
				FROM = { add_trait = sympathy_far_east_group }
			}
			if = {
				limit = { religion_group = ibben_rel }
				FROM = { add_trait = sympathy_ibben_rel }
			}
			if = {
				limit = { religion_group = dothraki_rel_group }
				FROM = { add_trait = sympathy_dothraki_rel_group }
			}
			if = {
				limit = { religion_group = jogos_rel_group }
				FROM = { add_trait = sympathy_jogos_rel_group }
			}
			if = {
				limit = { religion_group = lhazar_rel_group }
				FROM = { add_trait = sympathy_lhazar_rel_group }
			}
			if = {
				limit = { religion_group = summer_rel_group }
				FROM = { add_trait = sympathy_summer_rel_group }
			}
			if = {
				limit = { religion_group = sothoryos_rel_group }
				FROM = { add_trait = sympathy_sothoryos_rel_group }
			}
			if = {
				limit = { religion_group = pirate_group }
				FROM = { add_trait = sympathy_pirate_group }
			}
			if = {
				limit = { religion_group = pagan_group }
				FROM = { add_trait = sympathy_pagans }
			}
		}
	}
}

### Mercenary captain converts to local religion
character_event = {
	id = HL.10410

	is_triggered_only = yes
	hide_window = yes
	
	only_rulers = yes
	capable_only = yes
	prisoner = no
	ai = yes
	has_character_flag = is_mercenary_leader

	trigger = {
		primary_title = {
			NOT = { has_title_flag = ze_dyn_merc }
			mercenary = yes
		}
		NOT = { trait = zealous }
		location = { 
			NOT = { religion = ROOT } 
			is_land = yes
		}
	}

	weight_multiplier = {
		days = 1

		modifier = {
			factor = 1.5
			mercenary_employer = {
				is_alive = yes
			}
		}
		modifier = {
			factor = 2
			mercenary_employer = {
				is_friend = ROOT
			}
		}
	}

	immediate = {
		location = {
			save_event_target_as = merc_location
		}
		primary_title = {
			band_creator = {
				if = {
					limit = {
						is_alive = yes
					}
					character_event = { id = HL.10411 }
					break = yes
				}
			}
		}
		event_target:merc_location = {
			ROOT = {
				add_sympathy_trait_effect = yes
				unsafe_religion = PREV
			}
		}
		clear_event_target = merc_location
	}
}

character_event = {
	id = HL.10411
	desc = EVTDESC_HL_10411
	picture = GFX_evt_steppe_mercenaries
	border = GFX_event_normal_frame_war

	is_triggered_only = yes

	option = {
		name = "EVTOPTA_HL_10411"
		event_target:merc_location = {
			FROM = {
				add_sympathy_trait_effect = yes
				unsafe_religion = PREV
			}
		}
	}
}

### Seduction event between captain and child of employer
character_event = {
	id = HL.10500
	
	hide_window = yes
	is_triggered_only = yes
	only_playable = yes
	capable_only = yes
	prisoner = no
	has_character_flag = is_mercenary_leader

	trigger = {
		primary_title = {
			NOT = { has_title_flag = ze_dyn_merc }
			mercenary = yes
		}
		NOT = { trait = chaste }
		NOT = { trait = celibate }
		NOT = { trait = eunuch }
		NOT = { trait = infirm }
		NOT = { trait = honorable }
		NOT = { is_inaccessible_trigger = yes }
		is_ill = no
		is_pregnant = no		
		has_lover = no
		OR = {
			is_married = no
			trait = lustful
			trait = deceitful
			spouse = {
				NOT = { is_lover = ROOT }
				NOT = { reverse_opinion = { who = ROOT value = 20 } }
			}
		}
	}

	weight_multiplier = {
		days = 1
		
		modifier = {
			factor = 0.5
			has_dlc = "Way of Life"
			NOT = { has_focus = focus_seduction }
			NOT = { liege = { has_focus = focus_seduction } }
		}
		modifier = {
			factor = 3
			has_ambition = obj_find_lover
		}
		
		modifier = {
			factor = 2
			trait = lustful
		}

		modifier = {
			factor = 2
			trait = hedonist
		}

		modifier = {
			factor = 2
			trait = seducer
		}

		modifier = {
			factor = 1.5
			mercenary_employer = {
				is_alive = yes
			}
		}

		modifier = {
			factor = 0.25
			primary_title = {
				capital_scope = {
					owner = {
						is_friend = ROOT
					}
				}
			}
		}

		modifier = {
			factor = 0.25
			mercenary_employer = {
				is_friend = ROOT
			}
		}
	}

	immediate = {
		primary_title = {
			capital_scope = {
				owner = {
					random_courtier = {
						limit = {	
							possibly_romantically_interested_in_each_other_trigger = yes
							age = 16
							is_ruler = no
							is_married = no
							has_lover = no
							is_consort = no
							is_senior_consort_party = no
							is_adult = yes
						
							is_pregnant = no	
							NOT = { trait = chaste }
							NOT = { trait = infirm }
							NOT = { is_inaccessible_trigger = yes }
							NOT = { trait = wikid }
							NOT = { trait = on_reaving }
							is_ill = no
							in_command = no
							
							NAND = {						
								OR = {
									is_close_relative = PREV
									is_councillor = yes
									is_voter = yes
								}
								OR = {
									trait = honorable
									AND = {
										opinion = { who = PREV value = 0 }
										NOR = {
											trait = lustful
											trait = arbitrary
										}
									}	
								}	
							}
							OR = {
								NOT = { opinion = { who = PREV value = 75 } }
								opinion = { who = ROOT value = 75 }
							}	
							NOT_mythical_creature_trigger = yes
						}

						save_event_target_as = eloper
						PREV = {
							save_event_target_as = eloper_host
						}

						ROOT = {
							primary_title = {
								band_creator = {
									if = {
										limit = {
											is_alive = yes
										}
										character_event = { id = HL.10502 }
									}
								}
							}
						}

						PREV = {
							character_event = { id = HL.10501 }
						}
						betrothed = { break_betrothal = PREV }
						add_lover = ROOT
						move_character = ROOT
						if = {
							limit = {
								is_child_of = PREV
							}
							PREV = {
								add_rival = ROOT
							}
						}

						break = yes
					}
				}
			}
		}
	}
}

# Notify daddy about eloping
character_event = {
	id = HL.10501
	desc = {
		text = EVTDESC_HL_10501
		trigger = {
			event_target:eloper = {
				is_child_of = ROOT
			}
		}
	}
	desc = {
		text = EVTDESC_HL_10501B
		trigger = {
			event_target:eloper = {
				NOT = { is_child_of = ROOT }
			}
		}
	}
	picture = GFX_evt_steppe_mercenaries
	border = GFX_event_normal_frame_war

	is_triggered_only = yes

	option = {
		name = "EVTOPTA_HL_10501"
		trigger = {
			event_target:eloper = {
				reverse_opinion = {
					who = ROOT
					value = 0
				}
			}
		}
	}
	option = {
		name = GOOD_RIDDANCE
		trigger = {
			event_target:eloper = {
				NOT = {
					reverse_opinion = {
						who = ROOT
						value = 0
					}
				}
			}
		}
	}
}

# Notify host about eloping
character_event = {
	id = HL.10502
	desc = EVTDESC_HL_10502
	picture = GFX_evt_steppe_mercenaries
	border = GFX_event_normal_frame_war

	is_triggered_only = yes

	option = {
		name = "EVTOPTA_HL_10501"
		trigger = {
			event_target:eloper = {
				reverse_opinion = {
					who = ROOT
					value = 0
				}
			}
		}
	}
	option = {
		trigger = {
			event_target:eloper = {
				NOT = {
					reverse_opinion = {
						who = ROOT
						value = 0
					}
				}
			}
		}
		name = GOOD_RIDDANCE
	}
}

### Duel between courtier of employer and mercenary captain
character_event = {
	id = HL.10510

	hide_window = yes
	is_triggered_only = yes
	only_rulers = yes
	prisoner = no
	capable_only = yes
	has_character_flag = is_mercenary_leader
	
	trigger = {
		primary_title = {
			NOT = { has_title_flag = ze_dyn_merc }
			mercenary = yes
		}
		NOT = { trait = kind }
		NOT = { trait = humble }
		NOT = { trait = honorable }
		NOR = {
			in_command = yes
			is_ill = yes
			has_epidemic = yes
			has_severe_disability_trigger = yes
		}
	}

	weight_multiplier = {
		days = 1

		modifier = {
			factor = 0.25
		}
		modifier = {
			factor = 0.25
			trait = patient
		}
		modifier = {
			factor = 2
			trait = wroth
		}

		modifier = {
			factor = 2
			trait = cruel
		}

		modifier = {
			factor = 1.5
			mercenary_employer = {
				is_alive = yes
			}
		}

		modifier = {
			factor = 0.25
			primary_title = {
				capital_scope = {
					owner = {
						any_liege = {
							is_friend = ROOT
						}
					}
				}
			}
		}

		modifier = {
			factor = 0.25
			mercenary_employer = {
				is_friend = ROOT
			}
		}
	}

	immediate = {
		primary_title = {
			capital_scope = {
				owner = {
					random_courtier = {
						limit = {
							is_ruler = no
							OR = {
								is_female = no
								female_get_masculine_event_trigger = yes
							}
							NOR = {
								prisoner = yes
								in_command = yes
								is_ill = yes
								has_epidemic = yes
								trait = wounded
								has_severe_disability_trigger = yes
							}
							is_adult = yes
							NOT = { is_friend = ROOT }
							OR = {
								trait = brave
								trait = proud
								trait = wroth
							}
							NOT = { opinion = { who = ROOT value = -24 } }
							NOT = { reverse_opinion = { who = ROOT value = -24 } }
							liege = { character = PREVPREV }
							NOT_mythical_creature_trigger = yes
						}

						save_event_target_as = challenger

						ROOT = {
							random_list = {
								40 = { # Nothing Happens
									modifier = {
										NOT = { combat_rating_diff = { who = PREV value = 40 } }
										factor = 2
									}
									character_event = { id = HL.10511 }
								}
								75 = { # Wounded
									modifier = {
										combat_rating_diff = { who = PREV value = 60 }
										factor = 2
									}
									character_event = { id = HL.10512 }
								}
								25 = { # Maimed
									modifier = {
										combat_rating_diff = { who = PREV value = 60 }
										factor = 2
									}
									modifier = {
										combat_rating_diff = { who = PREV value = 70 }
										factor = 2
									}
									character_event = { id = HL.10513 }
								}
								10 = { # Dies
									modifier = {
										combat_rating_diff = { who = PREV value = 60 }
										factor = 2
									}
									modifier = {
										combat_rating_diff = { who = PREV value = 70 }
										factor = 2
									}
									modifier = {
										combat_rating_diff = { who = PREV value = 80 }
										factor = 2
									}
									character_event = { id = HL.10514 }
								}
							}
						}
						break = yes
					}
				}
			}
		}
	}
}

# Nothing happens result
character_event = {
	id = HL.10511
	
	hide_window = yes
	is_triggered_only = yes

	immediate = {
		event_target:challenger = {
			add_rival = FROM
			liege = {
				character_event = { id = HL.10515 }
			}
		}
		primary_title = {
			band_creator = {
				character_event = { id = HL.10516 }
			}
		}
	}
}

# Wound result
character_event = {
	id = HL.10512
	
	hide_window = yes
	is_triggered_only = yes

	immediate = {
		event_target:challenger = {
			add_trait_silently_wounded_effect = yes
			add_rival = ROOT
			liege = {
				character_event = { id = HL.10517 }
			}
		}

		primary_title = {
			band_creator = {
				character_event = { id = HL.10518 }
			}
		}
	}
}

# Maimed result
character_event = {
	id = HL.10513
	
	hide_window = yes
	is_triggered_only = yes

	immediate = {
		event_target:challenger = {
			add_maimed_trait_effect = yes
			add_rival = ROOT
			liege = {
				character_event = { id = HL.10519 }
			}
		}
		primary_title = {
			band_creator = {
				character_event = { id = HL.10520 }
			}
		}
	}
}

# Death result
character_event = {
	id = HL.10514


	hide_window = yes
	is_triggered_only = yes

	immediate = {
		event_target:challenger = {
			liege = {
				character_event = { id = HL.10521 }
			}
			ROOT_murder_red_god_resurrect_effect = yes #check for rhllor resurrection
			death = { death_reason = death_duel killer = ROOT }		
		}
		primary_title = {
			band_creator = {
				character_event = { id = HL.10522 }
			}
		}
	}
}

# Notify daddy about nothing happening duel
character_event = {
	id = HL.10515
	desc = EVTDESC_HL_10515
	picture = GFX_evt_melee
	border = GFX_event_normal_frame_war

	is_triggered_only = yes

	option = {
		name = "EVTOPTA_HL_10515"
		event_target:challenger = {}
	}
}

# Notify band creator about nothing happening duel
character_event = {
	id = HL.10516
	desc = EVTDESC_HL_10516
	picture = GFX_evt_melee
	border = GFX_event_normal_frame_war

	is_triggered_only = yes

	option = {
		name = "EVTOPTA_HL_10516"
		event_target:challenger = {}
	}
}


# Notify daddy about wound duel
character_event = {
	id = HL.10517
	desc = EVTDESC_HL_10517
	picture = GFX_evt_melee
	border = GFX_event_normal_frame_war

	is_triggered_only = yes

	option = {
		name = "EVTOPTA_HL_10517"
		event_target:challenger = {}
		if = {
			limit = { is_close_relative = event_target:challenger }
			random = {
				chance = 20
				add_rival = FROM
			}
		}	
	}
}

# Notify band creator about wound duel
character_event = {
	id = HL.10518
	desc = EVTDESC_HL_10518
	picture = GFX_evt_melee
	border = GFX_event_normal_frame_war

	is_triggered_only = yes

	option = {
		name = "EVTOPTA_HL_10518"
		event_target:challenger = {}
	}
}

# Notify daddy about maimed duel
character_event = {
	id = HL.10519
	desc = EVTDESC_HL_10519
	picture = GFX_evt_melee
	border = GFX_event_normal_frame_war

	is_triggered_only = yes

	option = {
		name = "EVTOPTA_HL_10517"
		event_target:challenger = {}
		if = {
			limit = { is_close_relative = event_target:challenger }
			random = {
				chance = 50
				add_rival = FROM
			}
		}
	}
}

# Notify band creator about maimed duel
character_event = {
	id = HL.10520
	desc = EVTDESC_HL_10520
	picture = GFX_evt_melee
	border = GFX_event_normal_frame_war

	is_triggered_only = yes

	option = {
		name = "EVTOPTA_HL_10520"
		event_target:challenger = {}
	}
}

# Notify daddy about death duel
character_event = {
	id = HL.10521
	desc = EVTDESC_HL_10521
	picture = GFX_evt_melee
	border = GFX_event_normal_frame_war

	is_triggered_only = yes

	option = {
		name = "EVTOPTA_HL_10521"
		event_target:challenger = {}
		if = {
			limit = { is_close_relative = event_target:challenger }
			add_rival = FROM
		}
	}
}

# Notify band creator about death duel
character_event = {
	id = HL.10522
	desc = EVTDESC_HL_10522
	picture = GFX_evt_melee
	border = GFX_event_normal_frame_war

	is_triggered_only = yes

	option = {
		name = "EVTOPTA_HL_10520"
		event_target:challenger = {}
	}
}

### Possibility to invite mercenary captain to a feast
character_event = {
	id = HL.10530
	desc = EVTDESC_HL_10530
	picture = GFX_evt_steppe_mercenaries
	border = GFX_event_normal_frame_war

	is_triggered_only = yes
	only_playable = yes
	capable_only = yes
	prisoner = no

	trigger = {
		has_character_modifier = holding_large_feast
		any_mercenary_band = {
			NOT = { has_title_flag = ze_dyn_merc }
			holder_scope = {
				NOT = { is_friend = ROOT }
				NOT = { is_rival = ROOT }
				NOT = { is_close_relative = ROOT }
				NOT = { is_inaccessible_trigger = yes }
				prisoner = no
				NOT = { trait = incapable }
				has_character_flag = is_mercenary_leader
			}
			capital_scope = {
				ROOT = {
					capital_scope = {
						province = PREVPREV
					}
				}
			}
		}
	}

	option = {
		name = "EVTOPTA_HL_10530"
		any_mercenary_band = {
			limit = {
				NOT = { has_title_flag = ze_dyn_merc }
				holder_scope = {
					NOT = { is_friend = ROOT }
					NOT = { is_rival = ROOT }
					NOT = { is_close_relative = ROOT }
					NOT = { is_inaccessible_trigger = yes }
					prisoner = no
					NOT = { trait = incapable }
					has_character_flag = is_mercenary_leader
				}
				capital_scope = {
					ROOT = {
						capital_scope = {
							province = PREVPREV
						}
					}
				}
			}
			holder_scope = {
				character_event = { id = HL.10531 }
			}
		}
	}

	option = {
		name = "EVTOPTB_HL_10530"
	}
}

### Mercenary captain responds
character_event = {
	id = HL.10531

	hide_window = yes
	is_triggered_only = yes

	option = {
		name = "EVTOPTA_HL_10531"
		ai_chance = {
			factor = 50
			modifier = {
				factor = 2
				FROM = { trait = gregarious }
			}
			modifier = {
				factor = 0.5
				FROM = { trait = shy }
			}
			modifier = {
				factor = 2
				trait = gregarious
			}
			modifier = {
				factor = 0.5
				trait = shy
			}
			modifier = {
				factor = 0
				NOT = { opinion = { who = FROM value = 0 } }
			}
			modifier = {
				factor = 0
				NOT = { reverse_opinion = { who = FROM value = 0 } }
			}
		}
		FROM = {
			character_event = { id = HL.10532 days = 3 }
		}
	}

	option = {
		name = "EVTOPTB_HL_10531"
		ai_chance = {
			factor = 50
			modifier = {
				factor = 0
				opinion = { who = FROM value = 50 }
			}
		}
		FROM = {
			character_event = { id = HL.10533 days = 3 }
		}
	}
}

### Response to feast from mercenary captain is positive
character_event = {
	id = HL.10532
	desc = EVTDESC_HL_10532
	picture = GFX_evt_steppe_mercenaries
	border = GFX_event_normal_frame_war

	is_triggered_only = yes

	option = {
		name = "EVTOPTA_HL_10532"
		add_friend = FROM
	}
}

### Response to feast from mercenary captain is negative
character_event = {
	id = HL.10533
	desc = EVTDESC_HL_10533
	picture = GFX_evt_steppe_mercenaries
	border = GFX_event_normal_frame_war

	is_triggered_only = yes

	option = {
		name = "EVTOPTA_HL_10533"
	}
}

### The captain gain mercenary traditions from being on the field
character_event = {
	id = HL.10600

	is_triggered_only = yes
	hide_window = yes
	
	only_rulers = yes
	capable_only = yes
	prisoner = no
	ai = yes
	has_character_flag = is_mercenary_leader
	
	trigger = {
		primary_title = {
			NOT = { has_title_flag = ze_dyn_merc }
			mercenary = yes
			band_creator = {
				is_alive = yes
			}
		}
		NOT = { trait = craven }
	}

	weight_multiplier = {
		days = 1
	
		modifier = {
			factor = 2
			mercenary_employer = {
				is_alive = yes
			}
		}
	}

	immediate = {
		primary_title = {
			band_creator = {
				if = {
					limit = {
						is_alive = yes
					}
					character_event = { id = HL.10601 }
				}
			}
		}
		if = { # Just to make sure
			limit = {
				NOT = { has_character_modifier = mercenary_traditions }
			}
			add_character_modifier = { name = mercenary_traditions duration = -1 }
		}
	}
}

### Notifying Daddy about becomming skilled with handling mercenaries
character_event = {
	id = HL.10601
	desc = EVTDESC_HL_10601
	picture = GFX_evt_steppe_mercenaries
	border = GFX_event_normal_frame_war

	is_triggered_only = yes

	option = {
		name = "EVTOPTA_HL_10601"
		add_character_modifier = { name = mercenary_traditions duration = -1 }
	}
}

### Curious about tales from dads past for ward
character_event = {
	id = HL.10610
	desc = EVTDESC_HL_10610
	picture = GFX_evt_guardian
	
	min_age = 6
	max_age = 16
	prisoner = no
	capable_only = yes
	only_men = yes
	
	is_triggered_only = yes
	
	trigger = {
		has_guardian = yes
		father = {
			has_character_modifier = mercenary_traditions
			primary_title = {
				mercenary = no
			}
		}
		NOT = { has_character_modifier = mercenary_traditions }
	}

	option = {
		name = "EVTOPTA_HL_10610"
		educator = {
			if = {
				limit = {
					ROOT = {
						father = {
							character = PREVPREV
						}
					}
				}
				character_event = { id = HL.10612 }
				break = yes
			}
			character_event = { id = HL.10611 }
		}
	}
}

### Non-father guardian event
character_event = {
	id = HL.10611
	desc = EVTDESC_HL_10611
	picture = GFX_evt_guardian
	
	prisoner = no
	capable_only = yes
	
	is_triggered_only = yes

	option = {
		name = "EVTOPTA_HL_10611"
		FROM = {
			character_event = { id = HL.10613 }
		}
	}

	option = {
		name = "EVTOPTB_HL_10611"
		FROM = {
			character_event = { id = HL.10614 }
		}
	}
}

### Father guardian event
character_event = {
	id = HL.10612
	desc = EVTDESC_HL_10612
	picture = GFX_evt_guardian
	
	prisoner = no
	capable_only = yes
	
	is_triggered_only = yes

	option = {
		name = "EVTOPTA_HL_10611"
		FROM = {
			character_event = { id = HL.10613 }
		}
	}

	option = {
		name = "EVTOPTB_HL_10611"
		FROM = {
			character_event = { id = HL.10614 }
		}
	}
}

### Ward is told tales of his fathers deeds
character_event = {
	id = HL.10613
	desc = EVTDESC_HL_10613
	picture = GFX_evt_steppe_mercenaries
	
	prisoner = no
	capable_only = yes
	
	is_triggered_only = yes

	option = {
		name = "EVTOPTA_HL_10613"
		add_character_modifier = { name = mercenary_traditions duration = -1 }
	}
}

### Ward is refused the tales of his father
character_event = {
	id = HL.10614
	desc = EVTDESC_HL_10614
	picture = GFX_evt_guardian
	
	prisoner = no
	capable_only = yes
	
	is_triggered_only = yes

	option = {
		name = "EVTOPTA_HL_10614"
	}
}

# ### Notification event for increase in mercenary size
# character_event = {
	# id = 10700
	# desc = EVTDESC_HL_10700
	# picture = GFX_evt_steppe_mercenaries
	
	# capable_only = yes
	
	# is_triggered_only = yes

	# option = {
		# name = "EVTOPTA_HL_10700"
		# custom_tooltip = { text = EVTOPTA_HL_10700_TOOLTIP }
	# }
# }

# ### Notification event for wasting money on debauchery
# character_event = {
	# id = 10701
	# desc = EVTDESC_HL_10701
	# picture = GFX_evt_steppe_mercenaries
	
	# capable_only = yes
	
	# is_triggered_only = yes

	# option = {
		# name = "EVTOPTA_HL_10701"
		# tooltip = {
			# FROM = {
				# wealth = -25
				# prestige = 10
			# }
		# }
	# }
# }