##############################
# MARSHAL
#
# Job: action_advance_mil_tech
# 	938: Military Accident
# 	939: Military Secrets Revealed!
#
# Job: action_train_troops
# 	941: Reinforcements Arrives
# 	942: Marshal tries to train troops, noble interferes
#
# Job: action_assist_arrest
# 	944: Vassal is tipped off: Starts with Marshal
#
##############################
namespace = job_martial_event

##############################
# MARSHAL
# JOB: action_advance_mil_tech 
##############################

# 938: Liege's Child is Trained
character_event = {
	id = 938
	title = "EVTTITLEob_martial_event.1"
	desc = "EVTDESCjob_martial_event.1"
	picture = GFX_evt_child_sword
	
	#only_men = yes
	capable_only = yes
	prisoner = no
	has_job_title = yes
	
	trigger = {
		has_job_action = action_advance_mil_tech #loc = train children
		NOT = { is_inaccessible_trigger = yes }
		liege = {
			any_courtier = {
				OR = {
					character = PREV
					is_child_of = PREV
					is_grandchild_of = PREV
				}
				age = 6
				is_alive = yes
				NOT = { age = 19 }
				NOT = { trait = incapable }
				NOR = { 
					trait = skilled_warrior
					trait = master_warrior 
				}
				NOT = { trait = dragon }
				OR = {
					NOR = {
						trait = poor_warrior
						trait = trained_warrior
						trait = skilled_warrior
						trait = master_warrior		
					}
					AND = {
						trait = poor_warrior
						ROOT = {
							OR = {
								trait = poor_warrior
								trait = trained_warrior
								trait = skilled_warrior
								trait = master_warrior		
							}
						}
					}
					AND = {
						trait = trained_warrior
						ROOT = {
							OR = {
								trait = trained_warrior
								trait = skilled_warrior
								trait = master_warrior		
							}
						}
					}
					# AND = { #cannot make formidable this way
						# trait = skilled_warrior
						# ROOT = {
							# OR = {
								# trait = skilled_warrior
								# trait = master_warrior		
							# }
						# }
					# }
				}					
				OR = {
					AND = {
						is_female = no
						liege = { NOT = { female_warrior_culture_trigger = yes }	 }
					}
					AND = {
						is_female = yes
						liege = { female_warrior_culture_trigger = yes }
					}
					female_get_masculine_event_trigger = yes
				}
				OR = {
					NOT = { has_character_flag = marshal_trained }
					had_character_flag = { flag = marshal_trained days = 365 }
				}
			}
		}
	}
	
	mean_time_to_happen = {
		months = 160
		
		modifier = {
			factor = 0.33
			trait = master_warrior
		}
		modifier = {
			factor = 0.57
			trait = skilled_warrior
		}
		modifier = {
			factor = 1.75
			trait = poor_warrior
		}
		modifier = {
			factor = 3
			NOR = {
				trait = poor_warrior
				trait = trained_warrior
				trait = skilled_warrior
				trait = master_warrior
			}
		}
		modifier = {
			factor = 0.85
			trait = duelist
		}
		modifier = {
			factor = 0.85
			trait = brave
		}
		modifier = {
			factor = 0.85
			trait = authoritative
		}
		modifier = {
			factor = 0.85
			trait = patient
		}
		modifier = {
			factor = 0.85
			trait = kind
		}
		modifier = {
			factor = 0.85
			trait = diligent
		}
		modifier = {
			factor = 1.18
			trait = craven
		}
		modifier = {
			factor = 1.18
			trait = wroth
		}	
		modifier = {
			factor = 1.18
			trait = slothful
		}
		modifier = {
			factor = 1.18
			trait = cruel
		}
		modifier = {
			factor = 1.18
			trait = shy
		}
		modifier = {
			factor = 1.18
			trait = lunatic
		}
		modifier = {
			factor = 2
			has_character_flag = job_action_sabotage
			NOT = {
				had_character_flag = {
					flag = job_action_sabotage
					days = 1825
				}
			}	
		}
	}
	
	
	option = {
		name = "EVTOPTAjob_martial_event.1"
		prestige = 20
		hidden_tooltip = { change_variable = { which = "services_rendered" value = 1 } }
		liege = {	
			random_courtier = {
				limit = {
					OR = {
						character = PREV
						is_child_of = PREV
						mother_even_if_dead = { is_child_of = PREVPREV }
						father_even_if_dead = { is_child_of = PREVPREV }
					}
					age = 6
					is_alive = yes
					NOT = { age = 19 }
					NOT = { trait = incapable }
					NOR = { 
						trait = skilled_warrior
						trait = master_warrior 
					}
					NOT = { trait = dragon }
					OR = {
						NOR = {
							trait = poor_warrior
							trait = trained_warrior
							trait = skilled_warrior
							trait = master_warrior		
						}
						AND = {
							trait = poor_warrior
							ROOT = {
								OR = {
									trait = poor_warrior
									trait = trained_warrior
									trait = skilled_warrior
									trait = master_warrior		
								}
							}
						}
						AND = {
							trait = trained_warrior
							ROOT = {
								OR = {
									trait = trained_warrior
									trait = skilled_warrior
									trait = master_warrior		
								}
							}
						}
						# AND = { #cannot make formidable this way
							# trait = skilled_warrior
							# ROOT = {
								# OR = {
									# trait = skilled_warrior
									# trait = master_warrior		
								# }
							# }
						# }
					}					
					OR = {
						AND = {
							is_female = no
							liege = { NOT = { female_warrior_culture_trigger = yes }	 }
						}
						AND = {
							is_female = yes
							liege = { female_warrior_culture_trigger = yes }
						}
						female_get_masculine_event_trigger = yes
					}
					OR = {
						NOT = { has_character_flag = marshal_trained }
						had_character_flag = { flag = marshal_trained days = 365 }
					}
				}
				set_character_flag = marshal_trained
				hidden_tooltip = { character_event = { id = job_martial_event.2 } } 
				custom_tooltip = { text = TOOLTIPjob_martial_event.2 }
			}#randomchild	
		}
	}
}

#20380000: Child informed about improved combat skill
character_event = {
	id = job_martial_event.2
	desc = "EVTDESCjob_martial_event.2"
	picture = GFX_evt_child_sword
	
	is_triggered_only = yes
	
	option = {
		name = "EVTOPTAjob_martial_event.2"
		# if = {
			# limit = { trait = skilled_warrior }
			# hidden_tooltip = { remove_trait = skilled_warrior }
			# add_trait = master_warrior
		# }
		if = {
			limit = { trait = trained_warrior }
			hidden_tooltip = { remove_trait = trained_warrior }
			add_trait = skilled_warrior
		}
		if = {
			limit = { trait = poor_warrior }
			hidden_tooltip = { remove_trait = poor_warrior }
			add_trait = trained_warrior
		}
		if = {
			limit = {
				NOT = {
					OR = {
						trait = poor_warrior
						trait = trained_warrior
						trait = skilled_warrior
						trait = master_warrior
					}	
				}
			}
			add_trait = poor_warrior
		}
		hidden_tooltip = { 
			FROM = { liege = { letter_event = { id = job_martial_event.3 } } }
		} 
	}
	
}	

#20380: Liege gets a letter about improved combat skill
letter_event = {
	id = job_martial_event.3
	desc = "EVTDESCjob_martial_event.3"
	picture = GFX_evt_child_sword
	
	is_triggered_only = yes
	
	show_from_from = yes
	
	trigger = { NOT = { character = FROM } }
	
	option = {
		name = "EVTOPTAjob_martial_event.3"
		FROM = {
			# if = {
				# limit = { trait = master_warrior }
				# add_trait = master_warrior
			# }
			if = {
				limit = { trait = skilled_warrior }
				add_trait = skilled_warrior
			}
			if = {
				limit = { trait = trained_warrior }
				add_trait = trained_warrior
			}
			if = {
				limit = { trait = poor_warrior }
				add_trait = poor_warrior
			}
		}
		hidden_tooltip = {
			opinion = {
				modifier = opinion_service_rendered
				who = FROMFROM
				years = 3
			}
		}
	}
}

# 93800: Liege's Child hates fighting
character_event = {
	id = 93800
	title = "EVTTITLEjob_martial_event.4"
	desc = "EVTDESCjob_martial_event.4"
	picture = GFX_evt_child_sword
	
	#only_men = yes
	capable_only = yes
	prisoner = no
	has_job_title = yes
	
	trigger = {
		has_job_action = action_advance_mil_tech #loc = train children
		NOT = { is_inaccessible_trigger = yes }
		liege = {
			any_courtier = {
				OR = {
					character = PREV
					is_child_of = PREV
					mother_even_if_dead = { is_child_of = PREVPREV }
					father_even_if_dead = { is_child_of = PREVPREV }
				}
				age = 6
				is_alive = yes
				NOT = { age = 19 }
				NOT = { trait = incapable }
				NOR = { 
					trait = skilled_warrior
					trait = master_warrior 
				}
				NOT = { trait = dragon }
				NOT = { personality_traits = 5 }
				OR = {
					NOR = {
						trait = poor_warrior
						trait = trained_warrior
						trait = skilled_warrior
						trait = master_warrior		
					}
					AND = {
						trait = poor_warrior
						ROOT = {
							OR = {
								trait = poor_warrior
								trait = trained_warrior
								trait = skilled_warrior
								trait = master_warrior		
							}
						}
					}
					AND = {
						trait = trained_warrior
						ROOT = {
							OR = {
								trait = trained_warrior
								trait = skilled_warrior
								trait = master_warrior		
							}
						}
					}
					# AND = { #cannot make formidable this way
						# trait = skilled_warrior
						# ROOT = {
							# OR = {
								# trait = skilled_warrior
								# trait = master_warrior		
							# }
						# }
					# }
				}					
				OR = {
					AND = {
						is_female = no
						liege = { NOT = { female_warrior_culture_trigger = yes }	 }
					}
					AND = {
						is_female = yes
						liege = { female_warrior_culture_trigger = yes }
					}
					female_get_masculine_event_trigger = yes
				}
				OR = {
					NOT = { has_character_flag = marshal_trained }
					had_character_flag = { flag = marshal_trained days = 365 }
				}
			}
		}
	}
	
	mean_time_to_happen = {
		months = 160
		
		modifier = {
			factor = 3
			trait = master_warrior
		}
		modifier = {
			factor = 1.75
			trait = skilled_warrior
		}
		modifier = {
			factor = 0.57
			trait = poor_warrior
		}
		modifier = {
			factor = 0.33
			NOR = {
				trait = poor_warrior
				trait = trained_warrior
				trait = skilled_warrior
				trait = master_warrior
			}
		}
		modifier = {
			factor = 1.18
			trait = duelist
		}
		modifier = {
			factor = 1.18
			trait = brave
		}
		modifier = {
			factor = 1.18
			trait = authoritative
		}
		modifier = {
			factor = 1.18
			trait = patient
		}
		modifier = {
			factor = 1.18
			trait = kind
		}
		modifier = {
			factor = 1.18
			trait = diligent
		}
		modifier = {
			factor = 0.85
			trait = craven
		}
		modifier = {
			factor = 0.85
			trait = wroth
		}	
		modifier = {
			factor = 0.85
			trait = slothful
		}
		modifier = {
			factor = 0.85
			trait = cruel
		}
		modifier = {
			factor = 0.85
			trait = shy
		}
		modifier = {
			factor = 0.85
			trait = lunatic
		}
		modifier = {
			factor = 0.5
			has_character_flag = job_action_sabotage
			NOT = {
				had_character_flag = {
					flag = job_action_sabotage
					days = 1825
				}
			}	
		}
	}
	
	
	option = {
		name = "EVTOPTAjob_martial_event.4"
		prestige = -20
		liege = {	
			random_courtier = {
				limit = {
					OR = {
						character = PREV
						is_child_of = PREV
						mother_even_if_dead = { is_child_of = PREVPREV }
						father_even_if_dead = { is_child_of = PREVPREV }
					}
					age = 6
					is_alive = yes
					NOT = { age = 19 }
					NOT = { trait = incapable }
					NOR = { 
						trait = skilled_warrior
						trait = master_warrior 
					}
					NOT = { trait = dragon }
					NOT = { personality_traits = 5 }
					OR = {
						NOR = {
							trait = poor_warrior
							trait = trained_warrior
							trait = skilled_warrior
							trait = master_warrior		
						}
						AND = {
							trait = poor_warrior
							ROOT = {
								OR = {
									trait = poor_warrior
									trait = trained_warrior
									trait = skilled_warrior
									trait = master_warrior		
								}
							}
						}
						AND = {
							trait = trained_warrior
							ROOT = {
								OR = {
									trait = trained_warrior
									trait = skilled_warrior
									trait = master_warrior		
								}
							}
						}
						# AND = { #cannot make formidable this way
							# trait = skilled_warrior
							# ROOT = {
								# OR = {
									# trait = skilled_warrior
									# trait = master_warrior		
								# }
							# }
						# }
					}					
					OR = {
						AND = {
							is_female = no
							liege = { NOT = { female_warrior_culture_trigger = yes }	 }
						}
						AND = {
							is_female = yes
							liege = { female_warrior_culture_trigger = yes }
						}
						female_get_masculine_event_trigger = yes
					}
					OR = {
						NOT = { has_character_flag = marshal_trained }
						had_character_flag = { flag = marshal_trained days = 365 }
					}
				}
				hidden_tooltip = {
					random_list = {
						100 = {
							trigger = {
								NOT = { trait = brave } 
								NOT = { trait = craven } 
								NOT = { trait = willful }
							}
							set_character_flag = craven
						}
						100 = {
							trigger = {
								NOT = { trait = diligent } 
								NOT = { trait = slothful } 
								NOT = { trait = conscientious }
							}
							set_character_flag = slothful
						}
						100 = {
							trigger = {
								NOT = { trait = patient }
								NOT = { trait = wroth } 
							}
							set_character_flag = wroth
						}
						100 = {
							trigger = {
								NOT = { trait = stressed } 
							}
							set_character_flag = stressed
						}
						100 = {
							trigger = {
								learning = 10
								NOT = { lifestyle_traits = 1 }								
							}
							set_character_flag = scholar
						}
						1 = {
						}
					}
					character_event = { id = job_martial_event.5 } 
				} 
				custom_tooltip = { text = TOOLTIPjob_martial_event.5 }
			}	
		}
	}
}

#20380001: Child informed about hating training
character_event = {
	id = job_martial_event.5
	desc = "EVTDESCjob_martial_event.5"
	picture = GFX_evt_child_sword
	
	is_triggered_only = yes
	
	option = {
		name = "EVTOPTAjob_martial_event.5"
		if = {
			limit = { has_character_flag = craven }
			add_trait = craven
		}
		if = {
			limit = { has_character_flag = slothful }
			add_trait = slothful
		}
		if = {
			limit = { has_character_flag = wroth }
			add_trait = wroth
		}
		if = {
			limit = { has_character_flag = stressed }
			add_trait = stressed
		}
		if = {
			limit = { has_character_flag = scholar }
			add_trait = scholar
		}
		hidden_tooltip = { 
			FROM = { liege = { letter_event = { id = job_martial_event.6 } } }
		} 
	}
	
}	

#20380: Liege gets a letter about child hating training
letter_event = {
	id = job_martial_event.6
	desc = "EVTDESCjob_martial_event.6"
	picture = GFX_evt_child_sword
	
	is_triggered_only = yes
	
	show_from_from = yes
	
	trigger = { NOT = { character = FROM } }
	
	option = {
		name = "EVTOPTAjob_martial_event.6"
		FROM = {
			if = {
				limit = { has_character_flag = craven }
				add_trait =craven
				clr_character_flag = craven
			}
			if = {
				limit = { has_character_flag = slothful }
				add_trait = slothful
				clr_character_flag = slothful
			}
			if = {
				limit = { has_character_flag = wroth }
				add_trait = wroth
				clr_character_flag = wroth
			}
			if = {
				limit = { has_character_flag = stressed }
				add_trait = stressed
				clr_character_flag = stressed
			}
			if = {
				limit = { has_character_flag = scholar }
				add_trait = scholar
				clr_character_flag = scholar
			}
		}
	}
}

# #20381: Liege gets a letter about Marshal being maimed
# letter_event = {
	# id = 20381
	# desc = "EVTDESC20381"
	
	# is_triggered_only = yes
	
	# option = {
		# name = "EVTOPTA20381"
		# tooltip = {
			# FROM = { add_trait = maimed }
		# }
	# }
# }


# 939: Military Secrets Revealed!
#character_event = {
#	id = 939
#	title = "EVTNAME939"
#	desc = "EVTDESC939"
#	picture = GFX_evt_large_army
#	
#	#only_men = yes
#	capable_only = yes
#	prisoner = no
#	
#	trigger = {
#		has_job_action = action_advance_mil_tech
#		location = {
#			owner = {
#				job_marshal = {
#					character = ROOT
#				}
#			}
#		}		
#		location = {
#			any_province_lord = {
#				NOT = { is_liege_of = ROOT }
#				NOT = { character = ROOT }
#				martial = 8
#				OR = {
#					trait = gregarious
#					diplomacy = 7
#				}
#				opinion = { who = ROOT value = 30 }
#			}
#		}
#		OR = {
#			NOT = { has_character_flag = job_action_sabotage }
#			had_character_flag = {
#				flag = job_action_sabotage
#				days = 1825
#			}	
#		}
#	}
#	
#	mean_time_to_happen = {
#		months = 1000
#		
#		modifier = {
#			factor = 1.25
#			NOT = { martial = 2 }
#		}
#		modifier = {
#			factor = 1.25
#			NOT = { martial = 3 }
#		}
#		modifier = {
#			factor = 1.25
#			NOT = { martial = 4 }
#		}
#		modifier = {
#			factor = 1.25
#			NOT = { martial = 5 }
#		}
#		modifier = {
#			factor = 0.75
#			martial = 10
#		}
#		modifier = {
#			factor = 0.75
#			martial = 11
#		}
#		modifier = {
#			factor = 0.75
#			martial = 12
#		}
#		modifier = {
#			factor = 0.75
#			martial = 13
#		}
#	}
#	
#	option = {
#		name = "EVTOPTA939"
#		location = {
#			random_province_lord = {
#				limit = {
#					NOT = { is_liege_of = ROOT }
#					martial = 8
#					OR = {
#						trait = gregarious
#						diplomacy = 7
#					}
#					opinion = { who = ROOT value = 30 }
#				}
#				character_event = { id = 20390 days = 3 tooltip = "EVTTOOLTIP20390" }
#			}
#		}
#	}
#}

# #20390: Noble helps
# character_event = {
	# id = 20390
	# desc = "EVTDESC20390"
	# picture = GFX_evt_large_army
	
	# is_triggered_only = yes
	
	# option = {
		# name = "EVTOPTA20390"
		# ai_chance = {
			# factor = 75
			# modifier = {
				# factor = 1.5
				# opinion = { who = FROM value = 40 }
			# }
			# modifier = {
				# factor = 1.5
				# opinion = { who = FROM value = 50 }
			# }
			# modifier = {
				# factor = 1.5
				# opinion = { who = FROM value = 60 }
			# }
		# }
		# FROM = {
			# character_event = { id = 20391 days = 3 tooltip = "EVTTOOLTIP20391" }
		# }
	# }
	
	# option = {
		# name = "EVTOPTB20390"
		# ai_chance = { factor = 25 }
	# }
# }

# #20391: Marshal
# character_event = {
	# id = 20391
	# desc = "EVTDESC20391"
	# picture = GFX_evt_large_army
	
	# is_triggered_only = yes
	
	# option = {
		# name = "EVTOPTA20391"
		# FROM = {
			# reverse_opinion = {
				# modifier = opinion_grateful
				# who = ROOT
				# years = 2
			# }
		# }
		# liege = { letter_event = { id = 20392 days = 1 tooltip = "EVTTOOLTIP20392" } }
	# }
# }

# #20392: Liege
# letter_event = {
	# id = 20392
	# desc = "EVTDESC20392"
	# picture = GFX_evt_large_army
	
	# is_triggered_only = yes
	
	# option = {
		# name = "EVTOPTA20392"
		# FROM = {
			# location = { change_random_mil_tech = 1 }
		# }
		# FROM = {
			# FROM = {
				# reverse_opinion = {
					# modifier = opinion_grateful
					# who = ROOT
					# years = 2
				# }
			# }
		# }
	# }
# }


##############################
# MARSHAL
# JOB: action_train_troops 
##############################

# 941: Reinforcements Arrives
character_event = {
	id = 941
	title = "EVTNAME941"
	desc = "EVTDESC941"
	picture = GFX_evt_large_army
	
	#only_men = yes
	capable_only = yes
	prisoner = no
	has_job_title = yes
	
	trigger = {
		has_job_action = action_train_troops
		NOT = { is_inaccessible_trigger = yes }
		location = {
			owner = {
				job_marshal = {
					character = ROOT
				}
			}
			NOT = { has_province_modifier = levy_reinforcements }
		}
	}
	
	mean_time_to_happen = {
		months = 240
	
		modifier = {
			factor = 1.25
			NOT = { martial = 2 }
		}
		modifier = {
			factor = 1.25
			NOT = { martial = 3 }
		}
		modifier = {
			factor = 1.25
			NOT = { martial = 4 }
		}
		modifier = {
			factor = 1.25
			NOT = { martial = 5 }
		}
		modifier = {
			factor = 0.9
			martial = 10
		}
		modifier = {
			factor = 0.9
			martial = 11
		}
		modifier = {
			factor = 0.8
			martial = 12
		}
		modifier = {
			factor = 0.8
			martial = 13
		}
		modifier = {
			factor = 0.8
			martial = 14
		}
		modifier = {
			factor = 0.8
			martial = 16
		}
		modifier = {
			factor = 0.8
			martial = 18
		}
		modifier = {
			factor = 0.8
			martial = 20
		}
		modifier = {
			factor = 0.8
			martial = 22
		}
		modifier = {
			factor = 0.8
			martial = 24
		}
		modifier = {
			factor = 0.8
			martial = 26
		}
		modifier = {
			factor = 0.8
			martial = 28
		}
		modifier = {
			factor = 2
			has_character_flag = job_action_sabotage
			NOT = {
				had_character_flag = {
					flag = job_action_sabotage
					days = 1825
				}
			}	
		}
	}
	
	option = {
		name = "EVTOPTA941"
		liege = { letter_event = { id = 20410 days = 1 tooltip = "EVTTOOLTIP20410" } }
		hidden_tooltip = { change_variable = { which = "services_rendered" value = 1 } }
	}
}

# 20410: Liege
letter_event = {
	id = 20410
	desc = "EVTDESC20410"
	
	is_triggered_only = yes
	
	trigger = { FROM = { is_alive = yes } }
	
	option = {
		name = "EVTOPTA20410"
		FROM = {
			location = {
				add_province_modifier = {
					name = levy_reinforcements
					duration = 365
				}
				if = {
					limit = {
						has_dlc = "Reapers"
					}
					custom_tooltip = {
						text = increase_prosperity_custom_tooltip
						hidden_tooltip = {
							FROM = {
								location = {
									change_variable = { which = prosperity_value value = 6 }
								}
							}
						}
					}
				}
			}
		}
		hidden_tooltip = {
			opinion = {
				modifier = opinion_service_rendered
				who = FROM
				years = 3
			}
		}
	}
}


# 942: Marshal tries to train troops, noble interferes
character_event = {
	id = 942
	title = "EVTNAME942"
	desc = "EVTDESC942"
	picture = GFX_evt_large_army
	
	#only_men = yes
	capable_only = yes
	prisoner = no
	has_job_title = yes
	
	trigger = {
		has_job_action = action_train_troops
		NOT = { is_inaccessible_trigger = yes }
		location = {
			owner = {
				job_marshal = {
					character = ROOT
				}
			}
		}
		location = {
			any_province_lord = {
				NOT = { character = ROOT }
				NOT = { is_liege_of = ROOT }
				independent = no
				OR = {
					trait = ambitious
					trait = deceitful
				}
			}
			NOT = { has_province_modifier = levy_reinforcements }
		}
	}
	
	mean_time_to_happen = {
		months = 240

		modifier = {
			factor = 0.8
			NOT = { martial = 2 }
		}
		modifier = {
			factor = 0.8
			NOT = { martial = 3 }
		}
		modifier = {
			factor = 0.8
			NOT = { martial = 4 }
		}
		modifier = {
			factor = 0.8
			NOT = { martial = 5 }
		}
		modifier = {
			factor = 1.11
			martial = 10
		}
		modifier = {
			factor = 1.11
			martial = 11
		}
		modifier = {
			factor = 1.25
			martial = 12
		}
		modifier = {
			factor = 1.25
			martial = 13
		}
		modifier = {
			factor = 1.25
			martial = 14
		}
		modifier = {
			factor = 1.25
			martial = 16
		}
		modifier = {
			factor = 1.25
			martial = 18
		}
		modifier = {
			factor = 1.25
			martial = 20
		}
	}
	
	option = {
		name = "EVTOPTA942"
		location = {
			random_province_lord = {
				limit = {
					NOT = { character = ROOT }
					NOT = { is_liege_of = ROOT }
					independent = no
					OR = {
						trait = ambitious
						trait = deceitful
					}
				}
				character_event = { id = 20420 days = 1 tooltip = "EVTTOOLTIP20420" }
			}
		}
	}
}

#20420: Noble reacts
character_event = {
	id = 20420
	desc = "EVTDESC20420"
	picture = GFX_evt_council
	
	is_triggered_only = yes
	
	trigger = { FROM = { is_alive = yes } }
	
	option = {
		name = "EVTOPTA20420"
		ai_chance = { factor = 100 }
		FROM = {
			liege = {
				random = {
					chance = 50
					opinion = {
						modifier = opinion_angry
						who = ROOT
						years = 1
					}
					letter_event = { id = 20421 days = 1 tooltip = "EVTTOOLTIP20421" }
				}
			}
		}
	}
	option = {
		name = "EVTOPTB20420"
		ai_chance = { factor = 0 }
	}
}

#20421: Marshal writes to Liege
letter_event = {
	id = 20421
	desc = "EVTDESC20421"
	
	show_from_from = yes
	
	is_triggered_only = yes
	
	trigger = { FROM = { is_alive = yes } }
	
	option = {
		name = "EVTOPTA20421"
		FROM = {
			FROM = {
				location = {
					add_province_modifier = {
						name = missing_reinforcements
						duration = 180
					}
				}
			}
		}
		hidden_tooltip = {
			remove_opinion = {
				modifier = opinion_angry
				who = FROM
			}
		}
		opinion = {
			modifier = opinion_angry
			who = FROM
			years = 1
		}
	}
}

##############################
# MARSHAL
# JOB: action_organize_raid
##############################

# 20221: The Marshal has managed to raise an eager force of raiders
character_event = {
	id = 20221
	title = EVTNAME20221
	desc = EVTDESC20221
	picture = GFX_evt_battle
	border = GFX_event_normal_frame_war

	capable_only = yes
	prisoner = no
	has_job_title = yes
	
	trigger = {
		has_job_action = action_organize_raid
		NOT = { is_inaccessible_trigger = yes }
		liege = {
			is_adult = yes
			prisoner = no
			NOT = { trait = incapable }
			OR = {
				NOT = { has_character_flag = tribal_organize_raid_troops }
				had_character_flag = { flag = tribal_organize_raid_troops days = 3650 }
			}
			war = no
		}	
		location = {
			county = {
				is_occupied = no
			}
			ROOT = {
				liege = {
					is_capital = PREVPREV
				}
			}
		}
	}
	
	mean_time_to_happen = {
		months = 120
		
		modifier = {
			factor = 3.0
			liege = {
				tier = count
			}
		}
		modifier = {
			factor = 0.75
			liege = {
				any_owned_bloodline = {
					has_bloodline_flag = more_raiders_bloodline
					bloodline_is_active_for = PREV
				}
			}
		}
		
		modifier = {
			factor = 1.25
			NOT = { martial = 2 }
		}
		modifier = {
			factor = 1.25
			NOT = { martial = 3 }
		}
		modifier = {
			factor = 1.25
			NOT = { martial = 4 }
		}
		modifier = {
			factor = 1.25
			NOT = { martial = 5 }
		}
		modifier = {
			factor = 0.9
			martial = 10
		}
		modifier = {
			factor = 0.9
			martial = 11
		}
		modifier = {
			factor = 0.8
			martial = 12
		}
		modifier = {
			factor = 0.8
			martial = 13
		}
		modifier = {
			factor = 0.8
			martial = 14
		}
		modifier = {
			factor = 0.8
			martial = 16
		}
		modifier = {
			factor = 0.8
			martial = 18
		}
		modifier = {
			factor = 0.8
			martial = 20
		}
		modifier = {
			factor = 0.8
			martial = 22
		}
		modifier = {
			factor = 0.8
			martial = 24
		}
		modifier = {
			factor = 0.8
			martial = 26
		}
		modifier = {
			factor = 0.8
			martial = 28
		}
		modifier = {
			factor = 2
			has_character_flag = job_action_sabotage
			NOT = {
				had_character_flag = {
					flag = job_action_sabotage
					days = 1825
				}
			}	
		}
	}
	
	option = {
		name = EVTOPTA20221
		
		prestige = 50
		hidden_tooltip  = {
			liege = { character_event = { id = 20222 } }
			change_variable = { which = "services_rendered" value = 1 }
		}
	}
}

# 20222: The liege is informed
character_event = {
	id = 20222
	desc = EVTDESC20222
	picture = GFX_evt_battle
	border = GFX_event_normal_frame_war
	
	is_triggered_only = yes
	
	immediate = {
		opinion = {
			modifier = opinion_service_rendered
			who = FROM
			years = 3
		}
		capital_scope = {
			if = { 
				limit = {
					ROOT = { 
						NOT = {
							any_owned_bloodline = {
								has_bloodline_flag = more_raiders_bloodline
								bloodline_is_active_for = PREV
							}
						}
					}
				}
				ROOT = {
					spawn_unit = {
						province = PREV
						home = PREV
						owner = THIS
						#leader = none
						match_character = THIS
						match_mult = 0.025
						match_min = 100
						match_max = 3000
						attrition = 1.0
						cannot_inherit = yes
						earmark = tribal_organize_raid
						is_looter = yes
						can_toggle_looting = no
					}
					spawn_unit = {
						province = PREV
						home = PREV
						owner = THIS
						#leader = none
						match_character = THIS
						match_mult = 0.025
						match_min = 100
						match_max = 3000
						attrition = 1.0
						cannot_inherit = yes
						earmark = tribal_organize_raid
						is_looter = yes
						can_toggle_looting = no
					}
					spawn_unit = {
						province = PREV
						home = PREV
						owner = THIS
						#leader = none
						match_character = THIS
						match_mult = 0.025
						match_min = 100
						match_max = 3000
						attrition = 1.0
						cannot_inherit = yes
						earmark = tribal_organize_raid
						is_looter = yes
						can_toggle_looting = no
					}
				}
			}
			if = { 
				limit = {
					ROOT = { 
						any_owned_bloodline = {
							has_bloodline_flag = more_raiders_bloodline
							bloodline_is_active_for = PREV
						}
					}
				}
				ROOT = {
					spawn_unit = {
						province = PREV
						home = PREV
						owner = THIS
						#leader = none
						match_character = THIS
						match_mult = 0.03
						match_min = 250
						match_max = 5000
						attrition = 1.0
						cannot_inherit = yes
						earmark = tribal_organize_raid
						is_looter = yes
						can_toggle_looting = no
					}
					spawn_unit = {
						province = PREV
						home = PREV
						owner = THIS
						#leader = none
						match_character = THIS
						match_mult = 0.03
						match_min = 250
						match_max = 5000
						attrition = 1.0
						cannot_inherit = yes
						earmark = tribal_organize_raid
						is_looter = yes
						can_toggle_looting = no
					}
					spawn_unit = {
						province = PREV
						home = PREV
						owner = THIS
						#leader = none
						match_character = THIS
						match_mult = 0.03
						match_min = 250
						match_max = 5000
						attrition = 1.0
						cannot_inherit = yes
						earmark = tribal_organize_raid
						is_looter = yes
						can_toggle_looting = no
					}
				}
			}
		}
		
		clr_character_flag = tribal_organize_raid_troops
		set_character_flag = tribal_organize_raid_troops
		
		character_event = { id = 20223 days = 240 }
	}
	
	option = {
		name = EVTOPTA20222
		opinion = {
			who = FROM
			modifier = opinion_grateful
			months = 60
		}
				ROOT = {
					spawn_unit = {
						province = PREV
						home = PREV
						owner = THIS
						#leader = none
						match_character = THIS
						match_mult = 0.025
						match_min = 100
						match_max = 3000
						attrition = 1.0
						cannot_inherit = yes
						earmark = tribal_organize_raid
						is_looter = yes
						can_toggle_looting = no
					}
					}
	}
}

# 20223: Hidden ping event to check the status of the raiders
character_event = {
	id = 20223
	
	hide_window = yes
	
	is_triggered_only = yes
	
	immediate = {
		if = {
			limit = {
				has_earmarked_regiments_not_raiding = tribal_organize_raid
				NOT = { 
					any_war = {
						attacker = { character = ROOT }
						using_cb = dothraki_raid
					}
				}
			}
			if = {
				limit = {
					had_character_flag = { flag = tribal_organize_raid_troops days = 240 }
				}
				character_event = { id = 20224 }
			}
			if = {
				limit = {
					NOT = { had_character_flag = { flag = tribal_organize_raid_troops days = 240 } }
				}
				character_event = { id = 20223 days = 60 }
			}
		}
	}
}

# 20224: The men are displeased and disband
character_event = {
	id = 20224
	desc = EVTDESC20224
	picture = GFX_evt_battle
	border = GFX_event_normal_frame_war
	
	is_triggered_only = yes
	
	option = {
		name = EVTOPTA20224
		scaled_wealth = { value = -0.5 min = -5 max = -100 }
		clr_character_flag = tribal_organize_raid_troops
		disband_event_forces = tribal_organize_raid
	}
}
