namespace = iron_throne

#Special events for Iron Throne/Westeros

#iron_throne.1 #Kingsroad Network
#iron_throne.10 #Build Summerhall

###Kingsroad Network###
#Pick Route
character_event = {
	id = iron_throne.1
	picture = "GFX_evt_castle_construction"
	
	is_triggered_only = yes
	
	desc = { #First time text
		text = EVTDESCiron_throne.1
		trigger = { NOT = { had_global_flag = { flag = building_westeros_road_network days = 2 } } }
	}
	desc = {
		text = EVTDESCiron_throne.1B
		trigger = { had_global_flag = { flag = building_westeros_road_network days = 2 } }
	}
	
	#Find Route to build
	#There is a route between each node in Westeros, built in sequence from the King's capital_scope
	# The nodes are:
	# AND = {
		# province_id = 226 #King's Landing
		# has_province_flag = kings_landing_established  #Needs to be built
	# }
	# province_id = 304 #Storm's End	
	# province_id = 107 / 97 #Harrenhal/Lord Harroway's Town
	# province_id = 182 / 183 #Casterly Rock/Lannisport
	# province_id = 267 #Highgarden
	# province_id = 286 #Oldtown
	# province_id = 47 #Winterfell
	# province_id = 136 #The Eyrie
	# province_id = 78 / 77 #The Neck (Freylands/The Twins)
	
	option = { #King's Landing-Storm's End
		name = "EVTOPTAiron_throne.1" 	
		trigger = {
			226 = { has_province_flag = kings_landing_established }
			OR = {
				capital_scope = { 
					OR = {
						province_id = 226 #King's Landing
						province_id = 304 #Storm's End
					}
				}
				e_iron_throne = {
					OR = {
						has_title_flag = road_kings_landing_harroways_town
						has_title_flag = road_kings_landing_gold_road
						has_title_flag = road_kings_landing_rose_road
						has_title_flag = road_storms_end_highgarden
						has_title_flag = road_storms_end_lannisport
					}
				}
			}	
			e_iron_throne = { NOT = { has_title_flag = road_kings_landing_storms_end } }
			304 = { #storm's end
				owner = { same_realm = ROOT }
			}
			299 = { #parchments
				owner = { same_realm = ROOT }
			}
			296 = { #bronzegate
				owner = { same_realm = ROOT }
			}
			232 = { #wendwater
				owner = { same_realm = ROOT }
			}
			226 = { #king's landing
				owner = { same_realm = ROOT }
			}
			1203 = { #king's landing
				owner = { same_realm = ROOT }
			}
		}
		wealth = -100
		e_iron_throne = { 
			set_title_flag = building_road_network 
			set_title_flag = road_kings_landing_storms_end
			set_title_flag = building_road_kings_landing_storms_end
		}
	}
	
	option = { #King's Landing-Lord Harroway's Town
		name = "EVTOPTBiron_throne.1" 	
		trigger = {
			226 = { has_province_flag = kings_landing_established }
			OR = {
				capital_scope = { 
					OR = {
						province_id = 226 #King's Landing
						province_id = 107 #Harrenhal
						province_id = 97  #Lord Harroway's Town
					}
				}
				e_iron_throne = {
					OR = {
						has_title_flag = road_kings_landing_storms_end
						has_title_flag = road_kings_landing_gold_road
						has_title_flag = road_kings_landing_rose_road
						has_title_flag = road_river_road
						has_title_flag = road_neck_road
						has_title_flag = road_high_road
						has_title_flag = road_harroways_town_storms_end
						has_title_flag = road_harroways_town_highgarden
					}
				}
			}
			e_iron_throne = { NOT = { has_title_flag = road_kings_landing_harroways_town } }
			226 = { #king's landing
				owner = { same_realm = ROOT }
			}
			1203 = { #king's landing
				owner = { same_realm = ROOT }
			}
			225 = { #stokeworth
				owner = { same_realm = ROOT }
			}
			210 = { #rollingford
				owner = { same_realm = ROOT }
			}
			205 = { #sow's horn
				owner = { same_realm = ROOT }
			}
			116 = { #butterwell
				owner = { same_realm = ROOT }
			}
			107 = { #harrenhal
				owner = { same_realm = ROOT }
			}
			97 = { #lord harroway's town
				owner = { same_realm = ROOT }
			}
		}
		wealth = -100
		e_iron_throne = { 
			set_title_flag = building_road_network 
			set_title_flag = road_kings_landing_harroways_town
			set_title_flag = building_road_kings_landing_harroways_town
		}
	}
	
	option = { #King's Landing-Lannisport (Gold Road)
		name = "EVTOPTCiron_throne.1" 	
		trigger = {
			226 = { has_province_flag = kings_landing_established }
			OR = {
				capital_scope = { 
					OR = {
						province_id = 226 #King's Landing
						province_id = 182 #Casterly Rock
						province_id = 183 #Lannisport
					}
				}
				e_iron_throne = {
					OR = {
						has_title_flag = road_kings_landing_storms_end
						has_title_flag = road_kings_landing_harroways_town
						has_title_flag = road_kings_landing_rose_road
						has_title_flag = road_river_road
						has_title_flag = road_ocean_road
						has_title_flag = road_storms_end_lannisport
					}
				}
			}
			e_iron_throne = { NOT = { has_title_flag = road_kings_landing_gold_road } }
			182 = { #casterly rock
				owner = { same_realm = ROOT }
			}
			183 = { #lannisport
				owner = { same_realm = ROOT }
			}
			184 = { #tendring
				owner = { same_realm = ROOT }
			}
			1132 = { #moreland
				owner = { same_realm = ROOT }
			}
			191 = { #deep den
				owner = { same_realm = ROOT }
			}
			192 = { #drox castle
				owner = { same_realm = ROOT }
			}
			194 = { #payne hall
				owner = { same_realm = ROOT }
			}
			202 = { #byford
				owner = { same_realm = ROOT }
			}
			222 = { #bramsfort
				owner = { same_realm = ROOT }
			}
			226 = { #king's landing
				owner = { same_realm = ROOT }
			}
			1203 = { #king's landing
				owner = { same_realm = ROOT }
			}
		}
		wealth = -100
		e_iron_throne = { 
			set_title_flag = building_road_network 
			set_title_flag = road_kings_landing_gold_road
			set_title_flag = building_road_kings_landing_gold_road
		}
	}
	option = { #King's Landing-Highgarden (Rose Road)
		name = "EVTOPTDiron_throne.1" 	
		trigger = {
			226 = { has_province_flag = kings_landing_established }
			OR = {
				capital_scope = { 
					OR = {
						province_id = 226 #King's Landing
						province_id = 267 #Highgarden
					}
				}
				e_iron_throne = {
					OR = {
						has_title_flag = road_kings_landing_storms_end
						has_title_flag = road_kings_landing_harroways_town
						has_title_flag = road_kings_landing_gold_road
						has_title_flag = road_oldtown_highgarden
						has_title_flag = road_ocean_road
						has_title_flag = road_harroways_town_highgarden
						has_title_flag = road_storms_end_highgarden
					}
				}
			}
			e_iron_throne = { NOT = { has_title_flag = road_kings_landing_rose_road } }
			226 = { #king's landing
				owner = { same_realm = ROOT }
			}
			1203 = { #king's landing
				owner = { same_realm = ROOT }
			}
			295 = { #langward hall
				owner = { same_realm = ROOT }
			}
			227 = { #dalston keep
				owner = { same_realm = ROOT }
			}
			255 = { #roseford
				owner = { same_realm = ROOT }
			}
			253 = { #bitterbridge
				owner = { same_realm = ROOT }
			}
			254 = { #longtable
				owner = { same_realm = ROOT }
			}
			256 = { #inchfield
				owner = { same_realm = ROOT }
			}
			267 = { #highgarden
				owner = { same_realm = ROOT }
			}
		}
		wealth = -100
		e_iron_throne = { 
			set_title_flag = building_road_network 
			set_title_flag = road_kings_landing_rose_road
			set_title_flag = building_road_kings_landing_rose_road
		}
	}
	option = { #Oldtown-Highgarden
		name = "EVTOPTEiron_throne.1" 	
		trigger = {
			OR = {
				capital_scope = { 
					OR = {
						province_id = 286 #Oldtown
						province_id = 267 #Highgarden
					}
				}
				e_iron_throne = {
					OR = {
						has_title_flag = road_kings_landing_rose_road
						has_title_flag = road_ocean_road
						has_title_flag = road_harroways_town_highgarden
						has_title_flag = road_storms_end_highgarden
					}
				}
			}
			e_iron_throne = { NOT = { has_title_flag = road_oldtown_highgarden } }
			267 = { #highgarden
				owner = { same_realm = ROOT }
			}
			276 = { #middlebury
				owner = { same_realm = ROOT }
			}
			275 = { #darkdell
				owner = { same_realm = ROOT }
			}
			284 = { #sommerset
				owner = { same_realm = ROOT }
			}
			283 = { #honeyholt
				owner = { same_realm = ROOT }
			}
			286 = { #oldtown
				owner = { same_realm = ROOT }
			}
			1202 = { #oldtown
				owner = { same_realm = ROOT }
			}
		}
		wealth = -100
		e_iron_throne = { 
			set_title_flag = building_road_network 
			set_title_flag = road_oldtown_highgarden
			set_title_flag = building_road_oldtown_highgarden
		}
	}
	option = { #Lord Harroway's Town/Harrenhal - Lannisport (River Road)
		name = "EVTOPTFiron_throne.1" 	
		trigger = {
			OR = {
				capital_scope = { 
					OR = {
						province_id = 101 #Riverrun
						province_id = 107 #Harrenhal
						province_id = 97  #Lord Harroway's Town
						province_id = 182 #Casterly Rock
						province_id = 183 #Lannisport
					}	
				}
				e_iron_throne = {
					OR = {
						has_title_flag = road_kings_landing_harroways_town
						has_title_flag = road_kings_landing_gold_road
						has_title_flag = road_neck_road
						has_title_flag = road_ocean_road
						has_title_flag = road_high_road
						has_title_flag = road_harroways_town_storms_end
						has_title_flag = road_harroways_town_highgarden
						has_title_flag = road_storms_end_lannisport
					}
				}
			}
			e_iron_throne = { NOT = { has_title_flag = road_river_road } }
			97 = { #lord harroway's town
				owner = { same_realm = ROOT }
			}
			96 = { #lychester
				owner = { same_realm = ROOT }
			}
			91 = { #stone hedge
				owner = { same_realm = ROOT }
			}
			101 = { #riverrun
				owner = { same_realm = ROOT }
			}
			102 = { #branstone
				owner = { same_realm = ROOT }
			}
			175 = { #nunn's deep
				owner = { same_realm = ROOT }
			}
			174 = { #golden tooth
				owner = { same_realm = ROOT }
			}
			176 = { #oxcross
				owner = { same_realm = ROOT }
			}
			178 = { #sarsfield
				owner = { same_realm = ROOT }
			}
			182 = { #casterly rock
				owner = { same_realm = ROOT }
			}
			183 = { #lannisport
				owner = { same_realm = ROOT }
			}
		}
		wealth = -100
		e_iron_throne = { 
			set_title_flag = building_road_network 
			set_title_flag = road_river_road
			set_title_flag = building_road_river_road
		}
	}
	option = { #Lord Harroway's Town/Harrenhal - The Neck
		name = "EVTOPTGiron_throne.1" 	
		trigger = {
			OR = {
				capital_scope = { 
					OR = {
						province_id = 107 #Harrenhal
						province_id = 97  #Lord Harroway's Town
						province_id = 78  #Freylands
						province_id = 77 #The Twins
					}	
				}
				e_iron_throne = {
					OR = {
						has_title_flag = road_kings_landing_harroways_town
						has_title_flag = road_river_road
						has_title_flag = road_north_road
						has_title_flag = road_high_road
						has_title_flag = road_harroways_town_storms_end
						has_title_flag = road_harroways_town_highgarden
					}
				}
			}
			e_iron_throne = { NOT = { has_title_flag = road_neck_road } }
			108 = { #Darry
				owner = { same_realm = ROOT }
			}
			84 = { #wycombe
				owner = { same_realm = ROOT }
			}
			83 = { #erenford
				owner = { same_realm = ROOT }
			}
			78 = { #freylands
				owner = { same_realm = ROOT }
			}
		}
		wealth = -100
		e_iron_throne = { 
			set_title_flag = building_road_network 
			set_title_flag = road_neck_road
			set_title_flag = building_road_neck_road
		}
	}
	option = { #Winterfell
		name = "EVTOPTHiron_throne.1" 	
		trigger = {
			OR = {
				capital_scope = { 
					OR = {
						province_id = 47 #Winterfell
						province_id = 78 #The Freylands
						province_id = 77 #The Twins
					}	
				}
				e_iron_throne = {
					OR = {
						has_title_flag = road_neck_road
					}
				}
			}
			e_iron_throne = { NOT = { has_title_flag = road_north_road } }
			61 = { #whitford
				owner = { same_realm = ROOT }
			}
			57 = { #king's course
				owner = { same_realm = ROOT }
			}
			49 = { #castle cerwyn
				owner = { same_realm = ROOT }
			}
			47 = { #winterfell
				owner = { same_realm = ROOT }
			}
		}
		wealth = -100
		e_iron_throne = { 
			set_title_flag = building_road_network 
			set_title_flag = road_north_road
			set_title_flag = building_road_north_road
		}
	}
	option = { #Ocean Road
		name = "EVTOPTIiron_throne.1" 	
		trigger = {
			OR = {
				capital_scope = { 
					OR = {
						province_id = 267 #Highgarden
						province_id = 182 #Casterly Rock
						province_id = 183 #Lannisport
					}	
				}
				e_iron_throne = {
					OR = {
						has_title_flag = road_kings_landing_gold_road
						has_title_flag = road_kings_landing_rose_road
						has_title_flag = road_oldtown_highgarden
						has_title_flag = road_river_road
						has_title_flag = road_harroways_town_highgarden
						has_title_flag = road_storms_end_highgarden
						has_title_flag = road_storms_end_lannisport
					}
				}
			}
			e_iron_throne = { NOT = { has_title_flag = road_ocean_road } }
			267 = { #highgarden
				owner = { same_realm = ROOT }
			}
			265 = { #westbrook
				owner = { same_realm = ROOT }
			}
			240 = { #catswold
				owner = { same_realm = ROOT }
			}
			235 = { #old oak
				owner = { same_realm = ROOT }
			}
			197 = { #crakehall
				owner = { same_realm = ROOT }
			}
			185 = { #hawthorne
				owner = { same_realm = ROOT }
			}
			183 = { #lannisport
				owner = { same_realm = ROOT }
			}
			182 = { #casterly rock
				owner = { same_realm = ROOT }
			}
		}
		wealth = -100
		e_iron_throne = { 
			set_title_flag = building_road_network 
			set_title_flag = road_ocean_road
			set_title_flag = building_road_ocean_road
		}
	}
	option = { #High Road
		name = "EVTOPTJiron_throne.1" 	
		trigger = {
			OR = {
				capital_scope = { 
					OR = {
						province_id = 107 #Harrenhal
						province_id = 97  #Lord Harroway's Town
						province_id = 136 #The Eyrie
					}	
				}
				e_iron_throne = {
					OR = {
						has_title_flag = road_kings_landing_harroways_town
						has_title_flag = road_river_road
						has_title_flag = road_neck_road
						has_title_flag = road_harroways_town_storms_end
						has_title_flag = road_harroways_town_highgarden
					}
				}
			}
			e_iron_throne = { NOT = { has_title_flag = road_high_road } }
			97 = { #lord harroway's town
				owner = { same_realm = ROOT }
			}
			95 = { #chiltern
				owner = { same_realm = ROOT }
			}
			134 = { #darkmoor
				owner = { same_realm = ROOT }
			}
			140 = { #bloody gate
				owner = { same_realm = ROOT }
			}		
			136 = { #the eyrie
				owner = { same_realm = ROOT }
			}
			1201 = { #the eyrie
				owner = { same_realm = ROOT }
			}
		}
		wealth = -100
		e_iron_throne = { 
			set_title_flag = building_road_network 
			set_title_flag = road_high_road
			set_title_flag = building_road_high_road
		}
	}
	# These road only if King's Landing does not exist
	option = { #Lord Harroway's Town-Storm's End
		name = "EVTOPTKiron_throne.1" 	
		trigger = {
			226 = { NOT = { has_province_flag = kings_landing_established } }
			OR = {
				capital_scope = { 
					OR = {
						province_id = 107 #Harrenhal
						province_id = 97  #Lord Harroway's Town
						province_id = 304 #Storm's End
					}
				}
				e_iron_throne = {
					OR = {
						has_title_flag = road_kings_landing_storms_end
						has_title_flag = road_kings_landing_harroways_town
						has_title_flag = road_river_road
						has_title_flag = road_neck_road
						has_title_flag = road_high_road
						has_title_flag = road_harroways_town_highgarden
						has_title_flag = road_storms_end_highgarden
						has_title_flag = road_storms_end_lannisport
					}
				}
			}	
			e_iron_throne = { NOT = { has_title_flag = road_harroways_town_storms_end } }
			304 = { #storm's end
				owner = { same_realm = ROOT }
			}
			299 = { #parchments
				owner = { same_realm = ROOT }
			}
			296 = { #bronzegate
				owner = { same_realm = ROOT }
			}
			232 = { #wendwater
				owner = { same_realm = ROOT }
			}
			226 = { #king's landing
				owner = { same_realm = ROOT }
			}
			1203 = { #king's landing
				owner = { same_realm = ROOT }
			}
			225 = { #stokeworth
				owner = { same_realm = ROOT }
			}
			210 = { #rollingford
				owner = { same_realm = ROOT }
			}
			205 = { #sow's horn
				owner = { same_realm = ROOT }
			}
			116 = { #butterwell
				owner = { same_realm = ROOT }
			}
			107 = { #harrenhal
				owner = { same_realm = ROOT }
			}
			97 = { #lord harroway's town
				owner = { same_realm = ROOT }
			}
		}
		wealth = -200
		e_iron_throne = { 
			set_title_flag = building_road_network 
			set_title_flag = road_harroways_town_storms_end
			set_title_flag = building_road_harroways_town_storms_end
		}
	}
	option = { #Lord Harroway's Town-Highgarden
		name = "EVTOPTLiron_throne.1" 	
		trigger = {
			226 = { NOT = { has_province_flag = kings_landing_established } }
			OR = {
				capital_scope = { 
					OR = {
						province_id = 107 #Harrenhal
						province_id = 97  #Lord Harroway's Town
						province_id = 267 #Highgarden
					}
				}
				e_iron_throne = {
					OR = {
						has_title_flag = road_kings_landing_harroways_town
						has_title_flag = road_kings_landing_rose_road
						has_title_flag = road_oldtown_highgarden
						has_title_flag = road_river_road
						has_title_flag = road_neck_road
						has_title_flag = road_ocean_road
						has_title_flag = road_high_road
						has_title_flag = road_harroways_town_storms_end
						has_title_flag = road_harroways_town_highgarden
						has_title_flag = road_storms_end_highgarden
					}
				}
			}	
			e_iron_throne = { NOT = { has_title_flag = road_harroways_town_highgarden } }
			97 = { #lord harroway's town
				owner = { same_realm = ROOT }
			}
			107 = { #harrenhal
				owner = { same_realm = ROOT }
			}
			116 = { #butterwell
				owner = { same_realm = ROOT }
			}
			205 = { #sow's horn
				owner = { same_realm = ROOT }
			}
			210 = { #rollingford
				owner = { same_realm = ROOT }
			}
			225 = { #stokeworth
				owner = { same_realm = ROOT }
			}		
			226 = { #king's landing
				owner = { same_realm = ROOT }
			}
			1203 = { #king's landing
				owner = { same_realm = ROOT }
			}
			295 = { #langward hall
				owner = { same_realm = ROOT }
			}
			227 = { #dalston keep
				owner = { same_realm = ROOT }
			}
			255 = { #roseford
				owner = { same_realm = ROOT }
			}
			253 = { #bitterbridge
				owner = { same_realm = ROOT }
			}
			254 = { #longtable
				owner = { same_realm = ROOT }
			}
			256 = { #inchfield
				owner = { same_realm = ROOT }
			}
			267 = { #highgarden
				owner = { same_realm = ROOT }
			}	
		}
		wealth = -150
		e_iron_throne = { 
			set_title_flag = building_road_network 
			set_title_flag = road_harroways_town_highgarden
			set_title_flag = building_road_harroways_town_highgarden
		}
	}
	#These roads only if in specific capital
	option = { #Storm's End-Highgarden
		name = "EVTOPTMiron_throne.1" 	
		trigger = {
			capital_scope = { 
				OR = {
					province_id = 304 #Storm's End
					province_id = 267 #Highgarden
					province_id = 286 #Oldtown
				}
			}
			e_iron_throne = { NOT = { has_title_flag = road_storms_end_highgarden } }
			267 = { #highgarden
				owner = { same_realm = ROOT }
			}
			268 = { #cider hall
				owner = { same_realm = ROOT }
			}
			269 = { #new barrel
				owner = { same_realm = ROOT }
			}
			270 = { #ashford
				owner = { same_realm = ROOT }
			}
			306 = { #summerhall
				owner = { same_realm = ROOT }
			}
			293 = { #amberly
				owner = { same_realm = ROOT }
			}
			294 = { #felwood
				owner = { same_realm = ROOT }
			}
			301 = { #galemont
				owner = { same_realm = ROOT }
			}
			304 = { #storm's end
				owner = { same_realm = ROOT }
			}
		}
		wealth = -100
		e_iron_throne = { 
			set_title_flag = building_road_network 
			set_title_flag = road_storms_end_highgarden
			set_title_flag = building_road_storms_end_highgarden
		}
	}
	option = { #Storm's End-Lannisport
		name = "EVTOPTNiron_throne.1" 	
		trigger = {
			226 = { NOT = { has_province_flag = kings_landing_established } }
			capital_scope = { 
				OR = {
					province_id = 304 #Storm's End
					province_id = 182 #Casterly Rock
					province_id = 183 #Lannisport
				}
			}	
			e_iron_throne = { NOT = { has_title_flag = road_storms_end_lannisport } }
			182 = { #casterly rock
				owner = { same_realm = ROOT }
			}
			183 = { #lannisport
				owner = { same_realm = ROOT }
			}
			184 = { #tendring
				owner = { same_realm = ROOT }
			}
			1132 = { #moreland
				owner = { same_realm = ROOT }
			}
			191 = { #deep den
				owner = { same_realm = ROOT }
			}
			192 = { #drox castle
				owner = { same_realm = ROOT }
			}
			194 = { #payne hall
				owner = { same_realm = ROOT }
			}
			202 = { #byford
				owner = { same_realm = ROOT }
			}
			222 = { #bramsfort
				owner = { same_realm = ROOT }
			}
			226 = { #king's landing
				owner = { same_realm = ROOT }
			}	
			1203 = { #king's landing
				owner = { same_realm = ROOT }
			}	
			232 = { #wendwater
				owner = { same_realm = ROOT }
			}
			296 = { #bronzegate
				owner = { same_realm = ROOT }
			}
			299 = { #parchments
				owner = { same_realm = ROOT }
			}
			304 = { #storm's end
				owner = { same_realm = ROOT }
			}
			304 = { #storm's end
				owner = { same_realm = ROOT }
			}
		}
		wealth = -150
		e_iron_throne = { 
			set_title_flag = building_road_network 
			set_title_flag = road_storms_end_lannisport
			set_title_flag = building_road_storms_end_lannisport
		}
	}
	
	option = { #Finished
		name = "EVTOPTOiron_throne.1" 	
		trigger = { always = no } #This option will appear if none others available
	}
}	
		
#Road Section Complete
character_event = {
	id = iron_throne.2
	desc = "EVTDESCiron_throne.2"
	picture = GFX_KINGS_LANDING
	
	only_independent = yes
	war = no
	has_global_flag = building_westeros_road_network
	
	trigger = {
		has_landed_title = e_iron_throne		
		e_iron_throne = { has_title_flag = building_road_network }
	}
	
	mean_time_to_happen = {
		months = 36

		modifier = {
			factor = 0.9
			OR = {
				ai = yes
				job_treasurer = { 
					has_job_action = action_oversee_construction
					location = { is_capital = yes }
				}
			}	
		}
		modifier = {
			factor = 1.5
			NOT = { stewardship = 4 }
		}
		modifier = {
			factor = 1.5
			NOT = { stewardship = 7 }
		}
		modifier = {
			factor = 0.9
			stewardship = 12
		}
		modifier = {
			factor = 0.9
			stewardship = 15
		}
		modifier = {
			factor = 0.9
			stewardship = 18
		}
		modifier = {
			factor = 0.9
			stewardship = 21
		}
		modifier = {
			factor = 1.5
			job_castellan = { NOT = { stewardship = 9 } }
		}
		modifier = {
			factor = 1.5
			job_castellan = { NOT = { stewardship = 12 } }
		}
		modifier = {
			factor = 0.9
			job_castellan = { stewardship = 16 }
		}
		modifier = {
			factor = 0.9
			job_castellan = { stewardship = 18 }
		}
		modifier = {
			factor = 0.9
			job_castellan = { stewardship = 20 }
		}
		modifier = {
			factor = 0.9
			job_castellan = { stewardship = 22 }
		}
	}
	
	option = {
		name = "EVTOPTAiron_throne.2"
		job_castellan = {
			prestige = 75
			hidden_tooltip = { 
				change_variable = { which = "services_rendered" value = 1 } 
				reverse_opinion = {
					modifier = opinion_service_rendered
					who = ROOT
					years = 3
				}				
			}
		}
		prestige = 75
		e_iron_throne = { 
			clr_title_flag = building_road_network
			if = {
				limit = { has_title_flag = building_road_kings_landing_storms_end }
				clr_title_flag = building_road_kings_landing_storms_end
				304 = { #storm's end
					add_province_modifier = { name = kingsroad duration = -1 }
					#set_province_flag = kingsroad
					#b_storms_end = { add_building = ca_kingsroad }					
				}
				299 = { #parchments
					add_province_modifier = { name = kingsroad duration = -1 }
					#set_province_flag = kingsroad
					#b_parchments = { add_building = ca_kingsroad }
				}
				296 = { #bronzegate
					add_province_modifier = { name = kingsroad duration = -1 }
					#set_province_flag = kingsroad
					#b_bronzegate = { add_building = ca_kingsroad }
				}
				232 = { #wendwater
					add_province_modifier = { name = kingsroad duration = -1 }
					#set_province_flag = kingsroad
					#b_woodmere = { add_building = ca_kingsroad }
				}
				226 = { #king's landing
					add_province_modifier = { name = kingsroad duration = -1 }
					#set_province_flag = kingsroad
					#b_red_keep = { add_building = ca_kingsroad }
				}
				1203 = { #king's landing
					add_province_modifier = { name = kingsroad duration = -1 }
					#set_province_flag = kingsroad
					#b_red_keep = { add_building = ca_kingsroad }
				}
			}	
			if = {
				limit = { has_title_flag = building_road_kings_landing_harroways_town }
				clr_title_flag = building_road_kings_landing_harroways_town
				226 = { #king's landing
					add_province_modifier = { name = kingsroad duration = -1 }
					#set_province_flag = kingsroad
					#b_red_keep = { add_building = ca_kingsroad }
				}
				1203 = { #king's landing
					add_province_modifier = { name = kingsroad duration = -1 }
					#set_province_flag = kingsroad
					#b_red_keep = { add_building = ca_kingsroad }
				}
				225 = { #stokeworth
					add_province_modifier = { name = kingsroad duration = -1 }
					#set_province_flag = kingsroad
					#b_stokeworth  = { add_building = ca_kingsroad }
				}
				210 = { #rollingford
					add_province_modifier = { name = kingsroad duration = -1 }
					#set_province_flag = kingsroad
					#b_rollingford = { add_building = ca_kingsroad }
				}
				205 = { #sow's horn
					add_province_modifier = { name = kingsroad duration = -1 }
					#set_province_flag = kingsroad
					#b_sows_horn = { add_building = ca_kingsroad }
				}
				116 = { #butterwell
					add_province_modifier = { name = kingsroad duration = -1 }
					#set_province_flag = kingsroad
					#b_shoreham = { add_building = ca_kingsroad }
				}
				107 = { #harrenhal
					add_province_modifier = { name = kingsroad duration = -1 }
					#set_province_flag = kingsroad
					#b_harrenhal = { add_building = ca_kingsroad }
				}
				97 = { #lord harroway's town
					add_province_modifier = { name = kingsroad duration = -1 }
					#set_province_flag = kingsroad
					#b_harroway = { add_building = ca_kingsroad }
				}
			}
			if = {
				limit = { has_title_flag = building_road_kings_landing_gold_road }
				clr_title_flag = building_road_kings_landing_gold_road
				182 = { #casterly rock
					add_province_modifier = { name = goldroad duration = -1 }
					#set_province_flag = goldroad
					#b_casterly_rock = { add_building = ca_goldroad }
				}
				183 = { #lannisport
					add_province_modifier = { name = goldroad duration = -1 }
					#set_province_flag = goldroad
					#b_lannisport = { add_building = ca_goldroad }
				}
				184 = { #tendring
					add_province_modifier = { name = goldroad duration = -1 }
					#set_province_flag = goldroad
					#b_tendring = { add_building = ca_goldroad }
				}
				1132 = { #moreland
					add_province_modifier = { name = goldroad duration = -1 }
					#set_province_flag = goldroad
					#b_moreland_keep = { add_building = ca_goldroad }
				}
				191 = { #deep den
					add_province_modifier = { name = goldroad duration = -1 }
					#set_province_flag = goldroad
					#b_deep_den = { add_building = ca_goldroad }
				}
				192 = { #drox castle
					add_province_modifier = { name = goldroad duration = -1 }
					#set_province_flag = goldroad
					#b_drox_castle = { add_building = ca_goldroad }
				}
				194 = { #payne hall
					add_province_modifier = { name = goldroad duration = -1 }
					#set_province_flag = goldroad
					#b_payne_hall = { add_building = ca_goldroad }
				}
				202 = { #byford
					add_province_modifier = { name = goldroad duration = -1 }
					#set_province_flag = goldroad
					#b_byford = { add_building = ca_goldroad }
				}
				222 = { #bramsfort
					add_province_modifier = { name = goldroad duration = -1 }
					#set_province_flag = goldroad
					#b_bramsfort = { add_building = ca_goldroad }
				}
				226 = { #king's landing
					#set_province_flag = goldroad
					#b_red_keep = { add_building = ca_goldroad }
				}
				1203 = { #king's landing
					#set_province_flag = goldroad
					#b_red_keep = { add_building = ca_goldroad }
				}
			}
			if = {
				limit = { has_title_flag = building_road_kings_landing_rose_road }
				clr_title_flag = building_road_kings_landing_rose_road
				226 = { #king's landing
					#set_province_flag = roseroad
					#b_red_keep = { add_building = ca_roseroad }
				}
				1203 = { #king's landing
					#set_province_flag = roseroad
					#b_red_keep = { add_building = ca_roseroad }
				}
				295 = { #langward hall
					add_province_modifier = { name = roseroad duration = -1 }
					#set_province_flag = roseroad
					#b_langward_hall = { add_building = ca_roseroad }
				}
				227 = { #dalston keep
					add_province_modifier = { name = roseroad duration = -1 }
					#set_province_flag = roseroad
					#b_dalston_keep = { add_building = ca_roseroad }
				}
				255 = { #roseford
					add_province_modifier = { name = roseroad duration = -1 }
					#set_province_flag = roseroad
					#b_rosewatch = { add_building = ca_roseroad }
				}
				253 = { #bitterbridge
					add_province_modifier = { name = roseroad duration = -1 }
					#set_province_flag = roseroad
					#b_caswell_castle = { add_building = ca_roseroad }
				}
				254 = { #longtable
					add_province_modifier = { name = roseroad duration = -1 }
					#set_province_flag = roseroad
					#b_longtable = { add_building = ca_roseroad }
				}
				256 = { #inchfield
					add_province_modifier = { name = roseroad duration = -1 }
					#set_province_flag = roseroad
					#b_inchbrook = { add_building = ca_roseroad }
				}
				267 = { #highgarden
					add_province_modifier = { name = roseroad duration = -1 }
					#set_province_flag = roseroad
					#b_highgarden = { add_building = ca_roseroad }
				}
			}
			if = {
				limit = { has_title_flag = building_road_oldtown_highgarden }
				clr_title_flag = building_road_oldtown_highgarden
				267 = { #highgarden
					add_province_modifier = { name = roseroad duration = -1 }
					#set_province_flag = roseroad
					#b_highgarden = { add_building = ca_roseroad }
				}
				276 = { #middlebury
					add_province_modifier = { name = roseroad duration = -1 }
					#set_province_flag = roseroad
					#b_windflower_keep = { add_building = ca_roseroad }
				}
				275 = { #darkdell
					add_province_modifier = { name = roseroad duration = -1 }
					#set_province_flag = roseroad
					#b_darkdell = { add_building = ca_roseroad }
				}
				284 = { #sommerset
					add_province_modifier = { name = roseroad duration = -1 }
					#set_province_flag = roseroad
					#b_sommerset = { add_building = ca_roseroad }
				}
				283 = { #honeyholt
					add_province_modifier = { name = roseroad duration = -1 }
					#set_province_flag = roseroad
					#b_honeyholt = { add_building = ca_roseroad }
				}
				286 = { #oldtown
					add_province_modifier = { name = roseroad duration = -1 }
					#set_province_flag = roseroad
					#b_the_hightower = { add_building = ca_roseroad }
				}
				1202 = { #oldtown
					add_province_modifier = { name = roseroad duration = -1 }
					#set_province_flag = roseroad
					#b_the_hightower = { add_building = ca_roseroad }
				}
			}
			if = {
				limit = { has_title_flag = building_road_river_road }
				clr_title_flag = building_road_river_road
				97 = { #lord harroway's town
					#set_province_flag = river_road
					#b_harroway = { add_building = ca_river_road }
				}
				96 = { #lychester
					add_province_modifier = { name = river_road duration = -1 }
					#set_province_flag = river_road
					#b_castlelynchester = { add_building = ca_river_road }
				}
				91 = { #stone hedge
					add_province_modifier = { name = river_road duration = -1 }
					#set_province_flag = river_road
					#b_stonehedge = { add_building = ca_river_road }
				}
				101 = { #riverrun
					add_province_modifier = { name = river_road duration = -1 }
					#set_province_flag = river_road
					#b_riverrun = { add_building = ca_river_road }
				}
				102 = { #branstone
					add_province_modifier = { name = river_road duration = -1 }
					#set_province_flag = river_road
					#b_branstoneholdfast = { add_building = ca_river_road }
				}
				175 = { #nunn's deep
					add_province_modifier = { name = river_road duration = -1 }
					#set_province_flag = river_road
					#b_nunns_deep = { add_building = ca_river_road }
				}
				174 = { #golden tooth
					add_province_modifier = { name = river_road duration = -1 }
					#set_province_flag = river_road
					#b_golden_tooth = { add_building = ca_river_road }
				}
				176 = { #oxcross
					add_province_modifier = { name = river_road duration = -1 }
					#set_province_flag = river_road
					#b_oxcross = { add_building = ca_river_road }
				}
				178 = { #sarsfield
					add_province_modifier = { name = river_road duration = -1 }
					#set_province_flag = river_road
					#b_sarsfield = { add_building = ca_river_road }
				}
				182 = { #casterly rock
					#set_province_flag = river_road
					#b_casterly_rock = { add_building = ca_river_road }
				}
				183 = { #lannisport
					#set_province_flag = river_road
					#b_lannisport = { add_building = ca_river_road }
				}
			}
			if = {
				limit = { has_title_flag = building_road_neck_road }
				clr_title_flag = building_road_neck_road
				97 = { #lord harroway's town
					add_province_modifier = { name = kingsroad duration = -1 }
					#set_province_flag = kingsroad
					#b_harroway = { add_building = ca_kingsroad }
				}
				108 = { #Darry
					add_province_modifier = { name = kingsroad duration = -1 }
					#set_province_flag = kingsroad
					#b_castledarry = { add_building = ca_kingsroad }
				}
				84 = { #wycombe
					add_province_modifier = { name = kingsroad duration = -1 }
					#set_province_flag = kingsroad
					#b_wycombe = { add_building = ca_kingsroad }
				}
				83 = { #erenford
					add_province_modifier = { name = kingsroad duration = -1 }
					#set_province_flag = kingsroad
					#b_erenfordhall = { add_building = ca_kingsroad }
				}
				78 = { #freylands
					add_province_modifier = { name = kingsroad duration = -1 }
					#set_province_flag = kingsroad
					#b_sevenstreams = { add_building = ca_kingsroad }
				}
			}
			if = {
				limit = { has_title_flag = building_road_north_road }
				clr_title_flag = building_road_north_road
				61 = { #whitford
					add_province_modifier = { name = kingsroad duration = -1 }
					#set_province_flag = kingsroad
					#b_fordswatch = { add_building = ca_kingsroad }
				}
				57 = { #king's course
					add_province_modifier = { name = kingsroad duration = -1 }
					#set_province_flag = kingsroad
					#b_wayfarerswatch = { add_building = ca_kingsroad }
				}
				49 = { #castle cerwyn
					add_province_modifier = { name = kingsroad duration = -1 }
					#set_province_flag = kingsroad
					#b_castlecerwyn = { add_building = ca_kingsroad }
				}
				47 = { #winterfell
					add_province_modifier = { name = kingsroad duration = -1 }
					#set_province_flag = kingsroad
					#b_winterfell = { add_building = ca_kingsroad }
				}			
			}
			if = {
				limit = { has_title_flag = building_road_ocean_road }
				clr_title_flag = building_road_ocean_road
				267 = { #highgarden
					#set_province_flag = oceanroad
					#b_highgarden = { add_building = ca_oceanroad }
				}
				265 = { #westbrook
					add_province_modifier = { name = oceanroad duration = -1 }
					#set_province_flag = oceanroad
					#b_westbrook = { add_building = ca_oceanroad }
				}
				240 = { #catswold
					add_province_modifier = { name = oceanroad duration = -1 }
					#set_province_flag = oceanroad
					#b_the_brandyhouse = { add_building = ca_oceanroad }
				}
				235 = { #old oak
					add_province_modifier = { name = oceanroad duration = -1 }
					#set_province_flag = oceanroad
					#b_old_oak = { add_building = ca_oceanroad }
				}
				197 = { #crakehall
					add_province_modifier = { name = oceanroad duration = -1 }
					#set_province_flag = oceanroad
					#b_crakehall = { add_building = ca_oceanroad }
				}
				185 = { #hawthorne
					add_province_modifier = { name = oceanroad duration = -1 }
					#set_province_flag = oceanroad
					#b_hawthorn = { add_building = ca_oceanroad }
				}
				183 = { #lannisport
					#set_province_flag = oceanroad
					#b_lannisport = { add_building = ca_oceanroad }
				}
				182 = { #casterly rock
					#set_province_flag = oceanroad
					#b_casterly_rock = { add_building = ca_oceanroad }
				}			
			}
			if = {
				limit = { has_title_flag = building_road_high_road }
				clr_title_flag = building_road_high_road
				97 = { #lord harroway's town
					#set_province_flag = high_road
					#b_harroway = { add_building = ca_high_road }
				}
				95 = { #chiltern
					add_province_modifier = { name = high_road duration = -1 }
					#set_province_flag = high_road
					#b_chilterncastle = { add_building = ca_high_road }
				}
				134 = { #darkmoor
					add_province_modifier = { name = high_road duration = -1 }
					#set_province_flag = high_road
					#b_burning_heath = { add_building = ca_high_road }
				}
				140 = { #bloody gate
					add_province_modifier = { name = high_road duration = -1 }
					#set_province_flag = high_road
					#b_bloody_gate = { add_building = ca_high_road }
				}		
				136 = { #the eyrie
					add_province_modifier = { name = high_road duration = -1 }
					#set_province_flag = high_road
					#b_the_eyrie = { add_building = ca_high_road }
				}		
				1201 = { #the eyrie
					add_province_modifier = { name = high_road duration = -1 }
					#set_province_flag = high_road
					#b_the_eyrie = { add_building = ca_high_road }
				}		
			}
			if = {
				limit = { has_title_flag = building_road_harroways_town_storms_end }
				clr_title_flag = building_road_harroways_town_storms_end
				304 = { #storm's end
					add_province_modifier = { name = kingsroad duration = -1 }
					#set_province_flag = kingsroad
					#b_storms_end = { add_building = ca_kingsroad }					
				}
				299 = { #parchments
					add_province_modifier = { name = kingsroad duration = -1 }
					#set_province_flag = kingsroad
					#b_parchments = { add_building = ca_kingsroad }
				}
				296 = { #bronzegate
					add_province_modifier = { name = kingsroad duration = -1 }
					#set_province_flag = kingsroad
					#b_bronzegate = { add_building = ca_kingsroad }
				}
				232 = { #wendwater
					add_province_modifier = { name = kingsroad duration = -1 }
					#set_province_flag = kingsroad
					#b_woodmere = { add_building = ca_kingsroad }
				}
				226 = { #king's landing
					add_province_modifier = { name = kingsroad duration = -1 }
					#set_province_flag = kingsroad
					#b_red_keep = { add_building = ca_kingsroad }
				}
				1203 = { #king's landing
					add_province_modifier = { name = kingsroad duration = -1 }
					#set_province_flag = kingsroad
					#b_red_keep = { add_building = ca_kingsroad }
				}
				225 = { #stokeworth
					add_province_modifier = { name = kingsroad duration = -1 }
					#set_province_flag = kingsroad
					#b_stokeworth  = { add_building = ca_kingsroad }
				}
				210 = { #rollingford
					add_province_modifier = { name = kingsroad duration = -1 }
					#set_province_flag = kingsroad
					#b_rollingford = { add_building = ca_kingsroad }
				}
				205 = { #sow's horn
					add_province_modifier = { name = kingsroad duration = -1 }
					#set_province_flag = kingsroad
					#b_sows_horn = { add_building = ca_kingsroad }
				}
				116 = { #butterwell
					add_province_modifier = { name = kingsroad duration = -1 }
					#set_province_flag = kingsroad
					#b_shoreham = { add_building = ca_kingsroad }
				}
				107 = { #harrenhal
					add_province_modifier = { name = kingsroad duration = -1 }
					#set_province_flag = kingsroad
					#b_harrenhal = { add_building = ca_kingsroad }
				}
				97 = { #lord harroway's town
					add_province_modifier = { name = kingsroad duration = -1 }
					#set_province_flag = kingsroad
					#b_harroway = { add_building = ca_kingsroad }
				}		
			}
			if = {
				limit = { has_title_flag = building_road_harroways_town_highgarden }
				clr_title_flag = building_road_harroways_town_highgarden
				
				226 = { #king's landing
					add_province_modifier = { name = kingsroad duration = -1 }
					#set_province_flag = kingsroad
					#b_red_keep = { add_building = ca_kingsroad }
				}
				1203 = { #king's landing
					add_province_modifier = { name = kingsroad duration = -1 }
					#set_province_flag = kingsroad
					#b_red_keep = { add_building = ca_kingsroad }
				}
				225 = { #stokeworth
					add_province_modifier = { name = kingsroad duration = -1 }
					#set_province_flag = kingsroad
					#b_stokeworth  = { add_building = ca_kingsroad }
				}
				210 = { #rollingford
					add_province_modifier = { name = kingsroad duration = -1 }
					#set_province_flag = kingsroad
					#b_rollingford = { add_building = ca_kingsroad }
				}
				205 = { #sow's horn
					add_province_modifier = { name = kingsroad duration = -1 }
					#set_province_flag = kingsroad
					#b_sows_horn = { add_building = ca_kingsroad }
				}
				116 = { #butterwell
					add_province_modifier = { name = kingsroad duration = -1 }
					#set_province_flag = kingsroad
					#b_shoreham = { add_building = ca_kingsroad }
				}
				107 = { #harrenhal
					add_province_modifier = { name = kingsroad duration = -1 }
					#set_province_flag = kingsroad
					#b_harrenhal = { add_building = ca_kingsroad }
				}
				97 = { #lord harroway's town
					add_province_modifier = { name = kingsroad duration = -1 }
					#set_province_flag = kingsroad
					#b_harroway = { add_building = ca_kingsroad }
				}
				
				
				
				295 = { #langward hall
					add_province_modifier = { name = roseroad duration = -1 }
					#set_province_flag = roseroad
					#b_langward_hall = { add_building = ca_roseroad }
				}
				227 = { #dalston keep
					add_province_modifier = { name = roseroad duration = -1 }
					#set_province_flag = roseroad
					#b_dalston_keep = { add_building = ca_roseroad }
				}
				255 = { #roseford
					add_province_modifier = { name = roseroad duration = -1 }
					#set_province_flag = roseroad
					#b_rosewatch = { add_building = ca_roseroad }
				}
				253 = { #bitterbridge
					add_province_modifier = { name = roseroad duration = -1 }
					#set_province_flag = roseroad
					#b_caswell_castle = { add_building = ca_roseroad }
				}
				254 = { #longtable
					add_province_modifier = { name = roseroad duration = -1 }
					#set_province_flag = roseroad
					#b_longtable = { add_building = ca_roseroad }
				}
				256 = { #inchfield
					add_province_modifier = { name = roseroad duration = -1 }
					#set_province_flag = roseroad
					#b_inchbrook = { add_building = ca_roseroad }
				}
				267 = { #highgarden
					add_province_modifier = { name = roseroad duration = -1 }
					#set_province_flag = roseroad
					#b_highgarden = { add_building = ca_roseroad }
				}	
			}
			if = {
				limit = { has_title_flag = building_road_storms_end_highgarden }
				clr_title_flag = building_road_storms_end_highgarden
				267 = { #highgarden
					add_province_modifier = { name = roseroad duration = -1 }
					#set_province_flag = roseroad
					#b_highgarden = { add_building = ca_roseroad }
				}	
				268 = { #cider hall
					add_province_modifier = { name = roseroad duration = -1 }
					#set_province_flag = roseroad
					#b_cider_hall = { add_building = ca_roseroad }
				}
				269 = { #new barrel
					add_province_modifier = { name = roseroad duration = -1 }
					#set_province_flag = roseroad
					#b_new_barrel = { add_building = ca_roseroad }
				}
				270 = { #ashford
					add_province_modifier = { name = roseroad duration = -1 }
					#set_province_flag = roseroad
					#b_ashford_castle = { add_building = ca_roseroad }
				}
				306 = { #summerhall
					add_province_modifier = { name = roseroad duration = -1 }
					#set_province_flag = roseroad
					#b_summerhall = { add_building = ca_roseroad }
				}
				294 = { #felwood
					add_province_modifier = { name = roseroad duration = -1 }
					#set_province_flag = roseroad
					#b_felwood = { add_building = ca_roseroad }
				}
				301 = { #galemont
					add_province_modifier = { name = roseroad duration = -1 }
					#set_province_flag = roseroad
					#b_galemont_fort = { add_building = ca_roseroad }
				}
				304 = { #storm's end
					add_province_modifier = { name = kingsroad duration = -1 }
					#set_province_flag = roseroad
					#b_storms_end = { add_building = ca_roseroad }					
				}	
			}
			if = {
				limit = { has_title_flag = building_road_storms_end_lannisport }
				clr_title_flag = building_road_storms_end_lannisport
				304 = { #storm's end
					add_province_modifier = { name = kingsroad duration = -1 }
					#set_province_flag = kingsroad
					#b_storms_end = { add_building = ca_kingsroad }					
				}
				299 = { #parchments
					add_province_modifier = { name = kingsroad duration = -1 }
					#set_province_flag = kingsroad
					#b_parchments = { add_building = ca_kingsroad }
				}
				296 = { #bronzegate
					add_province_modifier = { name = kingsroad duration = -1 }
					#set_province_flag = kingsroad
					#b_bronzegate = { add_building = ca_kingsroad }
				}
				232 = { #wendwater
					add_province_modifier = { name = kingsroad duration = -1 }
					#set_province_flag = kingsroad
					#b_woodmere = { add_building = ca_kingsroad }
				}
				226 = { #king's landing
					add_province_modifier = { name = kingsroad duration = -1 }
					#set_province_flag = kingsroad
					#b_red_keep = { add_building = ca_kingsroad }
				}	
				1203 = { #king's landing
					add_province_modifier = { name = kingsroad duration = -1 }
					#set_province_flag = kingsroad
					#b_red_keep = { add_building = ca_kingsroad }
				}	
				
				182 = { #casterly rock
					add_province_modifier = { name = goldroad duration = -1 }
					#set_province_flag = goldroad
					#b_casterly_rock = { add_building = ca_goldroad }
				}
				183 = { #lannisport
					add_province_modifier = { name = goldroad duration = -1 }
					#set_province_flag = goldroad
					#b_lannisport = { add_building = ca_goldroad }
				}
				184 = { #tendring
					add_province_modifier = { name = goldroad duration = -1 }
					#set_province_flag = goldroad
					#b_tendring = { add_building = ca_goldroad }
				}
				1132 = { #moreland
					add_province_modifier = { name = goldroad duration = -1 }
					#set_province_flag = goldroad
					#b_moreland_keep = { add_building = ca_goldroad }
				}
				191 = { #deep den
					add_province_modifier = { name = goldroad duration = -1 }
					#set_province_flag = goldroad
					#b_deep_den = { add_building = ca_goldroad }
				}
				192 = { #drox castle
					add_province_modifier = { name = goldroad duration = -1 }
					#set_province_flag = goldroad
					#b_drox_castle = { add_building = ca_goldroad }
				}
				194 = { #payne hall
					add_province_modifier = { name = goldroad duration = -1 }
					#set_province_flag = goldroad
					#b_payne_hall = { add_building = ca_goldroad }
				}
				202 = { #byford
					add_province_modifier = { name = goldroad duration = -1 }
					#set_province_flag = goldroad
					#b_byford = { add_building = ca_goldroad }
				}
				222 = { #bramsfort
					add_province_modifier = { name = goldroad duration = -1 }
					#set_province_flag = goldroad
					#b_bramsfort = { add_building = ca_goldroad }
				}
			}
		}	
		hidden_tooltip = { character_event = { id = iron_throne.1 days = 1 } } #next section	
	}	
}	
#Levy a special tax?
character_event = {
	id = iron_throne.3
	desc = "EVTDESCiron_throne.3"
	picture = "GFX_evt_castle_construction"
	
	is_triggered_only = yes
	
	option = { 
		name = "EVTOPTAiron_throne.3" #Yes
		ai_chance = {
			factor = 15
			modifier = {
				factor = 2
				NOT = { yearly_income = 50 }
			}
			modifier = {
				factor = 0.5
				yearly_income = 100
			}
			modifier = {
				factor = 0.5
				yearly_income = 200
			}
			
			modifier = {
				factor = 4
				trait = greedy
			}
			modifier = {
				factor = 2
				trait = arbitrary
			}
			modifier = {
				factor = 2
				trait = ambitious
			}
			modifier = {
				factor = 2
				trait = proud
			}
			modifier = {
				factor = 2
				trait = ruthless
			}
			modifier = {
				factor = 2
				trait = cruel
			}
			modifier = {
				factor = 0.5
				trait = just
			}
			modifier = {
				factor = 0.5
				trait = content
			}
			modifier = {
				factor = 0.5
				trait = humble
			}
			modifier = {
				factor = 0.5
				trait = honorable
			}
			modifier = {
				factor = 0.5
				trait = kind
			}
			modifier = {
				factor = 0.25
				trait = charitable
			}
		}
		custom_tooltip = {
			text = TOOLTIPiron_throne.3
		}
		hidden_tooltip = {
			any_realm_lord = {
				limit = {
					OR = {
						ai = no
						higher_tier_than = COUNT
						is_patrician = yes
					}	
					is_theocracy = no
				}
				letter_event = { id = iron_throne.4 }
			}
		}	
	}
	option = { 
		name = "EVTOPTBiron_throne.3" #No
		ai_chance = {
			factor = 10
		}	
		prestige = 200
		hidden_tooltip = {
			any_realm_lord = {
				limit = {
					ai = no
				}
				character_event = { id = iron_throne.5 }
			}
		}
	}
}	
letter_event = { #Inform Realm
	id = iron_throne.4
	desc = "EVTDESCiron_throne.4"
	
	is_triggered_only = yes
	
	option = { 
		name = "EVTOPTAiron_throne.4"
		trigger = { 
			any_demesne_province = { region = world_westeros }
			OR = {
				higher_tier_than = COUNT
				is_patrician = yes
			}
		}
		transfer_scaled_wealth = {
			to = FROM
			value = 0.1
			min = 5
			max = 75
		}
		hidden_tooltip = {
			opinion = {
				who = FROM
				modifier = opinion_road_tax
			}
		}	
	}
	option = { 
		name = "EVTOPTBiron_throne.4"
		trigger = { 
			NOT = { higher_tier_than = COUNT } 
			is_patrician = no
		}
	}
}	
character_event = { #Inform Realm
	id = iron_throne.5
	desc = "EVTDESCiron_throne.5"
	picture = "GFX_evt_castle_construction"
	
	is_triggered_only = yes
	
	option = { 
		name = "EVTOPTAiron_throne.5" #Yes	
	}
}

###Build Summerhall - by blackninja9939
# Start building
character_event = {
	id = iron_throne.10
	desc = EVTDESCiron_throne.10
	picture = GFX_summerhall
	
	is_triggered_only = yes
	
	option = { # This will be a great Summer home
		name = EVTOPTAiron_throne.10
		306 = {
			add_province_modifier = {
				name = buidling_summerhall
				duration = -1
			}
		}
		hidden_tooltip = { character_event = { id = iron_throne.11 days = 10 } }
	}
}
# Get some awesome builder guy
character_event = {
	id = iron_throne.11
	desc = EVTDESCiron_throne.11
	picture = GFX_evt_castle_construction
	
	is_triggered_only = yes
	
	immediate = {
		character_event = { id = iron_throne.12 days = 14 }
	}
	
	option = { # The finest Braavosi craftsmen
		name = EVTOPTAiron_throne.11
		capital_scope = {
			create_character = {
				random_traits = no
				dynasty = actually_culture
				religion = moonsingers
				culture = braavosi
				age = 26
				trait = fortune_builder
				trait = quick
				trait = diligent
				trait = cynical
				trait = gregarious
				attributes = {
					diplomacy = 4
					martial = 1
					stewardship = 8
					intrigue = 3
					learning = 7
				}
			}
			new_character = {
				set_defacto_liege = ROOT
				set_character_flag = braavosi_craftsman
				character_event = { id = iron_throne.1100 }
			}
		}
		wealth = -85
	}
	option = { # A good local craftsman 
		name = EVTOPTBiron_throne.11
		capital_scope = {
			create_character = {
				random_traits = no
				dynasty = actually_culture
				religion = ROOT
				culture = western_valyrian
				age = 28
				trait = fortune_builder
				trait = diligent
				trait = cynical
				trait = gregarious
				trait = proud
				attributes = {
					diplomacy = 2
					martial = 3
					stewardship = 6
					intrigue = 2
					learning = 5
				}
			}
			new_character = {
				set_defacto_liege = ROOT
				set_character_flag = local_craftsman
				character_event = { id = iron_throne.1100 }
			}
		}
		wealth = -50
	}
	option = { # Any peasant
		name = EVTOPTCiron_throne.11
		capital_scope = {
			create_character = {
				random_traits = no
				religion = ROOT
				culture = crownlander
				age = 28
				trait = thrifty_clerk
				trait = diligent
				trait = cynical
				trait = gregarious
				trait = proud
				attributes = {
					diplomacy = 0
					martial = 4
					stewardship = 4
					intrigue = 0
					learning = 3
				}
			}
			new_character = {
				set_defacto_liege = ROOT
				set_character_flag = peasant_craftsman
				character_event = { id = iron_throne.1100 }
			}
		}
		wealth = -20
	}
}
# Ping to craftsman to save event target
character_event = {
	id = iron_throne.1100
	
	hide_window = yes
	is_triggered_only = yes
	
	immediate = {
		save_global_event_target_as = summerhall_craftsman
	}
	
	option = {
		name = "Ok"
	}
}
# Plans are laid out
character_event = {
	id = iron_throne.12
	desc = EVTDESCiron_throne.12
	picture = GFX_evt_emissary
	border = GFX_event_normal_frame_economy
	
	is_triggered_only = yes
	
	option = {
		name = EVTOPTAiron_throne.12
		character_event = { id = iron_throne.13 days = 14 }
	}
}
# First stage completed
character_event = {
	id = iron_throne.13
	desc = EVTDESCiron_throne.13
	picture = GFX_evt_castle_construction
	
	is_triggered_only = yes
	
	option = {
		name = EVTOPTAiron_throne.13
		306 = {
			add_province_modifier = {
				name = summerhall_stage1
				duration = -1
			}
		}
		job_treasurer = { custom_tooltip = { text = TOOLTIPbuild_summerhall_treasurer } }
	}
}
# Craftsman finds ore vein
character_event = {
	id = iron_throne.14
	desc = EVTDESCiron_throne.14
	picture = GFX_evt_council
	border = GFX_event_normal_frame_economy
	
	only_independent = yes
	
	trigger = {
		has_landed_title = c_summerhall
		306 = {	
			has_province_modifier = buidling_summerhall
			OR = { 
				has_province_modifier = summerhall_stage1
				has_province_modifier = summerhall_stage2
				has_province_modifier = summerhall_stage3
			}
			NOT = { has_province_flag = summerhall_ore_found }
			NOT = { has_province_modifier = summerhall_ore_found }
		}
	}
	
	mean_time_to_happen = {
		years = 1
		#Slavery helps
		modifier = {
			factor = 0.9
			306 = { has_province_modifier = slave_modifier_1 }
		}
		modifier = {
			factor = 0.85
			306 = { has_province_modifier = slave_modifier_2 }
		}
		modifier = {
			factor = 0.8
			306 = { has_province_modifier = slave_modifier_3 }
		}
		modifier = {
			factor = 0.75
			306 = { has_province_modifier = slave_modifier_4 }
		}
		modifier = {
			factor = 0.7
			306 = { has_province_modifier = slave_modifier_5 }
		}
		modifier = {
			factor = 0.9
			stewardship = 10
		}
		modifier = {
			factor = 0.9
			stewardship = 12
		}
		modifier = {
			factor = 0.9
			stewardship = 14
		}
		modifier = {
			factor = 0.9
			stewardship = 16
		}
		modifier = {
			factor = 0.9
			stewardship = 18
		}
		modifier = {
			factor = 0.9
			stewardship = 20
		}
		modifier = {
			factor = 0.9
			stewardship = 22
		}
		modifier = {
			factor = 0.9
			trait = diligent
		}
		modifier = {
			factor = 0.9
			trait = ambitious
		}
		modifier = {
			factor = 0.9
			trait = ruthless
		}
		modifier = {
			factor = 0.9
			job_treasurer = { trait = diligent }
		}
		modifier = {
			factor = 0.9
			job_treasurer = { trait = ruthless }
		}
		modifier = {
			factor = 0.9
			job_treasurer = { 
				has_job_action = action_oversee_construction
				stewardship = 14
			}
		}
		modifier = {
			factor = 0.9
			job_treasurer = { 
				has_job_action = action_oversee_construction
				stewardship = 16
			}
		}
		modifier = {
			factor = 0.9
			job_treasurer = { 
				has_job_action = action_oversee_construction
				stewardship = 18
			}
		}
		modifier = {
			factor = 0.9
			job_treasurer = { 
				has_job_action = action_oversee_construction
				stewardship = 20
			}
		}
		modifier = {
			factor = 0.9
			job_treasurer = { 
				has_job_action = action_oversee_construction
				stewardship = 22
			}
		}
		modifier = {
			factor = 0.9
			job_treasurer = { 
				has_job_action = action_oversee_construction
				stewardship = 24
			}
		}
		modifier = {
			factor = 0.9
			job_treasurer = { 
				has_job_action = action_oversee_construction
				stewardship = 26
			}
		}
		modifier = {
			factor = 0.9
			job_treasurer = { 
				has_job_action = action_oversee_construction
				stewardship = 28
			}
		}
		modifier = {
			factor = 0.9
			job_treasurer = { 
				has_job_action = action_oversee_construction
				stewardship = 30
			}
		}
		modifier = {
			factor = 1.2
			event_target:summerhall_craftsman = {
				has_character_flag = peasant_craftsman
			}
		}
		modifier = {
			factor = 0.8
			event_target:summerhall_craftsman = {
				has_character_flag = local_craftsman
			}
		}
		modifier = {
			factor = 0.7
			event_target:summerhall_craftsman = {
				has_character_flag = braavosi_craftsman
			}
		}
	}
	
	option = { # Use the money to increase building speed
		name = EVTOPTAiron_throne.14
		306 = {
			add_province_modifier = {
				name = summerhall_ore_found
				duration = -1
			}
		}
	}
	option = { # Just give me the money
		name = EVTOPTBiron_throne.14
		wealth = 150
		306 = { set_province_flag = summerhall_ore_found }
	}
}
# Investment from traders
character_event = {
	id = iron_throne.15
	desc = EVTDESCiron_throne.15
	picture = GFX_evt_busy_trading_dock_republic
	border = GFX_event_normal_frame_economy
	
	only_independent = yes
	
	trigger = {
		has_landed_title = c_summerhall
		306 = {	
			has_province_modifier = buidling_summerhall
			OR = { 
				has_province_modifier = summerhall_stage1
				has_province_modifier = summerhall_stage2
				has_province_modifier = summerhall_stage3
			}
			NOT = { has_province_flag = summerhall_trader_investment }
			NOT = { has_province_modifier = summerhall_trader_investment }
		}
	}
	
	mean_time_to_happen = {
		years = 1
		#Slavery helps
		modifier = {
			factor = 0.9
			306 = { has_province_modifier = slave_modifier_1 }
		}
		modifier = {
			factor = 0.85
			306 = { has_province_modifier = slave_modifier_2 }
		}
		modifier = {
			factor = 0.8
			306 = { has_province_modifier = slave_modifier_3 }
		}
		modifier = {
			factor = 0.75
			306 = { has_province_modifier = slave_modifier_4 }
		}
		modifier = {
			factor = 0.7
			306 = { has_province_modifier = slave_modifier_5 }
		}
		modifier = {
			factor = 0.9
			stewardship = 10
		}
		modifier = {
			factor = 0.9
			stewardship = 12
		}
		modifier = {
			factor = 0.9
			stewardship = 14
		}
		modifier = {
			factor = 0.9
			stewardship = 16
		}
		modifier = {
			factor = 0.9
			stewardship = 18
		}
		modifier = {
			factor = 0.9
			stewardship = 20
		}
		modifier = {
			factor = 0.9
			stewardship = 22
		}
		modifier = {
			factor = 0.9
			trait = diligent
		}
		modifier = {
			factor = 0.9
			trait = ambitious
		}
		modifier = {
			factor = 0.9
			trait = ruthless
		}
		modifier = {
			factor = 0.9
			job_treasurer = { trait = diligent }
		}
		modifier = {
			factor = 0.9
			job_treasurer = { trait = ruthless }
		}
		modifier = {
			factor = 0.9
			job_treasurer = { 
				has_job_action = action_oversee_construction
				stewardship = 14
			}
		}
		modifier = {
			factor = 0.9
			job_treasurer = { 
				has_job_action = action_oversee_construction
				stewardship = 16
			}
		}
		modifier = {
			factor = 0.9
			job_treasurer = { 
				has_job_action = action_oversee_construction
				stewardship = 18
			}
		}
		modifier = {
			factor = 0.9
			job_treasurer = { 
				has_job_action = action_oversee_construction
				stewardship = 20
			}
		}
		modifier = {
			factor = 0.9
			job_treasurer = { 
				has_job_action = action_oversee_construction
				stewardship = 22
			}
		}
		modifier = {
			factor = 0.9
			job_treasurer = { 
				has_job_action = action_oversee_construction
				stewardship = 24
			}
		}
		modifier = {
			factor = 0.9
			job_treasurer = { 
				has_job_action = action_oversee_construction
				stewardship = 26
			}
		}
		modifier = {
			factor = 0.9
			job_treasurer = { 
				has_job_action = action_oversee_construction
				stewardship = 28
			}
		}
		modifier = {
			factor = 0.9
			job_treasurer = { 
				has_job_action = action_oversee_construction
				stewardship = 30
			}
		}
		modifier = {
			factor = 1.2
			event_target:summerhall_craftsman = {
				has_character_flag = peasant_craftsman
			}
		}
		modifier = {
			factor = 0.8
			event_target:summerhall_craftsman = {
				has_character_flag = local_craftsman
			}
		}
		modifier = {
			factor = 0.7
			event_target:summerhall_craftsman = {
				has_character_flag = braavosi_craftsman
			}
		}
	}
	
	immediate = {
		random_independent_ruler = {
			limit = { 
				OR = {
					government = merchant_republic_government
					government = triarch_merchant_republic_government
				}
			}
			save_event_target_as = merchant_republic_investor
		}
	}
	
	option = { # Use the money to increase building speed
		name = EVTOPTAiron_throne.15
		event_target:merchant_republic_investor = {
			wealth = -80
			add_friend = ROOT
		}
		306 = {
			add_province_modifier = {
				name = summerhall_trader_investment
				duration = -1
			}
		}
	}
	option = { # Just give me the money
		name = EVTOPTBiron_throne.15
		event_target:merchant_republic_investor = {
			wealth = -80
			add_rival = ROOT
		}
		wealth = 80
		306 = { set_province_flag = summerhall_trader_investment }
	}
}
# A stage has been completed
character_event = {
	id = iron_throne.16
	picture = GFX_evt_castle_construction
	border = GFX_event_normal_frame_economy
	
	only_independent = yes
	
	desc = {
		text = EVTDESCAiron_throne.16
		trigger = {
			306 = { has_province_modifier = summerhall_stage1 }
		}
	}
	desc = {
		text = EVTDESCBiron_throne.16
		trigger = {
			306 = { has_province_modifier = summerhall_stage2 }
		}
	}
	desc = {
		text = EVTDESCCiron_throne.16
		trigger = {
			306 = { has_province_modifier = summerhall_stage3 }
		}
	}
	
	trigger = {
		has_landed_title = c_summerhall
		306 = {	
			has_province_modifier = buidling_summerhall
			OR = { 
				has_province_modifier = summerhall_stage1
				has_province_modifier = summerhall_stage2
				has_province_modifier = summerhall_stage3
				has_province_modifier = summerhall_complete
			}
		}
	}
	
	mean_time_to_happen = {
		years = 1
		#Slavery helps
		modifier = {
			factor = 0.9
			306 = { has_province_modifier = slave_modifier_1 }
		}
		modifier = {
			factor = 0.85
			306 = { has_province_modifier = slave_modifier_2 }
		}
		modifier = {
			factor = 0.8
			306 = { has_province_modifier = slave_modifier_3 }
		}
		modifier = {
			factor = 0.75
			306 = { has_province_modifier = slave_modifier_4 }
		}
		modifier = {
			factor = 0.7
			306 = { has_province_modifier = slave_modifier_5 }
		}
		modifier = {
			factor = 0.9
			stewardship = 10
		}
		modifier = {
			factor = 0.9
			stewardship = 12
		}
		modifier = {
			factor = 0.9
			stewardship = 14
		}
		modifier = {
			factor = 0.9
			stewardship = 16
		}
		modifier = {
			factor = 0.9
			stewardship = 18
		}
		modifier = {
			factor = 0.9
			stewardship = 20
		}
		modifier = {
			factor = 0.9
			stewardship = 22
		}
		modifier = {
			factor = 0.9
			trait = diligent
		}
		modifier = {
			factor = 0.9
			trait = ambitious
		}
		modifier = {
			factor = 0.9
			trait = ruthless
		}
		modifier = {
			factor = 0.9
			job_treasurer = { trait = diligent }
		}
		modifier = {
			factor = 0.9
			job_treasurer = { trait = ruthless }
		}
		modifier = {
			factor = 0.9
			job_treasurer = { 
				has_job_action = action_oversee_construction
				stewardship = 14
			}
		}
		modifier = {
			factor = 0.9
			job_treasurer = { 
				has_job_action = action_oversee_construction
				stewardship = 16
			}
		}
		modifier = {
			factor = 0.9
			job_treasurer = { 
				has_job_action = action_oversee_construction
				stewardship = 18
			}
		}
		modifier = {
			factor = 0.9
			job_treasurer = { 
				has_job_action = action_oversee_construction
				stewardship = 20
			}
		}
		modifier = {
			factor = 0.9
			job_treasurer = { 
				has_job_action = action_oversee_construction
				stewardship = 22
			}
		}
		modifier = {
			factor = 0.9
			job_treasurer = { 
				has_job_action = action_oversee_construction
				stewardship = 24
			}
		}
		modifier = {
			factor = 0.9
			job_treasurer = { 
				has_job_action = action_oversee_construction
				stewardship = 26
			}
		}
		modifier = {
			factor = 0.9
			job_treasurer = { 
				has_job_action = action_oversee_construction
				stewardship = 28
			}
		}
		modifier = {
			factor = 0.9
			job_treasurer = { 
				has_job_action = action_oversee_construction
				stewardship = 30
			}
		}
		modifier = {
			factor = 0.9
			306 = { has_province_modifier = summerhall_ore_found }
		}
		modifier = {
			factor = 0.9
			306 = { has_province_modifier = summerhall_trader_investment }
		}
		modifier = {
			factor = 1.2
			event_target:summerhall_craftsman = {
				has_character_flag = peasant_craftsman
			}
		}
		modifier = {
			factor = 0.8
			event_target:summerhall_craftsman = {
				has_character_flag = local_craftsman
			}
		}
		modifier = {
			factor = 0.7
			event_target:summerhall_craftsman = {
				has_character_flag = braavosi_craftsman
			}
		}
	}
	
	immediate = {
		job_treasurer = { 
			if = {
				limit = {
					OR = {
						ROOT = { ai = yes }
						has_job_action = action_oversee_construction
					}
				}
				hidden_tooltip = { 
					change_variable = { which = "services_rendered" value = 1 } 
					reverse_opinion = {
						modifier = opinion_service_rendered
						who = ROOT
						years = 3
					}				
				}
			}	
		}
	}
	
	option = { # Using if clauses didn't work for some reason
		name = EVTOPTAiron_throne.16
		trigger = { 306 = { has_province_modifier = summerhall_stage1 } }
		306 = {
			remove_province_modifier = summerhall_stage1
			add_province_modifier = {
				name = summerhall_stage2
				duration = -1
			}
		}
	}
	option = {
		name = EVTOPTAiron_throne.16
		trigger = { 306 = { has_province_modifier = summerhall_stage2 } }
		306 = {
			remove_province_modifier = summerhall_stage2
			add_province_modifier = {
				name = summerhall_stage3
				duration = -1
			}
		}
	}
	option = {
		name = EVTOPTAiron_throne.16
		trigger = { 306 = { has_province_modifier = summerhall_stage3 } }
		306 = {
			remove_province_modifier = summerhall_stage3
			remove_province_modifier = buidling_summerhall
			if = {
				limit = { has_province_modifier = summerhall_ore_found }
				remove_province_modifier = summerhall_ore_found
			}
			if = {
				limit = { has_province_modifier = summerhall_trader_investment }
				remove_province_modifier = summerhall_trader_investment
			}
			clr_province_flag = summerhall_ore_found
			clr_province_flag = summerhall_trader_investment
			add_province_modifier = {
				name = summerhall_complete
				duration = -1
			}
		}
		hidden_tooltip = { narrative_event = { id = iron_throne.17 days = 25 random = 15 } }
	}
}
# Summerhall completed
narrative_event = {
	id = iron_throne.17
	title = EVTTITLEiron_throne.17
	desc = EVTDESCiron_throne.17
	picture = GFX_summerhall
	border = GFX_event_narrative_frame_economy
	
	is_triggered_only = yes
	
	option = {
		name = EVTOPTAiron_throne.17
		306 = { remove_province_modifier = summerhall_complete }
		set_global_flag = summerhall_established
		clr_global_flag = building_summerhall
		c_summerhall = {
			set_name = "" 
			hidden_tooltip = {
				location = {
					set_name = c_summerhall
				}
			}
		}
		b_summerhall = {
			set_name = ""
			add_building = ca_summerhall
		}
		c_summerhall = {
			de_jure_liege = d_kings_landing
		}
		prestige = 500
		clear_global_event_target = summerhall_craftsman
		hidden_tooltip = {
			any_owned_bloodline = {
				limit = {
					has_bloodline_flag = dynastic_bloodline
				}
				set_bloodline_flag = dynastic_claim_c_summerhall
			}
		}
	}
}

##Cut self on Iron Throne##
character_event = {
	id = iron_throne.30
	picture = GFX_evt_ironthrone
	
	is_triggered_only = yes
	only_independent = yes
	prisoner = no
	in_command = no
	
	trigger = {
		has_landed_title = c_kings_landing
		capital_scope = { has_province_flag = kings_landing_established }
		is_abroad = no	
		NOT = { trait = wikid }
		NOT = { is_inaccessible_trigger = yes }
		NOT = { has_character_modifier = cut_on_iron_throne }
	}
	
	weight_multiplier = {
		factor = 1
		
		modifier = {
			factor = 5
			trait = incapable
		}
		modifier = {
			factor = 2
			NOT = { age = 6 }
		}
		modifier = {
			factor = 2
			NOT = { age = 12 }
		}
		modifier = {
			factor = 2
			is_ill = yes
		}
		modifier = {
			factor = 2
			OR = {
				is_crippled_trigger = yes
				trait = infirm
				is_maimed_trigger = yes
			}
		}
		modifier = {
			factor = 2
			OR = {
				trait = blinded
				trait = blinded_age
			}
		}
		modifier = {
			factor = 4
			trait = drunkard
		}
		
		modifier = {
			factor = 10
			trait = lunatic
		}
		modifier = {
			factor = 2
			trait = possessed
		}
		modifier = {
			factor = 4
			trait = wroth
		}
		modifier = {
			factor = 0.25
			trait = patient
		}
		modifier = {
			factor = 2
			trait = slothful
		}
		modifier = {
			factor = 0.5
			trait = diligent
		}
		
		modifier = {
			factor = 4
			OR = {
				is_imbecile_trigger = yes
				is_dumb_trigger = yes
				trait = inbred
			}
		}
		modifier = {
			factor = 0.25
			learning = 12
		}
		modifier = { #cursed?
			factor = 4
			OR = {
				is_any_kinslayer_trigger = yes
				trait = suspected_kinslayer
				trait = excommunicated
				check_variable = { which = "tyrant" value = 9.9 }
				check_variable = { which = "dishonorable" value = 9.9 }
				has_character_modifier = curse_of_harrenhal	
			}
		}
	}
	
	desc = {
		text = EVTDESCiron_throne.30 #Generic
		trigger = { 
			age = 9
			NOT = { trait = incapable }
			NOT = { trait = wroth }
			NOT = { trait = lunatic }
			NOT = { trait = slothful }
			NOT = { trait = drunkard }
			NOT = { trait = is_fat }
			NOT = { trait = blinded }
			NOT = { trait = blinded_age }
			NOT = { is_imbecile_trigger = yes }
			NOT = { is_slow_trigger = yes }
			NOT = { trait = inbred }
			NOT = { is_crippled_trigger = yes }
			NOT = { trait = infirm }
			NOT = { is_maimed_trigger = yes	}
			is_ill = no
		}
	}
	desc = {
		text = EVTDESCiron_throne.30B #Infant
		trigger = { 
			NOT = { age = 9 }
		}
	}
	desc = {
		text = EVTDESCiron_throne.30C #Incapable
		trigger = { trait = incapable }
	}
	desc = {
		text = EVTDESCiron_throne.30D #Stupid
		trigger = { 
			OR = {
				is_imbecile_trigger = yes
				is_dumb_trigger = yes
				trait = inbred
			}
			NOT = { trait = shy }
		}
	}
	desc = {
		text = EVTDESCiron_throne.30E #Angry
		trigger = { trait = wroth }
	}
	desc = {
		text = EVTDESCiron_throne.30F #Crazed
		trigger = { trait = lunatic }
	}
	desc = {
		text = EVTDESCiron_throne.30G #Fell asleep
		trigger = { trait = slothful }
	}
	desc = {
		text = EVTDESCiron_throne.30H #Ill
		trigger = { 
			is_ill = yes 
			has_regent = no
		}
	}
	desc = {
		text = EVTDESCiron_throne.30I #Injured
		trigger = { 
			OR = {
				is_crippled_trigger = yes
				trait = infirm
				is_maimed_trigger = yes				
			}	
			NOT = { trait = incapable }
		}
	}
	desc = {
		text = EVTDESCiron_throne.30J #Drunk
		trigger = { 
			trait = drunkard 
			NOT = { trait = incapable }
		}
	}
	desc = {
		text = EVTDESCiron_throne.30K #Fat
		trigger = { 
			age = 30
			trait = is_fat
			NOT = { trait = incapable }
		}
	}
	desc = {
		text = EVTDESCiron_throne.30L #Blind
		trigger = { 
			OR = {
				trait = blinded
				trait = blinded_age
			}	
			has_regent = no
		}
	}
	
	option = { #Ouch
		name = "EVTOPTAiron_throne.30" 	
		prestige = -100
		add_character_modifier = {
			name = cut_on_iron_throne
			duration = 730
		}
		random_list = {
			69 = {
			}
			25 = {
				modifier = {
					factor = 0
					OR = {
						trait = wounded
						is_maimed_trigger = yes
					}
				}
				add_trait_silently_wounded_effect = yes
				hidden_tooltip = { character_event = { id = 38280 } }
			}
			5 = {
				modifier = {
					factor = 0
					is_maimed_trigger = yes
				}
				add_maimed_trait_effect = yes
			}
			1 = {
				red_god_resurrect_effect = yes #check for rhllor resurrection
				death = {
					death_reason = death_accident_iron_throne
				}
				hidden_tooltip = {
					any_playable_ruler = {
						limit = { 
							ai = no 
							NOT = { character = ROOT }
							OR = {
								is_liege_or_above = ROOT
								capital_scope = { region = world_westeros }
								primary_title = { 
									ROOT = {
										any_demesne_title = {
											tier = EMPEROR
											is_variable_equal = { which = "de_facto_empire" which = PREVPREV }
											check_variable = { which = "de_facto_empire" value = 0.9 }
										}
									}
								}
							}						
						}
						character_event = { id = iron_throne.31 }
					}
				}
			}
		}
	}
}	
character_event = { #Inform realm king died on the throne
	id = iron_throne.31
	desc = "EVTDESCiron_throne.31" 	
	picture = "GFX_evt_castle_construction"
	
	is_triggered_only = yes
	
	option = {
		name = "EVTOPTAiron_throne.31" 	
	}	
}	
#Crown forging
character_event = {
	id = iron_throne.40	
	picture = GFX_evt_treasure_chamber
    border = GFX_event_normal_frame_economy
	
	desc = {
		text = "EVTDESCiron_throne.40" 
		trigger = { primary_title = { title = e_iron_throne } }
	}	
	desc = {
		text = "EVTDESCiron_throne.40B" 
		trigger = { NOT = { primary_title = { title = e_iron_throne } } }
	}	
	
	is_triggered_only = yes
	only_independent = yes
	min_age = 14
    only_capable = yes
	prisoner = no
	
	trigger = {
		OR = {
			has_landed_title = e_iron_throne
			has_landed_title = e_new_valyria
		}	
	#	culture = high_valyrian #for now only this culture can display these crowns
		e_iron_throne = {
			OR = {
			#	NOT = { has_title_flag = aegons_crown }
				NOT = { any_character = { has_artifact = aegons_crown } }
			#	NOT = { has_title_flag = aenys_crown }
				NOT = { any_character = { has_artifact = aenys_crown } }
			#	NOT = { has_title_flag = jaehaerys_crown }
				NOT = { any_character = { has_artifact = jaehaerys_crown } }
			#	NOT = { has_title_flag = aegon_III_crown }
				NOT = { any_character = { has_artifact = aegon_III_crown } }
			#	NOT = { has_title_flag = baelors_crown }
				NOT = { any_character = { has_artifact = baelors_crown } }
			#	NOT = { has_title_flag = aegon_IV_crown }
				NOT = { any_character = { has_artifact = aegon_IV_crown } }
			#	NOT = { has_title_flag = maekars_crown }
				NOT = { any_character = { has_artifact = aegon_IV_crown } }
			}
		}
		NOT = { has_character_flag = iron_throne_crown_event }
	}
	
	immediate = {
		set_character_flag = iron_throne_crown_event
	}
	
	option = {
		name = "EVTOPTAiron_throne.40" 	#No
		ai_chance = {
			factor = 25
			modifier = {
				factor = 2
				trait = humble
			}
			modifier = {
				factor = 0.5
				trait = proud
			}
			modifier = {
				factor = 2
				trait = content
			}
			modifier = {
				factor = 0.5
				trait = ambitious
			}
			modifier = {
				factor = 2
				NOT = { wealth = 50 }
			}
			modifier = {
				factor = 2
				NOT = { wealth = 0 }
			}
		}
	}
	option = {
		name = "EVTOPTBiron_throne.40" 	#Aegons crown
		trigger = {
		#	e_iron_throne = { NOT = { has_title_flag = aegons_crown } }
			NOT = { any_character = { has_artifact = aegons_crown } }
		}
		ai_chance = {
			factor = 15
		}
		custom_tooltip = {
			text = TOOLTIPiron_throne.40ADDCROWN
			hidden_tooltip = {
				add_artifact = aegons_crown
				new_artifact = {
					set_name = [Root.GetDynamicCrownName]
				}
			}
		}	
		wealth = -175
		prestige = 50
		e_iron_throne = { set_title_flag = aegons_crown }
	}	
	option = {
		name = "EVTOPTCiron_throne.40" 	#Aenys crown
		trigger = {
		#	e_iron_throne = { NOT = { has_title_flag = aenys_crown } }
			NOT = { any_character = { has_artifact = aenys_crown } }
		}
		ai_chance = {
			factor = 15
		}
		custom_tooltip = {
			text = TOOLTIPiron_throne.40ADDCROWN
			hidden_tooltip = {
				add_artifact = aenys_crown
				new_artifact = {
					set_name = [Root.GetDynamicCrownName]
				}
			}
		}	
		wealth = -175
		prestige = 50
		e_iron_throne = { set_title_flag = aenys_crown }
	}
	option = {
		name = "EVTOPTDiron_throne.40" 	#jaehaerys crown
		trigger = {
		#	e_iron_throne = { NOT = { has_title_flag = jaehaerys_crown } }
			NOT = { any_character = { has_artifact = jaehaerys_crown } }
		}
		ai_chance = {
			factor = 15
		}
		custom_tooltip = {
			text = TOOLTIPiron_throne.40ADDCROWN
			hidden_tooltip = {
				add_artifact = jaehaerys_crown
				new_artifact = {
					set_name = [Root.GetDynamicCrownName]
				}
			}
		}	
		wealth = -175
		prestige = 50
		e_iron_throne = { set_title_flag = jaehaerys_crown }
	}
	option = {
		name = "EVTOPTEiron_throne.40" 	#aegon_III_crown
		trigger = {
		#	e_iron_throne = { NOT = { has_title_flag = aegon_III_crown } }
			NOT = { any_character = { has_artifact = aegon_III_crown } }
		}
		ai_chance = {
			factor = 15
			modifier = {
				factor = 2
				trait = humble
			}
			modifier = {
				factor = 0.5
				trait = proud
			}
		}
		custom_tooltip = {
			text = TOOLTIPiron_throne.40ADDCROWN
			hidden_tooltip = {
				add_artifact = aegon_III_crown
				new_artifact = {
					set_name = [Root.GetDynamicCrownName]
				}
			}
		}
		wealth = -90
		prestige = 30
		e_iron_throne = { set_title_flag = aegon_III_crown }
	}
	option = {
		name = "EVTOPTFiron_throne.40" 	#baelors_crown
		trigger = {
		#	e_iron_throne = { NOT = { has_title_flag = baelors_crown } }
			NOT = { any_character = { has_artifact = baelors_crown } }
			trait = zealous
		}
		ai_chance = {
			factor = 10
			modifier = {
				factor = 5
				trait = lunatic
			}
			modifier = {
				factor = 2
				trait = humble
			}
			modifier = {
				factor = 0.5
				trait = proud
			}
		}
		tooltip_info = zealous
		custom_tooltip = {
			text = TOOLTIPiron_throne.40ADDCROWN
			hidden_tooltip = {
				add_artifact = baelors_crown
				new_artifact = {
					set_name = [Root.GetDynamicCrownName]
				}
			}
		}
		wealth = -50
		piety = 30
		e_iron_throne = { set_title_flag = baelors_crown }
	}
	option = {
		name = "EVTOPTGiron_throne.40" 	#aegon_IV_crown
		trigger = {
		#	e_iron_throne = { NOT = { has_title_flag = aegon_IV_crown } }
			NOT = { any_character = { has_artifact = aegon_IV_crown } }
		}
		ai_chance = {
			factor = 15
			modifier = {
				factor = 0
				trait = humble
			}
			modifier = {
				factor = 2
				trait = proud
			}
		}
		custom_tooltip = {
			text = TOOLTIPiron_throne.40ADDCROWN
			hidden_tooltip = {
				add_artifact = aegon_IV_crown
				new_artifact = {
					set_name = [Root.GetDynamicCrownName]
				}
			}
		}
		wealth = -175
		prestige = 50
		e_iron_throne = { set_title_flag = aegon_IV_crown }
	}
	option = {
		name = "EVTOPTHiron_throne.40" 	#maekars_crown
		trigger = {
		#	e_iron_throne = { NOT = { has_title_flag = maekars_crown } }
			NOT = { any_character = { has_artifact = maekars_crown } }
		}
		ai_chance = {
			factor = 10
			modifier = {
				factor = 2.5
				martial = 18
			}
		}
		custom_tooltip = {
			text = TOOLTIPiron_throne.40ADDCROWN
			hidden_tooltip = {
				add_artifact = maekars_crown
				new_artifact = {
					set_name = [Root.GetDynamicCrownName]
				}
			}
		}
		wealth = -175
		prestige = 50
		e_iron_throne = { set_title_flag = maekars_crown }
	}
	option = {
		name = "EVTOPTIiron_throne.40" 	#joffreys_crown
		trigger = {
		#	e_iron_throne = { NOT = { has_title_flag = joffreys_crown } }
			NOT = { any_character = { has_artifact = joffreys_crown } }
		}
		ai_chance = {
			factor = 10
			modifier = {
				factor = 2.5
				martial = 18
			}
		}
		custom_tooltip = {
			text = TOOLTIPiron_throne.40ADDCROWN
			hidden_tooltip = {
				add_artifact = joffreys_crown
				new_artifact = {
					set_name = [Root.GetDynamicCrownName]
				}
			}
		}
		wealth = -175
		prestige = 50
		e_iron_throne = { set_title_flag = joffreys_crown }
	}
	after = {
		primary_title = {
			set_title_flag = has_artifact_claims
			new_artifact = { 
				set_artifact_flag = heirloom_@ROOT 
				set_artifact_flag = title_heirloom_@ROOT
				clr_artifact_flag = heirloom_e_iron_throne
				set_artifact_flag = heirloom_@PREV
			}
		}
	}
}	