decisions = {
	freehold_colony_extend_term = { 
		is_high_prio = yes
		only_playable = yes
		
		potential = {
			is_ruler = yes
			government = colony_government
			liege = { is_valyrian_freehold_trigger = yes }
			OR = {
				NOT = { has_character_flag = freehold_colony_extend_term }
				had_character_flag = { flag = freehold_colony_extend_term days = 3650 }
			}	
		}
		allow = {
			prestige = 2000
			OR = {
				diplomacy = 15
				martial = 15
			}
			NOT = { trait = honorable }
			NOT = { trait = just }
			NOT = { has_character_modifier = extended_valyria_colony_term }
		}
				
		effect = {
			set_character_flag = freehold_colony_extend_term
			liege = {
				character_event = { id = valyria.82 tooltip = TOOLTIPvalyria.82 }
			}	
		}		
		ai_check_interval = 18
		ai_will_do = {
			factor = 0.025
			modifier = { #Motives
				factor = 0
				NOR = {
					trait = ambitious
					trait = lunatic
					relative_power_to_liege = 0.5	
				}
			}
			modifier = { #too weak
				factor = 0
				NOT = { relative_power_to_liege = 0.2 }
				NOT = { trait = lunatic }
				NOT = { trait = greedy }
			}
			
			modifier = {
				factor = 3
				trait = ambitious
			}
			modifier = {
				factor = 2
				trait = arbitrary
			}
			modifier = {
				factor = 2
				trait = ruthless
			}
			modifier = {
				factor = 2
				trait = greedy
			}
			modifier = {
				factor = 2
				trait = proud
			}
			modifier = {
				factor = 2
				trait = wroth
			}
			modifier = {
				factor = 2
				trait = brave
			}
			
			modifier = {
				factor = 0
				trait = content
			}
			modifier = {
				factor = 0.33
				trait = humble
			}
			modifier = {
				factor = 0.33
				trait = charitable
			}
			modifier = {
				factor = 0.33
				trait = honest
			}
			modifier = {
				factor = 0.33
				trait = craven
			}
			modifier = {
				factor = 0.5
				trait = patient
			}
		} 
	}
	
	dragon_dreams_reveal_plots = { #reveal plots
		is_high_prio = yes
		only_playable = yes
		
		potential = {
			is_ruler = yes
			OR = {
				trait = dragon_dreams
				any_courtier = { trait = dragon_dreams }
			}
		}
		allow = {
			custom_tooltip = {
				text = TOOLTIPredgod_reveal_plots # Localisation works for this as well
				hidden_tooltip = {
					OR = {
						any_unknown_plotter = { 
							plot_target_char = { always = yes }
							NOT = { has_plot = plot_rescue_prisoner }
							NOT = { plot_is_known_by = ROOT }
							NOT = { character = ROOT }
						}
						any_spouse = {
							any_unknown_plotter = {
								plot_target_char = { always = yes }
								NOT = { has_plot = plot_rescue_prisoner }
								NOT = { plot_is_known_by = ROOT }
								NOT = { character = ROOT }
							}
						}
						any_close_relative = {
							OR = {
								dynasty = ROOT
								is_child_of = ROOT
								is_grandchild_of = ROOT
								is_parent_of = ROOT
								is_grandparent_of = ROOT
								sibling = ROOT							
							}
							any_unknown_plotter = {
								plot_target_char = { always = yes }
								NOT = { has_plot = plot_rescue_prisoner }
								NOT = { plot_is_known_by = ROOT }
								NOT = { character = ROOT }
							}
						}
					}
				}
			}
			OR = {
				trait = dragon_dreams
				custom_tooltip = {
					text = TOOLTIPdragon_dreams_reveal_plotsCOURTIER
					hidden_tooltip = {
						any_courtier = { 
							trait = dragon_dreams 
							opinion = { who = ROOT value = 0 }	
							is_incapable = no
							prisoner = no
							NOT = { is_inaccessible_trigger = yes }
							NOT = { character = ROOT }
						}
					}
				}	
			}
			is_incapable = no
			prisoner = no
			NOT = { has_character_modifier = dragon_dreams_reveal_plots_timer }
		}
				
		effect = {
			if = {
				limit = { trait = dragon_dreams }
				save_event_target_as = dragon_dreamer
				random_list = {
					50 = {
						custom_tooltip = {
							text = TOOLTIPredgod_reveal_plotsSUCCESS # Localisation works for this as well
							hidden_tooltip = { ROOT = { character_event = { id = high_valyrian.30 } } }
						}
						
						modifier = {
							factor = 3
							culture = high_valyrian
						}
						modifier = {
							factor = 1.5
							culture_group = valyrian
						}
						modifier = {
							factor = 1.5
							is_coin_flip_dynasty_trigger = yes
						}
						
						modifier = {
							factor = 0.66
							NOT = { learning = 4 }
						}
						modifier = {
							factor = 0.66
							NOT = { learning = 8 }
						}
						modifier = {
							factor = 1.5
							learning = 12
						}
						modifier = {
							factor = 1.5
							learning = 16
						}
						modifier = {
							factor = 1.5
							learning = 20
						}
						
						modifier = {
							factor = 0.66
							NOT = { intrigue = 4 }
						}
						modifier = {
							factor = 0.66
							NOT = { intrigue = 8 }
						}
						modifier = {
							factor = 1.5
							intrigue = 12
						}
						modifier = {
							factor = 1.5
							intrigue = 16
						}
						modifier = {
							factor = 1.5
							intrigue = 20
						}
					}
					50 = {
						custom_tooltip = {
							text = TOOLTIPredgod_reveal_plotsFAIL # Localisation works for this as well
							hidden_tooltip = { ROOT = { character_event = { id = high_valyrian.31 } } }
						}	
					}
				}
			}
			else = {
				random_courtier = {
					limit = { 
						trait = dragon_dreams 
						opinion = { who = ROOT value = 0 }	
						is_incapable = no
						prisoner = no
						NOT = { is_inaccessible_trigger = yes }
						NOT = { character = ROOT }
					}
					save_event_target_as = dragon_dreamer
					random_list = {
						50 = {
							custom_tooltip = {
								text = TOOLTIPredgod_reveal_plotsSUCCESS # Localisation works for this as well
								hidden_tooltip = { ROOT = { character_event = { id = high_valyrian.30 } } }
							}
							
							modifier = {
								factor = 3
								culture = high_valyrian
							}
							modifier = {
								factor = 1.5
								culture_group = valyrian
							}
							modifier = {
								factor = 1.5
								is_coin_flip_dynasty_trigger = yes
							}
							
							modifier = {
								factor = 0.66
								NOT = { learning = 4 }
							}
							modifier = {
								factor = 0.66
								NOT = { learning = 8 }
							}
							modifier = {
								factor = 1.5
								learning = 12
							}
							modifier = {
								factor = 1.5
								learning = 16
							}
							modifier = {
								factor = 1.5
								learning = 20
							}
							
							modifier = {
								factor = 0.66
								NOT = { intrigue = 4 }
							}
							modifier = {
								factor = 0.66
								NOT = { intrigue = 8 }
							}
							modifier = {
								factor = 1.5
								intrigue = 12
							}
							modifier = {
								factor = 1.5
								intrigue = 16
							}
							modifier = {
								factor = 1.5
								intrigue = 20
							}
						}
						50 = {
							custom_tooltip = {
								text = TOOLTIPredgod_reveal_plotsFAIL # Localisation works for this as well
								hidden_tooltip = { ROOT = { character_event = { id = high_valyrian.31 } } }
							}	
						}
					}
				}
			}
			hidden_tooltip = {
				add_character_modifier = {
					name = dragon_dreams_reveal_plots_timer
					duration = 365
				}
			}
		}	
		ai_check_interval = 3	
		ai_will_do = {
			factor = 100
		} 
	}
	glass_candle_reveal_plots = { #reveal plots
		is_high_prio = yes
		only_playable = yes
		
		potential = {
			is_ruler = yes
			any_artifact = {
				artifact_type = glass_candle
				is_artifact_active = yes
			}
		}
		allow = {
			custom_tooltip = {
				text = TOOLTIPredgod_reveal_plots # Localisation works for this as well
				hidden_tooltip = {
					OR = {
						any_unknown_plotter = { 
							plot_target_char = { always = yes }
							NOT = { has_plot = plot_rescue_prisoner }
							NOT = { plot_is_known_by = ROOT }
							NOT = { character = ROOT }
						}
						any_spouse = {
							any_unknown_plotter = {
								plot_target_char = { always = yes }
								NOT = { has_plot = plot_rescue_prisoner }
								NOT = { plot_is_known_by = ROOT }
								NOT = { character = ROOT }
							}
						}
						any_close_relative = {
							OR = {
								dynasty = ROOT
								is_child_of = ROOT
								is_grandchild_of = ROOT
								is_parent_of = ROOT
								is_grandparent_of = ROOT
								sibling = ROOT							
							}
							any_unknown_plotter = {
								plot_target_char = { always = yes }
								NOT = { has_plot = plot_rescue_prisoner }
								NOT = { plot_is_known_by = ROOT }
								NOT = { character = ROOT }
							}
						}
					}
				}
			}
			any_artifact = {
				artifact_type = glass_candle
				is_artifact_active = yes
			}
			NOT = { has_character_modifier = glass_candle_reveal_plots_timer }
		}
				
		effect = {
			random_list = {
				50 = {
					custom_tooltip = {
						text = TOOLTIPredgod_reveal_plotsSUCCESS # Localisation works for this as well
						hidden_tooltip = { character_event = { id = high_valyrian.51 } }
					}
					
					modifier = {
						factor = 2
						trait = mystic
					}
					modifier = {
						factor = 1.5
						religion_group = valyrian_rel_group
					}
					
					modifier = {
						factor = 0.66
						NOT = { learning = 4 }
					}
					modifier = {
						factor = 0.66
						NOT = { learning = 8 }
					}
					modifier = {
						factor = 1.5
						learning = 12
					}
					modifier = {
						factor = 1.5
						learning = 16
					}
					modifier = {
						factor = 1.5
						learning = 20
					}
					
					modifier = {
						factor = 0.66
						NOT = { intrigue = 4 }
					}
					modifier = {
						factor = 0.66
						NOT = { intrigue = 8 }
					}
					modifier = {
						factor = 1.5
						intrigue = 12
					}
					modifier = {
						factor = 1.5
						intrigue = 16
					}
					modifier = {
						factor = 1.5
						intrigue = 20
					}
				}
				50 = {
					custom_tooltip = {
						text = TOOLTIPredgod_reveal_plotsFAIL # Localisation works for this as well
						hidden_tooltip = { character_event = { id = high_valyrian.52 } }
					}	
				}
			}
			hidden_tooltip = {
				add_character_modifier = {
					name = glass_candle_reveal_plots_timer
					duration = 365
				}
			}
		}		
		ai_check_interval = 3
		ai_will_do = {
			factor = 0.3
			modifier = {
				factor = 100
				trait = paranoid 
			}
		} 
	}
}
targetted_decisions = {
	glass_candle_visions = {
		ai_target_filter = none
		filter = all
		ai = no
		only_playable = yes
		diplomacy_icon = GFX_glass_candle_visions
		
		from_potential = {
			ai = no #ai targets via event
			any_artifact = {
				artifact_type = glass_candle
				is_artifact_active = yes
			}
		}
		
		potential = {
			NOT = { character = FROM }
			NOT_mythical_creature_trigger = yes		
		}
		
		allow = {
			FROM = {
				NOT = { has_character_modifier = glass_candle_visions_timer }
				NOT = { trait = honorable }
				NOT = { trait = honest }
			}	
			age = 10
			OR = {
				NOT = { trait = stressed }
				NOT = { trait = depressed }
			}
		}
		effect = {
			save_event_target_as = glass_candle_victim
			FROM = {
				random_list = {
					50 = {
						custom_tooltip = {
							text = TOOLTIPglass_candle_visionsSUCCESS
							hidden_tooltip = { character_event = { id = high_valyrian.54 } }
						}
						
						modifier = {
							factor = 2
							trait = mystic
						}
						modifier = {
							factor = 1.5
							religion_group = valyrian_rel_group
						}
						
						modifier = {
							factor = 0.66
							NOT = { learning = 4 }
						}
						modifier = {
							factor = 0.66
							NOT = { learning = 8 }
						}
						modifier = {
							factor = 1.5
							learning = 12
						}
						modifier = {
							factor = 1.5
							learning = 16
						}
						modifier = {
							factor = 1.5
							learning = 20
						}
						
						modifier = {
							factor = 0.66
							NOT = { intrigue = 4 }
						}
						modifier = {
							factor = 0.66
							NOT = { intrigue = 8 }
						}
						modifier = {
							factor = 1.5
							intrigue = 12
						}
						modifier = {
							factor = 1.5
							intrigue = 16
						}
						modifier = {
							factor = 1.5
							intrigue = 20
						}
					}
					50 = {
						custom_tooltip = {
							text = TOOLTIPglass_candle_visionsFAIL
							hidden_tooltip = { character_event = { id = high_valyrian.55 } }
						}	
					}
				}
				hidden_tooltip = {
					add_character_modifier = {
						name = glass_candle_visions_timer
						duration = 200
					}
				}
			}			
		}
		ai_will_do = {
			factor = 0
		}
	}
	grant_purity_of_blood = {
		only_playable = yes
		ai_target_filter = vassals_including_me
		filter = all_including_me
		from_potential = {
			is_ruler = yes
			demesne_size = 1
			religion = valyrian_rel_reformed
			controls_religion = yes
			OR = {
				has_religion_feature = religion_feature_valyrian_rel
				NOT = { has_dlc = "Holy Fury" }
			}
		}
		potential = {
			religion = FROM
			is_divine_blood_dynasty_trigger = no
			dynasty_head = { character = ROOT }
		}
		allow = {
			FROM = {
				has_regent = no
				piety = 100
				prisoner = no
				NOT = { is_inaccessible_trigger = yes }
				NOT = { war_with = ROOT }
			}	
			OR = {
				culture = high_valyrian
				graphical_culture = valyriangfx
			}
			NOT = { dynasty = 0 }
		}
		effect = {
			FROM = { piety = -100 }
			custom_tooltip = {
				text = TOOLTIP_grant_purity_of_blood
				character_event = { id = high_valyrian.70 }
			}
			tooltip = {
				if = {
					limit = {
						graphical_culture = valyriangfx
						NOT = { culture = high_valyrian }
					}
					culture = high_valyrian
				}
				if = {
					limit = { 
						NOT = { any_owned_bloodline = { has_flag = blood_of_the_dragon } }
					}
					create_bloodline = {
						type = blood_of_the_dragon
					}
				}
			}
			opinion = { who = FROM modifier = opinion_made_pure_blood months = 240 }
		}
		ai_check_interval = 16
		ai_will_do = {
			factor = 1
			modifier = {
				factor = 0.025
			}
			modifier = {
				factor = 0
				NOR = {
					higher_tier_than = BARON
					is_councillor = yes
					is_voter = yes
					is_close_relative = ROOT
					is_married = ROOT
					reverse_opinion = { who = FROM value = 80 }
					AND = {
						relative_power = { who = FROM power = 0.25 }
						NOT = { opinion = { who = FROM value = -40 } }
					}
				}
			}
			modifier = {
				factor = 0
				NOT = { reverse_opinion = { who = FROM value = -20 } }
				NAND = {
					relative_power = { who = FROM power = 0.25 }
					NOT = { opinion = { who = FROM value = -40 } }
				}
			}
			modifier = {
				factor = 1.5
				relative_power = { who = FROM power = 0.25 }
			}
			modifier = {
				factor = 1.5
				tier = DUKE
			}
			modifier = {
				factor = 2.5
				tier = KING
			}
			modifier = {
				factor = 2
				is_close_relative = ROOT
			}
			modifier = {
				factor = 2
				reverse_opinion = { who = FROM value = 20 }
			}
			modifier = {
				factor = 2
				reverse_opinion = { who = FROM value = 60 }
			}
			modifier = {
				factor = 2
				reverse_opinion = { who = FROM value = 100 }
			}
			modifier = {
				factor = 0.5
				FROM = { trait = zealous }
			}
			modifier = {
				factor = 0.5
				FROM = { trait = proud }
			}
			modifier = {
				factor = 0.5
				FROM = { trait = greedy }
			}
			modifier = {
				factor = 2
				FROM = { trait = cynical }
			}
			modifier = {
				factor = 2
				FROM = { trait = charitable }
			}
			modifier = {
				factor = 2
				FROM = { trait = humble }
			}
		}
	}
}