1.1.1={ law=succ_primogeniture law=cognatic_succession
	liege="d_oldtown"
	de_jure_liege = d_blackcrown
}

60.1.1 = { holder=6000284 } # Bors the Breaker (C)

78.1.1 = { holder=0 }

7830.1.1 = { holder=6200284 } # Boryan (nc)
7868.1.1 = { holder=6300284 } # Turan (nc)
7892.1.1 = { holder=6400284 } # Andrik (nc)
7938.1.1 = { holder=6600284 } # Perceon (nc)
7972.1.1 = { holder=6800284 } # Barrett (nc)

7974.1.1 = { holder=3000284 } # Bors (nc)
7999.1.1 = { holder=3001284 } # John (nc)
8019.1.1 = { holder=3006284 } # Victor (nc)
8078.1.1 = { holder=3010284 } # Reynard (nc)
8106.1.1 = { holder=3011284 } # Horras (nc)
8124.1.1 = { holder=3016284 } # Lorent (nc)
8143.1.1 = { holder=3017284 } # Rickard (nc)
8144.1.1 = { holder=3019284 } # Lyonel (nc)
8201.1.1 = { holder=3020284 } # Petyr (nc)
8204.1.1 = { holder=3022284 } # Ben (nc)
8218.1.1 = { holder=3024284 } # Gerold (nc)
8240.1.1 = { holder=3029284 } # Buford (nc)
8276.1.1 = { holder=3033284 } # Moryn (nc)
8289.1.1={
	holder=284 #Jon
}
8296.1.1={
	holder=1284 #Alysanne
}



