6000.1.1= {
liege="d_dreadfort"
de_jure_liege = d_long_lake
law = succ_primogeniture
}
7976.1.1 = {
	holder=15094
}
8013.1.1 = {
	holder=13094
}
8042.1.1 = {
	holder=12094
}
8057.1.1 = {
	holder=11094
}
8066.1.1 = {
	holder=10094
}
8112.1.1 = {
	holder=9094
}
8142.1.1 = {
	holder=8094
}
8156.1.1 = {
	holder=7094
}
8177.1.1 = {
	holder=6094
}
8184.9.10 = {
	holder=5094
}
8229.1.1 = {
	holder=4094
}
8239.1.1 = {
	holder=3094
}
8262.1.5 = {
	holder=94
}


