6000.1.1={
	liege="d_widowswatch"
	de_jure_liege = d_widowswatch
	law = succ_primogeniture
}
7972.1.1={
	holder=16085
}
8007.1.1={
	holder=15085
}
8013.1.1={
	holder=14085
}
8028.1.1={
	holder=13085
}
8039.1.1={
	holder=12085
}
8084.1.1={
	holder=10085
}
8092.1.1={
	holder=9085
}
8115.1.1={
	holder=8085
}
8159.1.1={
	holder=7085
}
8172.1.1={
	holder=6085
}
8184.1.1={
	holder=5085
}
8229.1.1={
	holder=4085
}
8262.1.1={
	holder=85
}
