#c_peckledon
900.1.1={
	liege="d_river_road"
	de_jure_liege = d_river_road
}
7978.6.1 = { holder = 316219 }
7998.6.6 = { holder = 318219 }
8043.1.1 = { holder = 200219 }
8058.1.1 = { holder = 315219 }
8078.1.1 = { holder = 313219 }
8109.1.1 = { holder = 312219 }
8130.3.17 = { holder = 311219 }
8143.1.1 = { holder = 309219}
8165.1.1 = { holder = 305219 }
8204.1.1 = { holder = 304219 }
8227.1.1 = { holder = 303219 }
8248.1.1 = { holder = 301219 }
8259.3.8 = { holder = 300219 }
8259.3.9 = {	
holder=219
}