900.1.1={ law=succ_primogeniture law=cognatic_succession
	liege="d_red_lake"
}
7996.1.1 = { holder=88000885 } # Lucas (nc)
8014.1.1 = { holder=88000884 } # Ellard (nc)
8027.1.1 = { holder=88000883 } # Jon (nc)
8072.1.1 = { holder=88000882 } # Rolland (nc)
8095.1.1 = { holder=88000881 } # Russell (nc)
8121.1.1 = { holder=88000880 } # Marq (nc)
8126.1.1 = { holder=88000803 } # Victor (C)
8136.1.1 = { holder=88000804 } # Eden (nc) 
8165.1.1 = { holder=1001425 } # Owen (nc)
8196.1.1 = { holder=1021425 } # Randyll (nc)
8200.1.1 = { holder=1031425 } # Robert (nc)
8250.1.1 = { holder=1051425 } # Gunthor (nc)
8271.1.1={
	holder=88237
}








