900.1.1={ law=succ_primogeniture law=cognatic_succession
	liege="d_oldtown"
	de_jure_liege = d_uplands
}

7920.1.1 = { holder=60100247 } # Melkor (nc)
7970.1.1 = { holder=60000247 } # Mairon (nc)
7989.1.1 = { holder=6000247 } # Saron (nc)
8002.1.1 = { holder=6001247 } # Waldon (nc)
8037.1.1 = { holder=6002247 } # Rickard (nc)
8048.1.1 = { holder=6004247 } # Petyr (nc)
8073.1.1 = { holder=6007247 } # Elwood (nc)
8097.1.1 = { holder=6010247 } # Olyvar (nc)
8098.1.1 = { holder=6012247 } # 'Bold' Jon (C)
8130.5.8 = { holder=6014247 } # Gormon (nc)
8173.1.1 = { holder=6017247 } # Bayard (nc)
8183.1.1 = { holder=6015247 } # Patricia (nc)
8202.1.1 = { holder=6019247 } # Petyr (nc)
8240.1.1 = { holder=6020247 } # Erren (nc)
8258.1.1 = { holder=6023247 } # Elyas (nc)
8274.1.1={
	holder=247
}





