900.1.1={
	law = succ_primogeniture
}
6349.1.1 = { liege="e_vale" }
7980.1.1 = { holder=3100181 }
7999.1.1={ 
	liege="k_vale"
}
8030.1.1 = { holder=3000181 } # Melcolm (nc)
8059.1.1 = { holder=3002181 } # Mychel (nc)
8073.1.1 = { holder=3003181 } # Jasper (nc)
8085.1.1 = { holder=3007181 } # Rolland (nc)
8095.1.1 = { holder=3009181 } # Othor (nc)
8142.1.1 = { holder=3011181 } # Jeron (nc)
8174.1.1 = { holder=3013181 } # Dorik (nc)
8192.1.1 = { holder=3017181 } # Jon (nc)
8219.1.1 = { holder=3018181 } # Eustace (nc)

8263.1.1={
	holder=94078
}