1066.1.1={
	historical_nomad = yes
	law = slavery_2
}
7905.1.1 = {
	holder = 100600207 #Mengo
}
7928.1.1 = {
	holder = 102600207 #Moro
}
7946.1.1 = {
	holder = 100600208 #Horro
}
7951.1.1 = {
	holder = 0 #dothraki splinter
	name = ESSOS
}