623.1.1={ 
	liege="c_pyke"
	law = succ_primogeniture
	law = agnatic_succession
}

6880.1.1 = { holder=151174419 } # Cadron (nc)
6903.1.1 = { holder=136174419 } # Harlon (nc)
6960.1.1 = { holder=137174419 } # Ygon (nc)
6976.1.1 = { holder=138174419 } # Hilmar (nc)
7019.1.1 = { holder=143174419 } # Dagmer (nc)
7048.1.1 = { holder=149174419 } # Todric (nc)
7070.1.1 = { holder=150174419 } # Cadron (nc)
7095.1.1 = { holder=100174419 } # Cadwyl (nc)
7118.1.1 = { holder=104174419 } # Hagen (nc)
7161.1.1 = { holder=106174419 } # Manfryd (nc)
7179.1.1 = { holder=108174419 } # Romny (nc)
7196.1.1 = { holder=110174419 } # Gyles (nc)
7251.1.1 = { holder=113174419 } # Sargon (nc)
7261.1.1 = { holder=114174419 } # Harlon (nc)
7282.1.1 = { holder=115174419 } # Erik (nc)
7294.1.1 = { holder=116174419 } # Sawane (nc)
7320.1.1 = { holder=120174419 } # Alyn (nc)
7366.1.1 = { holder=126174419 } # Andrik (nc)
7374.1.1 = { holder=128174419 } # Qalen (nc)




