623.1.1={ 
	liege="k_pentos"
	holding_dynasty = 55926
}
7086.1.1 = { holder=100174360 } # Luco (nc)
7125.1.1 = { holder=102174360 } # Narbo (nc)
7157.1.1 = { holder=109174360 } # Izembaro (nc)
7194.1.1 = { holder=110174360 } # Ezzelyno (nc)
7209.1.1 = { holder=111174360 } # Narbo (nc)
7226.1.1 = { holder=113174360 } # Collio (nc)
7237.1.1 = { holder=115174360 } # Yorko (nc)
7243.1.1 = { holder=121174360 } # Yollo (sc)
7298.1.1 = { holder=127174360 } # Groleo (nc)
7323.1.1 = { holder=129174360 } # Collio (nc)
7348.1.1 = { holder=133174360 } # Mero (nc)
7369.1.1 = { holder=0 liege=0 } 







