623.1.1={
	liege="c_oldvolantis"
	law = succ_seniority
	law = agnatic_succession
}
7066.1.1 = { holder=100174602 } # Doniphos (nc)
7108.1.1 = { holder=104174602 } # Horonno (nc)
7144.1.1 = { holder=105174602 } # Parquello (nc)
7164.1.1 = { holder=107174602 } # Nyessos (nc)
7171.1.1 = { holder=111174602 } # Qavo (nc)
7197.1.1 = { holder=112174602 } # Daegar (nc)
7218.1.1 = { holder=114174602 } # Alios (nc)
7249.1.1 = { holder=118174602 } # Benerro (nc)
7260.1.1 = { holder=124174602 } # Gorys (nc)
7265.1.1 = { holder=125174602 } # Matarys (nc)
7303.1.1 = { holder=129174602 } # Belicho (nc)
7332.1.1 = { holder=133174602 } # Vaekar (nc)
7344.1.1 = { holder=134174602 } # Moqorro (nc)
7363.1.1 = { holder=137174602 } # Moqorro (nc)
