7050.1.1 = { 
	liege=k_volantis
	holding_dynasty=174371
} 
7075.1.1 = { holder=100174371 } # Qoherys (nc)
7096.12.12 = { holder=101174371 } #Matarys (nc)
7111.1.1 = { holder=103174371 } # Vogarro (nc)
7136.1.1 = { holder=104174371 } # Matarys (nc)
7152.1.1 = { holder=106174371 } # Parquello (nc)
7165.1.1 = { holder=111174371 } # Belicho (nc)
7186.1.1 = { holder=115174371 } # Benerro (nc)
7209.1.1 = { holder=116174371 } # Aenar (nc)
7223.1.1 = { holder=119174371 } # Moqorro (nc)
7230.1.1 = { holder=120174371 } # Jaekar (nc)
7248.1.1 = { holder=122174371 } # Doniphos (nc)
7270.1.1 = { holder=130174371 } # Horonno (nc)
7287.1.1 = { holder=134174371 } # Qava (nc)
7303.1.1 = { holder=136174371 } # Benerro (nc)
7321.1.1 = { holder=139174371 } # Orys (nc)
7337.1.1 = { holder=146174371 } # Qoherys (nc)
7367.1.1 = { holder=147174371 } # Malaquo
