623.1.1={ 
	liege="c_volontherys"
}
7075.1.1 = { holder=108174600 } # Colloquo (nc)
7123.1.1 = { holder=110174600 } # Belicho (nc)
7150.1.1 = { holder=115174600 } # Colloquo (nc)
7153.1.1 = { holder=117174600 } # Malaquo (nc)
7157.1.1 = { holder=119174600 } # Nyessos (nc)
7192.1.1 = { holder=120174600 } # Nyessos (nc)
7215.1.1 = { holder=125174600 } # Aelix (nc)
7237.1.1 = { holder=128174600 } # Jaekar (nc)
7287.1.1 = { holder=136174600 } # Methyso (nc)
7328.1.1 = { holder=142174600 } # Haerys (nc)
7330.1.1 = { holder=145174600 } # Jaekar (nc)
7379.1.1 = { holder=100174398 }


