623.1.1={ 
	liege="k_pentos"
}
7064.1.1 = { holder=100300012 } # Yorko (nc)
7106.1.1 = { holder=102300012 } # Narbo (nc)
7132.1.1 = { holder=103300012 } # Oro (nc)
7145.1.1 = { holder=105300012 } # Luco (nc)
7178.1.1 = { holder=108300012 } # Qarro (nc)
7185.1.1 = { holder=112300012 } # Izembaro (nc)
7228.1.1 = { holder=114300012 } # Denyo (nc)
7230.1.1 = { holder=118300012 } # Allaquo (nc)
7248.1.1 = { holder=123300012 } # Gyloro (nc)
7256.1.1 = { holder=128300012 } # Roggo (nc)
7298.1.1 = { holder=130300012 } # Ordello (nc)
7331.1.1 = { holder=132300012 } # Meralyn (nc)
7340.1.1 = { holder=135300012 } # Ordello (nc)
7381.1.1 = { holder=142300012 } # Tregar (nc)







