623.1.1={
	liege="d_bhorash"
}

7095.1.1 = { holder=100069143 } # Rolloquo (nc)
7131.1.1 = { holder=100169143 } # Yorko (nc)
7132.1.1 = { holder=100369143 } # Colloquo (nc)
7177.1.1 = { holder=100569143 } # Malaquo (nc)
7194.1.1 = { holder=100969143 } # Doniphos (nc)
7199.1.1 = { holder=101169143 } # Vogarro (nc)
7235.1.1 = { holder=101269143 } # Ordello (nc)
7284.1.1 = { holder=101969143 } # Methyso (nc)
7303.1.1 = { holder=102169143 } # Benerro (nc)
7314.1.1 = { holder=102369143 } # Meralyn (nc)
7328.1.1 = { holder=102469143 } # Allaquo (nc)
7344.1.1 = { holder=102769143 } # Benerro (nc)
7387.1.1 = { holder=103369143 } # Vysarro (nc)
