6700.1.1={
	#liege="e_stormlands"
	law = succ_primogeniture
}
7020.1.1={
	#liege="e_iron_isles" #maybe independent
}
7094.1.1 = { holder=3000042 } # Godry Brune (nc)
7124.1.1 = { holder=3001042 } # Perkin Brune (nc)
7170.1.1 = { holder=3009042 } # Gwayne Brune (nc)
7178.1.1 = { holder=3013042 } # Belis Brune (nc)
7203.1.1 = { holder=3017042 } # Hubard Brune (nc)
7250.1.1 = { holder=3022042 } # Bryen Brune (nc)
7297.1.1 = { holder=3025042 } # Boros Brune (nc)
7311.1.1 = { holder=3028042 } # Rolland Brune (nc)
7331.1.1 = { holder=2029042 } # Eustace Brune (C)
#7399.1.4 = {liege=0} # Join Stannis during the Wot5k
