4500.1.1={
	liege="d_sarnath"
	law = succ_primogeniture
}
7092.1.1 = { holder=10056813 } # Lokesh (nc)
7123.1.1 = { holder=10256813 } # Utkarsh (nc)
7158.1.1 = { holder=10556813 } # Lakshan (nc)
7170.1.1 = { holder=11056813 } # Harihar (nc)
7210.1.1 = { holder=11356813 } # Atharvan (nc)
7219.1.1 = { holder=11756813 } # Manaar (nc)
7252.1.1 = { holder=12156813 } # Palash (nc)
7270.1.1 = { holder=12456813 } # Ekavir (nc)
7292.1.1 = { holder=12656813 } # Sagar (nc)
7314.1.1 = { holder=12856813 } # Taresh (nc)
7339.1.1 = { holder=13056813 } # Onkar (nc)
7354.1.1 = { holder=13356813 } # Harith (nc)
7386.1.1 = { holder=13556813 } # Yogesh (nc)

