6340.1.1={
	liege="d_ghosthills"
	law = true_cognatic_succession
}

7060.1.1 = { holder=35004 } # Castos (nc)
7096.1.1 = { holder=35014 } # Cassana (nc)
7107.1.1 = { holder=35024 } # Allar (nc)
7112.1.1 = { holder=35074 } # Lewyn (nc)
7151.1.1 = { holder=35114 } # Nymerios (nc)
7180.1.1 = { holder=35124 } # Harmen (nc)
7208.1.1 = { holder=35174 } # Doran (nc)
7221.1.1 = { holder=35204 } # Marya (nc)
7244.1.1 = { holder=35214 } # Ryon (nc)
7260.7.4 = { holder=35224 } # Lythene (nc)
7270.1.1 = { holder=35234 } # Liane (nc)
7318.1.1 = { holder=35274 } # Lythene (nc)
7354.1.1 = { holder=35294 } # Aron (nc)
7359.2.8 = { holder=35334 } # Armen (nc)
7379.3.2 = { holder=1004 } # Nymeria (c)
