#House Ekwensu
7084.1.1 = { 
	holder=100304019 
	liege=d_west_jhala
	law = succ_seniority
	law = cognatic_succession
} # Anyim (nc)
7124.1.1 = { holder=101304019 } # Jalabhar (nc)
7145.1.1 = { holder=106304019 } # Chakoro (nc)
7147.1.1 = { holder=102304019 } # Jalahuru (nc)
7154.1.1 = { holder=108304019 } # Anyim (nc)
7192.1.1 = { holder=114304019 } # Tal (nc)
7203.1.1 = { holder=115304019 } # Adeyemu (nc)
7221.1.1 = { holder=116304019 } # Rudo (nc)
7222.1.1 = { holder=118304019 } # Olujondo (nc)
7229.1.1 = { holder=121304019 } # Simbhar (nc)
7259.1.1 = { holder=124304019 } # Siboxhoan (nc)
7286.1.1 = { holder=129304019 } # Xhondo (nc)
7305.1.1 = { holder=130304019 } # Xhal (nc)
7352.1.1 = { holder=132304019 } # Kwasya (nc)
7356.1.1 = { holder=134304019 } # Odingaxho (nc)
7371.1.1 = { holder=135304019 } # Xataya (nc)
7382.1.1 = { holder=136304019 } # Rudo (nc)

