1523.1.1={
	liege="k_skahazadhan"
	law=succ_primogeniture 
	law=cognatic_succession
}
7095.1.1 = { holder=1000220 } # Paezhar (nc)
7135.1.1 = { holder=1001220 } # Haznak (nc)
7174.1.1 = { holder=1004220 } # Skahaz (nc)
7191.1.1 = { holder=1006220 } # Zaraq (nc)
7226.1.1 = { holder=1008220 } # Gorzhak (nc)
7258.1.1 = { holder=1012220 } # Ghazdor (nc)
7290.1.1 = { holder=1015220 } # Yurkhaz (nc)
7303.1.1 = { holder=1017220 } # Grazdhan (nc)
7324.1.1 = { holder=1019220 } # Bharkaz (nc)
7350.1.1 = { holder=1023220 } # Yarkhaz (nc)
7382.1.1 = { holder=1027220 } # Barkhaz (nc)
7405.1.1 = { holder=1033220 } # Hizdhar (nc)
7418.1.1 = { holder=1035220 } # Faezdhar (nc)

