623.1.1 = { 
	law=succ_primogeniture 
	law=cognatic_succession
	liege = d_hills_essaria
}
7095.1.1 = { holder=10002903 } # Aenar (nc)
7127.1.1 = { holder=10032903 } # Malaquo (nc)
7134.1.1 = { holder=10052903 } # Vaeron (nc)
7156.1.1 = { holder=10072903 } # Vaekar (nc)
7202.1.1 = { holder=10092903 } # Jaekar (nc)
7232.1.1 = { holder=10132903 } # Orys (nc)
7246.1.1 = { holder=10162903 } # Nyessos (nc)
7265.1.1 = { holder=10212903 } # Moqorro (nc)
7309.1.1 = { holder=10242903 } # Qoherys (nc)
7341.1.1 = { holder=10282903 } # Benerro (nc)
7347.1.1 = { holder=10292903 } # Gorys (nc)
7399.1.1 = { holder=10312903 } # Daegar (nc)
7425.1.1 = { holder=10332903 } # Malaquo (nc)

