623.1.1={
	liege="d_faros"
}

7095.1.1 = { holder=100559336 } # Idris (nc)
7136.1.1 = { holder=101559336 } # Mirza (nc)
7144.1.1 = { holder=105559336 } # Ali_Ali (nc)
7197.1.1 = { holder=108559336 } # Isa (nc)
7210.1.1 = { holder=111559336 } # Aghlab (nc)
7228.1.1 = { holder=113559336 } # Shujah (nc)
7262.1.1 = { holder=117559336 } # Akin (nc)
7289.1.1 = { holder=120559336 } # Husam (nc)
7309.1.1 = { holder=122559336 } # Ghalib (nc)
7333.1.1 = { holder=123559336 } # Mirza (nc)
7384.1.1 = { holder=125559336 } # Sadiq (nc)
7394.1.1 = { holder=126559336 } # Faruk (nc)

