1690.1.1 = { 
	holder=10065961
}
1778.1.1 = { holder=0 }

1837.1.1 = { 
	holder=10365961
}
1867.1.1 = { holder=0 }
6208.1.1 = {
	holder = 10065963 #Lo Han
}
6255.1.1 = {
	holder = 10165963 #Lo bu
}
6265.1.1 = {
	holder=  0
}



