5300.1.1={
	liege="d_ironoaks"
	law = succ_primogeniture
}

7092.1.1 = { holder=3000182 } # Robar (nc)
7122.1.1 = { holder=3001182 } # Osgood (nc)
7143.1.1 = { holder=3006182 } # Hugh (nc)
7186.1.1 = { holder=3008182 } # Ronnel (nc)
7207.1.1 = { holder=3012182 } # Jasper (nc)
7235.1.1 = { holder=3013182 } # Lyonel (nc)
7279.1.1 = { holder=3015182 } # Gwayne (nc)

7304.1.1 = { 
	holder=94019
}
7356.1.1={
	holder=94020
}
