#House Kano
7080.1.1 = { 
	holder=100304024 
	liege=d_tall_trees_valley
	law = succ_seniority
	law = cognatic_succession
} # Adeyemu (nc)
7102.1.1 = { holder=101304024 } # Jaramogo (nc)
7120.1.1 = { holder=102304024 } # Lusala (nc)
7167.1.1 = { holder=104304024 } # Xhelimo (nc)
7184.1.1 = { holder=106304024 } # Xhonodo (nc)
7216.1.1 = { holder=107304024 } # Arkamun (nc)
7225.1.1 = { holder=109304024 } # Manahuru (nc)
7242.1.1 = { holder=112304024 } # Xhelimo (nc)
7271.1.1 = { holder=115304024 } # Mermesbhar (nc)
7305.1.1 = { holder=120304024 } # Dubaku (nc)
7306.1.1 = { holder=121304024 } # Isodo (nc)
7335.1.1 = { holder=122304024 } # Quhuru (nc)
7352.1.1 = { holder=124304024 } # Qubhar (nc)
7373.1.1 = { holder=127304024 } # Xhal (nc)
