623.1.1={
liege="d_lasthearth"
law = succ_primogeniture
}
7086.1.1={
	holder=17093
}
7115.1.1={
	holder=16093
}
7128.1.1={
	holder=15093
}
7139.1.1={
	holder=14093
}
7187.1.1={
	holder=13093
}
7227.1.1={
	holder=12093
}
7259.1.1={
	holder=11093
}
7298.1.1={
	holder=10093
}
7315.1.1={
	holder=9093
}
7351.1.1={
	holder=5093
}
7379.1.1={
	holder=93
}
7391.1.1={
	holder=3093
}
