623.1.1={
	liege="d_linqi"
}
7095.1.1 = { holder=10069192 } # Sami (nc)
7134.1.1 = { holder=10169192 } # Uways (nc)
7151.1.1 = { holder=10569192 } # Samir (nc)
7154.1.1 = { holder=10869192 } # Jalil (nc)
7228.1.1 = { holder=10969192 } # Youkhanna (nc)
7242.1.1 = { holder=11169192 } # Qadir (nc)
7258.1.1 = { holder=11369192 } # Aarif (nc)
7276.1.1 = { holder=11769192 } # Isa (nc)
7307.1.1 = { holder=12069192 } # Ramadan (nc)
7328.1.1 = { holder=12469192 } # Azam (nc)
7335.1.1 = { holder=12769192 } # Sami (nc)
7392.1.1 = { holder=13069192 } # Murad (nc)


