
5100.1.1={
	liege="d_bayofclaws"
	law = succ_primogeniture
}
7073.1.1={
	holder=501138 #Florian I
}
7110.1.1 = {
	holder=502138 #Florian II
}
7127.1.1 = {
	holder=503138 #Florian III
}
7149.1.1 = {
	holder=504138 #Florian IV
}
7160.1.1 = {
	holder=505138 #Florian V
}
7162.1.1 = {
	holder=507138 #Humfrey
}

7172.1.1={
	holder=20138 # Ryger Mooton
}
7214.1.1={
    holder=560138 # Walys Mooton (C)
}
7229.5.1={
   holder=570138 # Manfryd Mooton (C)
 }  
7234.5.8 = {
	holder=18138 # Gaston Mooton
}
7267.1.1={
	holder=17138 # Bryar Mooton
}
7276.1.1={
	holder=14138 # Edmure Mooton
}
7340.1.1={
	holder=12138
}
7363.1.1={
	holder=11138
}
7375.1.1={
	holder=138
}	


