623.1.1={ 
	liege="k_pentos"
}
7080.1.1 = { holder=100174366 } # Roggo (nc)
7119.1.1 = { holder=102174366 } # Moredo (nc)
7127.1.1 = { holder=104174366 } # Denyo (nc)
7189.1.1 = { holder=108174366 } # Brusco (nc)
7198.1.1 = { holder=110174366 } # Allaquo (nc)
7222.1.1 = { holder=114174366 } # Lotho (nc)
7271.1.1 = { holder=116174366 } # Gyloro (nc)
7275.1.1 = { holder=120174366 } # Terro (nc)
7282.1.1 = { holder=125174366 } # Brusco (nc)
7300.1.1 = { holder=126174366 } # Ternesio (nc)
7358.1.1 = { holder=129174366 } # Terro (nc)
7385.1.1 = { holder=130174366 } # Moreo (nc)
7390.1.1 = { holder=132174366 } # Joss (nc)








