4500.1.1={
	#liege="k_sarnor"
	effect = {
		holder_scope = { 
			k_sarnor = {
				holder_scope = {
					make_tributary = { who = PREVPREV tributary_type = sarnori }
				}
			}
		}	
	}
	law = succ_primogeniture
}
7095.1.1 = { holder=10056816 } # Uttamesh (nc)
7120.1.1 = { holder=10156816 } # Nishad (nc)
7152.1.1 = { holder=10456816 } # Vishruth (nc)
7184.1.1 = { holder=10756816 } # Chanak (nc)
7202.1.1 = { holder=10956816 } # Parvesh (nc)
7220.1.1 = { holder=11056816 } # Uttamesh (nc)
7239.1.1 = { holder=11256816 } # Harihar (nc)
7277.1.1 = { holder=11556816 } # Girivar (nc)
7316.1.1 = { holder=11856816 } # Harith (nc)
7336.1.1 = { holder=11956816 } # Jash (nc)
7339.1.1 = { holder=12156816 } # Manish (nc)
7369.1.1 = { holder=12256816 } # Lakshan (nc)
7396.1.1 = { holder=12656816 } # Uttamesh (nc)
