5100.1.1={
	liege="d_redfort"
	law = succ_primogeniture
}
7090.1.1 = { holder=3000183 } # Humfrey (nc)
7122.1.1 = { holder=3003183 } # Danwell (nc)
7145.1.1 = { holder=3006183 } # Narbert (nc)
7164.1.1 = { holder=3007183 } # Andrey (nc)
7200.1.1 = { holder=3008183 } # Aethelmure (nc)
7244.1.1 = { holder=3010183 } # Clement (nc)
7246.1.1 = { holder=3012183 } # Lothar (nc)
7268.1.1 = { holder=3015183 } # Marq (nc)
7321.1.1 = { holder=3018183 } # Malwyn (nc)

7342.1.1={
	holder=94058
}
