4500.1.1={
	liege="d_kasath"
	law = succ_primogeniture
}
7092.1.1 = { holder=10056820 } # Jash (nc)
7126.1.1 = { holder=10156820 } # Nitish (nc)
7137.1.1 = { holder=10356820 } # Malashree (nc)
7152.1.1 = { holder=10656820 } # Harshil (nc)
7172.1.1 = { holder=10756820 } # Ishwar (nc)
7226.1.1 = { holder=10956820 } # Ekavir (nc)
7231.1.1 = { holder=11356820 } # Yathavan (nc)
7258.1.1 = { holder=11556820 } # Gayan (nc)
7311.1.1 = { holder=11656820 } # Onkar (nc)
7318.1.1 = { holder=11856820 } # Rathin (nc)
7340.1.1 = { holder=11956820 } # Sagar (nc)
7379.1.1 = { holder=12256820 } # Taresh (nc)
