6100.1.1={
	law = cognatic_succession
}

7028.1.1 = { holder=152013}
7071.1.1 = { holder=60013 } # Symon (nc)
7096.1.1 = { holder=60113 } # Yandry (nc)
7104.1.1 = { holder=60313 } # Elyana (nc)
7112.1.1 = { holder=60713 } # Mariya (nc)
7151.1.1 = { holder=60813 } # Elyana (nc)
7190.1.1 = { holder=61213 } # Melessa (nc)
7229.1.1 = { holder=61313 } # Archibald (nc)
7256.1.1 = { holder=61513 } # Arthur (nc)
7259.4.7 = { holder=62013 } # Gerris (nc)
7260.7.3 = { holder=62113 } # Boran (nc)
7287.1.1 = { holder=62513 } # Symon (nc)
7296.4.18 = { holder=62913 } # Theodan (nc)
7311.2.10 = { holder=63113 } # Doran (nc)
7343.1.1 = { holder=63613 } # Daemon (nc)
7359.2.17 = { holder=9013 } # Boran (nc)
7376.2.12 = { holder=13 } # Harman (C)