7094.1.1 = { holder=10559357 } # Quent (nc)
7147.1.1 = { holder=11559357 } # Gerrick (nc)
7169.1.1 = { holder=16559357 } # Arson (nc)
7178.1.1 = { holder=17559357 } # Errok (nc)
7192.1.1 = { holder=19559357 } # Ondrew (nc)
7197.1.1 = { holder=20559357 } # Eyron (nc)
7228.1.1 = { holder=21559357 } # Arson (nc)
7259.1.1 = { holder=22559357 } # Henk (nc)
7278.1.1 = { holder=23559357 } # Gorne (nc)
7313.1.1={
	liege="k_beyond_wall"
}
7322.1.1 = { holder=25559357 } # Bael (nc)
7326.9.9={
	liege="0"
}
7365.1.1 = { holder=30559357 } # Toregg (nc)
#7400.1.1 = { holder=31559357 } # Arthor (nc)

7398.1.1={
	liege="k_beyond_wall"
}
7400.1.1={
	holder=999000666
}
