623.1.1={
	liege="k_pentos"
}

7095.1.1 = { holder=100300014 } # Roro (nc)
7134.1.1 = { holder=101300014 } # Luco (nc)
7137.1.1 = { holder=103300014 } # Denyo (nc)
7142.1.1 = { holder=104300014 } # Ezzelyno (nc)
7179.1.1 = { holder=106300014 } # Tycho (nc)
7209.1.1 = { holder=112300014 } # Ezzelyno (nc)
7249.1.1 = { holder=114300014 } # Gyloro (nc)
7263.1.1 = { holder=118300014 } # Denyo (nc)
7281.1.1 = { holder=120300014 } # Ordello (nc)
7290.1.1 = { holder=124300014 } # Illyrio (nc)
7332.1.1 = { holder=125300014 } # Luco (nc)
7355.1.1 = { holder=129300014 } # Lotho (nc)
7395.1.1 = { holder=133300014 } # Byan (nc)
