7064.1.1 = { holder=10033914 } # Samuqan (nc)
7109.1.1 = { holder=10133914 } # La'um (nc)
7136.1.1 = { holder=10333914 } # Humbab (nc)
7154.1.1 = { holder=11333914 } # Naqir (nc)
7208.1.1 = { holder=11733914 } # Shulpae (nc)
7232.1.1 = { holder=12133914 } # Sidu (nc)
7239.1.1 = { holder=12333914 } # Warad (nc)
7271.1.1 = { holder=12533914 } # Palusum (nc)
7316.1.1 = { holder=12633914 } # Enlil (nc)
7327.1.1 = { holder=12933914 } # Damuzi (nc)
7361.1.1 = { holder=13133914 } # Dadanum (nc)
7362.1.1 = { holder=13233914 } # Limer (nc)


