1523.1.1={
	liege="k_skahazadhan"
	law=succ_primogeniture 
	law=cognatic_succession
}
7095.1.1 = { holder=1000213 } # Miklaz (nc)
7123.1.1 = { holder=1001213 } # Skahaz (nc)
7143.1.1 = { holder=1007213 } # Maezon (nc)
7157.1.1 = { holder=1010213 } # Hizdhar (nc)
7209.1.1 = { holder=1011213 } # Fendahl (nc)
7212.1.1 = { holder=1015213 } # Morghaz (nc)
7237.1.1 = { holder=1017213 } # Paezhar (nc)
7284.1.1 = { holder=1021213 } # Mazdhan (nc)
7298.1.1 = { holder=1022213 } # Faezdhar (nc)
7331.1.1 = { holder=1023213 } # Kraznys (nc)
7367.1.1 = { holder=1029213 } # Ghazdor (nc)
7372.1.1 = { holder=1031213 } # Paezhar (nc)
7389.1.1 = { holder=1033213 } # Skahaz (nc)
7424.1.1 = { holder=1036213 } # Reznak (nc)

