623.1.1={
	liege = e_new_valyria
	law = succ_primogeniture
	law = agnatic_succession
}
7085.1.1 = { holder=100570110 } # Doniphos (nc)
7126.1.1 = { holder=101570110 } # Aelix (nc)
7130.1.1 = { holder=102570110 } # Alios (nc)
7162.1.1 = { holder=106570110 } # Matarys (nc)
7187.1.1 = { holder=110570110 } # Vaeron (nc)
7209.1.1 = { holder=113570110 } # Aenar (nc)
7231.1.1 = { holder=114570110 } # Daegar (nc)
7257.1.1 = { holder=116570110 } # Qoherys (nc)
7304.1.1 = { holder=120570110 } # Vaekar (nc)
7326.1.1 = { holder=126570110 } # Parquello (nc)
7360.1.1 = { holder=127570110 } # Qavo (nc)
