1.1.1={ law=succ_primogeniture law=cognatic_succession
	liege="e_reach" # 
}
6940.1.1 = { holder=660080 } # Wyman (nc)
6960.1.1 = { holder=670080 } # Borian (nc)
6997.1.1 = { holder=680080 } # Torrhen (nc)
7028.1.1 = { holder=60080 } # Emmett (nc)
7037.1.1 = { holder=60180 } # Wylan (nc)
7061.1.1 = { holder=60280 } # Elman (nc)

7065.1.1={
	holder = 20080
}
7104.1.1={
	holder = 19080
}
7145.1.1={
	holder = 17080
}
7158.1.1={
	holder = 16080
}
7208.1.1={
	holder = 15080 # Heward
}
7216.1.1={
	holder = 13080 # Desmond
}
7232.2.2={
	holder = 1015080 # Torrhen
}
7239.2.8={
	holder = 12080 # Borion
}
7272.1.1={
	holder = 11080 # Waymar
}
7295.1.1={
	holder = 610080 # Merle
}







