623.1.1={
	liege="k_myr"
}
7083.1.1 = { holder=150300516 } # Belequo (nc)
7123.1.1 = { holder=100300525 } # Gylono (nc)
7142.1.1 = { holder=101300525 } # Pynto (nc)
7182.1.1 = { holder=102300700 } # Noho (nc)
7184.1.1 = { holder=103300700 } #### Craghas Crabfeeder
7208.11.11 = { holder=106174355 } # Terro (nc)
7235.1.1 = { holder=113300534 } # Daario (nc)
7247.1.1 = { holder=108300700 } # Ezzelyno (nc)
7266.1.1 = { holder=110300525 } # Ordello (nc)
7296.1.1 = { holder=117300534 } # Ferrego (nc)
7307.1.1 = { holder=121300534 } # Pynto (nc)
7335.1.1 = { holder=121174355 } # Beqqo (nc)
7358.1.1 = { holder=120300525 } # Gyloro (nc)
7385.1.1 = { holder=125300700 } # Roro (nc)
7393.1.1 = { holder=121300525 } # Terro (nc)
