4500.1.1={
	#liege="k_sarnor"
	effect = {
		holder_scope = { 
			k_sarnor = {
				holder_scope = {
					make_tributary = { who = PREVPREV tributary_type = sarnori }
				}
			}
		}	
	}
	law = succ_primogeniture
}
7095.1.1 = { holder=10056801 } # Taresh (nc)
7135.1.1 = { holder=10156801 } # Harshil (nc)
7173.1.1 = { holder=10456801 } # Bhagesh (nc)
7204.1.1 = { holder=10656801 } # Tarakesh (nc)
7235.1.1 = { holder=10856801 } # Manaar (nc)
7242.1.1 = { holder=11056801 } # Vyomesh (nc)
7295.1.1 = { holder=11256801 } # Kushal (nc)
7299.1.1 = { holder=11556801 } # Vishruth (nc)
7308.1.1 = { holder=11956801 } # Ishwar (nc)
7379.1.1 = { holder=12056801 } # Uttamesh (nc)
7397.1.1 = { holder=12156801 } # Uttamesh (nc)
