1.1.1={ law=succ_primogeniture law=cognatic_succession
	liege="e_reach"
}

30.1.1={ holder=60130288} # Gilbert of the Vines
98.1.1={ holder=0}

6948.1.1={ holder=60110288} # Gareth Redwyne
6970.1.1={ holder=60900288} # Arlon Redwyne
6997.1.1={ holder=60800288} # Gilbert Redwyne
7034.11.1={ holder=60700288} # Portan Redwyne
7056.1.1={ holder=60600288} # Acolan Redwyne
7070.1.1={ holder=60200288} # Aramon Redwyne
7085.1.1={
	liege=e_iron_isles #Qhored Hoare
}
7095.1.11={holder=19288} # Theodore Redwyne

7145.1.1={
	holder=18288
}
7172.1.1={
	holder=17288
}
7190.1.1={
	holder=16288
}
7200.1.1={
	liege=e_reach
}
7202.1.1={
	holder=15288
}
7232.1.1={
	holder=12288
}
7259.1.1={
	holder=11288
}
7284.1.1={
	holder=10288
}
7296.1.1={
	holder=88095
}
7323.1.1={
	holder=288
}
7350.1.1={
	holder=88013
}
7375.1.1={
	holder=1288
}


