7086.1.1 = { 
	holder=100607301
	historical_nomad = yes
} # Barialy (nc)
7128.1.1 = { holder=101607301 } # Kahkazan (nc)
7134.1.1 = { holder=103607301 } # Laimah (nc)
7188.1.1 = { holder=106607301 } # Sadaf (nc)
7200.1.1 = { holder=107607301 } # Zaid (nc)
7211.1.1 = { holder=111607301 } # Naim (nc)
7227.1.1 = { holder=115607301 } # Jakar (nc)
7263.1.1 = { holder=117607301 } # Abagull (nc)

7295.1.1 = { 
	liege = e_jkhalasar
}
