5300.1.1={
	law = succ_primogeniture
}
7023.1.1 = { holder=100185 } # Osgood (nc)
7056.1.1 = { holder=101185 } # Osgood (nc)
7072.1.1 = { holder=102185 } # Osgood (nc)
7102.1.1 = { holder=550186 } # Gerold # andal warlord
7136.1.1 = { holder=553186 } # Gerold 
7158.1.1 = { holder=3005186 } # Franklyn (nc)
7161.1.1 = { holder=0 }
