623.1.1={
	liege="e_yi_ti"
	law = succ_ultimogeniture
	law = slavery_2
	law = privilege_vassal_king
	effect = {
		add_law = privilege_vassal_king
	}
}
7095.1.1 = { holder=10069191 } # Murad (nc)
7131.1.1 = { holder=10569191 } # Idris (nc)
7159.1.1 = { holder=10769191 } # Husam (nc)
7165.1.1 = { holder=11069191 } # Wahab (nc)
7222.1.1 = { holder=11869191 } # Qawurd (nc)
7234.1.1 = { holder=11969191 } # Is'mail (nc)
7267.1.1 = { holder=12369191 } # Aarif (nc)
7301.1.1 = { holder=12569191 } # Burhanaddin (nc)
7313.1.1 = { holder=13169191 } # Sadiq (nc)
7354.1.1 = { holder=13369191 } # Jibril (nc)
7359.1.1 = { holder=13769191 } # Shujah (nc)
7389.1.1 = { holder=13969191 } # Alim (nc)


