1.1.1={
	law = succ_primogeniture
	law = cognatic_succession
}
25.1.1={holder=6000285} # Uthor of the High tower (C)
94.1.1={holder=6100285} # Urrigon (C)
120.1.1={holder=6200285} # Otho I (C)
140.1.1={holder=6300285} # Uthor II
175.1.1={holder=6400285} # Otho II (C)
195.1.1={holder=0}
2670.1.1={holder=6700285} # Lymond the Sea Lion # Last king of the Oldtown (C)
2723.1.1={holder=0}
