623.1.1={
	law = succ_primogeniture
	law = cognatic_succession
}
7080.1.1 = { holder=300038 } # Robin (nc)
7105.1.1 = { holder=300138 } # Janos (nc)
7127.1.1 = { holder=300338 } # Alan (nc)
7182.1.1 = { holder=300738 } # Howard (nc)
7203.1.1 = { holder=300938 } # Ardrian (nc)
7230.1.26={ holder=301138 } # Rorge (nc)
7244.1.1 = { holder=301238 } # Jacelyn (nc)
7283.1.1 = { holder=301438 } # Bronn (nc)
7295.1.1 = { holder=301638 } # Mortimer (nc)
7300.1.1 = { holder=301938 } # Qarlton (nc)
7314.1.1 = { holder=302238 } # Ferret (nc)
7328.1.1={
	holder = 2039 	#Rymond Rosby
}
