#CODE;ENGLISH;FRENCH;GERMAN;;SPANISH;;;;;;;;;x
#Armours
baratheon_armour;Storm Lord Armour;;;;;;;;;;;;;x
baratheon_armour_desc;A suit of armour in the traditional style of the Lords of Storm's End, with antlers on the greathelm in honour of their sigil, made of thick greyed plate with the breastplate enamelled gold, with a black crowned stag inlaid on the chest. A long cloak of cloth of gold flows from the shoulders.;;;;;;;;;;;;;x
baratheon_stannis_armour;Fiery Stag Armour;;;;;;;;;;;;;x
baratheon_stannis_armour_desc;A suit of armour based on the traditional style of the Lords of Storm's End but updated to reflect that the owner now honours the Lord of Light, with antlers on the greathelm in honour of their sigil, made of thick greyed plate with the breastplate enamelled gold, with a black crowned stag at the centre of a fiery red heart inlaid on the chest. A long cloak of cloth of gold flows from the shoulders.;;;;;;;;;;;;;x
targaryen_armour;Targaryen Armour;;;;;;;;;;;;;x
targaryen_armour_desc;A suit of armour in the traditional style of House Targaryen, made of jet black steel plate with a three-headed red dragon wrought in rubies on the breastplate and pair of great, black, steel dragon wings rising from the sides of the helm. A long cloak of deep scarlet flows from the shoulders.;;;;;;;;;;;;;x
blackfyre_armour;Blackfyre Armour;;;;;;;;;;;;;x
blackfyre_armour_desc;A suit of armour in the traditional style of House Blackfyre, made of jet black and red enamelled steel plate with a three-headed black dragon wrought in onyx on the breastplate and pair of great, black, steel dragon wings rising from the sides of the helm. A long cloak of deep black flows from the shoulders.;;;;;;;;;;;;;x
varezys_armour;Varezys Armour;;;;;;;;;;;;;x
varezys_armour_desc;A suit of armour in the traditional style of Old Valyria and House Varezys, made of jet black and gold enamelled steel plate with a black dragon rising from red flames wrought in onyx on the breastplate and pair of great, black, steel dragon wings rising from the sides of the helm. A long cloak of cloth of gold flows from the shoulders.;;;;;;;;;;;;;x
qoherys_armour;Qoherys Armour;;;;;;;;;;;;;x
qoherys_armour_desc;A suit of armour in the traditional style of House Qoherys, made of jet black steel plate with a pair of great, black, steel dragon wings rising from the sides of the helm. The breastplate is inlaid with the Qoherys sigil, a cruel mockery of the sigil of the defeated House Hoare with a fiery saltire in place of the iron chains and four white skulls, one dotted at each cardinal point. A long flame-red cloak flows from the shoulders.;;;;;;;;;;;;;x
drace_armour;Drace Armour;;;;;;;;;;;;;x
drace_armour_desc;A suit of armour in the traditional style of House Drace, made of jet black and red enamelled steel plate with a three-headed black dragon grasping a bright star enamelled onto the breastplate and pair of great, black, steel dragon wings rising from the sides of the helm. A long burgundy cloak flows from the shoulders.;;;;;;;;;;;;;x
saerynar_armour;Saerynar Armour;;;;;;;;;;;;;x
saerynar_armour_desc;A suit of armour in the traditional style of House Saerynar, made of jet black and blue enamelled steel plate with a septa grasping a crozier on blue enamelled onto the breastplate and pair of great, black, steel dragon wings rising from the sides of the helm. A long sea blue cloak flows from the shoulders.;;;;;;;;;;;;;x
saerys_armour;Saerys Armour;;;;;;;;;;;;;x
saerys_armour_desc;A suit of armour in the traditional style of House Saerys, made of jet black and blue enamelled steel plate with quartered three-headed red dragons, an elephant, and a tiger all enamelled onto the breastplate and pair of great, black, steel dragon wings rising from the sides of the helm. A long rich blue cloak flows from the shoulders.;;;;;;;;;;;;;x
saerystos_armour;Saerystos Armour;;;;;;;;;;;;;x
saerystos_armour_desc;A suit of armour in the traditional style of House Saerystos, made of jet black steel plate with a three-trukned red elephant snorting flames enamelled onto the breastplate and pair of great, black, steel dragon wings rising from the sides of the helm. A long cloak of deep scarlet flows from the shoulders.;;;;;;;;;;;;;x
stark_targaryen_armour;Stark-Targaryen Armour;;;;;;;;;;;;;x
stark_targaryen_armour_desc;A suit of armour in the traditional style of House Stark-Targaryen, made of jet black steel plate with a winged albino direwolf breathing flame enamelled upon the breastplate and pair of great, black, steel dragon wings rising from the sides of the helm. A long cloak of pure white edged in fur flows from the shoulders.;;;;;;;;;;;;;x
bracken_armour;Bracken Armour;;;;;;;;;;;;;x
bracken_armour_desc;A suit of armour in the traditional style of House Bracken of Stone Hedge, made of silvered steel plate, with finely wrought bronze roundels, the breastplate enamelled brown and gold, a red stallion engraved upon the chest, and a flowing brown cloak pinned over one shoulder.;;;;;;;;;;;;;x
ryswell_armour;Ryswell Armour;;;;;;;;;;;;;x
ryswell_armour_desc;A suit of armour in the traditional style of House Ryswell of the Rills, made of thick plate and mail and lined with fur. On the breastplate are is an enamelled black stallion's head on a brown field.;;;;;;;;;;;;;x
stark_armour;Stark Armour;;;;;;;;;;;;;x
stark_armour_desc;A suit of armour in the traditional style of House Stark of Winterfell, made of thick plate and mail and lined with fur. On the breastplate are snarling engraved direwolf heads and a thick wolfskin cloak is draped over the shoulders.;;;;;;;;;;;;;x
karstark_armour;Karstark Armour;;;;;;;;;;;;;x
karstark_armour_desc;A suit of armour in the traditional style of House Karstark of Karhold, made of thick greyed plate and mail and lined with fur, with a bright white sunburst enamelled upon the breastplate, the roundels are likewise decorated with sunbursts, and a thick wolfskin cloak is draped over the shoulders.;;;;;;;;;;;;;x
flayed_armor;Flayed Man Armour;;;;;;;;;;;;;x
flayed_armor_desc;A suit of armour in the traditional style of House Bolton of the Dreadfort, its rounded helm and gorget resemble the face and shoulders of a skinless and bloody man whose mouth is open in a silent scream, and its rondels are shaped like human heads whose mouths are open in agony, a streaming pink cloak is pinned to the shoulders.;;;;;;;;;;;;;x
lannister_armour;Lannister Armour;;;;;;;;;;;;;x
lannister_armour_desc;A suit of gilded armour in the traditional style of House Lannister of Casterly Rock, made of heavy steel plate, enamelled in a dark crimson, greaves and gauntlets inlaid with ornate gold scrollwork, the rondels are golden sunbursts, all the fastenings are gilded, and the red steel is burnished to such a high sheen that it shines like fire in the light of the sun. Atop the greathelm is a lion with a magnificent mane, one paw raking the air as he roared, two matching lioness crouch on the shoulders as if poised to spring. All three lions were wrought in gold, with ruby eyes, and from the shoulders streams a greatcloak sewn from countless layers of cloth-of-gold, so heavy that it barely stirs, even when the wearer charges.;;;;;;;;;;;;;x
tully_armour;Tully Armour;;;;;;;;;;;;;x
tully_armour_desc;A suit of armour in the traditional style of House Tully of Riverrun, made of steel plate with the breastplate enamelled blue and red, with a silver trout inlaid upon the chest. A flowing cloak, dyed the coulours of mud-and-water, streams from the shoulders.;;;;;;;;;;;;;x
martell_armour;Martell Armour;;;;;;;;;;;;;x
martell_armour_desc;A suit of armour in the traditional style of House Martell of Sunspear, made of plate and overlapping scales of gleaming copper, in the Dornish fashion, with the breastplate enamelled orange, and the sun-and-spear of House Martell in red gold, yellow gold, white gold, and copper, engraved upon it. The helmet is wrapped in a bright orange cloth to protect its wearer from the fearsome Dornish heat and secured by a cloth torse, and a flowing silken orange cloak, edged in gold thread, is pinned over one shoulder.;;;;;;;;;;;;;x
tyrell_armour;Tyrell Armour;;;;;;;;;;;;;x
tyrell_armour_desc;A suit of armour in the traditional style of House Tyrell of Highgarden, made of thick silvered plate chased in gold, with the breastplate enamelled a deep rich green, with a golden rose inlaid upon it, and with a flowing green cloak, edged with golden thread, streaming from the shoulders.;;;;;;;;;;;;;x
greyjoy_armour;Kraken Armour;;;;;;;;;;;;;x
greyjoy_armour_desc;A suit of armour in the traditional style of House Greyjoy of Pyke, made of thick steel plate and chainmail, lined in sealskin, with the breastplate enamelled a deep black, with the monstrous golden kraken of House Greyjoy engraved upon it.;;;;;;;;;;;;;x
hoare_armour;Hoare Armour;;;;;;;;;;;;;x
hoare_armour_desc;A suit of armour in the traditional style of House Hoare of the Iron Isles, made of thick steel plate and chainmail with the breastplate enamelled to show a quartered longship, pine tree, cluster of grapes, and raven all bound in the iron chains of the Ironborn.;;;;;;;;;;;;;x
osgrey_armour;Chequy Lion Armour;;;;;;;;;;;;;x
osgrey_armour_desc;A suit of armour in the traditional style of House Osgrey, made of thick silvered plate chased in gold, with the breastplate enamelled white, with a chequy lion in gold and green inlaid upon it, and with a flowing green cloak, edged with golden thread, pinned over one shoulder.;;;;;;;;;;;;;x
velaryon_armour;Velaryon Armour;;;;;;;;;;;;;x
velaryon_armour_desc;A suit of armour in the traditional style of House Velaryon of Driftmark, made of silvered and blue enamelled steel plate with a white seahorse engraved on the breastplate, sapphire inlaid rondels, and a flowing blue cloak pinned over one shoulder.;;;;;;;;;;;;;x
arryn_armour;Arryn Armour;;;;;;;;;;;;;x
arryn_armour_desc;A suit of armour in the traditional style of House Arryn of the Eyrie, made of silvered and blue enamelled steel plate. Large circular rondels, enamelled cream-and-blue in the moon-and-falcon sigil of House Arryn, protect the vulnerable juncture of arm and breast. A blue jasper falcon and a mother-of-pearl moon is inlaid on the breast. A sky blue cloak flows from the shoulders..;;;;;;;;;;;;;x
coldwater_armour;Coldwater Armour;;;;;;;;;;;;;x
coldwater_armour_desc;A suit of armour in the traditional style of House Coldwater of the Coldwater Burn, made of thick greyed steel with the breastplate enamelled red with a blue and white pall engraved upon it in honour of their sigil. Large circular rondels protect the vulnerable juncture of arm and breast and a long scarlet and blue cloak flowing from the shoulders.;;;;;;;;;;;;;x
reyne_armour;Red Lion Armour;;;;;;;;;;;;;x
reyne_armour_desc;A suit of armour in the traditional style of House Reyne of Castamere, made of thick silvered steel plate, with a red lion on white inlaid on the breastplate, a deep scarlet cape flows from the shoulders.;;;;;;;;;;;;;x
hunter_armour;Longbow Hall Armour;;;;;;;;;;;;;x
hunter_armour_desc;A suit of armour in the traditional style of House Hunter of Longbow Hall, made of steel plate enamelled brown with a sheaf of white arrows inlaid upon the breastplate, with a thick brown cloak flowing from the shoulders.;;;;;;;;;;;;;x
redfort_armour;Redfort Armour;;;;;;;;;;;;;x
redfort_armour_desc;A suit of armour in the traditional style of House Redfort of the Redfort, enamelled a deep red with a red castle on a white background upon the breastplate, with a deep red cloak flowing from the shoulders.;;;;;;;;;;;;;x
waynwood_armour;Waynwood Armour;;;;;;;;;;;;;x
waynwood_armour_desc;A suit of armour in the traditional style of House Waynwood of Ironoaks, enamelled a rich green with a jet black broken wheel inlaid upon the breastplate. Large circular rondels protect the vulnerable juncture of arm and breast and a deep green cloak flows from the shoulders.;;;;;;;;;;;;;x
templeton_armour;Templeton Armour;;;;;;;;;;;;;x
templeton_armour_desc;A suit of armour in the traditional style of House Templeton of Ninestars, made of thick jet black enamelled plate and with a saltire of gold blazoned with nine black stars engraved upon the chest. Large circular rondels protect the vulnerable juncture of arm and breast and a cloth of gold cloak flows from the shoulders.;;;;;;;;;;;;;x
tollett_armour;Tollett Armour;;;;;;;;;;;;;x
tollett_armour_desc;A suit of armour in the traditional style of House Tollett of Grey Glen, made of thick greyed steel with a set of jet black and steel grey piles enamelled upon the breastplate in honour of their sigil. Large circular rondels protect the vulnerable juncture of arm and breast and a jet black cloak flowing from the shoulders.;;;;;;;;;;;;;x
belmore_armour;Belmore Armour;;;;;;;;;;;;;x
belmore_armour_desc;A suit of armour in the traditional style of House Belmore of Strongsong, made of thick steel plate with a set of silver bells on a field of purple enamelled upon the breastplate in honour of their sigil. Large circular rondels protect the vulnerable juncture of arm and breast and a long purple cloak flows from the shoulders.;;;;;;;;;;;;;x
corbray_armour;Corbray Armour;;;;;;;;;;;;;x
corbray_armour_desc;A suit of armour in the traditional style of House Corbray of Heart's Home, made of thick silvered steel plate with three black ravens clutching scarlet hearts on a field of pure white enamelled upon the breastplate in honour of their sigil. Large circular rondels protect the vulnerable juncture of arm and breast and a long light grey cloak flows from the shoulders.;;;;;;;;;;;;;x
egen_armour;Egen Armour;;;;;;;;;;;;;x
egen_armour_desc;A suit of armour in the traditional style of House Egen, made of thick silvered steel plate with a sun, moon, and star on a field of dark blue and pure white enamelled upon the breastplate in honour of their sigil. Large circular rondels protect the vulnerable juncture of arm and breast and a long pure white cloak chased in blue flows from the shoulders.;;;;;;;;;;;;;x
sunderland_armour;Sunderland Armour;;;;;;;;;;;;;x
sunderland_armour_desc;A suit of armour in the traditional style of House Sunderland of the Three Sisters, made of thick grey steel plate with a the breastplate enamelled barry wavy blue and green with three women's heads inlaid upon it. Large circular rondels protect the vulnerable juncture of arm and breast and a long blue and green cloak flows from the shoulders.;;;;;;;;;;;;;x
grafton_armour;Grafton Armour;;;;;;;;;;;;;x
grafton_armour_desc;A suit of armour in the traditional style of House Grafton of Gulltown, made of thick grey steel plate with the breastplate enamelled a fiery red and jet black with a golden tower and flame engraved upon it in honour of their sigil. Large circular rondels protect the vulnerable juncture of arm and breast and a long scarlet cloak chased in black flows from the shoulders.;;;;;;;;;;;;;x
fowler_armour;Fowler Armour;;;;;;;;;;;;;x
fowler_armour_desc;A suit of armour in the traditional style of House Fowler of Skyreach, enamelled pure white with a deep blue falcon engraved upon the chest and a pure white cloak flowing from the shoulders. The helmet is wrapped in a deep blue cloth to protect its wearer from the fearsome Dornish heat and secured by a cloth torse.;;;;;;;;;;;;;x
dayne_armour;Dayne Armour;;;;;;;;;;;;;x
dayne_armour_desc;A suit of armour in the traditional style of House Dayne of Skyfall, enamelled the purple of sunset with a pure white falling star engraved upon the chest and an indigo cloak edged in silver thread flowing from the shoulders. The helmet is wrapped in a deep purple cloth to protect its wearer from the fearsome Dornish heat and secured by a cloth torse.;;;;;;;;;;;;;x
yronwood_armour;Yronwood Armour;;;;;;;;;;;;;x
yronwood_armour_desc;A suit of armour in the traditional style of House Yronwood of Yronwood, enamelled the colour of sand with a black iron portculis inlaid upon the chest and an sandy cloak flowing from the shoulders. The helmet is also wrapped in a sand coloured cloth to protect its wearer from the fearsome Dornish heat and secured by a cloth torse.;;;;;;;;;;;;;x
frey_armour;Armour of The Crossing;;;;;;;;;;;;;x
frey_armour_desc;A suit of armour in the traditional style of House Frey of the Twins, made of silvered steel plate with a blue bridge and towers inlaid upon the breastplate, and a flowing blue cloak pinned over one shoulder.;;;;;;;;;;;;;x
mallister_armour;Mallister Armour;;;;;;;;;;;;;x
mallister_armour_desc;A suit of armour in the traditional style of House Mallister of Seaguard, made of silvered steel plate with the breastplate enamelled indigo, a silver sea-eagle inlaid upon the chest, and a flowing indigo cloak pinned over one shoulder.;;;;;;;;;;;;;x
piper_armour;Piper Armour;;;;;;;;;;;;;x
piper_armour_desc;A suit of armour in the traditional style of House Piper of Pinkmaiden, made of blue enamelled steel plate with the dancing Piper maiden engraved on the breastplate, and a flowing blue cloak pinned over one shoulder.;;;;;;;;;;;;;x
mudd_armour;Mudd Armour;;;;;;;;;;;;;x
mudd_armour_desc;A suit of armour in the traditional style of House Mudd of Oldstones, made of thick steel plate lined with bronze and with finely wrought bronze roundels, with the breastplate enamelled a muddy brown with a golden crown inlaid upon it, and a thick brown cloak pinned over one shoulder.;;;;;;;;;;;;;x
vance_armour;Vance Armour;;;;;;;;;;;;;x
vance_armour_desc;A suit of armour in the traditional style of House Vance of the Riverlands, made of silvered steel plate with the breastplate enamelled white, with four dragons, two green, two black, engraved upon the chest, and a flowing deep black cloak pinned over one shoulder.;;;;;;;;;;;;;x
harroway_armour;Harroway Armour;;;;;;;;;;;;;x
harroway_armour_desc;A suit of armour in the traditional style of House Harroway of Harroway's Town, made of thick greyed steel plate with the breastplate enamelled jet black and fiery orange, with a burning castle engraved upon the chest, and a flowing orange cloak pinned over one shoulder.;;;;;;;;;;;;;x
strong_armour;Strong Armour;;;;;;;;;;;;;x
strong_armour_desc;A suit of armour in the traditional style of House Strong of The Trident, made of silvered steel plate with the breastplate enamelled white with a lines of red, green, and blue down the middle, and a flowing brilliant white cloak striped with red, green, and blue, pinned over one shoulder.;;;;;;;;;;;;;x
blackwood_armour;Blackwood Armour;;;;;;;;;;;;;x
blackwood_armour_desc;A suit of armour in the traditional style of House Blackwood of Raventree Hall, made of enamlled steel plate in burnished scarlet, with elaborate black vine and leaf patterns wrought on the arms,  a white tree bare and dead inlaid in silver, surrounded by a flock of onyx ravens taking flight is wrought upon the breastplate, and a flowing black cloak lined in silver thread is pinned over one shoulder.;;;;;;;;;;;;;x
dondarrion_armour;Dondarrion Armour;;;;;;;;;;;;;x
dondarrion_armour_desc;A suit of armour in the traditional style of House Dondarrion of Blackhaven, made of thick jet black enamelled plate, with purple lightning and stars inlaid upon the breastplate and a flowing purple cloak pinned over one shoulder.;;;;;;;;;;;;;x
caron_armour;Caron Armour;;;;;;;;;;;;;x
caron_armour_desc;A suit of armour in the traditional style of House Caron of Nightsong, made of thick steel plate, with nightingales on a yellow field inlaid upon the breastplate and a flowing cloth of gold cloak pinned over one shoulder.;;;;;;;;;;;;;x
swann_armour;Swann Armour;;;;;;;;;;;;;x
swann_armour_desc;A suit of armour in the traditional style of House Swann of Stonehelm, made of thick jet black enamelled plate, with clashing black and white swans inlaid upon the breastplate and a flowing pure white cloak pinned over one shoulder.;;;;;;;;;;;;;x
connington_armour;Griffin Armour;;;;;;;;;;;;;x
connington_armour_desc;A suit of armour in the traditional style of House Connington of Griffin's Roost, made of thick greyed plate, with the breastplate enamelled red and white and with a pair of griffins inlaid upon it and a flowing scarlet cloak pinned over one shoulder.;;;;;;;;;;;;;x
lothston_armour;Lothston Armour;;;;;;;;;;;;;x
lothston_armour_desc;A suit of armour in the traditional style of House Lothston, made of greyed steel plate with a jet black bat engraved on the breastplate, and pair of great, black, steel bat wings rising from the sides of the helm. A long white and yellow cloak flows from the shoulders.;;;;;;;;;;;;;x
whent_armour;Whent Armour;;;;;;;;;;;;;x
whent_armour_desc;A suit of armour in the traditional style of House Whent, made of jet black steel plate with the breastplate enamelled yellow with nine jet black bats inlaid on the breastplate, and pair of great, black, steel bat wings rising from the sides of the helm. A long cloak of cloth of gold flows from the shoulders.;;;;;;;;;;;;;x
gardener_armour;Gardener Armour;;;;;;;;;;;;;x
gardener_armour_desc;A suit of armour in the traditional style of House Gardener of Highgarden, made of thick silvered plate chased in gold, with the breastplate enamelled white, with the deep green hand of Garth Greenhand inlaid upon it, and with a flowing green cloak, edged with golden thread, streaming from the shoulders.;;;;;;;;;;;;;x
dustin_armour;Dustin Armour;;;;;;;;;;;;;x
dustin_armour_desc;A suit of armour in the traditional style of House Dustin of Barrowton, made of thick plate and mail, lined with fur, and with the breastplate enamelled gold with a pair of crossed bronze longeaxes and a jet black crown above them engraved on the chest.;;;;;;;;;;;;;x
glover_armour;Glover Armour;;;;;;;;;;;;;x
glover_armour_desc;A suit of armour in the traditional style of House Glover of Deepwood Motte, made of thick plate and mail and lined with fur, with a mailed fist on red enamelled upon the breastplate, and a thick wolfskin cloak is draped over the shoulders.;;;;;;;;;;;;;x
reed_armour;Reed Armour;;;;;;;;;;;;;x
reed_armour_desc;A suit of armour in the traditional style of House Reed of Greywater Watch, made of thick plate and mail, lined with fur, and with the breastplate enamelled a muddy green with a black lizard-lion engraved on the chest.;;;;;;;;;;;;;x
forrester_armour;Forrester Armour;;;;;;;;;;;;;x
forrester_armour_desc;A suit of armour in the traditional style of House Forrester of Irorath, made of thick greyed plate and mail, lined with fur, and with the breastplate enamelled jet balck with a white tree and a jet black sword engraved on the chest.;;;;;;;;;;;;;x
hightower_armour;Hightower Armour;;;;;;;;;;;;;x
hightower_armour_desc;A suit of armour in the traditional style of House Hightower of Oldtown, made of silvered and white enamelled steel plate with a white tower engraved on the breastplate, and a smokey grey cloak bordered in flame pinned over one shoulder.;;;;;;;;;;;;;x
tarly_armour;Horn Hill Armour;;;;;;;;;;;;;x
tarly_armour_desc;A suit of armour in the traditional style of House Tarly of Horn Hill, made of thick greyed steel plate, with the breastplate enamelled a deep green with a red huntsman inlaid upon it, the roundels are enamelled brown with a red bow upon them, and a deep brown cloak is pinned over one shoulder.;;;;;;;;;;;;;x
florent_armour;Florent Armour;;;;;;;;;;;;;x
florent_armour_desc;A suit of armour in the traditional style of House Florent of Brightwater Keep, made of thick silvered steel plate, chased with gilt, with the breastplate enamelled in an ermine pattern, with a red fox and a ring of blue flowers inlaid upon it, the roundels are enamelled blue and wrought in the shape of flowers, and a deep red cloak is pinned over one shoulder.;;;;;;;;;;;;;x
hornwood_armour;Hornwood Armour;;;;;;;;;;;;;x
hornwood_armour_desc;A suit of armour in the traditional style of House Hornwood of the Hornwood, made of thick plate and mail, lined with fur, and with the breastplate enamelled orange with a brown bull moose inlaid upon the chest.;;;;;;;;;;;;;x
massey_armour;Massey Armour;;;;;;;;;;;;;x
massey_armour_desc;A suit of armour in the traditional style of House Massey of the Stonedance, made of thick greyed plate inlaid with green, with the breastplate enamelled white and with a swirling red, blue, and green triskelion inlaid upon it and a flowing white cloak pinned over one shoulder.;;;;;;;;;;;;;x
royce_bronze_armor_bl;Replica Royce Bronze Armour;;;;;;;;;;;;;x
royce_bronze_armor_bl_desc;A replica of the ancient bronze plate armor of House Royce of Runestone inscribed with runes that are thought to make their wearers immune to injury.;;;;;;;;;;;;;x
royce_otgotm_armour;Royce of the Gates of the Moon Armour;;;;;;;;;;;;;x
royce_otgotm_armour_desc;A suit of armour in the traditional style of House Royce of the Gates of the Moon, made of thick greyed steel with the breastplate enamelled orange with a silver moon on purple at the centre in honour of their sigil, it is also inscribed with ancient runes thought to protect the wearer from harm. Large circular rondels protect the vulnerable juncture of arm and breast and a long purple cloak flows from the shoulders.;;;;;;;;;;;;;x
crakehall_armour;Crakehall Armour;;;;;;;;;;;;;x
crakehall_armour_desc;A suit of armour in the traditional style of House Crakehall of Crakehall, made of thick greyed plate inlaid with bronze, with the breastplate enamelled brown and with a great brindled boar inlaid upon it and a flowing brown cloak pinned over one shoulder. The Crakehalls have a reputation for being strong and it is very large suit of armour.;;;;;;;;;;;;;x
bulwer_armour;Bulwer Armour;;;;;;;;;;;;;x
bulwer_armour_desc;A suit of armour in the traditional style of House Bulwer of Blackcrown, made of thick greyed steel plate, chased with scarlet, with the breastplate enamelled a deep red, with the white skull of a horned bull inlaid upon it, and a deep scarlet cloak edged in silver thread is pinned over one shoulder. The Bulwers have a reputation for being strong and it is very large suit of armour.;;;;;;;;;;;;;x
oakheart_armour;Oakheart Armour;;;;;;;;;;;;;x
oakheart_armour_desc;A suit of armour in the traditional style of House Oakheart of Old Oak, made of thick silvered steel plate, with the breastplate enamelled gold, with three deep green oak leaves inlaid upon it, and a cloth-of-gold cloak is pinned over one shoulder. The Oakhearts have a reputation for being tall and it is very large suit of armour.;;;;;;;;;;;;;x
mormont_armour;Mormont Armour;;;;;;;;;;;;;x
mormont_armour_desc;A suit of armour in the traditional style of House Mormont of Bear Island, made of thick plate and mail, lined with fur, and with a black bear engraved on the breastplate. The Mormonts have a reputation for being strong and it is very large suit of armour.;;;;;;;;;;;;;x
umber_armour;Umber Armour;;;;;;;;;;;;;x
umber_armour_desc;A suit of armour in the traditional style of House Umber of Last Hearth, made of thick plate and mail, lined with fur, with a roaring giant breaking free of chains bear engraved on the breastplate and a thick wolf and bearskin cloak is draped over the shoulders. The Umbers have a reputation for being strong and it is very large suit of armour.;;;;;;;;;;;;;x
banefort_armour;Banefort Armour;;;;;;;;;;;;;x
banefort_armour_desc;A suit of armour in the traditional style of House Banefort of Banefort, made of blackened steel with a hooded man wreathed in orange flame engraved on the breastplate, a cloak is pinned over one shoulder, spun from smoke grey cloth with a border of bright orange flame.;;;;;;;;;;;;;x
brax_armour;Brax Armour;;;;;;;;;;;;;x
brax_armour_desc;A suit of armour in the traditional style of House Brax of Hornvale, made of silvered steel plate inlaid with amethysts and a purple unicorn engraved on the breastplate, a silver and purple striped cloak is pinned over one shoulder.;;;;;;;;;;;;;x
jast_armour;Jast Armour;;;;;;;;;;;;;x
jast_armour_desc;A suit of armour in the traditional style of House Jast of Banefort, made of blackened steel with an inverted golden pall surrounded by three golden lion heads inlaid on the breastplate.;;;;;;;;;;;;;x
marbrand_armour;Marbrand Armour;;;;;;;;;;;;;x
marbrand_armour_desc;A suit of armour in the traditional style of House Marbrand of Ashemark, made of orange enamelled steel burnished to a bright sheen, with a burning tree inlaid on the breastplate and a flowing smoke coloured cloak pinned over one shoulder.;;;;;;;;;;;;;x
manderly_armour;Merling King Armour;;;;;;;;;;;;;x
manderly_armour_desc;A suit of armour in the traditional style of House Manderly of White Harbour, made of silvered and blue-green enamelled steel plate with a merman and trident engraved on the breastplate, fittings wrought in shape of seaweed on the arms, and an aquamarine cloak pinned over one shoulder.;;;;;;;;;;;;;x
tarth_armour;Tarth Armour;;;;;;;;;;;;;x
tarth_armour_desc;A suit of armour in the traditional style of House Tarth of Tarth, made of thick greyed steel plate lined with bronze, with the breastplate enamelled with blue and pink quaters, with suns and moons inlaid on the chest. A long pink cloak flows from the shoulders.;;;;;;;;;;;;;x
brienne_tarth_armour;Brienne of Tarth Armour;;;;;;;;;;;;;x
brienne_tarth_armour_desc;A suit of armour first worn by Brienne, the Warrior-Maid of Tarth, made of thick greyed steel fluted plate lined with bronze, with the breastplate enamelled a deep blue in honour of house Tarth. A long mauve cloak is pinned over one shoulder.;;;;;;;;;;;;;x
toyne_armour;Toyne Armour;;;;;;;;;;;;;x
toyne_armour_desc;A suit of armour in the traditional style of House Toyne, made of thick greyed steel plate edged with jet black, with the breastplate enamelled with a yellow field and a winged black heart at the centre. A long cloth of gold cloak is pinned over one shoulder.;;;;;;;;;;;;;x
errol_armour;Errol Armour;;;;;;;;;;;;;x
errol_armour_desc;A suit of armour in the traditional style of House Errol of Haystack Hall, made of thick steel plate lined with copper, with the breastplate enamelled orange with a  golden haystack inlaid upon the chest. A long orange cloak is pinned over one shoulder.;;;;;;;;;;;;;x
penrose_armour;Penrose Armour;;;;;;;;;;;;;x
penrose_armour_desc;A suit of armour in the traditional style of House Penrose of Parchments, made of thick steel plate lined with bronze, with the breastplate enamelled brown with a pair of crossed white quills inlaid upon it. A thick brown cloak is pinned over one shoulder.;;;;;;;;;;;;;x
steadmon_armour;Steadmon Armour;;;;;;;;;;;;;x
steadmon_armour_desc;A suit of armour in the traditional style of House Steadmon of Broad Arch, made of thick steel plate, with roundels chased in scarlet amd  the breastplate enamelled red and white with a heart of rubies pierced with an onyx dagger inlaid upon it. A thick red cloak is pinned over one shoulder.;;;;;;;;;;;;;x
estermont_armour;Estermont Armour;;;;;;;;;;;;;x
estermont_armour_desc;A suit of armour in the traditional style of House Estermont of Greenstone, made of thick steel and green enamelled plate, with a green turtle inlaid upon the breastplate. A long sea-green cloak is pinned over one shoulder.;;;;;;;;;;;;;x
seaworth_armour;Seaworth Armour;;;;;;;;;;;;;x
seaworth_armour_desc;A suit of armour in the traditional style of House Seaworth of the Rainwood, made of thick greyed steel, with a black ship and white onion inlaid upon the breastplate. A flowing black cloak edged in silver is pinned over one shoulder.;;;;;;;;;;;;;x
selmy_armour;Selmy Armour;;;;;;;;;;;;;x
selmy_armour_desc;A suit of armour in the traditional style of House Selmy of Harvest Hall, made of thick steel plate lined with bronze, with the breastplate enamelled brown with three stalks of golden wheat engraved upon the chest. A thick brown cloak is pinned over one shoulder.;;;;;;;;;;;;;x
darry_armour;Darry Armour;;;;;;;;;;;;;x
darry_armour_desc;A suit of armour in the traditional style of House Darry of Darry, made of burnished steel plate with the breastplate enamelled brown, a ploughman inlaid in onyx upon the breastplate, and a flowing brown cloak pinned over one shoulder.;;;;;;;;;;;;;x
butterwell_armour;Butterwell Armour;;;;;;;;;;;;;x
butterwell_armour_desc;A suit of armour in the traditional style of House Butterwell, made of silvered steel plate with the breastplate enamelled in green white and gold waves, and a flowing cloak of those same colours pinned over one shoulder.;;;;;;;;;;;;;x
towers_armour;Towers Armour;;;;;;;;;;;;;x
towers_armour_desc;A suit of armour in the traditional style of House Towers of Harrenhal, made of thick silvered steel plate with the breastplate enamelled white with a double tressure of black and red, and five black towers inlaid in onyx upon the breastplate. A pure white cloak lined in black and red flows from the shoulders.;;;;;;;;;;;;;x
mooton_armour;Mooton Armour;;;;;;;;;;;;;x
mooton_armour_desc;A suit of armour in the traditional style of House Mooton of Maidenpool, made of thick silvered steel plate with the breastplate enamelled white, a scarlet salmon inside a golden tressure engraved upon the breastplate, and a flowing pure white cloak lined in gold and red pinned over one shoulder.;;;;;;;;;;;;;x
jaime_lannister_armour;Gilded Kingsguard Armour;;;;;;;;;;;;;x
jaime_lannister_armour_desc;Traditionally the Kingsguard wear intricate suits of white enamelled scales, their fastenings for breastplate and other pieces made of silver, however, this Knight of the Kingsguard is of House Lannister and has chosen to break with tradition by wearing plate armour of gilded steel to emphasise the power of their house. The more credulous amongst the smallfolk believe them to wear armour of pure gold and the effect is undoubtedly striking. As a concession to tradition a long pure white cloak is pinned over one shoulder.;;;;;;;;;;;;;x
blackwater_armour;Blackwater Armour;;;;;;;;;;;;;x
blackwater_armour_desc;A suit of armour in the traditional style of House Blackwater, made of thick greyed steel plate chased in black, with the breastplate enamelled black with a steel chain wreathed in green flame engraved upon the chest, and a flowing pure black cloak pinned over one shoulder.;;;;;;;;;;;;;x
bar_emmon_armour;Bar Emmon Armour;;;;;;;;;;;;;x
bar_emmon_armour_desc;A suit of armour in the traditional style of House Bar Emmon of Sharp Point, made of thick silvered steel plate with the breastplate enamelled white, a blue swordfish engraved upon it, and a flowing blue cloak edged in silver thread pinned over one shoulder.;;;;;;;;;;;;;x
darklyn_armour;Darklyn Armour;;;;;;;;;;;;;x
darklyn_armour_desc;A suit of armour in the traditional style of House Darklyn of Duskendale, made of thick greyed steel plate with the breastplate enamelled with black and gold diamonds upon it, and a flowing pure black cloak pinned over one shoulder.;;;;;;;;;;;;;x
farring_armour;Farring Armour;;;;;;;;;;;;;x
farring_armour_desc;A suit of armour in the traditional style of House Farring, made of thick silvered steel plate with the breastplate enamelled white and purple, a pair of fighting knights, one purple, one white, engraved upon the breastplate, and a flowing purple cloak lined in silver thread pinned over one shoulder.;;;;;;;;;;;;;x
hayford_armour;Hayford Armour;;;;;;;;;;;;;x
hayford_armour_desc;A suit of armour in the traditional style of House Hayford of Hayford, made of thick silvered steel plate with the breastplate enamelled gold, a green pale wavy engraved upon it, and a flowing cloak of green and gold diamonds pinned over one shoulder.;;;;;;;;;;;;;x
rosby_armour;Rosby Armour;;;;;;;;;;;;;x
rosby_armour_desc;A suit of armour in the traditional style of House Rosby of Rosby, made of thick silvered steel plate with the breastplate enamelled with three red chevrons upon it, finely wrought roundels chased in silver and scarlet, and a flowing pure white cloak lined in ermine pinned over one shoulder.;;;;;;;;;;;;;x
rykker_armour;Rykker Armour;;;;;;;;;;;;;x
rykker_armour_desc;A suit of armour in the traditional style of House Rykker, made of thick silvered steel plate with the breastplate enamelled blue with a white saltire, finely wrought silver roundels with black hammers upon them, a pair of crossed onyx hammers inlaid upon the chest, and a blue flowing cloak pinned over one shoulder.;;;;;;;;;;;;;x
stokeworth_armour;Stokeworth Armour;;;;;;;;;;;;;x
stokeworth_armour_desc;A suit of armour in the traditional style of House Stokeworth of Stokeworth, made of thick silvered steel plate with the breastplate enamelled green, a white lamb holding a golden chalice engraved upon it, and a flowing cloak of green pinned over one shoulder.;;;;;;;;;;;;;x
smallwood_armour;Smallwood Armour;;;;;;;;;;;;;x
smallwood_armour_desc;A suit of armour in the traditional style of House Smallwood, made of thick steel plate with the breastplate enamelled yellow, with nine acorns engraved upon the breastplate, and a flowing black cloak pinned over one shoulder.;;;;;;;;;;;;;x
harlaw_armour;Harlaw Armour;;;;;;;;;;;;;x
harlaw_armour_desc;A suit of armour in the traditional style of House Harlaw of Harlaw, made of thick steel plate and chainmail with the breastplate enamelled black, with a silver scythe engraved upon it.;;;;;;;;;;;;;x
harras_armour;Knightly Harlaw Armour;;;;;;;;;;;;;x
harras_armour_desc;A suit of armour in a style that seeks to honour both House Harlaw of Harlaw and House Serrett of Silverhill, acknowledging the half-Serrett Harras Harlaw, known as the Knight of Harlaw. It boasts a design more akin to that of the Westerlands than the Iron Isles, made of thick steel plate with the breastplate enamelled black and cream, with quartered silver scythes and peacocks engraved upon it, and a flowing black cloak pinned over one shoulder.;;;;;;;;;;;;;x
goodbrother_armour;Goodbrother Armour;;;;;;;;;;;;;x
goodbrother_armour_desc;A suit of armour in the traditional style of House Goodbrother of the Iron Isles, made of thick steel plate and chainmail with the breastplate enamelled a deep red, bearing a black horn engraved upon it banded in bronze.;;;;;;;;;;;;;x
farwynd_armour;Farwynd Armour;;;;;;;;;;;;;x
farwynd_armour_desc;A suit of armour in the traditional style of House Farwynd of The Lonely Light , made of thick steel plate and chainmail with the breastplate enamelled black and orange, with a setting sun and a black longship displayed upon it.;;;;;;;;;;;;;x
drumm_armour;Drumm Armour;;;;;;;;;;;;;x
drumm_armour_desc;A suit of armour in the traditional style of House Drumm of Old Wyk, made of thick steel plate and chainmail with the breastplate enamelled a deep red, with the white bone hand of House Drumm engraved upon it.;;;;;;;;;;;;;x
volmark_armour;Volmark Armour;;;;;;;;;;;;;x
volmark_armour_desc;A suit of armour in the traditional style of House Volmark of Harlaw, made of thick steel plate and chainmail with the breastplate enamelled grey, with a mighty black leviathan engraved upon it.;;;;;;;;;;;;;x
greyiron_armour;Greyiron Armour;;;;;;;;;;;;;x
greyiron_armour_desc;A suit of armour in the traditional style of House Greyiron of Orkmont, made of thick steel plate and chainmail with the white head of the Sea King, sporting a green beard, and a black crown engraved upon the grey breastplate.;;;;;;;;;;;;;x
saltcliffe_armour;Saltcliffe Armour;;;;;;;;;;;;;x
saltcliffe_armour_desc;A suit of armour in the traditional style of House Saltcliffe of Saltcliffe, made of thick steel plate and chainmail with the breastplate displaying the black, nine-headed serpent of House Saltcliffe upon it.;;;;;;;;;;;;;x
orkwood_armour;Orkwood Armour;;;;;;;;;;;;;x
orkwood_armour_desc;A suit of armour in the traditional style of House Orkwood of Orkmont, made of thick steel plate and chainmail with the breastplate enamelled yellow, with rows of green pines engraved upon it.;;;;;;;;;;;;;x
botley_armour;Botley Armour;;;;;;;;;;;;;x
botley_armour_desc;A suit of armour in the traditional style of House Botley of Lordsport, made of thick steel plate and chainmail with the breastplate enamelled green, with a shoal of silver fish engraved upon it.;;;;;;;;;;;;;x
wynch_armour;Wynch Armour;;;;;;;;;;;;;x
wynch_armour_desc;A suit of armour in the traditional style of House Wynch of Iron Holt, made of thick steel plate and chainmail with the breastplate enamelled a deep purple, with the bloody moon of House Wynch engraved upon it.;;;;;;;;;;;;;x
sunderly_armour;Sunderly Armour;;;;;;;;;;;;;x
sunderly_armour_desc;A suit of armour in the traditional style of House Sunderly of Saltcliffe, made of thick steel plate and chainmail with the breastplate enamelled the blue green of the sea, with a drowned man being eaten by fish engraved upon it.;;;;;;;;;;;;;x
myre_armour;Myre Armour;;;;;;;;;;;;;x
myre_armour_desc;A suit of armour in the traditional style of House Myre of Harlaw, made of thick steel plate and chainmail with the breastplate enamelled white, with ten nooses within a border of blood engraved upon it.;;;;;;;;;;;;;x
tawney_armour;Tawney Armour;;;;;;;;;;;;;x
tawney_armour_desc;A suit of armour in the traditional style of House Tawney of Orkmont, made of thick steel plate and chainmail with the breastplate enamelled white, with a scourge of red nettles engraved upon it.;;;;;;;;;;;;;x
sparr_armour;Sparr Armour;;;;;;;;;;;;;x
sparr_armour_desc;A suit of armour in the traditional style of House Sparr of Great Wyk, made of thick steel plate and chainmail with the breastplate enamelled a rich blue, with a saltire of oak engraved upon it.;;;;;;;;;;;;;x
stonetree_armour;Stonetree Armour;;;;;;;;;;;;;x
stonetree_armour_desc;A suit of armour in the traditional style of House Stonetree of Harlaw, made of thick steel plate and chainmail with the breastplate enamelled black, with a bare grey tree engraved upon it.;;;;;;;;;;;;;x
stonehouse_armour;Stonehouse Armour;;;;;;;;;;;;;x
stonehouse_armour_desc;A suit of armour in the traditional style of House Stonehouse of Old Wyk, made of thick steel plate and chainmail with the breastplate displaying a burning black brazier upon it.;;;;;;;;;;;;;x
merlyn_armour;Merlyn Armour;;;;;;;;;;;;;x
merlyn_armour_desc;A suit of armour in the traditional style of House Merlyn of Pebbleton, made of thick steel plate and chainmail with the breastplate enamelled white, with a pair of twin, green, intertwined waterspouts engraved upon it.;;;;;;;;;;;;;x
clegane_armour;Clegane Armour;;;;;;;;;;;;;x
clegane_armour_desc;A suit of armour in the traditional style of House Clegane of Fang Tower, made of thick greyed plate, with the breastplate enamelled the gold of autumn grass and with the three black hounds used by their founder to save the Lord of Casterly Rock inlaid upon it and a flowing yellow cloak pinned over one shoulder. The Cleganes have a reputation for being strong and it is very large suit of armour.;;;;;;;;;;;;;x
payne_armour;Payne Armour;;;;;;;;;;;;;x
payne_armour_desc;A suit of armour in the traditional style of House Payne, made of thick plate, with the breastplate enamelled the in a pattern of white and purple checks, with gold coins inlaid upon it and a flowing white and purple cloak pinned over one shoulder.;;;;;;;;;;;;;x
farman_armour;Farman Armour;;;;;;;;;;;;;x
farman_armour_desc;A suit of armour in the traditional style of House Farman of Faircastle, made of thick greyed plate, with the breastplate enamelled the blue of the sea, within a border of crimson and gold, with three silver ships inlaid upon it and a flowing scarlet and cloth-of-gold cloak pinned over one shoulder.;;;;;;;;;;;;;x
kenning_armour;Kenning Armour;;;;;;;;;;;;;x
kenning_armour_desc;A suit of armour in the traditional style of House Kenning of Harlaw, made of thick steel plate and chainmail with the breastplate enamelled a deep black, with the Storm King's cloudy hand, lightning flashing from the fingers, engraved upon it.;;;;;;;;;;;;;x
blacktyde_armour;Blacktyde Armour;;;;;;;;;;;;;x
blacktyde_armour_desc;A suit of armour in the traditional style of House Blacktyde of Blacktyde, made of thick steel plate and chainmail with the breastplate enamelled a vairy of deep green and black.;;;;;;;;;;;;;x
westerling_armour;Westerling Armour;;;;;;;;;;;;;x
westerling_armour_desc;A suit of armour in the traditional style of House Westerling of The Crag, made of thick greyed plate, with the breastplate enamelled the colour of sand, with six silver seashells inlaid upon it, and with a flowing sand coloured cloak, edged in silver thread, pinned over one shoulder.;;;;;;;;;;;;;x
westford_armour;Westford Armour;;;;;;;;;;;;;x
westford_armour_desc;A suit of armour in the traditional style of House Westford, made of thick greyed plate, with the breastplate enamelled a rich blue, with a dog's head inlaid upon it, and with a flowing blue cloak pinned over one shoulder.;;;;;;;;;;;;;x
tarbeck_armour;Tarbeck Armour;;;;;;;;;;;;;x
tarbeck_armour_desc;A suit of armour in the traditional style of House Tarbeck of Tarbeck Hall, made of thick greyed plate, with the breastplate enamelled blue and white, with a seven pointed star inlaid upon it, and with a flowing deep blue cloak, edged in silver thread, pinned over one shoulder.;;;;;;;;;;;;;x
kenning_kayce_armour;Kenning of Kayce Armour;;;;;;;;;;;;;x
kenning_kayce_armour_desc;A suit of armour in the traditional style of House Kenning of Kayce, the westerlander cadet branch of House Kenning of Harlaw, made of thick greyed plate, with the breastplate enamelled black and orange, with two orange and two black sunbursts inlaid upon it, and with a flowing deep black cloak, edged in orange thread, pinned over one shoulder.;;;;;;;;;;;;;x
serrett_armour;Serrett Armour;;;;;;;;;;;;;x
serrett_armour_desc;A suit of armour in the traditional style of House Serrett of Silverhill, made of thick silvered plate, with the breastplate enamelled a light cream, with a peacock in his pride inlaid upon it, and with a flowing cream coloured cloak, edged in silver thread, pinned over one shoulder.;;;;;;;;;;;;;x
rowan_armour;Rowan Armour;;;;;;;;;;;;;x
rowan_armour_desc;A suit of armour in the traditional style of House Rowan of Goldengrove, made of thick silvered plate chased in gold, with the breastplate enamelled white, with a golden tree inlaid upon it, and with a flowing cloth-of-gold cloak pinned over one shoulder.;;;;;;;;;;;;;x
ambrose_armour;Ambrose Armour;;;;;;;;;;;;;x
ambrose_armour_desc;A suit of armour in the traditional style of House Ambrose, made of thick silvered plate chased in gold, with the breastplate enamelled gold, with numerous red ants inlaid upon it, and with a flowing red cloak, edged in gold thread, pinned over one shoulder.;;;;;;;;;;;;;x
ashford_armour;Ashford Armour;;;;;;;;;;;;;x
ashford_armour_desc;A suit of armour in the traditional style of House Ashford of Ashford, made of thick silvered plate chased in gold, with the breastplate enamelled a bright orange, with a white sunburst and chevron inlaid upon it, and with a flowing orange cloak, edged in golden thread, pinned over one shoulder.;;;;;;;;;;;;;x
caswell_armour;Caswell Armour;;;;;;;;;;;;;x
caswell_armour_desc;A suit of armour in the traditional style of House Caswell of Bitterbridge, made of thick silvered plate chased in gold, with the breastplate enamelled white, with a golden centaur inlaid upon it, and with a flowing cloth-of-gold cloak pinned over one shoulder.;;;;;;;;;;;;;x
peake_armour;Peake Armour;;;;;;;;;;;;;x
peake_armour_desc;A suit of armour in the traditional style of House Peake of Starpike, made of thick greyed steel plate, chased with gilt, with the breastplate enamelled a bright orange, with the three black castles of House Peake inlaid upon it, and a deep orange cloak edged in golden thread is pinned over one shoulder.;;;;;;;;;;;;;x
roxton_armour;Roxton Armour;;;;;;;;;;;;;x
roxton_armour_desc;A suit of armour in the traditional style of House Roxton of The Ring, made of thick greyed steel plate, chased with gilt, with the breastplate enamelled a bright blue, with a saltire of interlocking gold rings inlaid upon it, and a deep blue cloak edged in silver thread is pinned over one shoulder.;;;;;;;;;;;;;x
plumm_armour;Plumm Armour;;;;;;;;;;;;;x
plumm_armour_desc;A suit of armour in the traditional style of House Plumm, made of thick greyed steel plate, the rondels are purple and the breastplate enamelled gold, with three purple roundels inlaid upon it, and a deep purple cloak is pinned over one shoulder.;;;;;;;;;;;;;x
redwyne_armour;Redwyne Armour;;;;;;;;;;;;;x
redwyne_armour_desc;A suit of armour in the traditional style of House Redwyne of The Arbor, made of thick silvered steel plate, chased with gilt, with the breastplate enamelled a bright blue, with a large bunch of deep purple grapes inlaid upon it, and a light blue cloak edged in golden thread flows from the shoulder.;;;;;;;;;;;;;x
ball_armour;Ball Armour;;;;;;;;;;;;;x
ball_armour_desc;A suit of armour in the traditional style of House Ball, made of thick greyed steel plate, chased with scarlet, with the breastplate enamelled a brilliant white, with a red chevron and three white roundels inlaid upon it, and a deep scarlet cloak edged in silver thread is pinned over one shoulder.;;;;;;;;;;;;;x
beesbury_armour;Beesbury Armour;;;;;;;;;;;;;x
beesbury_armour_desc;A suit of armour in the traditional style of House Beesbury of Honeyholt, made of thick greyed steel plate, chased with gold, with the breastplate enamelled a black and gold, with three golden beehives inlaid upon it, and a flowing black cloak edged in golden thread is pinned over one shoulder.;;;;;;;;;;;;;x
footly_armour;Footly Armour;;;;;;;;;;;;;x
footly_armour_desc;A suit of armour in the traditional style of House Footly of Tumbleton, made of thick greyed steel plate, chased with black, with the breastplate enamelled black, with rows of silver caltrops inlaid upon it, and a flowing black cloak edged in silver thread is pinned over one shoulder.;;;;;;;;;;;;;x
hewett_armour;Hewett Armour;;;;;;;;;;;;;x
hewett_armour_desc;A suit of armour in the traditional style of House Hewett of Oakenshield, made of thick greyed steel plate, with the breastplate enamelled with blue and white waves, with an oak shield inlaid upon it, and a flowing sea blue cloak edged in silver thread is pinned over one shoulder.;;;;;;;;;;;;;x
fossoway_red_armour;Red-Apple Fossoway Armour;;;;;;;;;;;;;x
fossoway_red_armour_desc;A suit of armour in the traditional style of the Red Apple Fossoways of Cider Hall, made of thick greyed steel plate, with the roundels enamelled red and in the shape of apples, the breastplate enamelled gold with a deep red apple inlaid upon it, and a flowing cloth-of-gold cloak is pinned over one shoulder.;;;;;;;;;;;;;x
fossoway_green_armour;Green-Apple Fossoway Armour;;;;;;;;;;;;;x
fossoway_green_armour_desc;A suit of armour in the traditional style of the Green Apple Fossoways of New Barrel, made of thick greyed steel plate, with the roundels enamelled green and in the shape of apples, the breastplate enamelled gold with a bright green apple inlaid upon it, and a flowing cloth-of-gold cloak is pinned over one shoulder.;;;;;;;;;;;;;x
blackbar_armour;Blackbar Armour;;;;;;;;;;;;;x
blackbar_armour_desc;A suit of armour in the traditional style of House Blackbar of Bandallon, made of thick greyed steel plate, with an enamelled black fess upon the grey of the breastplate, and a flowing black cloak, edged in silver thread, pinned over one shoulder.;;;;;;;;;;;;;x
meadows_armour;Meadows Armour;;;;;;;;;;;;;x
meadows_armour_desc;A suit of armour in the traditional style of House Meadows of Grassy Vale, made of thick silvered steel plate, chased with gold, with the breastplate enamelled bright green, with a border of bright flowers inlaid upon it, and a flowing green cloak, edged in golden thread, pinned over one shoulder.;;;;;;;;;;;;;x
webber_armour;Webber Armour;;;;;;;;;;;;;x
webber_armour_desc;A suit of armour in the traditional style of House Webber of Coldmoat, made of thick greyed steel plate, chased with red, with the breastplate enamelled black, with red spider upon a silver web engraved upon it, and a flowing black cloak, edged in silver thread, pinned over one shoulder.;;;;;;;;;;;;;x
crane_armour;Crane Armour;;;;;;;;;;;;;x
crane_armour_desc;A suit of armour in the traditional style of House Crane of Red Lake, made of thick silvered steel plate, chased with gold, with the breastplate enamelled a light blue, with a chevron of golden cranes engraved upon it, and a flowing blue cloak, edged in gold thread, pinned over one shoulder.;;;;;;;;;;;;;x
chester_armour;Chester Armour;;;;;;;;;;;;;x
chester_armour_desc;A suit of armour in the traditional style of House Chester of Greenshield, made of thick silvered steel plate, chased with gold, with the breastplate enamelled red, green, and gold, with the green hand of Garth Greenhand engraved upon it, and a flowing red cloak, edged in gold and green thread, pinned over one shoulder.;;;;;;;;;;;;;x
serry_armour;Serry Armour;;;;;;;;;;;;;x
serry_armour_desc;A suit of armour in the traditional style of House Serry of Southshield, made of thick greyed steel plate, chased with scarlet, with the breastplate enamelled a deep red, with a white rose within an embattled white border engraved upon it, and a flowing scarlet cloak, edged in silver thread, pinned over one shoulder.;;;;;;;;;;;;;x
grimm_armour;Grimm Armour;;;;;;;;;;;;;x
grimm_armour_desc;A suit of armour in the traditional style of House Grimm of Greyshield, made of thick greyed steel plate, chased with gold, with the breastplate enamelled a grey-green, with an iron shield and rows of longships engraved upon it, and a flowing green cloak, edged in silver thread, pinned over one shoulder.;;;;;;;;;;;;;x
leygood_armour;Leygood Armour;;;;;;;;;;;;;x
leygood_armour_desc;A suit of armour in the traditional style of House Leygood, made of thick silvered steel plate, chased with gold, with the breastplate enamelled a bright orange, with three black thunderbolts engraved upon it, and a flowing orange cloak, edged in golden thread, pinned over one shoulder.;;;;;;;;;;;;;x
merryweather_armour;Merryweather Armour;;;;;;;;;;;;;x
merryweather_armour_desc;A suit of armour in the traditional style of House Merryweather of Longtable, made of thick silvered steel plate, chased with gold, with the breastplate enamelled a white and gold, with a horn of plenty engraved upon it, and a flowing cloth-of-gold cloak, edged in silver thread, pinned over one shoulder.;;;;;;;;;;;;;x
costayne_armour;Costayne Armour;;;;;;;;;;;;;x
costayne_armour_desc;A suit of armour in the traditional style of House Costayne of Three Towers, made of thick greyed steel plate, chased with gold, with the breastplate enamelled black and gold, with quartered black roses and silver chalices engraved upon it, and a flowing cloth-of-gold cloak pinned over one shoulder.;;;;;;;;;;;;;x
rhysling_armour;Rhysling Armour;;;;;;;;;;;;;x
rhysling_armour_desc;A suit of armour in the traditional style of House Rhysling, made of thick greyed steel plate, with the breastplate enamelled a black, with an oaken door, banded in iron, and ringed in masonry engraved upon it, and a flowing black cloak, edged in silver thread, pinned over one shoulder.;;;;;;;;;;;;;x
vaith_armour;Vaith Armour;;;;;;;;;;;;;x
vaith_armour_desc;A suit of armour in the traditional style of House Vaith of the Red Dunes, made of plate and overlapping scales of gleaming copper, in the Dornish fashion, with the breastplate enamelled orange and gold, with three black leopards engraved upon it. The helmet is wrapped in a bright yellow cloth to protect its wearer from the fearsome Dornish heat and secured by a cloth torse, and a flowing silken yellow cloak is pinned over one shoulder.;;;;;;;;;;;;;x
uller_armour;Uller Armour;;;;;;;;;;;;;x
uller_armour_desc;A suit of armour in the traditional style of House Uller of Hellholt, made of plate and overlapping scales of gleaming copper, in the Dornish fashion, with the breastplate enamelled crimson and gold in the shape of flames. The helmet is wrapped in a deep orange cloth to protect its wearer from the fearsome Dornish heat and secured by a cloth torse, and a flowing silken orange cloak is pinned over one shoulder.;;;;;;;;;;;;;x
toland_armour;Toland Armour;;;;;;;;;;;;;x
toland_armour_desc;A suit of armour in the traditional style of House Toland of Ghost Hill, made of plate and overlapping scales of gleaming copper, in the Dornish fashion, with the breastplate enamelled gold, with a green dragon biting its own tail engraved upon it. The helmet is wrapped in a bright yellow cloth to protect its wearer from the fearsome Dornish heat and secured by a cloth torse, and a flowing silken yellow cloak is pinned over one shoulder.;;;;;;;;;;;;;x
jordayne_armour;Jordayne Armour;;;;;;;;;;;;;x
jordayne_armour_desc;A suit of armour in the traditional style of House Jordayne of the Tor, made of plate and overlapping scales of gleaming copper, in the Dornish fashion, with the breastplate enamelled with green checks, with a golden quill engraved upon it. The helmet is wrapped in a bright green cloth to protect its wearer from the fearsome Dornish heat and secured by a cloth torse, and a flowing silken green cloak, edged in gold thread, is pinned over one shoulder.;;;;;;;;;;;;;x
gargalen_armour;Gargalen Armour;;;;;;;;;;;;;x
gargalen_armour_desc;A suit of armour in the traditional style of House Gargalen of the Salt Shore, made of plate and overlapping scales of gleaming copper, in the Dornish fashion, with the breastplate enamelled gold, with a red cockatrice engraved upon it. The helmet is wrapped in a bright yellow cloth to protect its wearer from the fearsome Dornish heat and secured by a cloth torse, and a flowing silken yellow cloak is pinned over one shoulder.;;;;;;;;;;;;;x
wyl_armour;Wyl Armour;;;;;;;;;;;;;x
wyl_armour_desc;A suit of armour in the traditional style of House Wyl of Wyl, made of plate and overlapping scales of gleaming copper, in the Dornish fashion, with the breastplate enamelled gold, with a black adder biting a human ankle engraved upon it. The helmet is wrapped in a bright yellow cloth to protect its wearer from the fearsome Dornish heat and secured by a cloth torse, and a flowing silken yellow cloak is pinned over one shoulder.;;;;;;;;;;;;;x
ladybright_armour;Ladybright Armour;;;;;;;;;;;;;x
ladybright_armour_desc;A suit of armour in the traditional style of House Ladybright, made of plate and overlapping scales of gleaming copper, in the Dornish fashion, with the breastplate enamelled orange and purple, with a silver lantern and stars engraved upon it. The helmet is wrapped in a bright purple cloth to protect its wearer from the fearsome Dornish heat and secured by a cloth torse, and a flowing silken purple cloak is pinned over one shoulder.;;;;;;;;;;;;;x
dalt_armour;Dalt Armour;;;;;;;;;;;;;x
dalt_armour_desc;A suit of armour in the traditional style of House Dalt of Lemonwood, made of plate and overlapping scales of gleaming copper, in the Dornish fashion, with the breastplate enamelled a deep purple, with rows of golden lemons engraved upon it. The helmet is wrapped in a bright purple cloth to protect its wearer from the fearsome Dornish heat and secured by a cloth torse, and a flowing silken purple cloak, edged in gold thread, is pinned over one shoulder.;;;;;;;;;;;;;x
qorgyle_armour;Qorgyle Armour;;;;;;;;;;;;;x
qorgyle_armour_desc;A suit of armour in the traditional style of House Qorgyle of Sandstone, made of plate and overlapping scales of gleaming copper, in the Dornish fashion, with the breastplate enamelled a deep red, with three black scorpions engraved upon it. The helmet is wrapped in a scarlet cloth to protect its wearer from the fearsome Dornish heat and secured by a cloth torse, and a flowing silken red cloak, edged in golden thread, is pinned over one shoulder.;;;;;;;;;;;;;x
santagar_armour;Santagar Armour;;;;;;;;;;;;;x
santagar_armour_desc;A suit of armour in the traditional style of House Santagar of Spottswood, made of plate and overlapping scales of gleaming copper, in the Dornish fashion, with the breastplate enamelled blue and white, with golden leopard with a golden axe engraved upon it. The helmet is wrapped in a deep blue cloth to protect its wearer from the fearsome Dornish heat and secured by a cloth torse, and a flowing silken blue cloak is pinned over one shoulder.;;;;;;;;;;;;;x
blackmont_armour;Blackmont Armour;;;;;;;;;;;;;x
blackmont_armour_desc;A suit of armour in the traditional style of House Blackmont of Blackmont, made of plate and overlapping scales of gleaming copper, in the Dornish fashion, with the breastplate enamelled gold, with a black vulture with a baby in its claws engraved upon it. The helmet is wrapped in a black cloth to protect its wearer from the fearsome Dornish heat and secured by a cloth torse, and a flowing silken black cloak, edged in gold thread, is pinned over one shoulder.;;;;;;;;;;;;;x
allyrion_armour;Allyrion Armour;;;;;;;;;;;;;x
allyrion_armour_desc;A suit of armour in the traditional style of House Allyrion of Godsgrace, made of plate and overlapping scales of gleaming copper, in the Dornish fashion, with the breastplate enamelled black and scarlet, with a golden hand engraved upon it. The helmet is wrapped in a black cloth to protect its wearer from the fearsome Dornish heat and secured by a cloth torse, and a flowing silken black cloak, edged in gold thread, is pinned over one shoulder.;;;;;;;;;;;;;x
manwoody_armour;Manwoody Armour;;;;;;;;;;;;;x
manwoody_armour_desc;A suit of armour in the traditional style of House Manwoody of Kingsgrave, enamelled black with a pure white skull wearing a golden crown engraved upon the chest and a black cloak edged in gold thread flowing from the shoulders. The helmet is wrapped in a black cloth to protect its wearer from the fearsome Dornish heat and secured by a cloth torse.;;;;;;;;;;;;;x
risley_armour;Risley Armour;;;;;;;;;;;;;x
risley_armour_desc;A suit of armour in the traditional style of House Risley of Risley Glade, made of thick silvered steel plate, chased with gold, with the breastplate enamelled white, with a mounted knight bearing a golden lance engraved upon it, and a flowing cloth-of-gold cloak pinned over one shoulder.;;;;;;;;;;;;;x
kraken_helm;Kraken Helm;;;;;;;;;;;;;x
kraken_helm_desc;A fearsome helm wrought in the shape of the kraken of House Greyjoy, surrounded by tentacles. Only the most accomplished warriors of House Greyjoy may wear such a helm.;;;;;;;;;;;;;x
raven_helm;Raven Helm;;;;;;;;;;;;;x
raven_helm_desc;A fearsome helm made of iron and bronze with a set of raven wings at each temple. The design was first used by Mance Rayder. It noted Mance as both a crow and a wildling, and served as his mark of office, for the Free Folk wear no crowns.;;;;;;;;;;;;;x
#Items
osgrey_shield;Shield of the Little Lion;;;;;;;;;;;;;x
osgrey_shield_desc;The battered shield of Ser Wilbert Osgrey, the Little Lion. When Gyles III Gardener, King of the Reach, was battling the Storm King in the east, the King of the Rock, Lancel IV Lannister, attempted to cut a piece out of the Reach for himself. It fell to Wilbert to stop him with his older brothers off in the east with the king. During the battle, Wilbert came face to face with the King of the Rock. The king had a Valyrian steel sword, Brightroar, and chopped the Little Lion to pieces, but as Wilbert was dying, he drove his dagger into a gap in the king's armor and killed him. The westerlands army collapsed and the Reach was saved.;;;;;;;;;;;;;x
gold_armband;Golden Armbands;;;;;;;;;;;;;x
gold_armband_desc;Large golden armbands engraved with the runes of the First Men.;;;;;;;;;;;;;x
beesbury_beehive;Beesbury Beehives;;;;;;;;;;;;;x
beesbury_beehive_desc;A collection of very productive beehives from the estates of House Beesbury at Honeyholt. It is said that the House's founder, Ellyn Ever Sweet, loved honey so much she sought the King of the Bees in his vast mountain hive and made pact with him, to care for his children and his children's children for all time, becoming the first beekeeper.;;;;;;;;;;;;;x
golden_apple_bl;Golden Apple;;;;;;;;;;;;;x
golden_apple_bl_desc;Rowan Gold-Tree was a legendary daughter of Garth Greenhand. According to legend, she was so bereft when her lover left her for a rich rival that she wrapped an apple in her golden hair and planted it upon a hill. From the apple grew a tree whose bark, leaves and fruit were yellow gold. From time to time House Rowan make a golden apple in likeness to the one she grew.;;;;;;;;;;;;;x
kenning_horn;Horn of Herrock;;;;;;;;;;;;;x
kenning_horn_desc;A black, twisted horn that is banded with gold. It is named after Herrock Kenning, the founder of House Kenning of Kayce who used the horn as a signal for the whores of Kayce to open a postern gate, allowing his men to take the town from the ironborn for House Lannister.;;;;;;;;;;;;;x
high_septon_staff;Staff of the High Septon;;;;;;;;;;;;;x
high_septon_staff_desc;The ceremonial staff of the High Septon, carved from weirwood and topped by a crystal orb.;;;;;;;;;;;;;x
septon_crown;Crystal Crown of the High Septon;;;;;;;;;;;;;x
septon_crown_desc;An immense crown of spun gold and crystal that wreathes the head with rainbows when the wearer moves. To be worn by the High Septon, head of the Faith of the Seven.;;;;;;;;;;;;;x
weirwood_staff;Weirwood Staff of [This.OriginalOwner.GetTitledFirstNameWithNick];;;;;;;;;;;;;x
weirwood_staff_desc;A white staff carved from weirwood and engraved with the runes of the First Men. This staff was made by [This.OriginalOwner.GetTitledFirstNameWithNick].;;;;;;;;;;;;;x
rhaegar_harp_a;Silver Targaryen's Harp;;;;;;;;;;;;;x
rhaegar_harp_a_desc;An elegant silver-stringed harp modelled on the one used by Rhaegar Targaryen. A harp can be as dangerous as a sword, in the right hands.;;;;;;;;;;;;;x
lute;Lute;;;;;;;;;;;;;x
lute_desc;A finely made lute.;;;;;;;;;;;;;x
dragon_tooth;Dragon's Tooth;;;;;;;;;;;;;x
dragon_tooth_desc;A tooth from a dragon, long and viciously sharp.;;;;;;;;;;;;;x
long_spoon;Long Handled Spoon;;;;;;;;;;;;;x
long_spoon_desc;A long handled spoon, wought in fine metals and inlayed with pearls. It seems to radiate an aura of unease and magical power to all who look upon it...;;;;;;;;;;;;;x
#Weapons
greatjon_greatsword;Greatjon Umber's Greatsword;;;;;;;;;;;;;x
greatjon_greatsword_desc;A man of great size, the Greatjon wielded an immensely huge and rather ugly greatsword taller than most men.;;;;;;;;;;;;;x
umber_greatsword;Umber Greatsword;;;;;;;;;;;;;x
umber_greatsword_desc;The Umbers are known for their size and strength, and as a result frequently wield oversized greatswords taller than most men.;;;;;;;;;;;;;x
bolton_falchion;Bone-Hilt Fachion;;;;;;;;;;;;;x
bolton_falchion_desc;A curved falchion, its blade as thick and heavy as a cleaver, its hilt yellow bone with a blood red garnet set in the pommel. An ugly blade it was first wielded by Ramsay Snow, bastard of the Dreadfort, who used it for many brutal attrocities.;;;;;;;;;;;;;x
bone_knife;Bone Knife;;;;;;;;;;;;;x
bone_knife_desc;A long bone handled knife, once wielded by Val, the Wildling Princess.;;;;;;;;;;;;;x
roberts_hammer_a;Baratheon Warhammer;;;;Martillo de guerra de Robert;;;;;;;;;x
roberts_hammer_a_desc;A spiked iron warhammer modelled after the one used by Robert Baratheon to slay Rhaegar Targaryen at the Battle of the Trident.;;;;;;;;;;;;;x
hammer_of_justice_weapon;Hammer of Justice;;;;;;;;;;;;;x
hammer_of_justice_weapon_desc;A spiked bronze and iron warhammer recovered from Oldtones, believed to have the been the weapon Tristifer IV Mudd, wielded by him in a hundred battles..;;;;;;;;;;;;;x
apple_bow;Applewood Bow;;;;;;;;;;;;;x
apple_bow_desc;A bow made of applewood in the traditional style of House Fossoway, descendants of Foss the Archer, a son of Garth Greenhand.;;;;;;;;;;;;;x
yew_bow;Yew and Oak Longbow;;;;;;;;;;;;;x
yew_bow_desc;A bow made of yew and oak in the traditional style of House Yew, descendants of  Alan o' the Oak, an ancient hero of the Westerlands.;;;;;;;;;;;;;x
hunter_spear;Hunting Spear;;;;;;;;;;;;;x
hunter_spear_desc;A fine hunting spear, with a strong oak shaft, and a leaf shaped head that will inflict wicked wounds upon man and beast alike.;;;;;;;;;;;;;x
#Cloaks
mance_cloak;A Patched Cloak;;;;;;;;;;;;x
mance_cloak_desc;A simple black wool cloak of a Sworn Brother of the Night's Watch, slashed through with crimson silk from Asshai.;;;;;;;;;;;;;x
nw_cloak;Black Brother Cloak;;;;;;;;;;;;x
nw_cloak_desc;A simple black wool cloak of a Sworn Brother of the Night's Watch.;;;;;;;;;;;;;x
lemon_cloak;Yellow Cloak;;;;;;;;;;;;x
lemon_cloak_desc;A great hooded yellow cloak, thick and heavy, stained here with grass and there with blood, frayed along the bottom and patched with deerskin on the right shoulder, the greatcloak gives those that wear it the look of some huge yellow bird.;;;;;;;;;;;;;x
edmure_cloak;Mud and Water Cloak;;;;;;;;;;;;x
edmure_cloak_desc;A flowing cloak, dyed the coulours of mud-and-water, the colours of House Tully of Riverrun.;;;;;;;;;;;;;x
hrakkar_pelt;Hrakkar Pelt;;;;;;;;;;;;;x
hrakkar_pelt_desc;A fur cloak made from the pelt of a hrakkar, the white lions of the Dothraki Sea. Hrakkar skin cloaks are highly prized.;;;;;;;;;;;;;x
snowbear_cloak;Snowbear Pelt;;;;;;;;;;;;;x
snowbear_cloak_desc;A fur cloak made from the pelt of a snowbear, the great white bears native to north of the Wall. Snowbear skin cloaks are highly prized.;;;;;;;;;;;;;x
brownbear_cloak;Brownbear Pelt;;;;;;;;;;;;;x
brownbear_cloak_desc;A fur cloak made from the pelt of a brown bear, such bearskin cloaks are highly prized.;;;;;;;;;;;;;x
leopard_skin_cloak;Spotted Cat Pelt;;;;;;;;;;;;;x
leopard_skin_cloak_desc;A fur cloak made from the pelt of a the spotted cats native to the Summer Isles and Sothoryos, such spotted pelts are highly prized.;;;;;;;;;;;;;x
summer_feather_cloak;Summer Islander Feather Cloak;;;;;;;;;;;;;x
summer_feather_cloak_desc;A magnificent feathered cloak made from the feathers of the birds of the Summer Isles. Such feathered cloaks are highly prized.;;;;;;;;;;;;;x
sable_cloak;Sable Cloak;;;;;;;;;;;;;x
sable_cloak_desc;A black fur cloak made from sable pelts. Sable fur cloaks are very warm and highly prized.;;;;;;;;;;;;;x
sealskin_cloak;Sealskin Cloak;;;;;;;;;;;;;x
sealskin_cloak_desc;A fine cloak made from seal fur, sealksin cloaks are very warm and highly prized.;;;;;;;;;;;;;x
vulture_cloak;Vulture Feather Cloak;;;;;;;;;;;;;x
vulture_cloak_desc;A magnificent vulture-feather cloak made from the feathers of vultures from the Red Mountains of Dorne.;;;;;;;;;;;;;x
crane_cloak;Crane Feather Cloak;;;;;;;;;;;;;x
crane_cloak_desc;A magnificent crane-feather cloak made from the feathers of cranes from around Red Lake.;;;;;;;;;;;;;x
stark_surcoat;Direwolf Surcoat;;;;;;;;;;;;x
stark_surcoat_desc;A fine surcoat bearing the direwolf of Winterfell, it inspires the troops.;;;;;;;;;;;;;x
baratheon_surcoat;Stag Surcoat;;;;;;;;;;;;x
baratheon_surcoat_desc;A fine surcoat bearing the stag of Storm's End, it inspires the troops.;;;;;;;;;;;;;x
duncan_tall_shield;Shield of Ser Duncan the Tall;;;;;;;;;;;;;x
duncan_tall_shield_desc;The battered shield of Ser Duncan the Tall, emblazoned with an elm, a sunset and a shooting star. Ser Duncan, a hedgeknight from Flea Bottom adopted the arms at the Tourney at Ashford Meadow shortly before causing and fighting in the first Trial by Seven in several centuries. A giant of a man, the shield is heavy and is too cumbersome for anyone not of Ser Duncan's impressive stature to use.;;;;;;;;;;;;;x
kingsguard_armour;Kingsguard Armour;;;;;;;;;;;;;x
kingsguard_armour_desc;A suit of armour in the traditional style of the Kingsguard, made of intricate white enamelled scales and thick enamelled plate, their fastenings for breastplate and other pieces made of silver, and a long pure white cloak flowing from the shoulders.;;;;;;;;;;;;;x
hand_ofthe_king_pin;Badge of the Hand of the King;;;;;;;;;;;;;x
hand_ofthe_king_pin_desc;A badge of office symbolising the wearer's status as Hand of the King to the Iron Throne. This badge was made for [This.OriginalOwner.GetTitledFirstNameWithDynasty] when [This.OriginalOwner.GetSheHe] was elevated to the position.;;;;;;;;;;;;;x
hand_ofthe_king_pin_ned;Badge of the Hand of the King;;;;;;;;;;;;;x
hand_ofthe_king_pin_ned_desc;A badge of office symbolising the wearer's status as Hand of the King to the Iron Throne. This badge was made for Lord Eddard Stark, Lord of Winterfell and Warden of the North, when he was elevated to the position.;;;;;;;;;;;;;x
hand_ofthe_king_pin_jon;Badge of the Hand of the King;;;;;;;;;;;;;x
hand_ofthe_king_pin_jon_desc;A badge of office symbolising the wearer's status as Hand of the King to the Iron Throne. This badge was made for Lord Jon Arryn, Lord of The Eyrie and Warden of the East, when he was elevated to the position.;;;;;;;;;;;;;x
hand_ofthe_king_pin_tywin;Badge of the Hand of the King;;;;;;;;;;;;;x
hand_ofthe_king_pin_tywin_desc;A badge of office symbolising the wearer's status as Hand of the King to the Iron Throne. This badge was made for Lord Tywin Lannister, Lord of Casterly Rock and Warden of the West, when he was elevated to the position.;;;;;;;;;;;;;x
hand_ofthe_king_pin_qarlton;Badge of the Hand of the King;;;;;;;;;;;;;x
hand_ofthe_king_pin_qarlton_desc;A badge of office symbolising the wearer's status as Hand of the King to the Iron Throne. This badge was made for Lord Qarlton Chelsted, Lord of the Bramsfort, when he was elevated to the position.;;;;;;;;;;;;;x
hand_ofthe_king_pin_orys;Badge of the Hand of the King;;;;;;;;;;;;;x
hand_ofthe_king_pin_orys_desc;A badge of office symbolising the wearer's status as Hand of the King to the Iron Throne. This badge was made for Lord Orys Baratheon, Lord of Storms End and Lord Paramount of the Stormlands, when he was elevated to the position.;;;;;;;;;;;;;x
hand_ofthe_king_pin_edmyn;Badge of the Hand of the King;;;;;;;;;;;;;x
hand_ofthe_king_pin_edmyn_desc;A badge of office symbolising the wearer's status as Hand of the King to the Iron Throne. This badge was made for Lord Edmyn Tully, Lord of Riverrun and Lord Paramount of the Trident, when he was elevated to the position.;;;;;;;;;;;;;x
hand_ofthe_king_pin_rogar;Badge of the Hand of the King;;;;;;;;;;;;;x
hand_ofthe_king_pin_rogar_desc;A badge of office symbolising the wearer's status as Hand of the King to the Iron Throne. This badge was made for Lord Rogar Baratheon, Lord of Storms End and Lord Paramount of the Stormlands, when he was elevated to the position.;;;;;;;;;;;;;x
hand_ofthe_king_pin_cregan;Badge of the Hand of the King;;;;;;;;;;;;;x
hand_ofthe_king_pin_cregan_desc;A badge of office symbolising the wearer's status as Hand of the King to the Iron Throne. This badge was made for Lord Cregan Stark, Lord of Winterfell and Warden of the North, when he was elevated to the position.;;;;;;;;;;;;;x
hand_ofthe_king_pin_viserys;Badge of the Hand of the King;;;;;;;;;;;;;x
hand_ofthe_king_pin_viserys_desc;A badge of office symbolising the wearer's status as Hand of the King to the Iron Throne. This badge was made for Prince Viserys Targaryen, brother of King Aegon III, when he was elevated to the position.;;;;;;;;;;;;;x
hand_ofthe_king_pin_bloodraven;Badge of the Hand of the King;;;;;;;;;;;;;x
hand_ofthe_king_pin_bloodraven_desc;A badge of office symbolising the wearer's status as Hand of the King to the Iron Throne. This badge was made for Lord Brynden Rivers, known as Bloodraven, bastard son of Aegon the Unworthy, when he was elevated to the position.;;;;;;;;;;;;;x
hand_ofthe_king_pin_ormund;Badge of the Hand of the King;;;;;;;;;;;;;x
hand_ofthe_king_pin_ormund_desc;A badge of office symbolising the wearer's status as Hand of the King to the Iron Throne. This badge was made for Lord Ormund Baratheon, Lord of Storms End and Lord Paramount of the Stormlands, when he was elevated to the position.;;;;;;;;;;;;;x
gilded_skull_of_lo_bu;Gilded Skull of Lo Bu;;;;;;;;;;;;;x
gilded_skull_of_lo_bu_desc;Lo Bu, God-Emperor of the Golden Empire of Yi Ti, led an army of three hundred thousand into the plains of the Jogos Nhai, history tells one million of Jogos Nhai perished at their hands. Thus, the rival clans of zorse-riders united and raised up a jhattar, Zhea. Though Lo Bu was courageous and skilled at arms like no other, he was not as cunning as Zhea, who in two years isolated and destroyed each of Lo Bu's armies one by one, slaying scouts and foragers, starving them, denying them water, or leading them into wastelands and traps. Finally her riders fell upon Lo Bu's own army and slaughtered it, the young emperor included. When Lo Bu's severed head was presented to her, Zhea commanded that the flesh be stripped from the bone and the skull dipped in gold and made into a drinking cup. Since that day, every jhattar has drunk fermented zorse milk from the gilded skull of Lo Bu, who is remembered as the Boy Too Bold By Half.;;;;;;;;;;;;;x
