cata;A Cat;;;;;;;;;;;;;x
cata_desc;A small Cat always follows this character.;;;;;;;;;;;;;x
goat;A Goat;;;;;;;;;;;;;x
goat_desc;A goat always follows this character.;;;;;;;;;;;;;x
vulture;A Vulture;;;;;;;;;;;;;x
vulture_desc;A large vulture always seems to follow this character.;;;;;;;;;;;;;x
lion;A Lion;;;;;;;;;;;;;x
lion_desc;A mighty lion always follows this character.;;;;;;;;;;;;;x
lizardlion;A Lizard-lion;;;;;;;;;;;;;x
lizardlion_desc;A lizard-lion always follows this character.;;;;;;;;;;;;;x
crane;A Crane;;;;;;;;;;;;;x
crane_desc;A large crane always seems to follow this character.;;;;;;;;;;;;;x
bat;A Bat;;;;;;;;;;;;;x
bat_desc;A bat is often seen near this character.;;;;;;;;;;;;;x
great_bat;A Giant Bat;;;;;;;;;;;;;x
great_bat_desc;A giant bat is often said to follow this character, people claim it would be large enough to carry a small child...;;;;;;;;;;;;;x
deer;A Deer;;;;;;;;;;;;;x
deer_desc;A majestic deer always follows this character.;;;;;;;;;;;;;x
hrakkar;A Hrakkar;;;;;;;;;;;;;x
hrakkar_desc;A hrakkar, one of the the mighty white lions of the Dothraki Sea, always follows this character.;;;;;;;;;;;;;x
mammoth;A Mammoth;;;;;;;;;;;;;x
mammoth_desc;A mighty mammoth, from the frozen north beyond the Wall, always follows this character.;;;;;;;;;;;;;x
unicorn_MBS;A Unicorn;;;;;;;;;;;;;x
unicorn_MBS_desc;A skagosi unicorn, a large goat like creature with on long sharp horn protuding from its head, always follows this character.;;;;;;;;;;;;;x
walrus;A Walrus;;;;;;;;;;;;;x	
walrus_desc;A walrus always follows this character.;;;;;;;;;;;;;x	
great_ape;A Great Ape;;;;;;;;;;;;;x
great_ape_desc;A great Sothoryi ape from the dark forests south of Yeen, the size of a giant, is always near to this character.;;;;;;;;;;;;;x
panda;A Panda;;;;;;;;;;;;;x
panda_desc;A panda, the fearsome and dangerous beasts said to haunt the farthest YiTish jungles always follows this character.;;;;;;;;;;;;;x
fox_mbs;A Fox;;;;;;;;;;;;;x
fox_mbs_desc;A fox always follows this character.;;;;;;;;;;;;;x
greenseer;Greenseer;;;;;;;;;;;;;x
greenseer_desc;This character is a greenseer, chosen by the Old Gods, able to wear the skins of any beast that flies or swims or crawls, and look through the eyes of the weirwoods as well, and see the truth that lies beneath the world. Only one man in a thousand is born a skinchanger, and only one skinchanger in a thousand is born a greenseer.;;;;;;;;;;;;;x
greenseer_weirwood;One With the Weirwoods;;;;;;;;;;;;;x
greenseer_weirwood_desc;This character has chosen to seat themselves on a throne of living weirwood roots, becoming one with them to preserve their own life until another greenseer can emerge. They will not die of old age yet they will slowly lose hold of their identity and they cannot stir from their erie throne.;;;;;;;;;;;;;x
EVTDESCskinchanger.41;Yesterday, while I was outside, I noticed a cat following me. It looked abandoned and lonely, the poor thing must be hungry. I can almost feel it...;Hier, alors que je marchais dans la forêt, j'ai remarqué un chat qui me suivait. La pauvre bête devait être affamée. Je pouvais presque le ressentir...;;;Ayer mientras paseaba fuera de palacio vi que un gato me seguía. El pobre parecía estar famélico, casi podía sentirlo...;Ayer mientras paseaba fuera de palacio vi que un lobo me seguía, un lobo extrañamente solitario;;;;;;;;x
EVTOPTAskinchanger.41;Maybe I should go back tomorrow, and see if it's still there.;Peut-être devrais-je y retourner demain pour voir s'il est toujours là.;;;Quizás pueda volver mañana a ver si la vuelvo a ver.;;;;;;;;;x
EVTDESCskinchanger.42;Yesterday, while I was outside, I noticed a large mountain goat following me. It looked lost and lonely, the poor thing must be hungry. I can almost feel it...;;;;;;;;;;;;;x
EVTOPTAskinchanger.42;Maybe I should go back tomorrow, and see if it's still there.;;;;;;;;;;;;;x
EVTDESCskinchanger.43;Yesterday, while I was outside, I noticed a large deer following me. It looked lost and lonely, the poor thing must be hungry. I can almost feel it...;;;;;;;;;;;;;x
EVTOPTAskinchanger.43;Maybe I should go back tomorrow, and see if it's still there.;;;;;;;;;;;;;x
EVTDESCskinchanger.44;Yesterday, while I was outside, I noticed a fox following me. It looked lost and lonely, the poor thing must be hungry. I can almost feel it...;;;;;;;;;;;;;x
EVTOPTAskinchanger.44;Maybe I should go back tomorrow, and see if it's still there.;;;;;;;;;;;;;x