#CODE;ENGLISH;FRENCH;GERMAN;;SPANISH;;;;;;;;;x
nick_wolfsbane;the Wolfsbane;;;;;;;;;;;;;x
nick_greatwarg;the Great Warg;;;;;;;;;;;;;x
nick_beasttamer;the Beast Tamer;;;;;;;;;;;;;x
nick_manyskinned;the Many Skinned;;;;;;;;;;;;;x
nick_king_of_the_woods;the King of the Woods;;;;;;;;;;;;;x
nick_husband_to_bears;Husband to Bears;;;;;;;;;;;;;x
nick_the_raventree;the Restorer of the Raventree;;;;;;;;;;;;;x
nick_the_oakenseat_bl;the Restorer of the Oakenseat;;;;;;;;;;;;;x
nick_the_palanquin;the Restorer of the Palanquin;;;;;;;;;;;;;x
nick_the_bloodstone_bl;the Restorer of the Bloodstone;;;;;;;;;;;;;x
nick_the_eunuch_emperor_1;the Benevolent Eunuch;;;;;;;;;;;;;x
nick_the_eunuch_emperor_2;the Blessed Eunuch;;;;;;;;;;;;;x
nick_the_eunuch_emperor_3;the Sacred Eunuch;;;;;;;;;;;;;x
nick_the_eunuch_emperor_4;the Beloved Eunuch;;;;;;;;;;;;;x
nick_the_eunuch_emperor_5;the Revered Eunuch;;;;;;;;;;;;;x
nick_the_eunuch_emperor_6;the Enlightened Eunuch;;;;;;;;;;;;;x
nick_the_eunuch_emperor_7;the Dedicated Eunuch;;;;;;;;;;;;;x
nick_the_eunuch_emperor_8;the Eunuch Emperor;;;;;;;;;;;;;x
nick_the_scourge_emperor_1;the Scourge of the Plains;;;;;;;;;;;;;x
nick_the_scourge_emperor_2;the Hunter of Nomads;;;;;;;;;;;;;x
nick_the_scourge_emperor_3;the Zorse Slayer;;;;;;;;;;;;;x
nick_the_scourge_emperor_4;the Jade Sword;;;;;;;;;;;;;x
nick_the_shield_emperor_1;the Shield Against the Shadow;;;;;;;;;;;;;x
nick_the_shield_emperor_2;the Slayer of Ash;;;;;;;;;;;;;x
nick_the_shield_emperor_3;the Light in the Darkness;;;;;;;;;;;;;x
nick_the_shield_emperor_4;the Jade Sword;;;;;;;;;;;;;x
nick_the_scion_emperor_1;the Scion of the Plains;;;;;;;;;;;;;x
nick_the_scion_emperor_2;the Jhattar of YiTi;;;;;;;;;;;;;x
nick_the_scion_emperor_3;the Friend of the Nomads;;;;;;;;;;;;;x
nick_the_scion_emperor_4;the Zorse Riding Emperor;;;;;;;;;;;;;x
nick_the_sorceror_emperor_1;the Longspoon Emperor;;;;;;;;;;;;;x
nick_the_sorceror_emperor_2;the Dark Emperor;;;;;;;;;;;;;x
nick_the_sorceror_emperor_3;the Mystical Emperor;;;;;;;;;;;;;x
nick_the_sorceror_emperor_4;the Terrible;;;;;;;;;;;;;x
nick_the_peasant_emperor_1;the Peasant Emperor;;;;;;;;;;;;;x
nick_the_peasant_emperor_2;the Friend of the People;;;;;;;;;;;;;x
nick_the_peasant_emperor_3;the People's Emperor;;;;;;;;;;;;;x
nick_the_peasant_emperor_4;the Emperor in Rags;;;;;;;;;;;;;x
nick_the_bureaucrat_emperor_1;the Bureaucrat Emperor;;;;;;;;;;;;;x
nick_the_bureaucrat_emperor_2;the Inkpot Emperor;;;;;;;;;;;;;x
nick_the_bureaucrat_emperor_3;the Scholar Emperor;;;;;;;;;;;;;x
nick_the_bureaucrat_emperor_4;the Enlightened Emperor;;;;;;;;;;;;;x
nick_the_diplomat_emperor_1;the Diplomat Emperor;;;;;;;;;;;;;x
nick_the_diplomat_emperor_2;the Trustworthy Emperor;;;;;;;;;;;;;x
nick_the_diplomat_emperor_3;the Just Emperor;;;;;;;;;;;;;x
nick_the_diplomat_emperor_4;the Negotiator;;;;;;;;;;;;;x
nick_the_living_god_emperor_1;the Living God;;;;;;;;;;;;;x
nick_the_living_god_emperor_2;the Divine Presence;;;;;;;;;;;;;x
nick_the_living_god_emperor_3;the Sacred One;;;;;;;;;;;;;x
nick_the_living_god_emperor_4;the Benevolent;;;;;;;;;;;;;x
nick_lion_tamer;Lion Tamer;;;;;;;;;;;;;x
nick_hrakkar_tamer;Hrakkar Tamer;;;;;;;;;;;;;x
nick_mammoth_tamer;Mammoth Tamer;;;;;;;;;;;;;x
nick_whale_tamer;the Whale Herder;;;;;;;;;;;;;x
nick_unicorn_tamer;the Unicorn Rider;;;;;;;;;;;;;x
nick_barrow_wolf;the Wolf of the Barrowlands;;;;;;;;;;;;;x
nick_barstark;Barrow Stark;;;;;;;;;;;;;x
nick_harbour_wolf;the Wolf of White Harbour;;;;;;;;;;;;;x
nick_harstark;Harbour Stark;;;;;;;;;;;;;x
nick_warg_king;Warg King;;;;;;;;;;;;;x
nick_warg_prince;Warg Prince;;;;;;;;;;;;;x
nick_the_green_king;The Green King;;;;;;;;;;;;;x
nick_the_serpent_in_scarlet;The Serpent in Scarlet;;;;;;;;;;;;;x
nick_bastard_of_location;the Bastard of [Root.Location.GetName];;;;;;;;;;;;;x
nick_of_the_bear_of_location;the Bear of [Root.Location.GetName];;;;;;;;;;;;;x
nick_the_young_bear;the Young Bear;;;;;;;;;;;;;x
nick_the_bastard_bear;the Bastard Bear of [Root.Location.GetName];;;;;;;;;;;;;x
nick_of_the_raven_of_location;the Raven of [Root.Location.GetName];;;;;;;;;;;;;x
nick_the_young_raven;the Young Raven;;;;;;;;;;;;;x
nick_the_bastard_raven;the Bastard Raven of [Root.Location.GetName];;;;;;;;;;;;;x
nick_the_cunning_raven;the Cunning Raven;;;;;;;;;;;;;x
nick_of_the_direwolf_of_location;the Direwolf of [Root.Location.GetName];;;;;;;;;;;;;x
nick_the_bastard_wolf;the Bastard Wolf of [Root.Location.GetName];;;;;;;;;;;;;x
nick_the_cunning_wolf;the Cunning Wolf;;;;;;;;;;;;;x
nick_of_the_lizardlion_of_location;the Lizard-lion of [Root.Location.GetName];;;;;;;;;;;;;x
nick_the_young_lizardlion;the Young Lizard-lion;;;;;;;;;;;;;x
nick_the_bastard_lizardlion;the Bastard Lizard-lion of [Root.Location.GetName];;;;;;;;;;;;;x
nick_the_cunning_lizardlion;the Cunning Lizard-lion;;;;;;;;;;;;;x
nick_the_young_lion;the Young Lion;;;;;;;;;;;;;x
nick_the_bastard_lion;the Bastard Lion of [Root.Location.GetName];;;;;;;;;;;;;x
nick_the_cunning_lion;the Cunning Lion;;;;;;;;;;;;;x





















nick_mbs_the_harper;the Harper;;;;;;;;;;;;;x
nick_mbs_the_lutist;the Lutist;;;;;;;;;;;;;x
nick_mbs_the_singer;the Singer;;;;;;;;;;;;;x
nick_mbs_the_silvertongue;Silver Tongue;;;;;;;;;;;;;x
nick_mbs_the_goldentongue;Golden Tongue;;;;;;;;;;;;;x
nick_mbs_the_sweettongue;Sweet Tongue;;;;;;;;;;;;;x
nick_mbs_the_sweetvoice;Sweet Voice;;;;;;;;;;;;;x
nick_mbs_the_purevoice;Pure Voice;;;;;;;;;;;;;x
nick_mbs_the_goldenvoice;Golden Voice;;;;;;;;;;;;;x
nick_mbs_the_silvervoice;Silver Voice;;;;;;;;;;;;;x
nick_mbs_the_wanderingbard;the Wandering Bard;;;;;;;;;;;;;x
nick_mbs_the_bluebard;the Blue Bard;;;;;;;;;;;;;x
nick_mbs_the_redbard;the Red Bard;;;;;;;;;;;;;x
nick_mbs_the_goldbard;the Golden Bard;;;;;;;;;;;;;x
nick_mbs_the_greenbard;the Green Bard;;;;;;;;;;;;;x
nick_mbs_the_silverbard;the Silver Bard;;;;;;;;;;;;;x
nick_mbs_the_blackbard;the Black Bard;;;;;;;;;;;;;x
nick_mbs_the_orangebard;the Orange Bard;;;;;;;;;;;;;x
nick_mbs_the_rhymer;the Rhymer;;;;;;;;;;;;;x
nick_mbs_the_strummer;the Strummer;;;;;;;;;;;;;x
nick_mbs_the_melodious;the Melodious;;;;;;;;;;;;;x
nick_mbs_the_nightingale;the Nightingale;;;;;;;;;;;;;x
nick_mbs_the_lark;the Lark;;;;;;;;;;;;;x
nick_mbs_the_fairfinger;Fair-Fingers;;;;;;;;;;;;;x
nick_mbs_the_swiftfinger;Swift-Fingers;;;;;;;;;;;;;x
nick_mbs_bones;Bones;;;;;;;;;;;;;x
