1.1.1={ 
	liege="c_disputedforest"
}
6458.1.1 = { holder=150300540 } # Groleo (nc)
6503.1.1 = { holder=100300540 } # Allequo (nc)
6534.1.1 = { holder=101300540 } # Collio (nc)
6539.1.1 = { holder=107300540 } # Syrio (nc)
6576.1.1 = { holder=111300540 } # Khorane (nc)
6601.1.1 = { holder=113300540 } # Gylono (nC)
6643.1.1 = { holder=117300540 } # Joss (nc)
6686.1.1 = { holder=121300540 } # Tagganaro (nc)
6717.1.1 = { holder=124300540 } # Brusco (nc)
6732.1.1 = { holder=127300540 } # Ternesio (nc)
6737.1.1={ holder = 0 } #Ninepenny king
6737.12.31 = { holder = 127300540 } 
6748.1.1={
	holder=2003994 # Sallador
}


