1.1.1={ 
	liege="c_pentos"
}
6442.1.1 = { holder=100300012 } # Yorko (nc)
6484.1.1 = { holder=100300526 } # Gyleno (nc)
6493.1.1 = { holder=101300526 } # Jaqen (nc)
6532.1.1 = { holder=102174360 } # Narbo (nc)
6535.1.1 = { holder=104174366 } # Denyo (nc)
6567.1.1 = { holder=109174360 } # Izembaro (nc)
6572.1.1 = { holder=110174360 } # Ezzelyno (nc)
6587.1.1 = { holder=112300012 } # Izembaro (nc)
6606.1.1 = { holder=114300012 } # Denyo (nc)
6608.1.1 = { holder=119300526 } # Izembaro (nc)
6621.1.1 = { holder=114174366 } # Lotho (nc)
6649.1.1 = { holder=116174366 } # Gyloro (nc)
6653.1.1 = { holder=121174360 } # Izembaro (nc)
6676.1.1 = { holder=125174366 } # Brusco (nc)
6678.1.1 = { holder=126174356 } # Daario (nc)
6690.1.1 = { holder=128174356 } # Noho (nc)
6695.1.1 = { holder=130300012 } # Ordello (nc)
6709.1.1 = { holder=132300012 } # Meralyn (nc)
6718.1.1 = { holder=126174366 } # Ternesio (nc)
6736.1.1 = { holder=129174366 } # Terro (nc)
6763.1.1 = { holder=134174356 } # Ternesio (nc)
6768.1.1={ holder=600000040 } # Illyrio



