1.1.1={
	liege="d_asabhad"
}

6473.1.1 = { holder=100055943 } # Uways (nc)
6514.1.1 = { holder=100155943 } # Muzaffaraddin (nc)
6526.1.1 = { holder=100355943 } # Youkhanna (nc)
6560.1.1 = { holder=100755943 } # Halil (nc)
6567.1.1 = { holder=101255943 } # Muzaffaraddin (nc)
6570.1.1 = { holder=101455943 } # Qawurd (nc)
6608.1.1 = { holder=101655943 } # Mukhtar (nc)
6647.1.1 = { holder=101755943 } # Sami (nc)
6648.1.1 = { holder=101855943 } # Yahya (nc)
6697.1.1 = { holder=101955943 } # Nizam (nc)
6724.1.1 = { holder=102155943 } # Bakr (nc)
6771.1.1 = { holder=102655943 } # Aghlab (nc)

