1.1.1={
	liege="d_bhorash"
}

6473.1.1 = { holder=100069143 } # Rolloquo (nc)
6509.1.1 = { holder=100169143 } # Yorko (nc)
6510.1.1 = { holder=100369143 } # Colloquo (nc)
6555.1.1 = { holder=100569143 } # Malaquo (nc)
6572.1.1 = { holder=100969143 } # Doniphos (nc)
6577.1.1 = { holder=101169143 } # Vogarro (nc)
6613.1.1 = { holder=101269143 } # Ordello (nc)
6662.1.1 = { holder=101969143 } # Methyso (nc)
6681.1.1 = { holder=102169143 } # Benerro (nc)
6692.1.1 = { holder=102369143 } # Meralyn (nc)
6706.1.1 = { holder=102469143 } # Allaquo (nc)
6722.1.1 = { holder=102769143 } # Benerro (nc)
6765.1.1 = { holder=103369143 } # Vysarro (nc)