1.1.1={
	liege="d_linqi"
}
6473.1.1 = { holder=10069196 } # Mahdi (nc)
6504.1.1 = { holder=10169196 } # Jibril (nc)
6529.1.1 = { holder=10569196 } # Akin (nc)
6561.1.1 = { holder=10969196 } # Talib (nc)
6575.1.1 = { holder=11369196 } # Bakr (nc)
6622.1.1 = { holder=11569196 } # Ali_Ali (nc)
6642.1.1 = { holder=11869196 } # Shaiban (nc)
6649.1.1 = { holder=12069196 } # Hasan_Hasan (nc)
6701.1.1 = { holder=12569196 } # Abdul (nc)
6715.1.1 = { holder=12969196 } # Mahdi (nc)
6737.1.1 = { holder=13169196 } # Najib (nc)
6760.1.1 = { holder=13369196 } # Shokouh (nc)



