1.1.1={
	law = succ_turkish_succession
	law = agnatic_succession
}
6473.1.1 = { holder=100982370 } # Lysono (nc)
6502.1.1 = { 
	holder=101982370 # Salassor
} 


6548.1.1 = { holder=105982370 } # Collio (nc)

6593.1.1 = { holder=106982370 } # Tregar (nc)



6616.1.1 = { holder=110982370 } # Sulleham (nc)

6633.1.1 = { holder=100513 } #Black Pearl of Braavos

6641.1.1 = { holder=110982370 } # Sulleham (nc)

6645.1.1 = { holder=111982370 } # Gyleno (nc)
6658.1.1 = { holder=112982370 } # Lysono (nc)
6697.1.1 = { holder=114982370 } # Noho (nc)
6728.1.1 = { holder=115982370 } # Ordello (nc)
6731.1.1 = { holder=118982370 } # Samarro Saan(C)

