1.1.1={
	liege="k_lys"
}
6448.1.1 = { holder=150300546 } # Vaelar (nc)
6514.1.1 = { holder=100300546 } # Roro (nc)
6557.1.1 = { holder=105300546 } # Sallodhor (nc)
6584.1.1 = { holder=106300546 } # Cossoma (nc)
6607.1.1 = { holder=109300546 } # Syrio (nc)
6646.1.1 = { holder=112300546 } # Ordello (nc)
6674.1.1 = { holder=115300546 } # Illyrio (nc)
6683.1.1 = { holder=117300546 } # Ordello (nc)
6705.1.1 = { holder=118300546 } # Izembaro (nc)
6727.1.1 = { holder=122300546 } # Tycho (nc)

