6458.1.1 = { 
	holder=100607303 
	liege = d_central_plains
} # Zaid (nc)
6497.1.1 = { holder=101607303 } # Edrees (nc)
6513.1.1 = { holder=106607303 } # Qader (nc)
6526.1.1 = { holder=107607303 } # Sabeir (nc)
6557.1.1 = { holder=109607303 } # Taj (nc)
6577.1.1 = { holder=110607303 } # Kahkazan (nc)
6633.1.1 = { holder=113607303 } # Usma (nc)
6654.1.1 = { holder=114607303 } # Naim (nc)
6656.1.1 = { holder=115607303 } # Faqar (nc)
6673.1.1 = { holder=117607303 } # Aarak (nc)
6704.1.1 = { holder=119607303 } # Ehsan (nc)
6730.1.1 = { holder=122607303 } # Parviz (nc)
6771.1.1 = { holder=126607303 } # Ramazan (nc)


