4478.1.1={
	liege="d_barrowlands"
	law = succ_primogeniture
}
6433.1.1={
	holder=1052079
}
6457.1.1 = {
	holder=1053079
}
6472.1.1 = {
	holder=12079
}
6507.1.1={
	holder=11079
}
6512.1.1={
	holder=10079
}
6531.1.1={
	holder=9079
}
6555.1.1={
	holder=8079
}
6599.1.1={
	holder=7079
}
6608.5.1={
	holder=6079
}
6650.1.1={
	holder=5079
}
6657.1.1={
	holder=4079
}
6679.1.1={
	holder=3079
}
6707.1.1={
	holder=2079
}
6751.1.1={
	holder=79
}
6762.1.1={
	holder=2068
}
