4478.1.1={
	liege="d_flintsfinger"
	law = succ_primogeniture
}
6473.1.1={
	holder=20077
}
6508.1.1={
	holder=19077
}
6523.1.1={
	holder=18077
}
6553.1.1={
	holder=17077
}
6571.1.1={
	holder=16077
}
6604.1.1={
	holder=15077
}
6648.1.1={
	holder=13077
}
6681.1.1={
	holder=11077
}
6717.1.1={
	holder=10077
}
6744.1.1={
	holder=75
}
