#House Luxho
6450.1.1 = { 
	holder=100304007
	liege=d_the_three_exiles
	law = succ_seniority
	law = cognatic_succession
} 
6490.1.1 = { holder=102304007 } 
6510.1.1 = { holder=106304007 } 
6527.1.1 = { holder=108304007 } 
6599.1.1 = { holder=113304007 } 
6643.1.1 = { holder=119304007 } 
6650.1.1 = { holder=121304007 } 
6702.1.1 = { holder=124304007 } 
6713.1.1 = { holder=128304007 } 
6729.1.1 = { holder=129304007 } 
6732.1.1 = { holder=131304007 } 
6769.1.1 = { holder=138304007 } 

