6473.1.1 = { holder=10001806 } # Martyn (nc)
6499.1.1 = { holder=10021806 } # Owen (nc)
6541.1.1 = { holder=10051806 } # Hareth (nc)
6558.1.1 = { holder=10081806 } # Helman (nc)
6576.1.1 = { holder=10131806 } # Jojen (nc)
6588.1.1 = { holder=10141806 } # Jory (nc)

6640.1.1 = { holder=60129 } # Geleria (nc)
6649.1.1 = { holder=60139 } # Damarya (nc)
6690.1.1 = { holder=60149 } # Castos (nc)
6698.1.1 = { holder=60179 } # Daeron (nc)
6748.1.1 = { holder=60189 } # Cedra (nc)
