1.1.1 = { liege="e_stormlands" }

6472.1.1 = { holder=300302 } # Barristan Selmy (nc)
6491.1.1 = { holder=301302 } # Lyonel Selmy (nc)
6492.1.1 = { holder=302302 } # Othell Selmy (nc)
6518.1.1 = { holder=303302 } # Cyrenna Selmy (nc)
6543.1.1 = { holder=311302 } # Humfrey Selmy (nc)
6557.1.1 = { holder=313302 } # Lyonel Selmy (nc)
6586.1.1 = { holder=318302 } # Myles Selmy (nc)
6614.1.1 = { holder=322302 } # Sebara Selmy (Sc)
6645.1.1 = { holder=327302 } # Beren Selmy (Sc)
6654.1.1 = { holder=330302 } # Beram Selmy (Sc)
6685.1.1 = { holder=332302 } # Arstan Selmy (nc)
6738.1.1 = { holder=200302 } # Lyonel Selmy (C)
6748.1.1 = { holder=334302 } # Paxter Selmy (nc)
6773.1.1 = { holder=202302 } # Arstan Selmy (C)
