1.1.1={
	liege="d_faros"
}

6473.1.1 = { holder=100559336 } # Idris (nc)
6514.1.1 = { holder=101559336 } # Mirza (nc)
6522.1.1 = { holder=105559336 } # Ali_Ali (nc)
6575.1.1 = { holder=108559336 } # Isa (nc)
6588.1.1 = { holder=111559336 } # Aghlab (nc)
6606.1.1 = { holder=113559336 } # Shujah (nc)
6640.1.1 = { holder=117559336 } # Akin (nc)
6667.1.1 = { holder=120559336 } # Husam (nc)
6687.1.1 = { holder=122559336 } # Ghalib (nc)
6711.1.1 = { holder=123559336 } # Mirza (nc)
6762.1.1 = { holder=125559336 } # Sadiq (nc)
6772.1.1 = { holder=126559336 } # Faruk (nc)

