1.1.1={
	liege="d_astapor"
}
6465.1.1 = { holder=150360026 } # Mizlaq (nc)
6499.1.1 = { holder=100360026 } # Faezdhar (nc)
6527.1.1 = { holder=101360026 } # Grazdan (nc)
6548.1.1 = { holder=104360026 } # Hizdhar (nc)
6574.1.1 = { holder=107360026 } # Gazdhor (nc)
6607.1.1 = { holder=110360026 } # Mizlaq (nc)
6629.1.1 = { holder=114360026 } # Kraznys (nc)
6650.1.1 = { holder=117360026 } # Yurkhaz (nc)
6680.1.1 = { holder=119360026 } # Reznak (nc)
6686.1.1 = { holder=121360026 } # Prendahl (nc)
6727.1.1 = { holder=126360026 } # Marghaz (nc)
6733.1.1 = { holder=127360026 } # Azzlaq (nc)
6765.1.1 = { holder=132360026 } # Hizdhar (nc)
6777.12.12={
	holder=0 # Dany happened !!
}
