3478.1.1 = {
	liege = k_norvos
}

6473.1.1 = { holder=100069122 } # Pynto (nc)
6514.1.1 = { holder=100169122 } # Roggo (nc)
6524.1.1 = { holder=100269122 } # Jaqen (nc)
6530.1.1 = { holder=100569122 } # Ordello (nc)
6573.1.1 = { holder=100769122 } # Tycho (nc)
6597.1.1 = { holder=101169122 } # Ferrego (nc)
6617.1.1 = { holder=101569122 } # Collio (nc)
6640.1.1 = { holder=101669122 } # Joss (nc)
6668.1.1 = { holder=101769122 } # Noho (nc)
6709.1.1 = { holder=101969122 } # Izembaro (nc)
6714.1.1 = { holder=102069122 } # Roggo (nc)
6729.1.1 = { holder=102569122 } # Areo (nc)
6750.1.1 = { holder=102769122 } # Denyo (nc)
