1.1.1={
	liege="d_ibnor"
}
6468.1.1 = { holder=1055928 } # Krull (nc)
6523.1.1 = { holder=1155928 } # Haggon (nc)
6531.1.1 = { holder=1255928 } # Jarr (nc)
6535.1.1 = { holder=1455928 } # Umar (nc)
6570.1.1 = { holder=1755928 } # Krull (nc)
6590.1.1 = { holder=2255928 } # Slugg (nc)
6638.1.1 = { holder=2555928 } # Sogg (nc)
6643.1.1 = { holder=2855928 } # Joth (nc)
6675.1.1 = { holder=3355928 } # Morr (nc)
6725.1.1 = { holder=3455928 } # Colosh (nc)
6752.1.1 = { holder=3855928 } # Drogg (nc)
6761.1.1 = { holder=3955928 } # Betharios (nc)
