6455.1.1 = { 
	holder=100607300 
	liege = d_jhogwin
} # Fardeen (nc)
6490.1.1 = { holder=101607300 } # Isak (nc)
6525.1.1 = { holder=103607300 } # Mahwak (nc)
6549.1.1 = { holder=106607300 } # Jakar (nc)
6560.1.1 = { holder=109607300 } # Wafa (nc)
6575.1.1 = { holder=110607300 } # Vida (nc)
6604.1.1 = { holder=111607300 } # Tahib (nc)
6620.1.1 = { holder=113607300 } # Lemar (nc)
6651.1.1 = { holder=116607300 } # Barialy (nc)
6658.1.1 = { holder=118607300 } # Sabry (nc)
6733.1.1 = { holder=121607300 } # Lida (nc)
6743.1.1 = { holder=123607300 } # Aarak (nc)
