1.1.1={
	liege="d_kayakayanaya"
	law = succ_seniority
	law = agnatic_succession
}
6464.1.1 = { holder=10055945 } # Mykoon (nc)
6501.1.1 = { holder=10355945 } # Esko (nc)
6514.1.1 = { holder=10755945 } # Voitto (nc)
6560.1.1 = { holder=11155945 } # Myikku (nc)
6581.1.1 = { holder=11355945 } # Voitto (nc)
6584.1.1 = { holder=11655945 } # Veikko (nc)
6619.1.1 = { holder=11955945 } # Ryku (nc)
6627.1.1 = { holder=12055945 } # Sakari (nc)
6667.1.1 = { holder=12455945 } # Valto (nc)
6715.1.1 = { holder=12755945 } # Nyilo (nc)
6733.1.1 = { holder=13255945 } # Hyrno (nc)
6745.1.1 = { holder=13555945 } # Uljas (nc)
6759.1.1 = { holder=13755945 } # Hannu (nc)


