3878.1.1={
	liege="d_gornath"
	law = succ_primogeniture
}
6470.1.1 = { holder=10056803 } # Burhan (nc)
6499.1.1 = { holder=10156803 } # Sahat (nc)
6534.1.1 = { holder=10556803 } # Ekavir (nc)
6571.1.1 = { holder=10656803 } # Shyam (nc)
6582.1.1 = { holder=11256803 } # Taresh (nc)
6611.1.1 = { holder=11756803 } # Taresh (nc)
6631.1.1 = { holder=11956803 } # Jaafar (nc)
6642.1.1 = { holder=12156803 } # Yathavan (nc)
6678.1.1 = { holder=12256803 } # Paarth (nc)
6730.1.1 = { holder=12456803 } # Jash (nc)
6756.1.1 = { holder=12856803 } # Bhagesh (nc)

