3878.1.1={
	#liege="k_sarnor"
	effect = {
		holder_scope = { 
			k_sarnor = {
				holder_scope = {
					make_tributary = { who = PREVPREV tributary_type = sarnori }
				}
			}
		}	
	}
	law = succ_primogeniture
}
6470.1.1 = { holder=10056814 } # Lakshan (nc)
6516.1.1 = { holder=10156814 } # Chitresh (nc)
6557.1.1 = { holder=10756814 } # Ishan (nc)
6582.1.1 = { holder=10856814 } # Atharvan (nc)
6589.1.1 = { holder=10956814 } # Chanak (nc)
6594.1.1 = { holder=11156814 } # Ishwar (nc)
6628.1.1 = { holder=11356814 } # Parvesh (nc)
6657.1.1 = { holder=11656814 } # Kalpesh (nc)
6677.1.1 = { holder=11756814 } # Girivar (nc)
6690.1.1 = { holder=12256814 } # Balavant (nc)
6716.1.1 = { holder=12656814 } # Kushal (nc)
6746.1.1 = { holder=12856814 } # Avilash (nc)

