1.1.1={
	liege="d_port_moraq"
}

6473.1.1 = { holder=100055934 } # Nizam (nc)
6516.1.1 = { holder=100355934 } # Isa (nc)
6524.1.1 = { holder=100555934 } # Yusuf (nc)
6538.1.1 = { holder=100655934 } # Burhanaddin (nc)
6557.1.1 = { holder=101055934 } # Shamir (nc)
6589.1.1 = { holder=101255934 } # Nizam (nc)
6615.1.1 = { holder=101555934 } # Is'mail (nc)
6652.1.1 = { holder=101655934 } # Qadir (nc)
6664.1.1 = { holder=101955934 } # Hafiz (nc)
6668.1.1 = { holder=102355934 } # Ubayd (nc)
6712.1.1 = { holder=102455934 } # Aghlab (nc)
6738.1.1 = { holder=102655934 } # Husam (nc)

