1.1.1={
	liege="d_vahar"
}

6473.1.1 = { holder=100055941 } # Jaleel (nc)
6510.1.1 = { holder=100155941 } # Youkhanna (nc)
6518.1.1 = { holder=100355941 } # Qadir (nc)
6532.1.1 = { holder=100555941 } # Sami (nc)
6608.1.1 = { holder=100655941 } # Hussayn (nc)
6622.1.1 = { holder=100955941 } # Ghalib (nc)
6651.1.1 = { holder=101355941 } # Aarif (nc)
6670.1.1 = { holder=101455941 } # Idris (nc)
6696.1.1 = { holder=101755941 } # Bakr (nc)
6735.1.1 = { holder=102155941 } # Mukhtar (nc)
6773.1.1 = { holder=102555941 } # Bahir (nc)

