6468.1.1 = { 
	holder=100600214 
	liege = d_west_ifeqevron
} # Haggo (nc)
6495.1.1 = { holder=101600214 } # Iggo (nc)
6521.1.1 = { holder=104600214 } # Haro (nc)
6528.1.1 = { holder=108600214 } # Jommo (nc)
6583.1.1 = { holder=110600214 } # Kovarro (nc)
6597.1.1 = { holder=114600214 } # Zekko (nc)
6614.1.1 = { holder=115600214 } # Fogo (nc)
6625.1.1 = { holder=123600214 } # Zerqollo (nc)
6667.1.1 = { holder=125600214 } # Jarbo (nc)
6668.1.1 = { holder=131600214 } # Jommo (nc)
6669.1.1 = { holder=134600214 } # Haro (nc)
6729.1.1 = { holder=135600214 } # Rovo (nc)
6750.1.1 = { holder=138600214 } # Bharbo (nc)
