1.1.1={
	liege="d_faros"
}

6473.1.1 = { holder=100069164 } # Isa (nc)
6510.1.1 = { holder=100169164 } # Uways (nc)
6513.1.1 = { holder=100669164 } # Mirza (nc)
6536.1.1 = { holder=101069164 } # Fadl (nc)
6577.1.1 = { holder=101169164 } # Jibril (nc)
6584.1.1 = { holder=101469164 } # Jalil (nc)
6599.1.1 = { holder=102169164 } # Akin (nc)
6648.1.1 = { holder=102369164 } # Qadir (nc)
6657.1.1 = { holder=102469164 } # Husam (nc)
6700.1.1 = { holder=102869164 } # Najib (nc)
6709.1.1 = { holder=103269164 } # Aghlab (nc)
6756.1.1 = { holder=103769164 } # Fadl (nc)

