#House Agbelu
6461.1.1 = { 
	holder=100304011 
	liege=d_omburu
	law = succ_seniority
	law = cognatic_succession
} # Ratemo (nc)
6518.1.1 = { holder=101304011 } # Isingodo (nc)
6523.1.1 = { holder=103304011 } # Lusaxharo (nc)
6536.1.1 = { holder=105304011 } # Gwalahuru (nc)
6550.1.1 = { holder=110304011 } # Nyadundo (nc)
6592.1.1 = { holder=113304011 } # Eskender (nc)
6597.1.1 = { holder=116304011 } # Jarado (nc)
6603.1.1 = { holder=117304011 } # Simbhar (nc)
6663.1.1 = { holder=122304011 } # Gatubhar (nc)
6681.1.1 = { holder=125304011 } # Jalahuru (nc)
6717.1.1 = { holder=130304011 } # Chakoro (nc)
6724.1.1 = { holder=131304011 } # Thabo (nc)
6760.1.1 = { holder=133304011 } # Chibundo (nc)
6773.1.1 = { holder=134304011 } # Tapuhuru (nc)



