#House Onuxho
6458.1.1 = { 
	holder=100304028 
	liege=d_tall_trees_valley
	law = succ_seniority
	law = cognatic_succession
} # Koroxhar (nc)
6501.1.1 = { holder=102304028 } # Kwasdo (nc)
6506.1.1 = { holder=105304028 } # Isodo (nc)
6511.1.1 = { holder=103304028 } # Qaro (nc)
6513.1.1 = { holder=106304028 } # Koroxhar (nc)
6580.1.1 = { holder=107304028 } # Jalabhar (nc)
6610.1.1 = { holder=113304028 } # Koroxhar (nc)
6634.1.1 = { holder=114304028 } # Olujondo (nc)
6651.1.1 = { holder=117304028 } # Xhonodo (nc)
6709.1.1 = { holder=121304028 } # Koroxhar (nc)
6719.1.1 = { holder=122304028 } # Qubya (nc)
6763.1.1 = { holder=123304028 } # Gwalahuru (nc)
6767.1.1 = { holder=126304028 } # Xhondo (nc)
