6472.1.1 = { holder=10559357 } # Quent (nc)
6525.1.1 = { holder=11559357 } # Gerrick (nc)
6547.1.1 = { holder=16559357 } # Arson (nc)
6556.1.1 = { holder=17559357 } # Errok (nc)
6570.1.1 = { holder=19559357 } # Ondrew (nc)
6575.1.1 = { holder=20559357 } # Eyron (nc)
6606.1.1 = { holder=21559357 } # Arson (nc)
6637.1.1 = { holder=22559357 } # Henk (nc)
6656.1.1 = { holder=23559357 } # Gorne (nc)
6691.1.1={
	liege="k_beyond_wall"
}
6700.1.1 = { holder=25559357 } # Bael (nc)
6704.9.9={
	liege="0"
}
6743.1.1 = { holder=30559357 } # Toregg (nc)
#6778.1.1 = { holder=31559357 } # Arthor (nc)

6776.1.1={
	liege="k_beyond_wall"
}
6778.1.1={
	holder=999000666
}
