6463.1.1 = { holder=10033901 } # Munawirtum (nc)
6515.1.1 = { holder=10333901 } # Ishtup (nc)
6542.1.1 = { holder=10533901 } # Puzur (nc)
6558.1.1 = { holder=11233901 } # Hunhal (nc)
6568.1.1 = { holder=11533901 } # Dadanum (nc)
6609.1.1 = { holder=11633901 } # Lugatum (nc)
6631.1.1 = { holder=11833901 } # Yasmath (nc)
6645.1.1 = { holder=12033901 } # Awil (nc)
6655.1.1 = { holder=12233901 } # Nawirum (nc)
6661.1.1 = { holder=12533901 } # Bunuth (nc)
6681.1.1 = { holder=12833901 } # Wusum (nc)
6746.1.1 = { holder=13033901 } # Ugazum (nc)
6759.1.1 = { holder=13133901 } # Enlil (nc)
6768.1.1 = { holder=13433901 } # Sidu (nc)


