1.1.1={
	liege="d_astapor"
}
6468.1.1 = { holder=150360000 } # Marghaz (nc)
6493.1.1 = { holder=100360000 } # Barghaz (nc)
6520.1.1 = { holder=101360000 } # Grazdan (nc)
6540.1.1 = { holder=104360000 } # Marghaz (nc)
6578.1.1 = { holder=109360000 } # Zarraq (nc)
6613.1.1 = { holder=111360000 } # Gazdhor (nc)
6648.1.1 = { holder=115360000 } # Grazdan (nc)
6674.1.1 = { holder=116360000 } # Prendahl (nc)
6705.1.1 = { holder=123360000 } # Grazdhan (nc)
6715.1.1 = { holder=126360000 } # Yezzan (nc)
6731.1.1 = { holder=129360000 } # Marghaz (nc)
6767.1.1={
	holder=6571001 # Grazdan
}
6777.12.12={
	holder=0 # Dany happened !!
}
