#House Xhone
6458.1.1 = { 
	holder=100304036 
	liege=d_parrot_bay
	law = succ_seniority
	law = cognatic_succession
} # Tal (nc)
6495.1.1 = { holder=102304036 } # Xhal (nc)
6522.1.1 = { holder=104304036 } # Xhelimo (nc)
6541.1.1 = { holder=107304036 } # Jiradhar (nc)
6556.1.1 = { holder=108304036 } # Gatubhar (nc)
6558.1.1 = { holder=113304036 } # Chibundo (nc)
6602.1.1 = { holder=114304036 } # Anyim (nc)
6632.1.1 = { holder=118304036 } # Dubaku (nc)
6658.1.1 = { holder=120304036 } # Doshuru (nc)
6690.1.1 = { holder=124304036 } # Oluhuru (nc)
6729.1.1 = { holder=128304036 } # Gebhuya (nc)
6743.1.1 = { holder=129304036 } # Nyadundo (nc)
6751.1.1 = { holder=133304036 } # Kwasdo (nc)
