1.1.1={
	liege="d_linqi_jungle"
}
6473.1.1 = { holder=10069113 } # Yusuf (nc)
6502.1.1 = { holder=10169113 } # Sadiq (nc)
6513.1.1 = { holder=10469113 } # Mirza (nc)
6527.1.1 = { holder=10769113 } # Burhanaddin (nc)
6562.1.1 = { holder=11069113 } # Muzaffaraddin (nc)
6566.1.1 = { holder=11169113 } # Hasan_Hasan (nc)
6598.1.1 = { holder=11469113 } # Uways (nc)
6642.1.1 = { holder=11669113 } # Shamir (nc)
6656.1.1 = { holder=12069113 } # Yahya (nc)
6672.1.1 = { holder=12469113 } # Hussayn (nc)
6683.1.1 = { holder=12769113 } # Mukhtar (nc)
6698.1.1 = { holder=13069113 } # Yahya (nc)
6715.1.1 = { holder=13369113 } # Sami (nc)
6765.1.1 = { holder=13569113 } # Khaireddin (nc)


