1.1.1={
	liege="k_tiqui"
}
6473.1.1 = { holder=10069100 } # Ali_Ali (nc)
6519.1.1 = { holder=10169100 } # Youkhanna (nc)
6531.1.1 = { holder=10569100 } # Aram (nc)
6540.1.1 = { holder=10669100 } # Mubarak (nc)
6597.1.1 = { holder=10969100 } # Sami (nc)
6616.1.1 = { holder=11169100 } # Mahdi (nc)
6634.1.1 = { holder=11369100 } # Jibril (nc)
6652.1.1 = { holder=11769100 } # Hasan_Hasan (nc)
6683.1.1 = { holder=11869100 } # Bakr (nc)
6706.1.1 = { holder=12069100 } # Fadl (nc)
6709.1.1 = { holder=12469100 } # Idris (nc)
6776.1.1 = { holder=12669100 } # Ramadan (nc)



