
6530.1.1 = { holder=3006182 } # Hugh (nc)
6537.1.1 = { holder=3007182 } # Osgood (nc)
6539.1.1={
	liege="e_vale"
}
6564.1.1 = { holder=3008182 } # Ronnel (nc)
6585.1.1 = { holder=3012182 } # Jasper (nc)
6613.1.1 = { holder=3013182 } # Lyonel (nc)
6657.1.1 = { holder=3015182 } # Gwayne (nc)
6682.1.1 = { holder=3016182 }

