1.1.1={
	liege="k_myr"
}
6461.1.1 = { holder=150300516 } # Belequo (nc)
6501.1.1 = { holder=100300525 } # Gylono (nc)
6520.1.1 = { holder=101300525 } # Pynto (nc)
6560.1.1 = { holder=102300700 } # Noho (nc)
6562.1.1 = { holder=103300700 } #### Craghas Crabfeeder
6586.11.11 = { holder=106174355 } # Terro (nc)
6613.1.1 = { holder=113300534 } # Daario (nc)
6625.1.1 = { holder=108300700 } # Ezzelyno (nc)
6644.1.1 = { holder=110300525 } # Ordello (nc)
6674.1.1 = { holder=117300534 } # Ferrego (nc)
6685.1.1 = { holder=121300534 } # Pynto (nc)
6713.1.1 = { holder=121174355 } # Beqqo (nc)
6736.1.1 = { holder=120300525 } # Gyloro (nc)
6763.1.1 = { holder=125300700 } # Roro (nc)
6771.1.1 = { holder=121300525 } # Terro (nc)
