1.1.1={
	liege="k_piqui"
}
6473.1.1 = { holder=10069193 } # Najib (nc)
6506.1.1 = { holder=10269193 } # Aghlab (nc)
6507.1.1 = { holder=10369193 } # Mansur (nc)
6543.1.1 = { holder=10669193 } # Mubarak (nc)
6588.1.1 = { holder=11069193 } # Qawurd (nc)
6594.1.1 = { holder=11569193 } # Talib (nc)
6620.1.1 = { holder=11669193 } # Shaiban (nc)
6655.1.1 = { holder=11769193 } # Aghlab (nc)
6676.1.1 = { holder=11969193 } # Jalil (nc)
6703.1.1 = { holder=12169193 } # Halil (nc)
6722.1.1 = { holder=12469193 } # Abdullah (nc)
6742.1.1 = { holder=12869193 } # Aghlab (nc)



