1.1.1={
	liege="k_volantis"
}
6436.1.1 = { holder=100305618 } # Beqqo (nc)
6481.1.1 = { holder=101305618 } # Orbelo (nc)
6509.1.1 = { holder=104305618 } # Ordello (nc)
6540.1.1 = { holder=108305618 } # Ordello (nc)
6553.1.1 = { holder=111305618 } # Lotho (nc)
6605.1.1 = { holder=116305618 } # Yorko (nc)
6607.1.1 = { holder=117305618 } # Colloquo (nc)
6637.1.1 = { holder=119305618 } # Bolquello (nc)
6644.1.1 = { holder=121305618 } # Ordello (nc)
6646.1.1 = { holder=122305618 } # Parquello (nc)
6668.1.1 = { holder=124305618 } # Bolquello (nc)
6706.1.1 = { holder=127305618 } # Colloquo (nc)
6727.1.1 = { holder=131305618 } # Parquello (nc)
6743.1.1 = { holder=133305618 } # Vogarro (nc)
6770.1.1 = { holder=135305618 } # Doniphos (nc)

