#d_silverhill

6660.1.1 = { 
	holder=319221 # Peter (nc)
	liege = "e_westerlands"
} 
6672.1.1 = { holder=324221 } # Cersei (nc)

6691.1.1 = { holder=329221 } # Tywin (nc)
6717.1.1 = { holder=333221 } # Chiswyck (nc)
