6456.1.1 = { # Temmo (nc)
	holder=100600203
	historical_nomad = yes
	law = slavery_2
} 
6496.1.1 = { holder=101600203 } # Cohollo (nc)
6514.1.1 = { holder=104600203 } # Jhaquo (nc)
6545.1.1 = { holder=105600203 } # Rommo (nc)
6586.1.1 = { holder=108600203 } # Rommo (nc)
6604.1.1 = { holder=111600203 } # Drogo (nc)
6639.1.1 = { holder=114600203 } # Aggo (nc)
6701.1.1 = { holder=116600203 } # Drogo (nc)
6706.1.1 = { holder=117600203 } # Jommo (nc)
6722.1.1 = { holder=122600203 } # Quaro (nc)
6739.1.1 = { holder=123600203 } # Kovarro (nc)
6751.1.1 = {
	holder = 1300100 #Bharbo
}
6765.1.1 = {
	holder = 300100 #Khal Drogo
	liege = k_dothraki #Khal Drogo
}
6776.10.10 = {
	holder = 3300101 #Pono
}

