3478.1.1 = {
	historical_nomad = yes
	law = slavery_2
}
6383.1.1 = {
	holder = 100600207 #Mengo
}
6406.1.1 = {
	holder = 102600207 #Moro
}
6424.1.1 = {
	holder = 100600208 #Horro
}
6429.1.1 = {
	holder = 0 #dothraki splinter
}
6765.1.1 = {
	holder = 300100 #Khal Drogo
}
6776.10.10 = {
	holder = 3300101 #Pono
}

