1.1.1={
	law = succ_primogeniture
	law = cognatic_succession
}
6458.1.1 = { holder=300038 } # Robin (nc)
6483.1.1 = { holder=300138 } # Janos (nc)
6505.1.1 = { holder=300338 } # Alan (nc)
6560.1.1 = { holder=300738 } # Howard (nc)
6581.1.1 = { holder=300938 } # Ardrian (nc)
6608.1.26={ holder=301138 } # Rorge (nc)
6622.1.1 = { holder=301238 } # Jacelyn (nc)
6661.1.1 = { holder=301438 } # Bronn (nc)
6673.1.1 = { holder=301638 } # Mortimer (nc)
6678.1.1 = { holder=301938 } # Qarlton (nc)
6692.1.1 = { holder=302238 } # Ferret (nc)
6706.1.1={
	holder = 2039 	#Rymond Rosby
}
