1.1.1={ 
	liege="c_ib_sar"
}
2990.1.1 = { holder=1055929 } # Slugg (nc)
3036.1.1 = { holder=1255929 } # Bodger (nc)
3048.1.1 = { holder=1655929 } # Tugg (nc)
3085.1.1 = { holder=1855929 } # Jogg (nc)
3089.1.1 = { holder=2055929 } # Bodger (nc)
3121.1.1 = { holder=2455929 } # Quort (nc)
3149.1.1 = { holder=2955929 } # Draloth (nc)
3162.1.1 = { holder=3355929 } # Ygon (nc)
3206.1.1 = { holder=3455929 } # Cull (nc)
3214.1.1 = { holder=3855929 } # Brogg (nc)
3258.1.1 = { holder=3955929 } # Groo (nc)
3297.1.1 = { holder=40055929 } # Slugg (nc)
