1.1.1={ 
	liege="c_myr"
}

2970.1.1 = { holder=150300534 } # Tycho (nc)
3020.1.1 = { holder=100300534 } # Molloq (nc)
3053.1.1 = { holder=103300534 } # Izembaro (nc)
3091.1.1 = { holder=105300534 } # Moredo (nc)
3130.1.1 = { holder=111300534 } # Ordello (nc)
3140.1.1 = { holder=113300534 } # Daario (nc)
3147.1.1 = { holder=117300534 } # Ferrego (nc)
3207.1.1 = { holder=121300534 } # Pynto (nc)
3235.1.1 = { holder=123300534 } # Byan (nc)
3253.1.1 = { holder=126300534 } # Collio (nc)
3262.1.1 = { holder=130300534 } # Ferrego (nc)







