1.1.1={ 
	liege="c_norvos"
}
2965.1.1 = { holder=100300531 } # Ezzelyno (nc)
3018.1.1 = { holder=103300531 } # Illyrio (nc)
3048.1.1 = { holder=106300531 } # Ordello (nc)
3051.1.1 = { holder=104300531 } # Moredo (nc)
3080.1.1 = { holder=113300531 } # Daario (nc)
3110.1.1 = { holder=116300531 } # Tagganaro (nc)
3129.1.1 = { holder=118300531 } # Yorko (nc)
3142.1.1 = { holder=122300531 } # Gyleno (nc)
3179.1.1 = { holder=125300531 } # Areo (nc)
3195.1.1 = { holder=126300531 } # Groleo (nc)
3196.1.1 = { holder=128300531 } # Syrio (nc)
3201.1.1 = { holder=130300531 } # Luco (nc)
3215.1.1 = { holder=131300531 } # Moredo (nc)
3228.1.1 = { holder=132300531 } # Cossomo (nc)
3274.1.1 = { holder=134300531 } # Gyloro (nc)
3297.1.1 = { holder=136300531 } # Ezzelyno (nc)



