#House Xhanu
2987.1.1 = { 
	holder=100304006 
	liege=d_omburu
	law = succ_seniority
	law = cognatic_succession
} # Doshuru (nc)
3025.1.1 = { holder=101304006 } # Xhonodo (nc)
3032.1.1 = { holder=106304006 } # Qubhar (nc)
3082.1.1 = { holder=108304006 } # Xaro (nc)
3107.1.1 = { holder=112304006 } # Xhal (nc)
3109.1.1 = { holder=117304006 } # Jiradhar (nc)
3151.1.1 = { holder=121304006 } # Tal (nc)
3166.1.1 = { holder=123304006 } # Eskender (nc)
3205.1.1 = { holder=126304006 } # Isodo (nc)
3235.1.1 = { holder=131304006 } # Xhondo (nc)
3258.1.1 = { holder=132304006 } # Punuxharo (nc)




