1000.1.1={
	law = succ_primogeniture
}
2250.1.1={
	holder=1050105
}
2289.1.1 = {
	holder=1051105
}
2306.1.1 = {
	holder = 0
}
2878.1.1 = { holder=3100105 } # Cellador (nc)
2940.1.1 = { holder=3201105 } # Torghen (nc)
2976.1.1={
	holder=14105
}
3009.1.1={
	holder=13105
}
3037.1.1={
	holder=12105
}
3058.1.1={
	holder=11105
}
3066.1.1={
	holder=10105
}
3090.1.1={
	holder=9105
}
3119.1.1={
	holder=8105
}
3135.1.1={
	holder=7105
}
3180.1.1={
	holder=6105
}
3214.1.1={
	holder=5105
}
3225.1.1={
	holder=4105
}
3247.1.1={
	holder=3105
}
3262.1.5={
	holder=105
}
