1.1.1={
	liege = d_drakaria
}

2995.1.1 = { holder=10006017 } # Maekar (nc)
3026.1.1 = { holder=10036017 } # Gaemon (nc)
3053.1.1 = { holder=10046017 } # Aerion (nc)
3100.1.1 = { holder=10086017 } # Vaeron (nc)
3122.1.1 = { holder=10116017 } # Haerys (nc)
3132.1.1 = { holder=10156017 } # Aegor (nc)
3156.1.1 = { holder=10176017 } # Maegor (nc)
3161.1.1 = { holder=10206017 } # Aegon (nc)
3164.1.1 = { holder=10226017 } # Orys (nc)
3214.1.1 = { holder=10246017 } # Daeron (nc)
3226.1.1 = { holder=10256017 } # Otherys (nc)
3232.1.1 = { holder=10286017 } # Aenar (nc)
3291.1.1 = { holder=10306017 } # Rhaegel (nc)
3293.1.1 = { holder=10336017 } # Qoherys (nc)
3306.1.1 = { holder=10366017 } # Maelys (nc)

