1.1.1={
	liege = d_gelios
}

2995.1.1 = { holder=10006036 } # Vaeron (nc)
3024.1.1 = { holder=10016036 } # Aelix (nc)
3065.1.1 = { holder=10046036 } # Matarys (nc)
3089.1.1 = { holder=10096036 } # Aelix (nc)
3095.1.1 = { holder=10106036 } # Aenar (nc)
3123.1.1 = { holder=10136036 } # Maekar (nc)
3158.1.1 = { holder=10166036 } # Maegon (nc)
3200.1.1 = { holder=10176036 } # Aegon (nc)
3207.1.1 = { holder=10206036 } # Baelon (nc)
3242.1.1 = { holder=10266036 } # Aelix (nc)
3285.1.1 = { holder=10286036 } # Vaermon (nc)
3306.1.1 = { holder=10306036 } # Jaehaerys (nc)
3347.1.1 = { holder=10356036 } # Baelon (nc)

