1.1.1={
	law = succ_primogeniture
	liege = d_upper_rhoyne
}
2964.1.1 = { holder=100174901 } # Morton (nc)
3009.1.1 = { holder=106174901 } # Royce (nc)
3054.1.1 = { holder=107174901 } # Gilwood (nc)
3096.1.1 = { holder=112174901 } # Horton (nc)
3130.1.1 = { holder=115174901 } # Albar (nc)
3140.1.1 = { holder=117174901 } # Harlan (nc)
3165.1.1 = { holder=121174901 } # Randyll (nc)
3195.1.1 = { holder=122174901 } # Wallace (nc)
3216.1.1 = { holder=126174901 } # Gerold (nc)
3237.1.1 = { holder=129174901 } # Ronnel (nc)
3253.1.1 = { holder=130174901 } # Umfred (nc)
3279.1.1 = { holder=133174901 } # Yohn (nc)
