1.1.1={
	liege="d_north_xin"
}
2995.1.1 = { holder=10069197 } # Jalil (nc)
3032.1.1 = { holder=10169197 } # Fadil (nc)
3044.1.1 = { holder=10569197 } # Jaleel (nc)
3098.1.1 = { holder=10669197 } # Hasan_Hasan (nc)
3117.1.1 = { holder=10969197 } # Mansur (nc)
3139.1.1 = { holder=11069197 } # Akin (nc)
3143.1.1 = { holder=11569197 } # Yahya (nc)
3166.1.1 = { holder=12069197 } # Bakr (nc)
3197.1.1 = { holder=12469197 } # Sami (nc)
3212.1.1 = { holder=12769197 } # Isa (nc)
3245.1.1 = { holder=13069197 } # Fadil (nc)
3280.1.1 = { holder=13569197 } # Zeyd (nc)



