1.1.1={
	liege="k_skahazadhan"
	law=succ_primogeniture 
	law=cognatic_succession
}
2995.1.1 = { holder=1000220 } # Paezhar (nc)
3035.1.1 = { holder=1001220 } # Haznak (nc)
3074.1.1 = { holder=1004220 } # Skahaz (nc)
3091.1.1 = { holder=1006220 } # Zaraq (nc)
3126.1.1 = { holder=1008220 } # Gorzhak (nc)
3158.1.1 = { holder=1012220 } # Ghazdor (nc)
3190.1.1 = { holder=1015220 } # Yurkhaz (nc)
3203.1.1 = { holder=1017220 } # Grazdhan (nc)
3224.1.1 = { holder=1019220 } # Bharkaz (nc)
3250.1.1 = { holder=1023220 } # Yarkhaz (nc)
3282.1.1 = { holder=1027220 } # Barkhaz (nc)
3305.1.1 = { holder=1033220 } # Hizdhar (nc)
3318.1.1 = { holder=1035220 } # Faezdhar (nc)

