1.1.1={
	liege="d_faros"
}

2995.1.1 = { holder=100559336 } # Idris (nc)
3036.1.1 = { holder=101559336 } # Mirza (nc)
3044.1.1 = { holder=105559336 } # Ali_Ali (nc)
3097.1.1 = { holder=108559336 } # Isa (nc)
3110.1.1 = { holder=111559336 } # Aghlab (nc)
3128.1.1 = { holder=113559336 } # Shujah (nc)
3162.1.1 = { holder=117559336 } # Akin (nc)
3189.1.1 = { holder=120559336 } # Husam (nc)
3209.1.1 = { holder=122559336 } # Ghalib (nc)
3233.1.1 = { holder=123559336 } # Mirza (nc)
3284.1.1 = { holder=125559336 } # Sadiq (nc)
3294.1.1 = { holder=126559336 } # Faruk (nc)

