1.1.1={
	liege="d_yin"
}

2902.1.1 = { 
	holder=10065961 #Lo Tho, twenty-second of the scarlet emperors
}
2951.1.1 = { holder=0 }

2990.1.1 = { 
	holder=10005961  # Chao (nc)
}
3028.1.1 = { holder=10365961 } # Lo Doq canon 34th scarlet emperor
3042.1.1 = { holder=110055961 } # Huu (nc)
3072.1.1 = { holder=100065961 } # Tu (nc)
3082.1.1 = { holder=10085961 } # Phong (nc)
3102.1.1 = { holder=10105961 } # Quen (nc)
3141.1.1 = { holder=10135961 } # Tu (nc)
3183.1.1 = { holder=110155961 } # Binh (nc)
3188.1.1 = { holder=10185961 } # Gai (nc)
3192.1.1 = { holder=10065963 } # Lo Han canon 42nd scarlet emperor
3220.1.1 = { holder=10165963 } # Lo Bu canon 43rd scarlet emperor


