#House Banho
2964.1.1 = { 
	holder=100304014 
	liege=d_red_flower_vale
	law = succ_seniority
	law = cognatic_succession
} # Manahuru (nc)
3002.1.1 = { holder=102304014 } # Udo (nc)
3026.1.1 = { holder=105304014 } # Delmabhar (nc)
3053.1.1 = { holder=107304014 } # Isingodo (nc)
3072.1.1 = { holder=112304014 } # Chibundo (nc)
3083.1.1 = { holder=113304014 } # Lusaxharo (nc)
3110.1.1 = { holder=118304014 } # Sango (nc)
3134.1.1 = { holder=120304014 } # Makhan (nc)
3150.1.1 = { holder=122304014 } # Chibundo (nc)
3178.1.1 = { holder=125304014 } # Anyim (nc)
3221.1.1 = { holder=127304014 } # Chibundo (nc)
3245.1.1 = { holder=131304014 } # Isingodo (nc)
3257.1.1 = { holder=132304014 } # Makhan (nc)
3272.1.1 = { holder=134304014 } # Bapato (nc)

