#House Xaq
2038.1.1 = {
	holder=150304037 #Malthar the Windrider
	law = succ_seniority
	law = cognatic_succession
} 
2098.1.1 = { holder=0 }

2938.1.1 = { holder=152304037 } # Malthar (nc)
2980.1.1 = { holder=100304037 } # Jiradhar (nc)
2990.1.1 = { holder=102304037 } # Kwasdo (nc)
3045.1.1 = { holder=106304037 } # Sango (nc)
3095.1.1 = { holder=109304037 } # Tal (nc)
3106.1.1 = { holder=112304037 } # Konde (nc)
3121.1.1 = { holder=115304037 } # Sango (nc)
3141.1.1 = { holder=118304037 } # Punuxharo (nc)
3159.1.1 = { holder=119304037 } # Isingodo (nc)
3185.1.1 = { holder=123304037 } # Qaro (nc)
3187.1.1 = { holder=125304037 } # Gwalahuru (nc)
3199.1.1 = { holder=130304037 } # Simbhar (nc)
3237.1.1 = { holder=133304037 } # Oluhura (nc)
3247.1.1 = { holder=134304037 } # Abrafo (nc)
3286.1.1 = { holder=136304037 } # Manahuru (nc)
3292.1.1 = { holder=137304037 } # Doshuru (nc)

