1.1.1={
	liege="d_kayakayanaya"
	law = succ_seniority
	law = agnatic_succession
}
2970.1.1 = { holder=10055946 } # Voitto (nc)
3008.1.1 = { holder=10155946 } # Valto (nc)
3027.1.1 = { holder=10555946 } # Voitto (nc)
3057.1.1 = { holder=11055946 } # Esko (nc)
3105.1.1 = { holder=11855946 } # Santtu (nc)
3168.1.1 = { holder=12455946 } # Raimo (nc)
3196.1.1 = { holder=12555946 } # Panu (nc)
3226.1.1 = { holder=12955946 } # Pyrkoon (nc)
3249.1.1 = { holder=13455946 } # Jyri (nc)



