1.1.1={
	liege="d_saath"
	law = succ_primogeniture
}

2995.1.1 = { holder=100056807 } # Manaar (nc)
3024.1.1 = { holder=100156807 } # Harith (nc)
3037.1.1 = { holder=100556807 } # Kushal (nc)
3045.1.1 = { holder=100656807 } # Jaafar (nc)
3064.1.1 = { holder=100956807 } # Darshan (nc)
3104.1.1 = { holder=101256807 } # Etash (nc)
3124.1.1 = { holder=101556807 } # Ekavir (nc)
3145.1.1 = { holder=101656807 } # Kedaar (nc)
3176.1.1 = { holder=101956807 } # Uttamesh (nc)
3193.1.1 = { holder=102456807 } # Uttamesh (nc)
3257.1.1 = { holder=102656807 } # Balavant (nc)
3279.1.1 = { holder=103056807 } # Ritesh (nc)
3281.1.1 = { holder=103556807 } # Tarakesh (nc)
3285.1.1 = { holder=103956807 } # Mukesh (nc)
