#House Monye
2990.1.1 = { 
	holder=100304026 
	liege=d_moluu
	law = succ_seniority
	law = cognatic_succession
} # Nyadundo (nc)
3022.1.1 = { holder=103304026 } # Doshuru (nc)
3044.1.1 = { holder=106304026 } # Mermesbhar (nc)
3077.1.1 = { holder=111304026 } # Xhakan (nc)
3099.1.1 = { holder=116304026 } # Xhelimo (nc)
3119.1.1 = { holder=118304026 } # Jaramogo (nc)
3142.1.1 = { holder=119304026 } # Orengo (nc)
3166.1.1 = { holder=122304026 } # Tapuhuru (nc)
3225.1.1 = { holder=125304026 } # Xhelimo (nc)
3235.1.1 = { holder=130304026 } # Mermesbhar (nc)
3245.1.1 = { holder=131304026 } # Xhelimo (nc)
3271.1.1 = { holder=133304026 } # Jalabhar (nc)
3289.1.1 = { holder=137304026 } # Jarado (nc)
