1.1.1={
	liege="d_faros"
}

2995.1.1 = { holder=100055932 } # Samir (nc)
3040.1.1 = { holder=100455932 } # Aarif (nc)
3055.1.1 = { holder=100555932 } # Alim (nc)
3077.1.1 = { holder=101055932 } # Ali_Ali (nc)
3100.1.1 = { holder=101255932 } # Husam (nc)
3110.1.1 = { holder=101455932 } # Aram (nc)
3139.1.1 = { holder=101655932 } # Jaleel (nc)
3143.1.1 = { holder=101855932 } # Zeyd (nc)
3189.1.1 = { holder=102255932 } # Hasan_Hasan (nc)
3216.1.1 = { holder=102455932 } # Khalil (nc)
3234.1.1 = { holder=102555932 } # Mirza (nc)
3249.1.1 = { holder=102855932 } # Sadiq (nc)
3288.1.1 = { holder=103055932 } # Wahab (nc)

