2995.1.1 = { holder=10560345 } # Brogg (nc)
3021.1.1 = { holder=11560345 } # Torwynd (nc)
3049.1.1 = { holder=12560345 } # Bump (nc)
3074.1.1 = { holder=15560345 } # Brogg (nc)
3077.1.1 = { holder=20560345 } # Dormund (nc)
3108.1.1 = { holder=22560345 } # Ondrew (nc)
3132.1.1 = { holder=23560345 } # Jojen (nc)
3166.1.1 = { holder=24560345 } # Bump (nc)
3189.1.1 = { holder=25560345 } # Galbart (nc)
3200.1.1 = { holder=28560345 } # Del (nc)
3213.1.1={
	liege="k_beyond_wall"
}
3219.1.1 = { holder=29560345 } # Bump (nc)
3226.9.9={
	liege=0
}

3273.1.1 = { holder=31560345 } # Errok (nc)
3286.1.1 = { holder=34560345 } # Wallen (nc)

3298.1.1={
	liege="k_beyond_wall"
}
3300.1.1={
	liege="d_haunted_forest"
}
