1.1.1={ liege=d_ocean_road law=succ_primogeniture law=cognatic_succession
}
22.1.1={holder=60800237} # John the Oak (C)
75.1.1={holder=0}

2880.1.1={holder=60130237} # Alder (nc)
2907.1.1={holder=60120237} # Filbert (nc)
2988.1.1={holder=60110237} # Aspen (nc)
2988.2.1={holder=60000237} # Linden (nc)

3003.1.1={
	holder=24237
}
3012.8.1 = {
	holder=23237
}
3076.1.1={
	holder=21237
}
3102.1.1={
	holder=20237
}
3129.1.1={
	holder=16237
}
3164.1.1={
	holder=15237
}
3178.1.1={
	holder=14237
}
3196.1.1={
	holder=11237
}
3235.1.1={
	holder=10237
}
