1200.1.1={
	liege="d_runestone"
	law = succ_primogeniture
}

2878.1.1 = { holder=3100187 } # Yorwyck VII (nc)
2940.1.1 = { holder=3201187 } # Robar III(nc)
2994.1.1 = { holder=3000187 } # Robar IV (nc) 
3045.1.1 = { holder=3001187 } # Bryen (nc)
3050.1.1 = { holder=3004187 } # Raymar (nc)
3083.1.1 = { holder=3007187 } # Yorbert (C)
3104.1.1 = { holder=30091871 } # Rhea (C)
3115.1.1 = { holder=3016187 } # Kyle (nc)
3170.1.1 = { holder=3015187 } # Rolland (nc)
3180.1.1 = { holder=3017187 } # Osney (nc)

3231.1.1 = { holder=3018187 } # Damon (nc)
3242.1.1 = { holder=3019187 } # Uthor (nc)

