1.1.1={
	liege="d_samyriana"
	law = succ_seniority
	law = agnatic_succession
}
2945.1.1 = { holder=10055950 } # Sami (nc)
3003.1.1 = { holder=10155950 } # Najib (nc)
3019.1.1 = { holder=10455950 } # Alim (nc)
3032.1.1 = { holder=10755950 } # Alim (nc)
3081.1.1 = { holder=10955950 } # Qawurd (nc)
3082.1.1 = { holder=11355950 } # Isa (nc)
3129.1.1 = { holder=11655950 } # Mukhtar (nc)
3145.1.1 = { holder=11955950 } # Isa (nc)
3147.1.1 = { holder=12355950 } # Mirza (nc)
3163.1.1 = { holder=12755950 } # Jaleel (nc)
3187.1.1 = { holder=13055950 } # Shamir (nc)
3219.1.1 = { holder=13255950 } # Jalil (nc)
3275.1.1 = { holder=13555950 } # Mahdi (nc)
3285.1.1 = { holder=13655950 } # Abdul (nc)
