2000.1.1={
	liege="k_brokenarmTK"
}
2995.1.1 = { holder=10001805 } # Bowen (nc)
3036.1.1 = { holder=10011805 } # Jon (nc)
3045.1.1 = { holder=10051805 } # Rickon (nc)
3106.1.1 = { holder=10061805 } # Danny (nc)
3119.1.1 = { holder=10081805 } # Beren (nc)
3152.1.1 = { holder=10131805 } # Ned (nc)

3174.1.1 = { holder=10161805 } # Robb (nc)
3182.1.1 = { holder=10221805 } # Joseth (nc)
3227.1.1 = { holder=10231805 } # Cellador (nc)
3241.1.1 = { holder=10251805 } # Helman (nc)
3258.1.1 = { holder=10281805 } # Jonnel (nc)


