1200.1.1={
	liege="d_strongsong"
	law = succ_primogeniture
}
2980.1.1 = { holder=3000161 } # Alaric (nc)
3013.1.1 = { holder=3002161 } # Robin (nc)
3046.1.1 = { holder=3006161 } # Artys (nc)
3059.1.1 = { holder=3007161 } # Petyr (nc)
3084.1.1 = { holder=3011161 } # Benedar (nc)
3136.1.1 = { holder=3014161 } # Elys (nc)
3143.1.1 = { holder=3019161 } # Triston (nc)
3193.1.1 = { holder=3021161 } # Lyn (nc)
3198.1.1 = { holder=3024161 } # Lothor (nc)
3234.1.1={
	holder=94091
}
3279.1.1={
	holder=94028
}
