185.1.1={
	liege="d_masseys_hook" 
	law = succ_primogeniture
	holder=150046 #Maldon Massey
}
219.1.1 = { holder = 0 }

2032.1.1 = { holder = 157046 }
2052.1.1 = { holder = 158046 }
2092.1.1 = { holder=6000046 } # Tristan (c)
3023.1.1 = { holder=6000146 } # Morgan (nc)
3041.1.1 = { holder=6000646 } # Jacelyn (nc)
3070.1.1 = { holder=6001346 } # Boros (nc)
3128.1.1 = { holder=6001846 } # Gorman (C)
3129.4.1={ holder=6002246 } # Florian (nc)
3160.1.1 = { holder=6002746 } # Robin (nc)
3179.1.1 = { holder=6002946 } # Florian (nc)
3205.1.1 = { holder=6003546 } # Oswell (nc)
3243.1.1 = { holder=6004046 } # Will (nc)
