1.1.1 = { liege="d_red_watch" }

2990.1.1 = { holder=1000306 } # Lomas (nc)
3032.1.1 = { holder=1001306 } # Andrew (nc)
3062.1.1 = { holder=1003306 } # Hugh (nc)
3075.1.1 = { holder=1005306 } # Brus (nc)
3101.1.1 = { holder=1007306 } # Maric (nc)
3116.1.1 = { holder=1008306 } # Gowen (nc)
3154.1.1 = { holder=1011306 } # Thurgood (nc)
3193.1.1 = { holder=1013306 } # Bryce (nc)
3197.1.1 = { holder=1017306 } # Davos (nc)
3216.1.1 = { holder=1018306 } # Jon (nc)
3236.1.1 = { holder=1020306 } # Sebastion (nc)
3289.1.1 = { holder=1022306 } # Barristan (nc)
3310.1.1 = { holder=1023306 } # Allard (nc)
3348.1.1 = { holder=1024306 } # Steffon (nc)

