1822.1.1={
	law = succ_primogeniture
}

2985.1.1 = { holder=1001801 } # Kyle (nc)
3025.1.1 = { holder=1011801 } # Hallis (nc)
3052.1.1 = { holder=1051801 } # Marlon (nc)
3075.1.1 = { holder=1061801 } # Byam (nc)
3087.1.1 = { holder=1071801 } # Jory (nc)
3112.1.1 = { holder=1111801 } # Hullen (nc)
3142.1.1 = { holder=1121801 } # Barth (nc)
3175.1.1 = { holder=1181801 } # Dywen (nc)
3218.1.1 = { holder=1201801 } # Arnolf (nc)
3262.1.1 = { holder=1231801 } # Roger (nc)
3279.1.1 = { holder=1251801 } # Dywen (nc)
3300.1.1 = { holder=1261801 } # Jojen (nc)

