1200.1.1={
	liege="d_the_sisters"
	law = succ_primogeniture
}
2994.1.1 = { holder=3000165 } # Wyl (nc)
3025.1.1 = { holder=3001165 } # Humfrey (nc)
3063.1.1 = { holder=3004165 } # Oswell (nc)
3076.1.1 = { holder=3006165 } # Morgarth (nc)
3129.1.1 = { holder=3008165 } # Umfred (nc)
3171.1.1 = { holder=3012165 } # Wallace (nc)
3188.1.1 = { holder=3014165 } # Kyle (nc)
3218.1.1 = { holder=3017165 } # Elbert (nc)
3246.1.1 = { holder=3019165 } # Umfred (nc)

3258.1.1={
	holder=94035
}
3290.1.1={
	holder=94036
}
