1.1.1={ law=succ_primogeniture law=cognatic_succession
	liege="e_reach"
}
21.1.1={holder=65000281} # Florys the Fox
60.1.1={holder=4500281} # Her husband
100.1.1={holder=0} 

2870.1.1={
	holder=3000281
}
2940.1.1={
	holder=3002281
}
2978.1.1={
	holder=3003281
}
2998.1.1={
	holder=88252
}

3052.1.1={
	holder=88253
}
3075.1.1={
	holder=88254
}
3090.1.1={
	holder=88255
}
3103.1.1={
	holder=88256
}
3132.1.1={
	holder=88257
}
3165.1.1={
	holder=88258
}
3182.1.1={
	holder=88259
}

3196.1.1={
	holder=88261
}
3214.1.1={
	holder=88263
}
3232.1.1={
	holder=88021
}
3265.1.1={
	holder=281
}
3300.1.3={
	holder=1281
}






