#d_greenfield (Renamed Cornfield)
1.1.1={ liege = "e_westerlands" }
2980.1.1 = { holder=325232 } # Terrence (nc)
3000.6.6 = { holder=327232 } # Cadwyn (nc)
3040.1.1 = { holder=329232 } # Garth (nc)
3061.1.1 = { holder=331232 } # Kevan (nc)
3097.1.1 = { holder=333232 } # Ormond (nc)
3111.1.1 = { holder=335232 } # Myrielle (nc)
3127.1.1 = { holder=337232 } # Joanna (nc)
3175.1.1 = { holder=341232 } # Forley (nc)
3204.1.1 = { holder=342232 } # Willem (nc)
3231.1.1 = { holder=346232 } # Ossifer (nc)
3240.1.1 = { holder=348232 } # Godwyn (nc)
3259.2.8 = { holder=232 } # Garth (c)
