1.1.1={
	liege="e_iron_isles"
}
1196.1.1 = {
	holder = 550112
}
1211.1.1 = { holder = 0 }

2963.1.1 = {	
	holder=108112
}
2991.1.1 = {	
	holder=107112
}
2998.2.1 = {
	holder=106112
}
3055.1.1 = {	
	holder=105112
}
3104.1.1 = {	
	holder=104112
}
3134.1.1 = {	
	holder=103112
}
3165.1.1 = {	
	holder=102112
}
3197.1.1 = {	
	holder=101112
}
3242.1.1 = {	
	holder=100112
}
3276.1.1 = {	
	holder=112
}


