1.1.1={
	law = succ_primogeniture
}
2995.1.1 = { holder=10004930 } # Robin (nc)
3029.1.1 = { holder=10014930 } # Morton (nc)
3070.1.1 = { holder=10044930 } # Lothor (nc)
3076.1.1 = { holder=10074930 } # Wallace (nc)
3116.1.1 = { holder=10104930 } # Pate (nc)
3130.1.1 = { holder=10114930 } # Lark (nc)
3169.1.1 = { holder=10154930 } # Robert (nc)
3198.1.1 = { holder=10164930 } # Bryen (nc)
3199.1.1 = { holder=10174930 } # Pate (nc)
3261.1.1 = { holder=10224930 } # Osney (nc)
3274.1.1 = { holder=10244930 } # Ysilla (nc)
3303.1.1 = { holder=10254930 } # Edmund (nc)
3317.1.1 = { holder=10304930 } # Triston (nc)