1.1.1={
	liege="k_oldstonesTK"
	law = succ_primogeniture
	law = cognatic_succession
}

###House Mudd
2990.1.1 = { holder=10004399 } # Donnis (nc)
3029.1.1 = { holder=10014399 } # Willam (nc)
3038.1.1 = { holder=10024399 } # Theo (nc)
3046.1.1 = { holder=10064399 } # Brenett (nc)
3056.1.1 = { holder=10084399 } # Donnel (nc)
3129.1.1 = { holder=10114399 } # Porther (nc)
3141.1.1 = { holder=10134399 } # Helman (nc)
3179.1.1 = { holder=10174399 } # Donnis (nc)
3195.1.1 = { holder=10214399 } # Jorah (nc)
3226.1.1 = { holder=10244399 } # Alyn (nc)
3297.1.1 = { holder=10264399 } # Jon (nc)
3319.1.1 = { holder=10294399 } # Harmond (nc)
3341.1.1 = { holder=10324399 } # Benjicot (nc)


