1.1.1={
	liege = e_new_valyria
}

2995.1.1 = { holder=10000343 } # Qoherys (nc)
3022.1.1 = { holder=10010343 } # Aerys (nc)
3056.1.1 = { holder=10030343 } # Daeron (nc)
3088.1.1 = { holder=10040343 } # Maerys (nc)
3105.1.1 = { holder=10090343 } # Aenar (nc)
3150.1.1 = { holder=10160343 } # Aegor (nc)
3167.1.1 = { holder=10170343 } # Matarys (nc)
3184.1.1 = { holder=10200343 } # Orys (nc)
3222.1.1 = { holder=10240343 } # Rhaegel (nc)
3238.1.1 = { holder=10250343 } # Daeron (nc)
3304.1.1 = { holder=10290343 } # Aerion (nc)

