1.1.1={ law=succ_primogeniture law=cognatic_succession
	liege="e_reach"
}

30.1.1={ holder=60130288} # Gilbert of the Vines
98.1.1={ holder=0}

2848.1.1={ holder=60110288} # Gareth Redwyne
2870.1.1={ holder=60900288} # Arlon Redwyne
2897.1.1={ holder=60800288} # Gilbert Redwyne
2934.11.1={ holder=60700288} # Portan Redwyne
2956.1.1={ holder=60600288} # Acolan Redwyne
2970.1.1={ holder=60200288} # Aramon Redwyne
2995.1.11={holder=19288} # Theodore Redwyne

3045.1.1={
	holder=18288
}
3072.1.1={
	holder=17288
}
3090.1.1={
	holder=16288
}
3102.1.1={
	holder=15288
}
3132.1.1={
	holder=12288
}
3159.1.1={
	holder=11288
}
3184.1.1={
	holder=10288
}
3196.1.1={
	holder=88095
}
3223.1.1={
	holder=288
}
3250.1.1={
	holder=88013
}
3275.1.1={
	holder=1288
}


