1.1.1 = {
	law = succ_primogeniture
	law = cognatic_succession
}
2944.1.1 = { holder=153054 } #Selwyn (nc)
2976.1.1 = { holder=60000054 } # Daven Tarth (nc)
2988.1.1 = { holder=300054 } # Selwyn Tarth (nc)

3039.1.1 = { holder=150054 } # Edwyn canon married daughter to Storm King

3055.1.1 = {
	holder=0
}
