SOUND CREDITS

1. STONE DOOR OPENING - https://www.freesoundeffects.com/track/pantomime---secret-cave-door-450318/

2. STONE DOOR CLOSING - https://www.audioblocks.com/royalty-free-audio/heavy+stone+thud / 
3. STONE DOOR CLOSING -https://retired.sounddogs.com/previews/28/mp3/290074_SOUNDDOGS__do.mp3

4. CTHULHU GROWLING - "Cthulhu Growl", by Cylon8472; https://www.youtube.com/watch?v=nsZoqb751_8 / https://freesound.org/people/cylon8472/sounds/249686/

5. OPENING THE LABYRINTHS OF LENG - "Malleus Mallificarum", by Dave Hewson (as featured in "Spongebob Squarepants")