

#######################################   Ny Sar  ######################################################

##  House Nymeros

100174407 = {
	name="Rycas"	# a lord
	dynasty=174407

	religion="rhoynar_pagan"
	culture="rhoynar"

	7060.1.1 = {birth="7060.1.1"}
	7076.1.1 = {add_trait=poor_warrior}
	7078.1.1 = {add_spouse=400174407}
	7122.1.1 = {death="7122.1.1"}
}
400174407 = {
	name="Sylva"
	female=yes

	religion="rhoynar_pagan"
	culture="rhoynar"

	7060.1.1 = {birth="7060.1.1"}
	7122.1.1 = {death="7122.1.1"}
}
101174407 = {
	name="Nysterica"	# not a lord
	female=yes
	dynasty=174407

	religion="rhoynar_pagan"
	culture="rhoynar"

	father=100174407
	mother=400174407

	7089.1.1 = {birth="7089.1.1"}
	7130.1.1 = {death="7130.1.1"}
}
102174407 = {
	name="Mors"	# a lord
	dynasty=174407

	religion="rhoynar_pagan"
	culture="rhoynar"

	father=100174407
	mother=400174407

	7090.1.1 = {birth="7090.1.1"}
	7106.1.1 = {add_trait=master_warrior}
	7108.1.1 = {add_spouse=402174407}
	7147.1.1 = {death = {death_reason = death_accident}}
}
402174407 = {
	name="Laria"
	female=yes

	religion="rhoynar_pagan"
	culture="rhoynar"

	7090.1.1 = {birth="7090.1.1"}
	7147.1.1 = {death="7147.1.1"}
}
103174407 = {
	name="Daemyn"	# not a lord
	dynasty=174407

	religion="rhoynar_pagan"
	culture="rhoynar"

	father=100174407
	mother=400174407

	7092.1.1 = {birth="7092.1.1"}
	7108.1.1 = {add_trait=poor_warrior}
	7143.1.1 = {death="7143.1.1"}
}
104174407 = {
	name="Nysterica"	# not a lord
	female=yes
	dynasty=174407

	religion="rhoynar_pagan"
	culture="rhoynar"

	father=100174407
	mother=400174407

	7093.1.1 = {birth="7093.1.1"}
	7147.1.1 = {death="7147.1.1"}
}
105174407 = {
	name="Mellei"	# not a lord
	female=yes
	dynasty=174407

	religion="rhoynar_pagan"
	culture="rhoynar"

	father=102174407
	mother=402174407

	7125.1.1 = {birth="7125.1.1"}
	7167.1.1 = {death="7167.1.1"}
}
106174407 = {
	name="Yandry"	# a lord
	dynasty=174407

	religion="rhoynar_pagan"
	culture="rhoynar"

	father=102174407
	mother=402174407

	7127.1.1 = {birth="7127.1.1"}
	7143.1.1 = {add_trait=poor_warrior}
	7145.1.1 = {add_spouse=406174407}
	7176.1.1 = {death="7176.1.1"}
}
406174407 = {
	name="Emberlia"
	female=yes

	religion="rhoynar_pagan"
	culture="rhoynar"

	7127.1.1 = {birth="7127.1.1"}
	7176.1.1 = {death="7176.1.1"}
}
107174407 = {
	name="Quentyn"	# not a lord
	dynasty=174407

	religion="rhoynar_pagan"
	culture="rhoynar"

	father=102174407
	mother=402174407

	7130.1.1 = {birth="7130.1.1"}
	7146.1.1 = {add_trait=poor_warrior}
	7187.1.1 = {death="7187.1.1"}
}
108174407 = {
	name="Quentyn"	# a lord
	dynasty=174407

	religion="rhoynar_pagan"
	culture="rhoynar"

	father=106174407
	mother=406174407

	7155.1.1 = {birth="7155.1.1"}
	7171.1.1 = {add_trait=skilled_warrior}
	7173.1.1 = {add_spouse=408174407}
	7200.1.1 = {death="7200.1.1"}
}
408174407 = {
	name="Leyla"
	female=yes

	religion="rhoynar_pagan"
	culture="rhoynar"

	7155.1.1 = {birth="7155.1.1"}
	7200.1.1 = {death="7200.1.1"}
}
109174407 = {
	name="Ellaria"	# not a lord
	female=yes
	dynasty=174407

	religion="rhoynar_pagan"
	culture="rhoynar"

	father=106174407
	mother=406174407

	7156.1.1 = {birth="7156.1.1"}
	7213.1.1 = {death="7213.1.1"}
}
110174407 = {
	name="Allyria"	# not a lord
	female=yes
	dynasty=174407

	religion="rhoynar_pagan"
	culture="rhoynar"

	father=106174407
	mother=406174407

	7157.1.1 = {birth="7157.1.1"}
	7220.1.1 = {death="7220.1.1"}
}
111174407 = {
	name="Mellei"	# not a lord
	female=yes
	dynasty=174407

	religion="rhoynar_pagan"
	culture="rhoynar"

	father=106174407
	mother=406174407

	7160.1.1 = {birth="7160.1.1"}
	7211.1.1 = {death="7211.1.1"}
}
112174407 = {
	name="Jynessa"	# not a lord
	female=yes
	dynasty=174407

	religion="rhoynar_pagan"
	culture="rhoynar"

	father=108174407
	mother=408174407

	7174.1.1 = {birth="7174.1.1"}
	7252.1.1 = {death="7252.1.1"}
}
113174407 = {
	name="Mors"	# a lord
	dynasty=174407

	religion="rhoynar_pagan"
	culture="rhoynar"

	father=108174407
	mother=408174407

	7176.1.1 = {birth="7176.1.1"}
	7192.1.1 = {add_trait=master_warrior}
	7194.1.1 = {add_spouse=413174407}
	7225.1.1 = {death="7225.1.1"}
}
413174407 = {
	name="Obella"
	female=yes

	religion="rhoynar_pagan"
	culture="rhoynar"

	7176.1.1 = {birth="7176.1.1"}
	7225.1.1 = {death="7225.1.1"}
}
114174407 = {
	name="Daemyn"	# not a lord
	dynasty=174407

	religion="rhoynar_pagan"
	culture="rhoynar"

	father=108174407
	mother=408174407

	7178.1.1 = {birth="7178.1.1"}
	7194.1.1 = {add_trait=skilled_warrior}
	7229.1.1 = {death="7229.1.1"}
}
115174407 = {
	name="Cyrenna"	# not a lord
	female=yes
	dynasty=174407

	religion="rhoynar_pagan"
	culture="rhoynar"

	father=113174407
	mother=413174407

	7203.1.1 = {birth="7203.1.1"}
	7246.1.1 = {death="7246.1.1"}
}
116174407 = {
	name="Alleras"	# a lord
	dynasty=174407

	religion="rhoynar_pagan"
	culture="rhoynar"

	father=113174407
	mother=413174407

	7205.1.1 = {birth="7205.1.1"}
	7221.1.1 = {add_trait=trained_warrior}
	7223.1.1 = {add_spouse=416174407}
	7262.1.1 = {death="7262.1.1"}
}
416174407 = {
	name="Myria"
	female=yes

	religion="rhoynar_pagan"
	culture="rhoynar"

	7205.1.1 = {birth="7205.1.1"}
	7262.1.1 = {death="7262.1.1"}
}
6057001 = {
	name="Ghoyan"	# a Prince
	dynasty=174407

	religion="rhoynar_pagan"
	culture="rhoynar"

	father=116174407
	mother=416174407
	
	add_trait=strong

	7221.1.1 = {birth="7221.1.1"}
	7239.1.1 = {add_trait=skilled_warrior add_trait=brave}
	7239.2.1 = {add_spouse=4085001}
	7266.4.4 = {death= {death_reason = death_battle}}
}
4085001 = {
	name="Arianne"	# 
	female=yes
	
	
	religion="rhoynar_pagan"
	culture="rhoynar"
	
	add_trait=quick


	7220.1.1 = {birth="7220.1.1"}
	7280.1.1 = {death=7280.1.1}
}
###Nymeria's grandfather###
6086001 = {
	name="Nysarn"	# a Prince
	dynasty=174407

	religion="rhoynar_pagan"
	culture="rhoynar"
	
	father=6057001
	mother=4085001



	7241.1.1 = {birth="7241.1.1"}
	7260.1.1 = {add_trait=skilled_warrior add_trait=brave add_trait=patient add_trait=kind}
	7260.1.2 = {add_spouse=4086001}
	7282.4.4 = {death= {death_reason = death_battle}}
}
4086001 = {
	name="Solyana"	# 
	female=yes

	religion="rhoynar_pagan"
	culture="rhoynar"


	7240.1.1 = {birth="7240.1.1"}
	7269.4.4 = {death= {death_reason = death_dungeon}}
}
6087001 = {
	name="Rhyon"	# a Prince
	dynasty=174407

	religion="rhoynar_pagan"
	culture="rhoynar"
	
	father=6086001
	mother=4086001



	7260.10.1 = {birth="7260.10.1"}
	7276.1.1 = {add_trait=skilled_warrior add_trait=brave add_trait=patient add_trait=kind}
	7276.2.1 = {add_spouse=4087001}
	7295.4.4 = {death= {death_reason = death_battle}}
}
4087001 = {
	name="Nyranne"	# 
	female=yes

	religion="rhoynar_pagan"
	culture="rhoynar"
	


	7260.1.1 = {birth="7260.1.1"}
	7299.2.4 = {death= {death_reason = death_battle}}
}
2000001 = {
	name="Nymeria"	# The warrior queen Nymeria of the Rhoyne who conquered Dorne and took King Mors Martell as her husband
	female=yes
	dynasty=174407
	
	dna="cjcfkwgdaaz"
	properties="aa0bb000000"

	martial=11
	diplomacy=15
	intrigue=6
	stewardship=8
	learning=7

	religion="rhoynar_pagan"
	culture="rhoynar"
	
	father=6087001 # Rhyon Nymerios
	mother=4087001 # Nyranne
	
	add_trait="brilliant_strategist" 
	add_trait="quick"
	add_trait="authoritative"
	add_trait="brave"
	add_trait="diligent"
	add_trait="proud"
	
	add_trait=back_seat_leader
	add_trait=organizer
	add_trait=light_foot_leader
	
	disallow_random_traits = yes

	7280.1.1 = {birth="7280.1.1"}
	7296.1.1={		
		add_trait="trained_warrior" #did not bear arms in battle	        
	}
	7300.1.1 = {
		add_spouse=2100001 
		religion=the_seven
	}
	7336.1.1 = {death="7336.1.1"} #lived 27 years after husband's death
}


###############################################################################   Chroyane  ##########################################################


##  House Chroyos

110086017 = {
	name="Maron"	# a lord
	dynasty=86007

	religion="rhoynar_pagan"
	culture="rhoynar"

	7057.1.1 = {birth="7057.1.1"}
	7073.1.1 = {add_trait=poor_warrior}
	7075.1.1 = {add_spouse=20086017}
	7119.1.1 = {death="7119.1.1"}
}
20086017 = {
	name="Nysterica"
	female=yes

	religion="rhoynar_pagan"
	culture="rhoynar"

	7057.1.1 = {birth="7057.1.1"}
	7119.1.1 = {death="7119.1.1"}
}
110186017 = {
	name="Gerrys"	# not a lord
	dynasty=86007

	religion="rhoynar_pagan"
	culture="rhoynar"

	father=110086017
	mother=20086017

	7080.1.1 = {birth="7080.1.1"}
	7096.1.1 = {add_trait=poor_warrior}
	7103.1.1 = {death="7103.1.1"}
}
110286017 = {
	name="Anders"	# a lord
	dynasty=86007

	religion="rhoynar_pagan"
	culture="rhoynar"

	father=110086017
	mother=20086017

	7083.1.1 = {birth="7083.1.1"}
	7099.1.1 = {add_trait=skilled_warrior}
	7107.1.1 = {add_spouse=20286017}
	7140.1.1 = {death="7140.1.1"}
}
20286017 = {
	name="Alysanne"
	female=yes

	religion="rhoynar_pagan"
	culture="rhoynar"

	7083.1.1 = {birth="7083.1.1"}
	7140.1.1 = {death="7140.1.1"}
}
110386017 = {
	name="Aryen"	# a lord
	dynasty=86007

	religion="rhoynar_pagan"
	culture="rhoynar"

	father=110286017
	mother=20286017

	7104.1.1 = {birth="7104.1.1"}
	7120.1.1 = {add_trait=poor_warrior}
	7122.1.1 = {add_spouse=40386017}
	7162.1.1 = {death="7162.1.1"}
}
40386017 = {
	name="Emberlia"
	female=yes

	religion="rhoynar_pagan"
	culture="rhoynar"

	7104.1.1 = {birth="7104.1.1"}
	7162.1.1 = {death="7162.1.1"}
}
10486017 = {
	name="Obara"	# not a lord
	female=yes
	dynasty=86007

	religion="rhoynar_pagan"
	culture="rhoynar"

	father=110286017
	mother=20286017

	7105.1.1 = {birth="7105.1.1"}
	7136.1.1 = {death="7136.1.1"}
}
10586017 = {
	name="Belyar"	# a lord
	dynasty=86007

	religion="rhoynar_pagan"
	culture="rhoynar"

	father=110386017
	mother=40386017

	7139.1.1 = {birth="7139.1.1"}
	7155.1.1 = {add_trait=poor_warrior}
	7157.1.1 = {add_spouse=40586017}
	7196.1.1 = {death="7196.1.1"}
}
40586017 = {
	name="Cassella"
	female=yes

	religion="rhoynar_pagan"
	culture="rhoynar"

	7139.1.1 = {birth="7139.1.1"}
	7196.1.1 = {death="7196.1.1"}
}
10686017 = {
	name="Aryanne"	# not a lord
	female=yes
	dynasty=86007

	religion="rhoynar_pagan"
	culture="rhoynar"

	father=110386017
	mother=40386017

	7141.1.1 = {birth="7141.1.1"}
	7176.1.1 = {death="7176.1.1"}
}
10786017 = {
	name="Daemyn"	# a lord
	dynasty=86007

	religion="rhoynar_pagan"
	culture="rhoynar"

	father=10586017
	mother=40586017

	7159.1.1 = {birth="7159.1.1"}
	7175.1.1 = {add_trait=poor_warrior}
	7177.1.1 = {add_spouse=40786017}
	7201.1.1 = {death="7201.1.1"}
}
40786017 = {
	name="Nysterica"
	female=yes

	religion="rhoynar_pagan"
	culture="rhoynar"

	7159.1.1 = {birth="7159.1.1"}
	7201.1.1 = {death="7201.1.1"}
}
10886017 = {
	name="Allar"	# not a lord
	dynasty=86007

	religion="rhoynar_pagan"
	culture="rhoynar"

	father=10586017
	mother=40586017

	7160.1.1 = {birth="7160.1.1"}
	7176.1.1 = {add_trait=poor_warrior}
	7205.1.1 = {death="7205.1.1"}
}
10986017 = {
	name="Mallor"	# not a lord
	dynasty=86007

	religion="rhoynar_pagan"
	culture="rhoynar"

	father=10586017
	mother=40586017

	7163.1.1 = {birth="7163.1.1"}
	7179.1.1 = {add_trait=poor_warrior}
	7193.1.1 = {death="7193.1.1"}
}
11086017 = {
	name="Gulyan"	# not a lord
	dynasty=86007

	religion="rhoynar_pagan"
	culture="rhoynar"

	father=10586017
	mother=40586017

	7165.1.1 = {birth="7165.1.1"}
	7181.1.1 = {add_trait=trained_warrior}
	7211.1.1 = {death="7211.1.1"}
}
11186017 = {
	name="Ysilla"	# not a lord
	female=yes
	dynasty=86007

	religion="rhoynar_pagan"
	culture="rhoynar"

	father=10786017
	mother=40786017

	7184.1.1 = {birth="7184.1.1"}
	7227.1.1 = {death="7227.1.1"}
}
11286017 = {
	name="Cyrenna"	# not a lord
	female=yes
	dynasty=86007

	religion="rhoynar_pagan"
	culture="rhoynar"

	father=10786017
	mother=40786017

	7186.1.1 = {birth="7186.1.1"}
	7241.1.1 = {death="7241.1.1"}
}
11386017 = {
	name="Mallor"	# a lord
	dynasty=86007

	religion="rhoynar_pagan"
	culture="rhoynar"

	father=10786017
	mother=40786017

	7188.1.1 = {birth="7188.1.1"}
	7204.1.1 = {add_trait=poor_warrior}
	7206.1.1 = {add_spouse=41386017}
	7243.1.1 = {death="7243.1.1"}
}
41386017 = {
	name="Amary"
	female=yes

	religion="rhoynar_pagan"
	culture="rhoynar"

	7188.1.1 = {birth="7188.1.1"}
	7243.1.1 = {death="7243.1.1"}
}
11486017 = {
	name="Cassella"	# not a lord
	female=yes
	dynasty=86007

	religion="rhoynar_pagan"
	culture="rhoynar"

	father=10786017
	mother=40786017

	7189.1.1 = {birth="7189.1.1"}
	7265.1.1 = {death = {death_reason = death_murder}}
}
11586017 = {
	name="Anders"	# a lord
	dynasty=86007

	religion="rhoynar_pagan"
	culture="rhoynar"

	father=11386017
	mother=41386017

	7212.1.1 = {birth="7212.1.1"}
	7228.1.1 = {add_trait=poor_warrior}
	7230.1.1 = {add_spouse=41586017}
	7253.1.1 = {death="7253.1.1"}
}
41586017 = {
	name="Obara"
	female=yes

	religion="rhoynar_pagan"
	culture="rhoynar"

	7212.1.1 = {birth="7212.1.1"}
	7253.1.1 = {death="7253.1.1"}
}
11686017 = {
	name="Cyrenna"	# not a lord
	female=yes
	dynasty=86007

	religion="rhoynar_pagan"
	culture="rhoynar"

	father=11386017
	mother=41386017

	7213.1.1 = {birth="7213.1.1"}
	7254.1.1 = {death = {death_reason = death_murder}}
}
11786017 = {
	name="Trebor"	# a lord
	dynasty=86007

	religion="rhoynar_pagan"
	culture="rhoynar"

	father=11586017
	mother=41586017

	7226.1.1 = {birth="7226.1.1"}
	7242.1.1 = {add_trait=skilled_warrior}
	7250.1.1 = {add_spouse=41786017}
	7274.1.1 = {death="7274.1.1"}
}
41786017 = {
	name="Leyla"
	female=yes

	religion="rhoynar_pagan"
	culture="rhoynar"

	7232.1.1 = {birth="7232.1.1"}
	7274.1.1 = {death="7274.1.1"}
}

###Garin's mother###
6054001 = {
	name="Chroyana"	# a Princess
	female=yes
	dynasty=86007
	
	dna="acdjcohbbcz"
	properties="0i0eek00000"
	
	father=11786017
	mother=41786017

	religion="rhoynar_pagan"
	culture="rhoynar"
	
	add_trait=quick


	7240.1.1 = {birth="7240.1.1"}
	7256.1.1 = {add_trait=skilled_warrior add_trait=proud add_trait=brave add_trait=patient add_trait=skilled_tactician}
	7282.10.1 = {death=7282.10.1}
}
6000001 = {
	name="Garin"	# The Great, a Prince
	dynasty=86007
	
	dna="cdcffxggdbb"
	properties="0l0dck00000"

	martial=17
	diplomacy=8
	intrigue=7
	stewardship=9
	learning=3

	religion="rhoynar_pagan"
	culture="rhoynar"
	
	add_trait="strong"
	add_trait="favored_by_rhoyne"
	
	mother=6054001

	7260.1.1 = {birth="7260.1.1"}
	7276.1.1={
		add_trait="brilliant_strategist" 
		add_trait="master_warrior"
	    add_trait="authoritative"
	    add_trait="brave"
		add_trait="diligent"
		add_trait="proud"
		add_trait="zealous"
	}
	7277.1.1 = {add_spouse=6090001} # Cyranne
	7292.1.1 = {give_nickname = nick_the_great}
	7297.9.4 = {death= {death_reason = death_execution}}
}
6090001 = {
	name="Cyranne"	# not a lord
	female=yes

	religion="rhoynar_pagan"
	culture="rhoynar"


	7255.1.1 = {birth="7255.1.1"}
	7305.1.1 = {death="7305.1.1"}
}
6050001 = {
	name="Cyaron"	# not a lord
	dynasty=86007

	religion="rhoynar_pagan"
	culture="rhoynar"

	father=6000001
	mother=6090001
	
	add_trait=strong

	7278.1.1 = {birth="7278.1.1"}
	7294.1.1 = {add_trait=skilled_warrior add_trait=brave add_trait=proud}
	7299.4.4 = {death= {death_reason = death_battle}}
}

###Siblings of Garin###
6051001 = {
	name="Garmyn"	# not a lord
	dynasty=86007

	religion="rhoynar_pagan"
	culture="rhoynar"

	mother=6054001
	
	add_trait=strong
	add_trait=twin

	7261.1.1 = {birth="7261.1.1"}
	7274.1.1 = {add_trait=skilled_warrior add_trait=brave add_trait=proud add_trait=diligent}
	7299.4.4 = {death= {death_reason = death_battle}}
}
6052001 = {
	name="Cyrence"	# not a lord
	dynasty=86007

	religion="rhoynar_pagan"
	culture="rhoynar"

	mother=6054001
	
	add_trait=strong
	add_trait=twin

	7261.1.1 = {birth="7261.1.1"}
	7274.1.1 = {add_trait=skilled_warrior add_trait=brave add_trait=proud add_trait=diligent add_trait=kind}
	7299.4.4 = {death= {death_reason = death_battle}}
}


#############################################################   Ar Noy  #########################################################################

##  House Aryenos

100186004 = {
	name="Ryon"	# a lord
	dynasty=86004

	religion="rhoynar_pagan"
	culture="rhoynar"

	7066.1.1 = {birth="7066.1.1"}
	7082.1.1 = {add_trait=poor_warrior}
	7084.1.1 = {add_spouse=40086004}
	7122.1.1 = {death="7122.1.1"}
}
40086004 = {
	name="Donyse"
	female=yes

	religion="rhoynar_pagan"
	culture="rhoynar"

	7066.1.1 = {birth="7066.1.1"}
	7122.1.1 = {death="7122.1.1"}
}
101186004 = {
	name="Aryen"	# a lord
	dynasty=86004

	religion="rhoynar_pagan"
	culture="rhoynar"

	father=100186004
	mother=40086004

	7090.1.1 = {birth="7090.1.1"}
	7106.1.1 = {add_trait=poor_warrior}
	7108.1.1 = {add_spouse=40186004}
	7161.1.1 = {death="7161.1.1"}
}
40186004 = {
	name="Lynesse"
	female=yes

	religion="rhoynar_pagan"
	culture="rhoynar"

	7090.1.1 = {birth="7090.1.1"}
	7161.1.1 = {death="7161.1.1"}
}

10386004 = {
	name="Mors"	# not a lord
	dynasty=86004

	religion="rhoynar_pagan"
	culture="rhoynar"

	father=101186004
	mother=40186004

	7108.1.1 = {birth="7108.1.1"}
	7124.1.1 = {add_trait=trained_warrior}
	7131.1.1 = {death = {death_reason = death_battle}}
}
10486004 = {
	name="Alyse"	# not a lord
	female=yes
	dynasty=86004

	religion="rhoynar_pagan"
	culture="rhoynar"

	father=101186004
	mother=40186004

	7109.1.1 = {birth="7109.1.1"}
	7146.1.1 = {death="7146.1.1"}
}
10586004 = {
	name="Alleras"	# a lord
	dynasty=86004

	religion="rhoynar_pagan"
	culture="rhoynar"

	father=101186004
	mother=40186004

	7110.1.1 = {birth="7110.1.1"}
	7126.1.1 = {add_trait=poor_warrior}
	7128.1.1 = {add_spouse=40586004}
	7167.1.1 = {death="7167.1.1"}
}
40586004 = {
	name="Alysanne"
	female=yes

	religion="rhoynar_pagan"
	culture="rhoynar"

	7110.1.1 = {birth="7110.1.1"}
	7167.1.1 = {death="7167.1.1"}
}
10686004 = {
	name="Laria"	# not a lord
	female=yes
	dynasty=86004

	religion="rhoynar_pagan"
	culture="rhoynar"

	father=101186004
	mother=40186004

	7111.1.1 = {birth="7111.1.1"}
	7155.1.1 = {death="7155.1.1"}
}
10786004 = {
	name="Aron"	# a lord
	dynasty=86004

	religion="rhoynar_pagan"
	culture="rhoynar"

	father=10586004
	mother=40586004

	7130.1.1 = {birth="7130.1.1"}
	7146.1.1 = {add_trait=skilled_warrior}
	7148.1.1 = {add_spouse=40786004}
	7175.1.1 = {death="7175.1.1"}
}
40786004 = {
	name="Jynessa"
	female=yes

	religion="rhoynar_pagan"
	culture="rhoynar"

	7130.1.1 = {birth="7130.1.1"}
	7175.1.1 = {death="7175.1.1"}
}
10886004 = {
	name="Melessa"	# not a lord
	female=yes
	dynasty=86004

	religion="rhoynar_pagan"
	culture="rhoynar"

	father=10586004
	mother=40586004

	7131.1.1 = {birth="7131.1.1"}
	7209.1.1 = {death="7209.1.1"}
}
10986004 = {
	name="Myria"	# not a lord
	female=yes
	dynasty=86004

	religion="rhoynar_pagan"
	culture="rhoynar"

	father=10586004
	mother=40586004

	7134.1.1 = {birth="7134.1.1"}
	7189.1.1 = {death="7189.1.1"}
}
11086004 = {
	name="Laria"	# not a lord
	female=yes
	dynasty=86004

	religion="rhoynar_pagan"
	culture="rhoynar"

	father=10586004
	mother=40586004

	7137.1.1 = {birth="7137.1.1"}
	7195.1.1 = {death="7195.1.1"}
}
11186004 = {
	name="Elyana"	# not a lord
	female=yes
	dynasty=86004

	religion="rhoynar_pagan"
	culture="rhoynar"

	father=10786004
	mother=40786004

	7150.1.1 = {birth="7150.1.1"}
	7216.1.1 = {death="7216.1.1"}
}
11286004 = {
	name="Leyla"	# not a lord
	female=yes
	dynasty=86004

	religion="rhoynar_pagan"
	culture="rhoynar"

	father=10786004
	mother=40786004

	7151.1.1 = {birth="7151.1.1"}
	7200.1.1 = {death="7200.1.1"}
}
11386004 = {
	name="Daeron"	# a lord
	dynasty=86004

	religion="rhoynar_pagan"
	culture="rhoynar"

	father=10786004
	mother=40786004

	7154.1.1 = {birth="7154.1.1"}
	7170.1.1 = {add_trait=trained_warrior}
	7172.1.1 = {add_spouse=41386004}
	7210.1.1 = {death="7210.1.1"}
}
41386004 = {
	name="Emberlia"
	female=yes

	religion="rhoynar_pagan"
	culture="rhoynar"

	7154.1.1 = {birth="7154.1.1"}
	7210.1.1 = {death="7210.1.1"}
}
11486004 = {
	name="Gasoyne"	# a lord
	dynasty=86004

	religion="rhoynar_pagan"
	culture="rhoynar"

	father=11386004
	mother=41386004

	7182.1.1 = {birth="7182.1.1"}
	7198.1.1 = {add_trait=trained_warrior}
	7200.1.1 = {add_spouse=41486004}
	7256.1.1 = {death="7256.1.1"}
}
41486004 = {
	name="Leyla"
	female=yes

	religion="rhoynar_pagan"
	culture="rhoynar"

	7182.1.1 = {birth="7182.1.1"}
	7256.1.1 = {death="7256.1.1"}
}
11586004 = {
	name="Mallor"	# not a lord
	dynasty=86004

	religion="rhoynar_pagan"
	culture="rhoynar"

	father=11386004
	mother=41386004

	7184.1.1 = {birth="7184.1.1"}
	7200.1.1 = {add_trait=skilled_warrior}
	7232.1.1 = {death="7232.1.1"}
}
11686004 = {
	name="Rycas"	# a lord
	dynasty=86004

	religion="rhoynar_pagan"
	culture="rhoynar"

	father=11486004
	mother=41486004

	7210.1.1 = {birth="7210.1.1"}
	7226.1.1 = {add_trait=skilled_warrior}
	7228.1.1 = {add_spouse=41686004}
	7270.1.1 = {death = {death_reason = death_murder}}
}
41686004 = {
	name="Sylva"
	female=yes

	religion="rhoynar_pagan"
	culture="rhoynar"

	7210.1.1 = {birth="7210.1.1"}
	7270.1.1 = {death="7270.1.1"}
}
11786004 = {
	name="Yandry"	# not a lord
	dynasty=86004

	religion="rhoynar_pagan"
	culture="rhoynar"

	father=11486004
	mother=41486004

	7212.1.1 = {birth="7212.1.1"}
	7228.1.1 = {add_trait=skilled_warrior}
	7260.1.1 = {death="7260.1.1"}
}
11886004 = {
	name="Caleyen"	# not a lord
	dynasty=86004

	religion="rhoynar_pagan"
	culture="rhoynar"

	father=11486004
	mother=41486004

	7213.1.1 = {birth="7213.1.1"}
	7229.1.1 = {add_trait=poor_warrior}
	7254.1.1 = {death="7254.1.1"}
}
11986004 = {
	name="Lynesse"	# not a lord
	female=yes
	dynasty=86004

	religion="rhoynar_pagan"
	culture="rhoynar"

	father=11486004
	mother=41486004

	7215.1.1 = {birth="7215.1.1"}
	7249.1.1 = {death="7249.1.1"}
}
12086004 = {
	name="Peyos"	# a lord
	dynasty=86004

	religion="rhoynar_pagan"
	culture="rhoynar"

	father=11686004
	mother=41686004

	7235.1.1 = {birth="7235.1.1"}
	7251.1.1 = {add_trait=poor_warrior}
	7253.1.1 = {add_spouse=42086004}
	7289.1.1 = {death="7289.1.1"}
}
42086004 = {
	name="Nymella"
	female=yes

	religion="rhoynar_pagan"
	culture="rhoynar"

	7235.1.1 = {birth="7235.1.1"}
	7289.1.1 = {death="7289.1.1"}
}
12186004 = {
	name="Cassella"	# not a lord
	female=yes
	dynasty=86004

	religion="rhoynar_pagan"
	culture="rhoynar"

	father=11686004
	mother=41686004

	7236.1.1 = {birth="7236.1.1"}
	7282.1.1 = {death="7282.1.1"}
}
12286004 = {
	name="Allar"	# a lord
	dynasty=86004

	religion="rhoynar_pagan"
	culture="rhoynar"

	father=12086004
	mother=42086004

	7270.1.1 = {birth="7270.1.1"}
	7286.1.1 = {add_trait=poor_warrior}
	7288.1.1 = {add_spouse=42286004}
	7345.1.1 = {death="7345.1.1"}
}
42286004 = {
	name="Loreza"
	female=yes

	religion="rhoynar_pagan"
	culture="rhoynar"

	7270.1.1 = {birth="7270.1.1"}
	7345.1.1 = {death="7345.1.1"}
}
12386004 = {
	name="Alysanne"	# not a lord
	female=yes
	dynasty=86004

	religion="rhoynar_pagan"
	culture="rhoynar"

	father=12286004
	mother=42286004

	7288.1.1 = {birth="7288.1.1"}
	7338.1.1 = {death="7338.1.1"}
}
12486004 = {
	name="Amary"	# not a lord
	female=yes
	dynasty=86004

	religion="rhoynar_pagan"
	culture="rhoynar"

	father=12286004
	mother=42286004

	7290.1.1 = {birth="7290.1.1"}
	7339.1.1 = {death="7339.1.1"}
}
12586004 = {
	name="Quentyn"	# not a lord
	dynasty=86004

	religion="rhoynar_pagan"
	culture="rhoynar"

	father=12286004
	mother=42286004

	7292.1.1 = {birth="7292.1.1"}
	7308.1.1 = {add_trait=poor_warrior}
	7330.1.1 = {death = {death_reason = death_battle}}
}
12686004 = {
	name="Allar"	# a lord
	dynasty=86004

	religion="rhoynar_pagan"
	culture="rhoynar"

	father=12286004
	mother=42286004

	7295.1.1 = {birth="7295.1.1"}
	7311.1.1 = {add_trait=trained_warrior}
	7313.1.1 = {add_spouse=42686004}
	7347.1.1 = {death="7347.1.1"}
}
42686004 = {
	name="Marya"
	female=yes

	religion="rhoynar_pagan"
	culture="rhoynar"

	7295.1.1 = {birth="7295.1.1"}
	7347.1.1 = {death="7347.1.1"}
}
12786004 = {
	name="Trystane"	# a lord
	dynasty=86004

	religion="rhoynar_pagan"
	culture="rhoynar"

	father=12686004
	mother=42686004

	7327.1.1 = {birth="7327.1.1"}
	7343.1.1 = {add_trait=poor_warrior}
	7345.1.1 = {add_spouse=42786004}
	7394.1.1 = {death="7394.1.1"}
}
42786004 = {
	name="Tanselia"
	female=yes

	religion="rhoynar_pagan"
	culture="rhoynar"

	7327.1.1 = {birth="7327.1.1"}
	7394.1.1 = {death="7394.1.1"}
}
12886004 = {
	name="Tyene"	# not a lord
	female=yes
	dynasty=86004

	religion="rhoynar_pagan"
	culture="rhoynar"

	father=12686004
	mother=42686004

	7330.1.1 = {birth="7330.1.1"}
	7362.1.1 = {death="7362.1.1"}
}
12986004 = {
	name="Bors"	# not a lord
	dynasty=86004

	religion="rhoynar_pagan"
	culture="rhoynar"

	father=12686004
	mother=42686004

	7333.1.1 = {birth="7333.1.1"}
	7349.1.1 = {add_trait=poor_warrior}
	7396.1.1 = {death="7396.1.1"}
}
13086004 = {
	name="Melessa"	# not a lord
	female=yes
	dynasty=86004

	religion="rhoynar_pagan"
	culture="rhoynar"

	father=12786004
	mother=42786004

	7355.1.1 = {birth="7355.1.1"}
	7377.1.1 = {death="7377.1.1"}
}
13186004 = {
	name="Myria"	# a lord
	female=yes
	dynasty=86004

	religion="rhoynar_pagan"
	culture="rhoynar"

	father=12786004
	mother=42786004

	7357.1.1 = {birth="7357.1.1"}
}


###################################################################  Sarhoy  ##########################################################################

#####  House Myros

100086003 = {
	name="Gerrys"	# a lord
	dynasty=86003

	religion="rhoynar_pagan"
	culture="rhoynar"

	7065.1.1 = {birth="7065.1.1"}
	7081.1.1 = {add_trait=poor_warrior}
	7083.1.1 = {add_spouse=400086003}
	7118.1.1 = {death="7118.1.1"}
}
400086003 = {
	name="Ashara"
	female=yes

	religion="rhoynar_pagan"
	culture="rhoynar"

	7065.1.1 = {birth="7065.1.1"}
	7118.1.1 = {death="7118.1.1"}
}
100186003 = {
	name="Emberlia"	# not a lord
	female=yes
	dynasty=86003

	religion="rhoynar_pagan"
	culture="rhoynar"

	father=100086003
	mother=400086003

	7085.1.1 = {birth="7085.1.1"}
	7130.1.1 = {death = {death_reason = death_accident}}
}
100286003 = {
	name="Marei"	# not a lord
	female=yes
	dynasty=86003

	religion="rhoynar_pagan"
	culture="rhoynar"

	father=100086003
	mother=400086003

	7087.1.1 = {birth="7087.1.1"}
	7137.1.1 = {death="7137.1.1"}
}
100386003 = {
	name="Allar"	# a lord
	dynasty=86003

	religion="rhoynar_pagan"
	culture="rhoynar"

	father=100086003
	mother=400086003

	7088.1.1 = {birth="7088.1.1"}
	7104.1.1 = {add_trait=trained_warrior}
	7106.1.1 = {add_spouse=400386003}
	7141.1.1 = {death="7141.1.1"}
}
400386003 = {
	name="Cassella"
	female=yes

	religion="rhoynar_pagan"
	culture="rhoynar"

	7088.1.1 = {birth="7088.1.1"}
	7141.1.1 = {death="7141.1.1"}
}
100486003 = {
	name="Ashara"	# not a lord
	female=yes
	dynasty=86003

	religion="rhoynar_pagan"
	culture="rhoynar"

	father=100086003
	mother=400086003

	7089.1.1 = {birth="7089.1.1"}
	7146.1.1 = {death="7146.1.1"}
}
100586003 = {
	name="Aron"	# not a lord
	dynasty=86003

	religion="rhoynar_pagan"
	culture="rhoynar"

	father=100086003
	mother=400086003

	7092.1.1 = {birth="7092.1.1"}
	7108.1.1 = {add_trait=poor_warrior}
	7169.1.1 = {death = {death_reason = death_murder}}
}
100686003 = {
	name="Garyn"	# a lord
	dynasty=86003

	religion="rhoynar_pagan"
	culture="rhoynar"

	father=100386003
	mother=400386003

	7120.1.1 = {birth="7120.1.1"}
	7136.1.1 = {add_trait=poor_warrior}
	7138.1.1 = {add_spouse=400686003}
	7172.1.1 = {death="7172.1.1"}
}
400686003 = {
	name="Melessa"
	female=yes

	religion="rhoynar_pagan"
	culture="rhoynar"

	7120.1.1 = {birth="7120.1.1"}
	7172.1.1 = {death="7172.1.1"}
}
100786003 = {
	name="Daemyn"	# a lord
	dynasty=86003

	religion="rhoynar_pagan"
	culture="rhoynar"

	father=100686003
	mother=400686003

	7147.1.1 = {birth="7147.1.1"}
	7163.1.1 = {add_trait=poor_warrior}
	7165.1.1 = {add_spouse=400786003}
	7187.1.1 = {death="7187.1.1"}
}
400786003 = {
	name="Obara"
	female=yes

	religion="rhoynar_pagan"
	culture="rhoynar"

	7147.1.1 = {birth="7147.1.1"}
	7187.1.1 = {death="7187.1.1"}
}
100886003 = {
	name="Ellaria"	# not a lord
	female=yes
	dynasty=86003

	religion="rhoynar_pagan"
	culture="rhoynar"

	father=100686003
	mother=400686003

	7150.1.1 = {birth="7150.1.1"}
	7206.1.1 = {death="7206.1.1"}
}
100986003 = {
	name="Leyla"	# not a lord
	female=yes
	dynasty=86003

	religion="rhoynar_pagan"
	culture="rhoynar"

	father=100686003
	mother=400686003

	7151.1.1 = {birth="7151.1.1"}
	7216.1.1 = {death="7216.1.1"}
}
101086003 = {
	name="Tyene"	# not a lord
	female=yes
	dynasty=86003

	religion="rhoynar_pagan"
	culture="rhoynar"

	father=100686003
	mother=400686003

	7153.1.1 = {birth="7153.1.1"}
	7190.1.1 = {death="7190.1.1"}
}
101186003 = {
	name="Garyn"	# a lord
	dynasty=86003

	religion="rhoynar_pagan"
	culture="rhoynar"

	father=100786003
	mother=400786003

	7171.1.1 = {birth="7171.1.1"}
	7187.1.1 = {add_trait=poor_warrior}
	7189.1.1 = {add_spouse=401186003}
	7226.1.1 = {death="7226.1.1"}
}
401186003 = {
	name="Alysanne"
	female=yes

	religion="rhoynar_pagan"
	culture="rhoynar"

	7171.1.1 = {birth="7171.1.1"}
	7226.1.1 = {death="7226.1.1"}
}
101286003 = {
	name="Lynesse"	# not a lord
	female=yes
	dynasty=86003

	religion="rhoynar_pagan"
	culture="rhoynar"

	father=100786003
	mother=400786003

	7172.1.1 = {birth="7172.1.1"}
	7232.1.1 = {death="7232.1.1"}
}
101386003 = {
	name="Gasoyne"	# not a lord
	dynasty=86003

	religion="rhoynar_pagan"
	culture="rhoynar"

	father=101186003
	mother=401186003

	7190.1.1 = {birth="7190.1.1"}
	7206.1.1 = {add_trait=poor_warrior}
	7226.1.1 = {death = {death_reason = death_battle}}
}
101486003 = {
	name="Oberyn"	# not a lord
	dynasty=86003

	religion="rhoynar_pagan"
	culture="rhoynar"

	father=101186003
	mother=401186003

	7193.1.1 = {birth="7193.1.1"}
	7209.1.1 = {add_trait=poor_warrior}
	7224.1.1 = {death="7224.1.1"}
}
101586003 = {
	name="Yandry"	# a lord
	dynasty=86003

	religion="rhoynar_pagan"
	culture="rhoynar"

	father=101186003
	mother=401186003

	7195.1.1 = {birth="7195.1.1"}
	7211.1.1 = {add_trait=poor_warrior}
	7213.1.1 = {add_spouse=401586003}
	7255.1.1 = {death="7255.1.1"}
}
401586003 = {
	name="Elia"
	female=yes

	religion="rhoynar_pagan"
	culture="rhoynar"

	7195.1.1 = {birth="7195.1.1"}
	7255.1.1 = {death="7255.1.1"}
}
101686003 = {
	name="Marya"	# not a lord
	female=yes
	dynasty=86003

	religion="rhoynar_pagan"
	culture="rhoynar"

	father=101186003
	mother=401186003

	7197.1.1 = {birth="7197.1.1"}
	7242.1.1 = {death="7242.1.1"}
}
101786003 = {
	name="Sylva"	# not a lord
	female=yes
	dynasty=86003

	religion="rhoynar_pagan"
	culture="rhoynar"

	father=101586003
	mother=401586003

	7228.1.1 = {birth="7228.1.1"}
	7280.1.1 = {death="7280.1.1"}
}
101886003 = {
	name="Alyse"	# not a lord
	female=yes
	dynasty=86003

	religion="rhoynar_pagan"
	culture="rhoynar"

	father=101586003
	mother=401586003

	7231.1.1 = {birth="7231.1.1"}
	7281.1.1 = {death="7281.1.1"}
}
101986003 = {
	name="Trystane"	# a lord
	dynasty=86003

	religion="rhoynar_pagan"
	culture="rhoynar"

	father=101586003
	mother=401586003

	7232.1.1 = {birth="7232.1.1"}
	7248.1.1 = {add_trait=trained_warrior}
	7250.1.1 = {add_spouse=401986003}
	7301.1.1 = {death="7301.1.1"}
}
401986003 = {
	name="Ysilla"
	female=yes

	religion="rhoynar_pagan"
	culture="rhoynar"

	7232.1.1 = {birth="7232.1.1"}
	7301.1.1 = {death="7301.1.1"}
}
102086003 = {
	name="Dorea"	# not a lord
	female=yes
	dynasty=86003

	religion="rhoynar_pagan"
	culture="rhoynar"

	father=101586003
	mother=401586003

	7235.1.1 = {birth="7235.1.1"}
	7294.1.1 = {death="7294.1.1"}
}
102186003 = {
	name="Rycas"	# a lord
	dynasty=86003

	religion="rhoynar_pagan"
	culture="rhoynar"

	father=101986003
	mother=401986003

	7255.1.1 = {birth="7255.1.1"}
	7271.1.1 = {add_trait=poor_warrior}
	7273.1.1 = {add_spouse=402186003}
	7314.1.1 = {death = {death_reason = death_murder}}
}
402186003 = {
	name="Alysanne"
	female=yes

	religion="rhoynar_pagan"
	culture="rhoynar"

	7255.1.1 = {birth="7255.1.1"}
	7314.1.1 = {death="7314.1.1"}
}
102286003 = {
	name="Ysilla"	# not a lord
	female=yes
	dynasty=86003

	religion="rhoynar_pagan"
	culture="rhoynar"

	father=101986003
	mother=401986003

	7258.1.1 = {birth="7258.1.1"}
	7303.1.1 = {death="7303.1.1"}
}
102386003 = {
	name="Allar"	# a lord
	dynasty=86003

	religion="rhoynar_pagan"
	culture="rhoynar"

	father=102186003
	mother=402186003

	7276.1.1 = {birth="7276.1.1"}
	7292.1.1 = {add_trait=trained_warrior}
	7294.1.1 = {add_spouse=402386003}
	7316.1.1 = {death="7316.1.1"}
}
402386003 = {
	name="Cerenya"
	female=yes

	religion="rhoynar_pagan"
	culture="rhoynar"

	7276.1.1 = {birth="7276.1.1"}
	7316.1.1 = {death="7316.1.1"}
}
102486003 = {
	name="Sarelya"	# not a lord
	female=yes
	dynasty=86003

	religion="rhoynar_pagan"
	culture="rhoynar"

	father=102186003
	mother=402186003

	7279.1.1 = {birth="7279.1.1"}
	7317.1.1 = {death = {death_reason = death_accident}}
}
102586003 = {
	name="Mors"	# not a lord
	dynasty=86003

	religion="rhoynar_pagan"
	culture="rhoynar"

	father=102186003
	mother=402186003

	7280.1.1 = {birth="7280.1.1"}
	7296.1.1 = {add_trait=master_warrior}
	7333.1.1 = {death="7333.1.1"}
}
102686003 = {
	name="Ysilla"	# not a lord
	female=yes
	dynasty=86003

	religion="rhoynar_pagan"
	culture="rhoynar"

	father=102186003
	mother=402186003

	7282.1.1 = {birth="7282.1.1"}
	7338.1.1 = {death="7338.1.1"}
}
102786003 = {
	name="Dygos"	# a lord
	dynasty=86003

	religion="rhoynar_pagan"
	culture="rhoynar"

	father=102386003
	mother=402386003

	7304.1.1 = {birth="7304.1.1"}
	7320.1.1 = {add_trait=trained_warrior}
	7322.1.1 = {add_spouse=402786003}
	7342.1.1 = {death = {death_reason = death_murder}}
}
402786003 = {
	name="Elia"
	female=yes

	religion="rhoynar_pagan"
	culture="rhoynar"

	7304.1.1 = {birth="7304.1.1"}
	7342.1.1 = {death="7342.1.1"}
}
102886003 = {
	name="Allyria"	# not a lord
	female=yes
	dynasty=86003

	religion="rhoynar_pagan"
	culture="rhoynar"

	father=102386003
	mother=402386003

	7305.1.1 = {birth="7305.1.1"}
	7362.1.1 = {death="7362.1.1"}
}
102986003 = {
	name="Elyana"	# not a lord
	female=yes
	dynasty=86003

	religion="rhoynar_pagan"
	culture="rhoynar"

	father=102386003
	mother=402386003

	7306.1.1 = {birth="7306.1.1"}
	7365.1.1 = {death="7365.1.1"}
}
103086003 = {
	name="Wylia"	# not a lord
	female=yes
	dynasty=86003

	religion="rhoynar_pagan"
	culture="rhoynar"

	father=102386003
	mother=402386003

	7307.1.1 = {birth="7307.1.1"}
	7358.1.1 = {death="7358.1.1"}
}
103186003 = {
	name="Dezyel"	# a lord
	dynasty=86003

	religion="rhoynar_pagan"
	culture="rhoynar"

	father=102786003
	mother=402786003

	7331.1.1 = {birth="7331.1.1"}
	7347.1.1 = {add_trait=trained_warrior}
	7349.1.1 = {add_spouse=403186003}
	7395.1.1 = {death="7395.1.1"}
}
403186003 = {
	name="Lynesse"
	female=yes

	religion="rhoynar_pagan"
	culture="rhoynar"

	7331.1.1 = {birth="7331.1.1"}
	7395.1.1 = {death="7395.1.1"}
}
103286003 = {
	name="Laria"	# not a lord
	female=yes
	dynasty=86003

	religion="rhoynar_pagan"
	culture="rhoynar"

	father=103186003
	mother=403186003

	7354.1.1 = {birth="7354.1.1"}
	7386.1.1 = {death="7386.1.1"}
}
103386003 = {
	name="Peyos"	# a lord
	dynasty=86003

	religion="rhoynar_pagan"
	culture="rhoynar"

	father=103186003
	mother=403186003

	7355.1.1 = {birth="7355.1.1"}
	7371.1.1 = {add_trait=trained_warrior}
	7373.1.1 = {add_spouse=403386003}
	7417.1.1 = {death="7417.1.1"}
}
403386003 = {
	name="Obella"
	female=yes

	religion="rhoynar_pagan"
	culture="rhoynar"

	7355.1.1 = {birth="7355.1.1"}
	7417.1.1 = {death="7417.1.1"}
}
103486003 = {
	name="Caleyen"	# a lord
	dynasty=86003

	religion="rhoynar_pagan"
	culture="rhoynar"

	father=103386003
	mother=403386003

	7377.1.1 = {birth="7377.1.1"}
	7393.1.1 = {add_trait=skilled_warrior}
	7395.1.1 = {add_spouse=403486003}
	7434.1.1 = {death="7434.1.1"}
}
403486003 = {
	name="Leyla"
	female=yes

	religion="rhoynar_pagan"
	culture="rhoynar"

	7377.1.1 = {birth="7377.1.1"}
	7434.1.1 = {death="7434.1.1"}
}
103586003 = {
	name="Nymella"	# not a lord
	female=yes
	dynasty=86003

	religion="rhoynar_pagan"
	culture="rhoynar"

	father=103386003
	mother=403386003

	7379.1.1 = {birth="7379.1.1"}
	7419.1.1 = {death="7419.1.1"}
}
103686003 = {
	name="Lynesse"	# not a lord
	female=yes
	dynasty=86003

	religion="rhoynar_pagan"
	culture="rhoynar"

	father=103386003
	mother=403386003

	7380.1.1 = {birth="7380.1.1"}
	7439.1.1 = {death="7439.1.1"}
}
103786003 = {
	name="Quentyn"	# not a lord
	dynasty=86003

	religion="rhoynar_pagan"
	culture="rhoynar"

	father=103386003
	mother=403386003

	7382.1.1 = {birth="7382.1.1"}
	7398.1.1 = {add_trait=poor_warrior}
	7432.1.1 = {death="7432.1.1"}
}
103886003 = {
	name="Aron"	# a lord
	dynasty=86003

	religion="rhoynar_pagan"
	culture="rhoynar"

	father=103486003
	mother=403486003

	7405.1.1 = {birth="7405.1.1"}
	7421.1.1 = {add_trait=skilled_warrior}
	7442.1.1 = {death = {death_reason = death_accident}}
}
103986003 = {
	name="Anders"	# not a lord
	dynasty=86003

	religion="rhoynar_pagan"
	culture="rhoynar"

	father=103486003
	mother=403486003

	7407.1.1 = {birth="7407.1.1"}
	7423.1.1 = {add_trait=trained_warrior}
	7469.1.1 = {death="7469.1.1"}
}
104086003 = {
	name="Gasoyne"	# not a lord
	dynasty=86003

	religion="rhoynar_pagan"
	culture="rhoynar"

	father=103486003
	mother=403486003

	7410.1.1 = {birth="7410.1.1"}
	7426.1.1 = {add_trait=trained_warrior}
	7455.1.1 = {death="7455.1.1"}
}





## Ghoyan Drohe ##
#House Ghoylen

1000008 = {
	name="Rycas"	# a lord
	dynasty=86008

	religion="rhoynar_pagan"
	culture="rhoynar"

	7064.1.1 = {birth="7064.1.1"}
	7080.1.1 = {add_trait=poor_warrior}
	7082.1.1 = {add_spouse=4000008}
	7122.1.1 = {death="7122.1.1"}
}
4000008 = {
	name="Beyandra"
	female=yes

	religion="rhoynar_pagan"
	culture="rhoynar"

	7064.1.1 = {birth="7064.1.1"}
	7122.1.1 = {death="7122.1.1"}
}
1001008 = {
	name="Bors"	# a lord
	dynasty=86008

	religion="rhoynar_pagan"
	culture="rhoynar"

	father=1000008
	mother=4000008

	7097.1.1 = {birth="7097.1.1"}
	7113.1.1 = {add_trait=trained_warrior}
	7115.1.1 = {add_spouse=4001008}
	7151.1.1 = {death="7151.1.1"}
}
4001008 = {
	name="Nysterica"
	female=yes

	religion="rhoynar_pagan"
	culture="rhoynar"

	7097.1.1 = {birth="7097.1.1"}
	7151.1.1 = {death="7151.1.1"}
}
1002008 = {
	name="Leyla"	# not a lord
	female=yes
	dynasty=86008

	religion="rhoynar_pagan"
	culture="rhoynar"

	father=1000008
	mother=4000008

	7100.1.1 = {birth="7100.1.1"}
	7160.1.1 = {death="7160.1.1"}
}
1003008 = {
	name="Caleyen"	# a lord
	dynasty=86008

	religion="rhoynar_pagan"
	culture="rhoynar"

	father=1001008
	mother=4001008

	7129.1.1 = {birth="7129.1.1"}
	7145.1.1 = {add_trait=skilled_warrior}
	7147.1.1 = {add_spouse=4003008}
	7185.1.1 = {death="7185.1.1"}
}
4003008 = {
	name="Dorea"
	female=yes

	religion="rhoynar_pagan"
	culture="rhoynar"

	7129.1.1 = {birth="7129.1.1"}
	7185.1.1 = {death="7185.1.1"}
}
1004008 = {
	name="Daeron"	# not a lord
	dynasty=86008

	religion="rhoynar_pagan"
	culture="rhoynar"

	father=1001008
	mother=4001008

	7132.1.1 = {birth="7132.1.1"}
	7148.1.1 = {add_trait=skilled_warrior}
	7190.1.1 = {death="7190.1.1"}
}
1005008 = {
	name="Sylva"	# not a lord
	female=yes
	dynasty=86008

	religion="rhoynar_pagan"
	culture="rhoynar"

	father=1001008
	mother=4001008

	7135.1.1 = {birth="7135.1.1"}
	7188.1.1 = {death="7188.1.1"}
}
1006008 = {
	name="Alyse"	# not a lord
	female=yes
	dynasty=86008

	religion="rhoynar_pagan"
	culture="rhoynar"

	father=1003008
	mother=4003008

	7162.1.1 = {birth="7162.1.1"}
	7242.1.1 = {death="7242.1.1"}
}
1007008 = {
	name="Trebor"	# a lord
	dynasty=86008

	religion="rhoynar_pagan"
	culture="rhoynar"

	father=1003008
	mother=4003008

	7165.1.1 = {birth="7165.1.1"}
	7181.1.1 = {add_trait=skilled_warrior}
	7183.1.1 = {add_spouse=4007008}
	7211.1.1 = {death="7211.1.1"}
}
4007008 = {
	name="Obara"
	female=yes

	religion="rhoynar_pagan"
	culture="rhoynar"

	7165.1.1 = {birth="7165.1.1"}
	7211.1.1 = {death="7211.1.1"}
}
1008008 = {
	name="Trystane"	# not a lord
	dynasty=86008

	religion="rhoynar_pagan"
	culture="rhoynar"

	father=1003008
	mother=4003008

	7168.1.1 = {birth="7168.1.1"}
	7184.1.1 = {add_trait=master_warrior}
	7225.1.1 = {death="7225.1.1"}
}
1009008 = {
	name="Ysilla"	# not a lord
	female=yes
	dynasty=86008

	religion="rhoynar_pagan"
	culture="rhoynar"

	father=1003008
	mother=4003008

	7171.1.1 = {birth="7171.1.1"}
	7228.1.1 = {death="7228.1.1"}
}
1010008 = {
	name="Marya"	# not a lord
	female=yes
	dynasty=86008

	religion="rhoynar_pagan"
	culture="rhoynar"

	father=1007008
	mother=4007008

	7183.1.1 = {birth="7183.1.1"}
	7241.1.1 = {death="7241.1.1"}
}
1011008 = {
	name="Allyria"	# not a lord
	female=yes
	dynasty=86008

	religion="rhoynar_pagan"
	culture="rhoynar"

	father=1007008
	mother=4007008

	7185.1.1 = {birth="7185.1.1"}
	7219.1.1 = {death = {death_reason = death_accident}}
}
1012008 = {
	name="Alleras"	# a lord
	dynasty=86008

	religion="rhoynar_pagan"
	culture="rhoynar"

	father=1007008
	mother=4007008

	7187.1.1 = {birth="7187.1.1"}
	7203.1.1 = {add_trait=trained_warrior}
	7205.1.1 = {add_spouse=4012008}
	7225.1.1 = {death = {death_reason = death_execution}}
}
4012008 = {
	name="Alyse"
	female=yes

	religion="rhoynar_pagan"
	culture="rhoynar"

	7187.1.1 = {birth="7187.1.1"}
	7225.1.1 = {death="7225.1.1"}
}
1013008 = {
	name="Obella"	# not a lord
	female=yes
	dynasty=86008

	religion="rhoynar_pagan"
	culture="rhoynar"

	father=1007008
	mother=4007008

	7188.1.1 = {birth="7188.1.1"}
	7248.1.1 = {death="7248.1.1"}
}
1014008 = {
	name="Tanselia"	# not a lord
	female=yes
	dynasty=86008

	religion="rhoynar_pagan"
	culture="rhoynar"

	father=1007008
	mother=4007008

	7190.1.1 = {birth="7190.1.1"}
	7247.1.1 = {death="7247.1.1"}
}
1015008 = {
	name="Garyn"	# a lord
	dynasty=86008

	religion="rhoynar_pagan"
	culture="rhoynar"

	father=1012008
	mother=4012008

	7221.1.1 = {birth="7221.1.1"}
	7237.1.1 = {add_trait=poor_warrior}
	7239.1.1 = {add_spouse=4015008}
	7275.1.1 = {death="7275.1.1"}
}
4015008 = {
	name="Melessa"
	female=yes

	religion="rhoynar_pagan"
	culture="rhoynar"

	7221.1.1 = {birth="7221.1.1"}
	7275.1.1 = {death="7275.1.1"}
}
1016008 = {
	name="Nymella"	# not a lord
	female=yes
	dynasty=86008

	religion="rhoynar_pagan"
	culture="rhoynar"

	father=1012008
	mother=4012008

	7224.1.1 = {birth="7224.1.1"}
	7285.1.1 = {death="7285.1.1"}
}
1017008 = {
	name="Yandry"	# a lord
	dynasty=86008

	religion="rhoynar_pagan"
	culture="rhoynar"

	father=1015008
	mother=4015008

	7239.1.1 = {birth="7239.1.1"}
	7255.1.1 = {add_trait=trained_warrior}
	7257.1.1 = {add_spouse=4017008}
	7295.1.1 = {death="7295.1.1"}
}
4017008 = {
	name="Obella"
	female=yes

	religion="rhoynar_pagan"
	culture="rhoynar"

	7239.1.1 = {birth="7239.1.1"}
	7295.1.1 = {death="7295.1.1"}
}
1018008 = {
	name="Ashara"	# not a lord
	female=yes
	dynasty=86008

	religion="rhoynar_pagan"
	culture="rhoynar"

	father=1017008
	mother=4017008

	7264.1.1 = {birth="7264.1.1"}
	7331.1.1 = {death="7331.1.1"}
}
1019008 = {
	name="Casyos"	# a lord
	dynasty=86008

	religion="rhoynar_pagan"
	culture="rhoynar"

	father=1017008
	mother=4017008

	7266.1.1 = {birth="7266.1.1"}
	7282.1.1 = {add_trait=poor_warrior}
	7284.1.1 = {add_spouse=4019008}
	7302.1.1 = {death="7302.1.1"}
}
4019008 = {
	name="Nymeria"
	female=yes

	religion="rhoynar_pagan"
	culture="rhoynar"

	7266.1.1 = {birth="7266.1.1"}
	7302.1.1 = {death="7302.1.1"}
}
1020008 = {
	name="Allyria"	# not a lord
	female=yes
	dynasty=86008

	religion="rhoynar_pagan"
	culture="rhoynar"

	father=1017008
	mother=4017008

	7268.1.1 = {birth="7268.1.1"}
	7327.1.1 = {death="7327.1.1"}
}
1021008 = {
	name="Gerrys"	# not a lord
	dynasty=86008

	religion="rhoynar_pagan"
	culture="rhoynar"

	father=1017008
	mother=4017008

	7269.1.1 = {birth="7269.1.1"}
	7285.1.1 = {add_trait=trained_warrior}
	7309.1.1 = {death="7309.1.1"}
}
1022008 = {
	name="Bors"	# a lord
	dynasty=86008

	religion="rhoynar_pagan"
	culture="rhoynar"

	father=1019008
	mother=4019008

	7286.1.1 = {birth="7286.1.1"}
	7302.1.1 = {add_trait=trained_warrior}
	7304.1.1 = {add_spouse=4022008}
	7320.1.1 = {death="7320.1.1"}
}
4022008 = {
	name="Tyene"
	female=yes

	religion="rhoynar_pagan"
	culture="rhoynar"

	7286.1.1 = {birth="7286.1.1"}
	7320.1.1 = {death="7320.1.1"}
}
1023008 = {
	name="Aron"	# not a lord
	dynasty=86008

	religion="rhoynar_pagan"
	culture="rhoynar"

	father=1019008
	mother=4019008

	7289.1.1 = {birth="7289.1.1"}
	7305.1.1 = {add_trait=poor_warrior}
	7338.1.1 = {death = {death_reason = death_accident}}
}
1024008 = {
	name="Peyos"	# not a lord
	dynasty=86008

	religion="rhoynar_pagan"
	culture="rhoynar"

	father=1019008
	mother=4019008

	7292.1.1 = {birth="7292.1.1"}
	7308.1.1 = {add_trait=trained_warrior}
	7331.1.1 = {death="7331.1.1"}
}
1025008 = {
	name="Bors"	# not a lord
	dynasty=86008

	religion="rhoynar_pagan"
	culture="rhoynar"

	father=1019008
	mother=4019008

	7295.1.1 = {birth="7295.1.1"}
	7311.1.1 = {add_trait=skilled_warrior}
	7345.1.1 = {death="7345.1.1"}
}
1026008 = {
	name="Dygos"	# a lord
	dynasty=86008

	religion="rhoynar_pagan"
	culture="rhoynar"

	father=1022008
	mother=4022008

	7307.1.1 = {birth="7307.1.1"}
	7323.1.1 = {add_trait=skilled_warrior}
	7325.1.1 = {add_spouse=4026008}
	7355.1.1 = {death="7355.1.1"}
}
4026008 = {
	name="Alyse"
	female=yes

	religion="rhoynar_pagan"
	culture="rhoynar"

	7307.1.1 = {birth="7307.1.1"}
	7355.1.1 = {death="7355.1.1"}
}
1027008 = {
	name="Gulyan"	# a lord
	dynasty=86008

	religion="rhoynar_pagan"
	culture="rhoynar"

	father=1026008
	mother=4026008

	7328.1.1 = {birth="7328.1.1"}
	7344.1.1 = {add_trait=poor_warrior}
	7346.1.1 = {add_spouse=4027008}
	7396.1.1 = {death="7396.1.1"}
}
4027008 = {
	name="Dorea"
	female=yes

	religion="rhoynar_pagan"
	culture="rhoynar"

	7328.1.1 = {birth="7328.1.1"}
	7396.1.1 = {death="7396.1.1"}
}
1028008 = {
	name="Peyos"	# not a lord
	dynasty=86008

	religion="rhoynar_pagan"
	culture="rhoynar"

	father=1026008
	mother=4026008

	7330.1.1 = {birth="7330.1.1"}
	7346.1.1 = {add_trait=trained_warrior}
	7361.1.1 = {death="7361.1.1"}
}
1029008 = {
	name="Aryanne"	# not a lord
	female=yes
	dynasty=86008

	religion="rhoynar_pagan"
	culture="rhoynar"

	father=1026008
	mother=4026008

	7333.1.1 = {birth="7333.1.1"}
	7369.1.1 = {death="7369.1.1"}
}
1030008 = {
	name="Anders"	# not a lord
	dynasty=86008

	religion="rhoynar_pagan"
	culture="rhoynar"

	father=1027008
	mother=4027008

	7355.1.1 = {birth="7355.1.1"}
	7371.1.1 = {add_trait=trained_warrior}
	7387.1.1 = {death="7387.1.1"}
}
1031008 = {
	name="Maron"	# a lord
	dynasty=86008

	religion="rhoynar_pagan"
	culture="rhoynar"

	father=1027008
	mother=4027008

	7358.1.1 = {birth="7358.1.1"}
	7374.1.1 = {add_trait=skilled_warrior}
	7376.1.1 = {add_spouse=4031008}
	7411.1.1 = {death="7411.1.1"}
}
4031008 = {
	name="Melessa"
	female=yes

	religion="rhoynar_pagan"
	culture="rhoynar"

	7358.1.1 = {birth="7358.1.1"}
	7411.1.1 = {death="7411.1.1"}
}
1032008 = {
	name="Mellei"	# not a lord
	female=yes
	dynasty=86008

	religion="rhoynar_pagan"
	culture="rhoynar"

	father=1027008
	mother=4027008

	7359.1.1 = {birth="7359.1.1"}
	7404.1.1 = {death="7404.1.1"}
}
1033008 = {
	name="Cerenya"	# not a lord
	female=yes
	dynasty=86008

	religion="rhoynar_pagan"
	culture="rhoynar"

	father=1027008
	mother=4027008

	7362.1.1 = {birth="7362.1.1"}
	7411.1.1 = {death="7411.1.1"}
}
1034008 = {
	name="Laria"	# not a lord
	female=yes
	dynasty=86008

	religion="rhoynar_pagan"
	culture="rhoynar"

	father=1031008
	mother=4031008

	7377.1.1 = {birth="7377.1.1"}
	7422.1.1 = {death="7422.1.1"}
}
1035008 = {
	name="Belyar"	# a lord
	dynasty=86008

	religion="rhoynar_pagan"
	culture="rhoynar"

	father=1031008
	mother=4031008

	7380.1.1 = {birth="7380.1.1"}
	7396.1.1 = {add_trait=poor_warrior}
	7398.1.1 = {add_spouse=4035008}
	7450.1.1 = {death="7450.1.1"}
}
4035008 = {
	name="Beyandra"
	female=yes

	religion="rhoynar_pagan"
	culture="rhoynar"

	7380.1.1 = {birth="7380.1.1"}
	7450.1.1 = {death="7450.1.1"}
}
1036008 = {
	name="Anders"	# not a lord
	dynasty=86008

	religion="rhoynar_pagan"
	culture="rhoynar"

	father=1031008
	mother=4031008

	7383.1.1 = {birth="7383.1.1"}
	7399.1.1 = {add_trait=trained_warrior}
	7417.1.1 = {death = {death_reason = death_battle}}
}
1037008 = {
	name="Marya"	# not a lord
	female=yes
	dynasty=86008

	religion="rhoynar_pagan"
	culture="rhoynar"

	father=1035008
	mother=4035008

	7415.1.1 = {birth="7415.1.1"}
	7447.1.1 = {death="7447.1.1"}
}
1038008 = {
	name="Alysanne"	# not a lord
	female=yes
	dynasty=86008

	religion="rhoynar_pagan"
	culture="rhoynar"

	father=1035008
	mother=4035008

	7416.1.1 = {birth="7416.1.1"}
	7485.1.1 = {death="7485.1.1"}
}
1039008 = {
	name="Anders"	# a lord
	dynasty=86008

	religion="rhoynar_pagan"
	culture="rhoynar"

	father=1035008
	mother=4035008

	7418.1.1 = {birth="7418.1.1"}
	7434.1.1 = {add_trait=trained_warrior}
	7496.1.1 = {death="7496.1.1"}
}
1040008 = {
	name="Allar"	# not a lord
	dynasty=86008

	religion="rhoynar_pagan"
	culture="rhoynar"

	father=1035008
	mother=4035008

	7420.1.1 = {birth="7420.1.1"}
	7436.1.1 = {add_trait=poor_warrior}
	7471.1.1 = {death="7471.1.1"}
}
1041008 = {
	name="Timyon"	# not a lord
	dynasty=86008

	religion="rhoynar_pagan"
	culture="rhoynar"

	father=1035008
	mother=4035008

	7421.1.1 = {birth="7421.1.1"}
	7437.1.1 = {add_trait=poor_warrior}
	7465.1.1 = {death="7465.1.1"}
}




####Sar Mell###
#House Yandros


1000015 = {
	name="Dezyel"	# a lord
	dynasty=86015

	religion="rhoynar_pagan"
	culture="rhoynar"

	7072.1.1 = {birth="7072.1.1"}
	7088.1.1 = {add_trait=poor_warrior}
	7090.1.1 = {add_spouse=4000015}
	7114.1.1 = {death="7114.1.1"}
}
4000015 = {
	name="Obara"
	female=yes

	religion="rhoynar_pagan"
	culture="rhoynar"

	7072.1.1 = {birth="7072.1.1"}
	7114.1.1 = {death="7114.1.1"}
}
1001015 = {
	name="Ellaria"	# not a lord
	female=yes
	dynasty=86015

	religion="rhoynar_pagan"
	culture="rhoynar"

	father=1000015
	mother=4000015

	7091.1.1 = {birth="7091.1.1"}
	7169.1.1 = {death="7169.1.1"}
}
1002015 = {
	name="Obella"	# not a lord
	female=yes
	dynasty=86015

	religion="rhoynar_pagan"
	culture="rhoynar"

	father=1000015
	mother=4000015

	7093.1.1 = {birth="7093.1.1"}
	7137.1.1 = {death="7137.1.1"}
}
1003015 = {
	name="Ysilla"	# not a lord
	female=yes
	dynasty=86015

	religion="rhoynar_pagan"
	culture="rhoynar"

	father=1000015
	mother=4000015

	7094.1.1 = {birth="7094.1.1"}
	7132.1.1 = {death="7132.1.1"}
}
1004015 = {
	name="Caleyen"	# a lord
	dynasty=86015

	religion="rhoynar_pagan"
	culture="rhoynar"

	father=1000015
	mother=4000015

	7097.1.1 = {birth="7097.1.1"}
	7113.1.1 = {add_trait=trained_warrior}
	7115.1.1 = {add_spouse=4004015}
	7154.1.1 = {death="7154.1.1"}
}
4004015 = {
	name="Wylia"
	female=yes

	religion="rhoynar_pagan"
	culture="rhoynar"

	7097.1.1 = {birth="7097.1.1"}
	7154.1.1 = {death="7154.1.1"}
}
1005015 = {
	name="Rycas"	# not a lord
	dynasty=86015

	religion="rhoynar_pagan"
	culture="rhoynar"

	father=1000015
	mother=4000015

	7099.1.1 = {birth="7099.1.1"}
	7115.1.1 = {add_trait=poor_warrior}
	7140.1.1 = {death="7140.1.1"}
}
1006015 = {
	name="Mors"	# a lord
	dynasty=86015

	religion="rhoynar_pagan"
	culture="rhoynar"

	father=1004015
	mother=4004015

	7129.1.1 = {birth="7129.1.1"}
	7145.1.1 = {add_trait=poor_warrior}
	7147.1.1 = {add_spouse=4006015}
	7199.1.1 = {death="7199.1.1"}
}
4006015 = {
	name="Elia"
	female=yes

	religion="rhoynar_pagan"
	culture="rhoynar"

	7129.1.1 = {birth="7129.1.1"}
	7199.1.1 = {death="7199.1.1"}
}
1007015 = {
	name="Garyn"	# not a lord
	dynasty=86015

	religion="rhoynar_pagan"
	culture="rhoynar"

	father=1004015
	mother=4004015

	7132.1.1 = {birth="7132.1.1"}
	7148.1.1 = {add_trait=poor_warrior}
	7179.1.1 = {death="7179.1.1"}
}
1008015 = {
	name="Laria"	# not a lord
	female=yes
	dynasty=86015

	religion="rhoynar_pagan"
	culture="rhoynar"

	father=1004015
	mother=4004015

	7135.1.1 = {birth="7135.1.1"}
	7173.1.1 = {death="7173.1.1"}
}
1009015 = {
	name="Caleyen"	# not a lord
	dynasty=86015

	religion="rhoynar_pagan"
	culture="rhoynar"

	father=1004015
	mother=4004015

	7138.1.1 = {birth="7138.1.1"}
	7154.1.1 = {add_trait=trained_warrior}
	7197.1.1 = {death="7197.1.1"}
}
1010015 = {
	name="Timyon"	# a lord
	dynasty=86015

	religion="rhoynar_pagan"
	culture="rhoynar"

	father=1006015
	mother=4006015

	7157.1.1 = {birth="7157.1.1"}
	7173.1.1 = {add_trait=trained_warrior}
	7175.1.1 = {add_spouse=4010015}
	7220.1.1 = {death="7220.1.1"}
}
4010015 = {
	name="Leyla"
	female=yes

	religion="rhoynar_pagan"
	culture="rhoynar"

	7157.1.1 = {birth="7157.1.1"}
	7220.1.1 = {death="7220.1.1"}
}
1011015 = {
	name="Alleras"	# not a lord
	dynasty=86015

	religion="rhoynar_pagan"
	culture="rhoynar"

	father=1006015
	mother=4006015

	7160.1.1 = {birth="7160.1.1"}
	7176.1.1 = {add_trait=skilled_warrior}
	7214.1.1 = {death="7214.1.1"}
}
1012015 = {
	name="Symon"	# not a lord
	dynasty=86015

	religion="rhoynar_pagan"
	culture="rhoynar"

	father=1010015
	mother=4010015

	7179.1.1 = {birth="7179.1.1"}
	7195.1.1 = {add_trait=poor_warrior}
	7203.1.1 = {death="7203.1.1"}
}
1013015 = {
	name="Elia"	# not a lord
	female=yes
	dynasty=86015

	religion="rhoynar_pagan"
	culture="rhoynar"

	father=1010015
	mother=4010015

	7181.1.1 = {birth="7181.1.1"}
	7240.1.1 = {death="7240.1.1"}
}
1014015 = {
	name="Doran"	# a lord
	dynasty=86015

	religion="rhoynar_pagan"
	culture="rhoynar"

	father=1010015
	mother=4010015

	7182.1.1 = {birth="7182.1.1"}
	7198.1.1 = {add_trait=skilled_warrior}
	7200.1.1 = {add_spouse=4014015}
	7236.1.1 = {death="7236.1.1"}
}
4014015 = {
	name="Loreza"
	female=yes

	religion="rhoynar_pagan"
	culture="rhoynar"

	7182.1.1 = {birth="7182.1.1"}
	7236.1.1 = {death="7236.1.1"}
}
1015015 = {
	name="Lynesse"	# not a lord
	female=yes
	dynasty=86015

	religion="rhoynar_pagan"
	culture="rhoynar"

	father=1010015
	mother=4010015

	7183.1.1 = {birth="7183.1.1"}
	7247.1.1 = {death="7247.1.1"}
}
1016015 = {
	name="Rycas"	# a lord
	dynasty=86015

	religion="rhoynar_pagan"
	culture="rhoynar"

	father=1014015
	mother=4014015

	7200.1.1 = {birth="7200.1.1"}
	7216.1.1 = {add_trait=trained_warrior}
	7218.1.1 = {add_spouse=4016015}
	7262.1.1 = {death="7262.1.1"}
}
4016015 = {
	name="Cyrenna"
	female=yes

	religion="rhoynar_pagan"
	culture="rhoynar"

	7200.1.1 = {birth="7200.1.1"}
	7262.1.1 = {death="7262.1.1"}
}
1017015 = {
	name="Anders"	# not a lord
	dynasty=86015

	religion="rhoynar_pagan"
	culture="rhoynar"

	father=1014015
	mother=4014015

	7201.1.1 = {birth="7201.1.1"}
	7217.1.1 = {add_trait=poor_warrior}
	7264.1.1 = {death="7264.1.1"}
}
1018015 = {
	name="Belyar"	# a lord
	dynasty=86015

	religion="rhoynar_pagan"
	culture="rhoynar"

	father=1016015
	mother=4016015

	7220.1.1 = {birth="7220.1.1"}
	7236.1.1 = {add_trait=poor_warrior}
	7238.1.1 = {add_spouse=4018015}
	7287.1.1 = {death="7287.1.1"}
}
4018015 = {
	name="Marya"
	female=yes

	religion="rhoynar_pagan"
	culture="rhoynar"

	7220.1.1 = {birth="7220.1.1"}
	7287.1.1 = {death="7287.1.1"}
}
1019015 = {
	name="Caleyen"	# a lord
	dynasty=86015

	religion="rhoynar_pagan"
	culture="rhoynar"

	father=1018015
	mother=4018015

	7243.1.1 = {birth="7243.1.1"}
	7259.1.1 = {add_trait=poor_warrior}
	7261.1.1 = {add_spouse=4019015}
	7307.1.1 = {death="7307.1.1"}
}
4019015 = {
	name="Melessa"
	female=yes

	religion="rhoynar_pagan"
	culture="rhoynar"

	7243.1.1 = {birth="7243.1.1"}
	7307.1.1 = {death="7307.1.1"}
}
1020015 = {
	name="Nymeria"	# not a lord
	female=yes
	dynasty=86015

	religion="rhoynar_pagan"
	culture="rhoynar"

	father=1018015
	mother=4018015

	7246.1.1 = {birth="7246.1.1"}
	7307.1.1 = {death="7307.1.1"}
}
1021015 = {
	name="Tyene"	# not a lord
	female=yes
	dynasty=86015

	religion="rhoynar_pagan"
	culture="rhoynar"

	father=1018015
	mother=4018015

	7249.1.1 = {birth="7249.1.1"}
	7296.1.1 = {death="7296.1.1"}
}
1022015 = {
	name="Cyrenna"	# not a lord
	female=yes
	dynasty=86015

	religion="rhoynar_pagan"
	culture="rhoynar"

	father=1018015
	mother=4018015

	7252.1.1 = {birth="7252.1.1"}
	7294.1.1 = {death="7294.1.1"}
}
1023015 = {
	name="Allyria"	# not a lord
	female=yes
	dynasty=86015

	religion="rhoynar_pagan"
	culture="rhoynar"

	father=1018015
	mother=4018015

	7255.1.1 = {birth="7255.1.1"}
	7313.1.1 = {death="7313.1.1"}
}
1024015 = {
	name="Alleras"	# a lord
	dynasty=86015

	religion="rhoynar_pagan"
	culture="rhoynar"

	father=1019015
	mother=4019015

	7264.1.1 = {birth="7264.1.1"}
	7280.1.1 = {add_trait=poor_warrior}
	7282.1.1 = {add_spouse=4024015}
	7319.1.1 = {death="7319.1.1"}
}
4024015 = {
	name="Morra"
	female=yes

	religion="rhoynar_pagan"
	culture="rhoynar"

	7264.1.1 = {birth="7264.1.1"}
	7319.1.1 = {death="7319.1.1"}
}
1025015 = {
	name="Morra"	# not a lord
	female=yes
	dynasty=86015

	religion="rhoynar_pagan"
	culture="rhoynar"

	father=1024015
	mother=4024015

	7289.1.1 = {birth="7289.1.1"}
	7332.1.1 = {death="7332.1.1"}
}
1026015 = {
	name="Timyon"	# a lord
	dynasty=86015

	religion="rhoynar_pagan"
	culture="rhoynar"

	father=1024015
	mother=4024015

	7291.1.1 = {birth="7291.1.1"}
	7307.1.1 = {add_trait=trained_warrior}
	7309.1.1 = {add_spouse=4026015}
	7369.1.1 = {death="7369.1.1"}
}
4026015 = {
	name="Leyla"
	female=yes

	religion="rhoynar_pagan"
	culture="rhoynar"

	7291.1.1 = {birth="7291.1.1"}
	7369.1.1 = {death="7369.1.1"}
}
1027015 = {
	name="Beyandra"	# not a lord
	female=yes
	dynasty=86015

	religion="rhoynar_pagan"
	culture="rhoynar"

	father=1026015
	mother=4026015

	7324.1.1 = {birth="7324.1.1"}
	7386.1.1 = {death="7386.1.1"}
}
1028015 = {
	name="Morra"	# not a lord
	female=yes
	dynasty=86015

	religion="rhoynar_pagan"
	culture="rhoynar"

	father=1026015
	mother=4026015

	7326.1.1 = {birth="7326.1.1"}
	7353.1.1 = {death = {death_reason = death_accident}}
}
1029015 = {
	name="Sylva"	# not a lord
	female=yes
	dynasty=86015

	religion="rhoynar_pagan"
	culture="rhoynar"

	father=1026015
	mother=4026015

	7328.1.1 = {birth="7328.1.1"}
	7396.1.1 = {death="7396.1.1"}
}
1030015 = {
	name="Gasoyne"	# a lord
	dynasty=86015

	religion="rhoynar_pagan"
	culture="rhoynar"

	father=1026015
	mother=4026015

	7329.1.1 = {birth="7329.1.1"}
	7345.1.1 = {add_trait=trained_warrior}
	7347.1.1 = {add_spouse=4030015}
	7387.1.1 = {death="7387.1.1"}
}
4030015 = {
	name="Dorea"
	female=yes

	religion="rhoynar_pagan"
	culture="rhoynar"

	7329.1.1 = {birth="7329.1.1"}
	7387.1.1 = {death="7387.1.1"}
}
1031015 = {
	name="Nymella"	# not a lord
	female=yes
	dynasty=86015

	religion="rhoynar_pagan"
	culture="rhoynar"

	father=1030015
	mother=4030015

	7357.1.1 = {birth="7357.1.1"}
	7425.1.1 = {death="7425.1.1"}
}
1032015 = {
	name="Mors"	# a lord
	dynasty=86015

	religion="rhoynar_pagan"
	culture="rhoynar"

	father=1030015
	mother=4030015

	7359.1.1 = {birth="7359.1.1"}
	7375.1.1 = {add_trait=poor_warrior}
	7377.1.1 = {add_spouse=4032015}
	7406.1.1 = {death="7406.1.1"}
}
4032015 = {
	name="Jynessa"
	female=yes

	religion="rhoynar_pagan"
	culture="rhoynar"

	7359.1.1 = {birth="7359.1.1"}
	7406.1.1 = {death="7406.1.1"}
}
1033015 = {
	name="Marya"	# not a lord
	female=yes
	dynasty=86015

	religion="rhoynar_pagan"
	culture="rhoynar"

	father=1032015
	mother=4032015

	7377.1.1 = {birth="7377.1.1"}
	7430.1.1 = {death="7430.1.1"}
}
1034015 = {
	name="Quentyn"	# a lord
	dynasty=86015

	religion="rhoynar_pagan"
	culture="rhoynar"

	father=1032015
	mother=4032015

	7379.1.1 = {birth="7379.1.1"}
	7395.1.1 = {add_trait=poor_warrior}
	7397.1.1 = {add_spouse=4034015}
	7416.1.1 = {death="7416.1.1"}
}
4034015 = {
	name="Myria"
	female=yes

	religion="rhoynar_pagan"
	culture="rhoynar"

	7379.1.1 = {birth="7379.1.1"}
	7416.1.1 = {death="7416.1.1"}
}
1035015 = {
	name="Yandry"	# a lord
	dynasty=86015

	religion="rhoynar_pagan"
	culture="rhoynar"

	father=1034015
	mother=4034015

	7402.1.1 = {birth="7402.1.1"}
	7418.1.1 = {add_trait=poor_warrior}
	7446.1.1 = {death="7446.1.1"}
}
1036015 = {
	name="Rycas"	# not a lord
	dynasty=86015

	religion="rhoynar_pagan"
	culture="rhoynar"

	father=1034015
	mother=4034015

	7403.1.1 = {birth="7403.1.1"}
	7419.1.1 = {add_trait=trained_warrior}
	7478.1.1 = {death="7478.1.1"}
}
1037015 = {
	name="Mors"	# not a lord
	dynasty=86015

	religion="rhoynar_pagan"
	culture="rhoynar"

	father=1034015
	mother=4034015

	7404.1.1 = {birth="7404.1.1"}
	7420.1.1 = {add_trait=poor_warrior}
	7464.1.1 = {death="7464.1.1"}
}
1038015 = {
	name="Quentyn"	# not a lord
	dynasty=86015

	religion="rhoynar_pagan"
	culture="rhoynar"

	father=1034015
	mother=4034015

	7405.1.1 = {birth="7405.1.1"}
	7421.1.1 = {add_trait=trained_warrior}
	7442.1.1 = {death = {death_reason = death_battle}}
}


