##Yunkai'i

##House Yunzak

150360024 = {
	name="Yurkhaz"	# not a lord
	dynasty=360024

	religion="harpy"
	culture="ghiscari"

	7062.1.1 = {birth="7062.1.1"}
	7087.1.1 = {add_spouse=250360024}
	7117.1.1 = {death="7117.1.1"}
}
250360024 = {
	name="Ezzara"
	female=yes

	religion="harpy"
	culture="ghiscari"

	7065.1.1 = {birth="7065.1.1"}
	7117.1.1 = {death="7117.1.1"}
}
100360024 = {
	name="Yezzan"	# a lord
	dynasty=360024

	religion="harpy"
	culture="ghiscari"

	father=150360024
	mother=250360024

	7088.1.1 = {birth="7088.1.1"}
	7116.1.1 = {add_trait=poor_warrior}
	7117.1.1 = {}
	7118.1.1 = {add_spouse=200360024}
	7128.1.1 = {death="7128.1.1"}
}
200360024 = {
	name="Ezzara"
	female=yes

	religion="harpy"
	culture="ghiscari"

	7088.1.1 = {birth="7088.1.1"}
	7128.1.1 = {death="7128.1.1"}
}
101360024 = {
	name="Qezza"	# not a lord
	female=yes
	dynasty=360024

	religion="harpy"
	culture="ghiscari"

	father=100360024
	mother=200360024

	7101.1.1 = {birth="7101.1.1"}
	7163.1.1 = {death="7163.1.1"}
}
102360024 = {
	name="Hazzea"	# not a lord
	female=yes
	dynasty=360024

	religion="harpy"
	culture="ghiscari"

	father=100360024
	mother=200360024

	7103.1.1 = {birth="7103.1.1"}
	7177.1.1 = {death="7177.1.1"}
}
103360024 = {
	name="Gorzhak"	# a lord
	dynasty=360024

	religion="harpy"
	culture="ghiscari"

	father=100360024
	mother=200360024

	7106.1.1 = {birth="7106.1.1"}
	7128.1.1 = {}
	7140.1.1 = {add_trait=skilled_warrior}
	7142.1.1 = {add_spouse=203360024}
	7173.1.1 = {death="7173.1.1"}
}
203360024 = {
	name="Ezzere"
	female=yes

	religion="harpy"
	culture="ghiscari"

	7106.1.1 = {birth="7106.1.1"}
	7173.1.1 = {death="7173.1.1"}
}
104360024 = {
	name="Grazdan"	# a lord
	dynasty=360024

	religion="harpy"
	culture="ghiscari"

	father=103360024
	mother=203360024

	7149.1.1 = {birth="7149.1.1"}
	7165.1.1 = {add_trait=trained_warrior}
	7167.1.1 = {add_spouse=204360024}
	7173.1.1 = {}
	7187.1.1 = {death="7187.1.1"}
}
204360024 = {
	name="Rezza"
	female=yes

	religion="harpy"
	culture="ghiscari"

	7149.1.1 = {birth="7149.1.1"}
	7187.1.1 = {death="7187.1.1"}
}
105360024 = {
	name="Marghaz"	# not a lord
	dynasty=360024

	religion="harpy"
	culture="ghiscari"

	father=103360024
	mother=203360024

	7151.1.1 = {birth="7151.1.1"}
	7167.1.1 = {add_trait=poor_warrior}
	7169.1.1 = {add_spouse=205360024}
	7221.1.1 = {death="7221.1.1"}
}
205360024 = {
	name="Tezzalara"
	female=yes

	religion="harpy"
	culture="ghiscari"

	7151.1.1 = {birth="7151.1.1"}
	7221.1.1 = {death="7221.1.1"}
}
106360024 = {
	name="Sharkaz"	# a lord
	dynasty=360024

	religion="harpy"
	culture="ghiscari"

	father=104360024
	mother=204360024

	7169.1.1 = {birth="7169.1.1"}
	7187.1.1 = {}
	7193.1.1 = {add_trait=skilled_warrior}
	7195.1.1 = {add_spouse=206360024}
	7235.1.1 = {death="7235.1.1"}
}
206360024 = {
	name="Qezza"
	female=yes

	religion="harpy"
	culture="ghiscari"

	7177.1.1 = {birth="7177.1.1"}
	7235.1.1 = {death="7235.1.1"}
}
107360024 = {
	name="Maezon"	# not a lord
	dynasty=360024

	religion="harpy"
	culture="ghiscari"

	father=104360024
	mother=204360024

	7178.1.1 = {birth="7178.1.1"}
	7194.1.1 = {add_trait=poor_warrior}
	7213.1.1 = {death="7213.1.1"}
}
108360024 = {
	name="Marghazo"	# not a lord
	dynasty=360024

	religion="harpy"
	culture="ghiscari"

	father=104360024
	mother=204360024

	7180.1.1 = {birth="7180.1.1"}
	7196.1.1 = {add_trait=skilled_warrior}
	7243.1.1 = {death="7243.1.1"}
}
109360024 = {
	name="Grazdan"	# a lord
	dynasty=360024

	religion="harpy"
	culture="ghiscari"

	father=106360024
	mother=206360024

	7212.1.1 = {birth="7212.1.1"}
	7228.1.1 = {add_trait=poor_warrior}
	7230.1.1 = {add_spouse=209360024}
	7235.1.1 = {}
	7266.1.1 = {death="7266.1.1"}
}
209360024 = {
	name="Yezza"
	female=yes

	religion="harpy"
	culture="ghiscari"

	7212.1.1 = {birth="7212.1.1"}
	7266.1.1 = {death="7266.1.1"}
}
110360024 = {
	name="Gallaza"	# not a lord
	female=yes
	dynasty=360024

	religion="harpy"
	culture="ghiscari"

	father=106360024
	mother=206360024

	7215.1.1 = {birth="7215.1.1"}
	7269.1.1 = {death="7269.1.1"}
}
111360024 = {
	name="Tellara"	# not a lord
	female=yes
	dynasty=360024

	religion="harpy"
	culture="ghiscari"

	father=106360024
	mother=206360024

	7218.1.1 = {birth="7218.1.1"}
	7272.1.1 = {death="7272.1.1"}
}
112360024 = {
	name="Ghazdor"	# a lord
	dynasty=360024

	religion="harpy"
	culture="ghiscari"

	father=109360024
	mother=209360024

	7236.1.1 = {birth="7236.1.1"}
	7252.1.1 = {add_trait=trained_warrior}
	7254.1.1 = {add_spouse=212360024}
	7266.1.1 = {}
	7287.1.1 = {death="7287.1.1"}
}
212360024 = {
	name="Galaza"
	female=yes

	religion="harpy"
	culture="ghiscari"

	7236.1.1 = {birth="7236.1.1"}
	7287.1.1 = {death="7287.1.1"}
}
113360024 = {
	name="Skahaz"	# a lord
	dynasty=360024

	religion="harpy"
	culture="ghiscari"

	father=112360024
	mother=212360024

	7265.1.1 = {birth="7265.1.1"}
	7281.1.1 = {add_trait=trained_warrior}
	7283.1.1 = {add_spouse=213360024}
	7287.1.1 = {}
	7324.1.1 = {death="7324.1.1"}
}
213360024 = {
	name="Mezzara"
	female=yes

	religion="harpy"
	culture="ghiscari"

	7265.1.1 = {birth="7265.1.1"}
	7324.1.1 = {death="7324.1.1"}
}
114360024 = {
	name="Qezzara"	# not a lord
	female=yes
	dynasty=360024

	religion="harpy"
	culture="ghiscari"

	father=112360024
	mother=212360024

	7267.1.1 = {birth="7267.1.1"}
	7337.1.1 = {death="7337.1.1"}
}
115360024 = {
	name="Paezdhar"	# not a lord
	dynasty=360024

	religion="harpy"
	culture="ghiscari"

	father=112360024
	mother=212360024

	7269.1.1 = {birth="7269.1.1"}
	7285.1.1 = {add_trait=poor_warrior}
	7317.1.1 = {death="7317.1.1"}
}
116360024 = {
	name="Jezhane"	# not a lord
	female=yes
	dynasty=360024

	religion="harpy"
	culture="ghiscari"

	father=112360024
	mother=212360024

	7272.1.1 = {birth="7272.1.1"}
	7322.1.1 = {death = {death_reason = death_accident}}
}
117360024 = {
	name="Dhazzar"	# not a lord
	female=yes
	dynasty=360024

	religion="harpy"
	culture="ghiscari"

	father=112360024
	mother=212360024

	7275.1.1 = {birth="7275.1.1"}
	7354.1.1 = {death="7354.1.1"}
}
118360024 = {
	name="Hizdharo"	# a lord
	dynasty=360024

	religion="harpy"
	culture="ghiscari"

	father=113360024
	mother=213360024

	7287.1.1 = {birth="7287.1.1"}
	7303.1.1 = {add_trait=trained_warrior}
	7305.1.1 = {add_spouse=218360024}
	7324.1.1 = {}
	7345.1.1 = {death="7345.1.1"}
}
218360024 = {
	name="Fezzara"
	female=yes

	religion="harpy"
	culture="ghiscari"

	7287.1.1 = {birth="7287.1.1"}
	7345.1.1 = {death="7345.1.1"}
}
119360024 = {
	name="Bellezza"	# not a lord
	female=yes
	dynasty=360024

	religion="harpy"
	culture="ghiscari"

	father=113360024
	mother=213360024

	7289.1.1 = {birth="7289.1.1"}
	7311.1.1 = {death="7311.1.1"}
}
120360024 = {
	name="Marghaz"	# not a lord
	dynasty=360024

	religion="harpy"
	culture="ghiscari"

	father=113360024
	mother=213360024

	7292.1.1 = {birth="7292.1.1"}
	7308.1.1 = {add_trait=trained_warrior}
	7310.1.1 = {add_spouse=220360024}
	7319.1.1 = {death="7319.1.1"}
}
220360024 = {
	name="Hazzea"
	female=yes

	religion="harpy"
	culture="ghiscari"

	7292.1.1 = {birth="7292.1.1"}
	7319.1.1 = {death="7319.1.1"}
}
121360024 = {
	name="Qezza"	# not a lord
	female=yes
	dynasty=360024

	religion="harpy"
	culture="ghiscari"

	father=113360024
	mother=213360024

	7293.1.1 = {birth="7293.1.1"}
	7352.1.1 = {death="7352.1.1"}
}
122360024 = {
	name="Zaraq"	# not a lord
	dynasty=360024

	religion="harpy"
	culture="ghiscari"

	father=113360024
	mother=213360024

	7294.1.1 = {birth="7294.1.1"}
	7310.1.1 = {add_trait=skilled_warrior}
	7326.1.1 = {death="7326.1.1"}
}
123360024 = {
	name="Haznak"	# a lord
	dynasty=360024

	religion="harpy"
	culture="ghiscari"

	father=118360024
	mother=218360024

	7318.1.1 = {birth="7318.1.1"}
	7334.1.1 = {add_trait=poor_warrior}
	7336.1.1 = {add_spouse=223360024}
	7345.1.1 = {}
	7375.1.1 = {death="7375.1.1"}
}
223360024 = {
	name="Galazza"
	female=yes

	religion="harpy"
	culture="ghiscari"

	7318.1.1 = {birth="7318.1.1"}
	7375.1.1 = {death="7375.1.1"}
}
124360024 = {
	name="Grazdhan"	# not a lord
	dynasty=360024

	religion="harpy"
	culture="ghiscari"

	father=118360024
	mother=218360024

	7319.1.1 = {birth="7319.1.1"}
	7335.1.1 = {add_trait=trained_warrior}
	7385.1.1 = {death = {death_reason = death_accident}}
}
125360024 = {
	name="Melezza"	# not a lord
	female=yes
	dynasty=360024

	religion="harpy"
	culture="ghiscari"

	father=118360024
	mother=218360024

	7322.1.1 = {birth="7322.1.1"}
	7373.1.1 = {death="7373.1.1"}
}
126360024 = {
	name="Kraznys"	# not a lord
	dynasty=360024

	religion="harpy"
	culture="ghiscari"

	father=118360024
	mother=218360024

	7323.1.1 = {birth="7323.1.1"}
	7339.1.1 = {add_trait=trained_warrior}
	7393.1.1 = {death="7393.1.1"}
}

6571003 = {
	name="Yurkhaz"  # Canon, commander of Yunkish forces.
	dynasty = 360024 

	martial = 1
	diplomacy = 5
	intrigue = 10
	stewardship = 10
	learning = 5

	culture = yunkaii
	religion = harpy 

	father=123360024
	mother=223360024		
	
	add_trait="cruel"
	add_trait="proud"
	add_trait="deceitful"
	add_trait="authoritative"
	add_trait="ruthless"
	
	7342.1.1 = {
		birth="7342.1.1"
	}
	7375.1.1 = {}
}

##House Qaggaz

150360023 = {
	name="Grazdhan"	# a lord
	dynasty=360023

	religion="harpy"
	culture="ghiscari"

	7057.1.1 = {birth="7057.1.1"}
	7082.1.1 = {add_spouse=250360023}
	7112.1.1 = {death="7112.1.1"}
}
250360023 = {
	name="Ezzara"
	female=yes

	religion="harpy"
	culture="ghiscari"

	7059.1.1 = {birth="7059.1.1"}
	7103.1.1 = {death="7103.1.1"}
}
100360023 = {
	name="Grazdan"	# a lord
	dynasty=360023

	religion="harpy"
	culture="ghiscari"

	father=150360023
	mother=250360023

	7084.1.1 = {birth="7084.1.1"}
	7112.1.1 = {}
	7115.1.1 = {add_spouse=200360023}
	7116.1.1 = {add_trait=poor_warrior}
	7136.1.1 = {death="7136.1.1"}
}
200360023 = {
	name="Sezza"
	female=yes

	religion="harpy"
	culture="ghiscari"

	7084.1.1 = {birth="7084.1.1"}
	7136.1.1 = {death="7136.1.1"}
}
101360023 = {
	name="Qezza"	# not a lord
	female=yes
	dynasty=360023

	religion="harpy"
	culture="ghiscari"

	father=100360023
	mother=200360023

	7119.1.1 = {birth="7119.1.1"}
	7181.1.1 = {death="7181.1.1"}
}
102360023 = {
	name="Marghaz"	# a lord
	dynasty=360023

	religion="harpy"
	culture="ghiscari"

	father=100360023
	mother=200360023

	7117.1.1 = {birth="7117.1.1"}
	7135.1.1 = {add_trait=trained_warrior}
	7136.1.1 = {}
	7138.1.1 = {add_spouse=202360023}
	7170.1.1 = {death = {death_reason = death_accident}}
}
202360023 = {
	name="Galazza"
	female=yes

	religion="harpy"
	culture="ghiscari"

	7120.1.1 = {birth="7120.1.1"}
	7170.1.1 = {death="7170.1.1"}
}
103360023 = {
	name="Hazzea"	# not a lord
	female=yes
	dynasty=360023

	religion="harpy"
	culture="ghiscari"

	father=100360023
	mother=200360023

	7121.1.1 = {birth="7121.1.1"}
	7189.1.1 = {death = {death_reason = death_murder}}
}
104360023 = {
	name="Dhazzarma"	# not a lord
	female=yes
	dynasty=360023

	religion="harpy"
	culture="ghiscari"

	father=102360023
	mother=202360023

	7147.1.1 = {birth="7147.1.1"}
	7203.1.1 = {death="7203.1.1"}
}
105360023 = {
	name="Qezza"	# not a lord
	female=yes
	dynasty=360023

	religion="harpy"
	culture="ghiscari"

	father=102360023
	mother=202360023

	7148.1.1 = {birth="7148.1.1"}
	7201.1.1 = {death="7201.1.1"}
}
106360023 = {
	name="Maezon"	# a lord
	dynasty=360023

	religion="harpy"
	culture="ghiscari"

	father=102360023
	mother=202360023

	7149.1.1 = {birth="7149.1.1"}
	7165.1.1 = {add_trait=trained_warrior}
	7167.1.1 = {add_spouse=206360023}
	7170.1.1 = {}
	7213.1.1 = {death="7213.1.1"}
}
206360023 = {
	name="Melezza"
	female=yes

	religion="harpy"
	culture="ghiscari"

	7149.1.1 = {birth="7149.1.1"}
	7213.1.1 = {death="7213.1.1"}
}
107360023 = {
	name="Hizdhar"	# not a lord
	dynasty=360023

	religion="harpy"
	culture="ghiscari"

	father=102360023
	mother=202360023

	7152.1.1 = {birth="7152.1.1"}
	7168.1.1 = {add_trait=poor_warrior}
	7203.1.1 = {death="7203.1.1"}
}
108360023 = {
	name="Jezhane"	# not a lord
	female=yes
	dynasty=360023

	religion="harpy"
	culture="ghiscari"

	father=102360023
	mother=202360023

	7154.1.1 = {birth="7154.1.1"}
	7203.1.1 = {death="7203.1.1"}
}
109360023 = {
	name="Qezzallios"	# not a lord
	female=yes
	dynasty=360023

	religion="harpy"
	culture="ghiscari"

	father=106360023
	mother=206360023

	7181.1.1 = {birth="7181.1.1"}
	7247.1.1 = {death="7247.1.1"}
}
110360023 = {
	name="Gazdhor"	# a lord
	dynasty=360023

	religion="harpy"
	culture="ghiscari"

	father=106360023
	mother=206360023

	7183.1.1 = {birth="7183.1.1"}
	7199.1.1 = {add_trait=trained_warrior}
	7201.1.1 = {add_spouse=210360023}
	7213.1.1 = {}
	7246.1.1 = {death="7246.1.1"}
}
210360023 = {
	name="Ezzara"
	female=yes

	religion="harpy"
	culture="ghiscari"

	7183.1.1 = {birth="7183.1.1"}
	7246.1.1 = {death="7246.1.1"}
}
111360023 = {
	name="Sezza"	# not a lord
	female=yes
	dynasty=360023

	religion="harpy"
	culture="ghiscari"

	father=110360023
	mother=210360023

	7202.1.1 = {birth="7202.1.1"}
	7261.1.1 = {death="7261.1.1"}
}
112360023 = {
	name="Morghaz"	# a lord
	dynasty=360023

	religion="harpy"
	culture="ghiscari"

	father=110360023
	mother=210360023

	7203.1.1 = {birth="7203.1.1"}
	7219.1.1 = {add_trait=skilled_warrior}
	7221.1.1 = {add_spouse=212360023}
	7246.1.1 = {}
	7258.1.1 = {death="7258.1.1"}
}
212360023 = {
	name="Delara"
	female=yes

	religion="harpy"
	culture="ghiscari"

	7203.1.1 = {birth="7203.1.1"}
	7258.1.1 = {death="7258.1.1"}
}
113360023 = {
	name="Mizlak"	# not a lord
	dynasty=360023

	religion="harpy"
	culture="ghiscari"

	father=110360023
	mother=210360023

	7205.1.1 = {birth="7205.1.1"}
	7221.1.1 = {add_trait=skilled_warrior}
	7238.1.1 = {death="7238.1.1"}
}
114360023 = {
	name="Marghaz"	# not a lord
	dynasty=360023

	religion="harpy"
	culture="ghiscari"

	father=110360023
	mother=210360023

	7206.1.1 = {birth="7206.1.1"}
	7222.1.1 = {add_trait=poor_warrior}
	7262.1.1 = {death="7262.1.1"}
}
115360023 = {
	name="Ezzara"	# not a lord
	female=yes
	dynasty=360023

	religion="harpy"
	culture="ghiscari"

	father=112360023
	mother=212360023

	7225.1.1 = {birth="7225.1.1"}
	7269.1.1 = {death="7269.1.1"}
}
116360023 = {
	name="Yurkhaz"	# a lord
	dynasty=360023

	religion="harpy"
	culture="ghiscari"

	father=112360023
	mother=212360023

	7226.1.1 = {birth="7226.1.1"}
	7242.1.1 = {add_trait=poor_warrior}
	7244.1.1 = {add_spouse=216360023}
	7258.1.1 = {}
	7300.1.1 = {death="7300.1.1"}
}
216360023 = {
	name="Belezzara"
	female=yes

	religion="harpy"
	culture="ghiscari"

	7226.1.1 = {birth="7226.1.1"}
	7300.1.1 = {death="7300.1.1"}
}
117360023 = {
	name="Mezzara"	# not a lord
	female=yes
	dynasty=360023

	religion="harpy"
	culture="ghiscari"

	father=112360023
	mother=212360023

	7227.1.1 = {birth="7227.1.1"}
	7249.1.1 = {death="7249.1.1"}
}
118360023 = {
	name="Barkhaz"	# not a lord
	dynasty=360023

	religion="harpy"
	culture="ghiscari"

	father=112360023
	mother=212360023

	7228.1.1 = {birth="7228.1.1"}
	7244.1.1 = {add_trait=skilled_warrior}
	7281.1.1 = {death="7281.1.1"}
}
121360023 = {
	name="Prendahl"	# a lord
	dynasty=360023

	religion="harpy"
	culture="ghiscari"

	father=116360023
	mother=216360023

	7254.1.1 = {birth="7254.1.1"}
	7270.1.1 = {add_trait=trained_warrior}
	7272.1.1 = {add_spouse=221360023}
	7300.1.1 = {}
	7303.1.1 = {death="7303.1.1"}
}
221360023 = {
	name="Pilezza"
	female=yes

	religion="harpy"
	culture="ghiscari"

	7254.1.1 = {birth="7254.1.1"}
	7303.1.1 = {death="7303.1.1"}
}
122360023 = {
	name="Azzak"	# a lord
	dynasty=360023

	religion="harpy"
	culture="ghiscari"

	father=121360023
	mother=221360023

	7281.1.1 = {birth="7281.1.1"}
	7297.1.1 = {add_trait=skilled_warrior}
	7299.1.1 = {add_spouse=222360023}
	7303.1.1 = {}
	7321.1.1 = {death = {death_reason = death_accident}}
}
222360023 = {
	name="Sezza"
	female=yes

	religion="harpy"
	culture="ghiscari"

	7281.1.1 = {birth="7281.1.1"}
	7321.1.1 = {death="7321.1.1"}
}
123360023 = {
	name="Telezzara"	# not a lord
	female=yes
	dynasty=360023

	religion="harpy"
	culture="ghiscari"

	father=121360023
	mother=221360023

	7275.1.1 = {birth="7275.1.1"}
	7300.1.1 = {death="7300.1.1"}
}
124360023 = {
	name="Jezhane"	# not a lord
	female=yes
	dynasty=360023

	religion="harpy"
	culture="ghiscari"

	father=121360023
	mother=221360023

	7278.1.1 = {birth="7278.1.1"}
	7326.1.1 = {death="7326.1.1"}
}
125360023 = {
	name="Kraznys"	# a lord
	dynasty=360023

	religion="harpy"
	culture="ghiscari"

	father=122360023
	mother=222360023

	7300.1.1 = {birth="7300.1.1"}
	7321.1.1 = {}
	7324.1.1 = {add_trait=poor_warrior}
	7326.1.1 = {add_spouse=225360023}
	7364.1.1 = {death="7364.1.1"}
}
225360023 = {
	name="Nelezza"
	female=yes

	religion="harpy"
	culture="ghiscari"

	7308.1.1 = {birth="7308.1.1"}
	7364.1.1 = {death="7364.1.1"}
}
126360023 = {
	name="Grazdhar"	# a lord
	dynasty=360023

	religion="harpy"
	culture="ghiscari"

	father=125360023
	mother=225360023

	7337.1.1 = {birth="7337.1.1"}
	7353.1.1 = {add_trait=poor_warrior}
	7355.1.1 = {add_spouse=226360023}
	7364.1.1 = {}
	7389.1.1 = {death="7389.1.1"}
}
226360023 = {
	name="Ilezza"
	female=yes

	religion="harpy"
	culture="ghiscari"

	7337.1.1 = {birth="7337.1.1"}
	7389.1.1 = {death="7389.1.1"}
}
127360023 = {
	name="Grazdan"	# not a lord
	dynasty=360023

	religion="harpy"
	culture="ghiscari"

	father=125360023
	mother=225360023

	7339.1.1 = {birth="7339.1.1"}
	7355.1.1 = {add_trait=trained_warrior}
	7402.1.1 = {death="7402.1.1"}
}
128360023 = {
	name="Tezzara"	# not a lord
	female=yes
	dynasty=360023

	religion="harpy"
	culture="ghiscari"

	father=125360023
	mother=225360023

	7340.1.1 = {birth="7340.1.1"}
	7399.1.1 = {death="7399.1.1"}
}

6571004 = {
	name="Yezzan"  # The Yellow Whale
	dynasty = 360023 

	martial = 2
	diplomacy = 10
	intrigue = 10
	stewardship = 14
	learning = 5

	culture = yunkaii
	religion = harpy 

	father=126360023
	mother=226360023		
	
	add_trait="gluttonous"
	add_trait="proud"
	add_trait="deceitful"
	add_trait="authoritative"
	
	7356.1.1 = {
		birth="7356.1.1"
	}
	7389.1.1 = {}
}

##House Myraq

150360022 = {
	name="Rhaezdhar"	# a lord
	dynasty=360022

	religion="harpy"
	culture="ghiscari"

	7063.1.1 = {birth="7063.1.1"}
	7082.1.1 = {add_spouse=250360022}
	7125.1.1 = {death="7125.1.1"}
}
250360022 = {
	name="Nezzara"
	female=yes

	religion="harpy"
	culture="ghiscari"

	7065.1.1 = {birth="7065.1.1"}
	7123.1.1 = {death="7123.1.1"}
}

100360022 = {
	name="Maezon"	# a lord
	dynasty=360022

	religion="harpy"
	culture="ghiscari"

	father=150360022
	mother=250360022

	7085.1.1 = {birth="7085.1.1"}
	7116.1.1 = {add_trait=poor_warrior}
	7118.1.1 = {add_spouse=200360022}
	7125.1.1 = {}
	7150.1.1 = {death="7150.1.1"}
}
200360022 = {
	name="Nezzara"
	female=yes

	religion="harpy"
	culture="ghiscari"

	7085.1.1 = {birth="7085.1.1"}
	7150.1.1 = {death="7150.1.1"}
}
101360022 = {
	name="Hazzea"	# not a lord
	female=yes
	dynasty=360022

	religion="harpy"
	culture="ghiscari"

	father=100360022
	mother=200360022

	7133.1.1 = {birth="7133.1.1"}
	7186.1.1 = {death="7186.1.1"}
}
102360022 = {
	name="Grazdan"	# a lord
	dynasty=360022

	religion="harpy"
	culture="ghiscari"

	father=100360022
	mother=200360022

	7136.1.1 = {birth="7136.1.1"}
	7150.1.1 = {}
	7152.1.1 = {add_trait=poor_warrior}
	7154.1.1 = {add_spouse=202360022}
	7200.1.1 = {death="7200.1.1"}
}
202360022 = {
	name="Mellazara"
	female=yes

	religion="harpy"
	culture="ghiscari"

	7136.1.1 = {birth="7136.1.1"}
	7200.1.1 = {death="7200.1.1"}
}
103360022 = {
	name="Prendahl"	# not a lord
	dynasty=360022

	religion="harpy"
	culture="ghiscari"

	father=100360022
	mother=200360022

	7138.1.1 = {birth="7138.1.1"}
	7154.1.1 = {add_trait=trained_warrior}
	7182.1.1 = {death="7182.1.1"}
}
104360022 = {
	name="Qezza"	# not a lord
	female=yes
	dynasty=360022

	religion="harpy"
	culture="ghiscari"

	father=100360022
	mother=200360022

	7141.1.1 = {birth="7141.1.1"}
	7173.1.1 = {death="7173.1.1"}
}
105360022 = {
	name="Galazza"	# not a lord
	female=yes
	dynasty=360022

	religion="harpy"
	culture="ghiscari"

	father=102360022
	mother=202360022

	7159.1.1 = {birth="7159.1.1"}
	7172.1.1 = {death="7172.1.1"}
}
106360022 = {
	name="Morghaz"	# a lord
	dynasty=360022

	religion="harpy"
	culture="ghiscari"

	father=102360022
	mother=202360022

	7160.1.1 = {birth="7160.1.1"}
	7176.1.1 = {add_trait=trained_warrior}
	7178.1.1 = {add_spouse=206360022}
	7200.1.1 = {}
	7205.1.1 = {death="7205.1.1"}
}
206360022 = {
	name="Ezzara"
	female=yes

	religion="harpy"
	culture="ghiscari"

	7160.1.1 = {birth="7160.1.1"}
	7205.1.1 = {death="7205.1.1"}
}
107360022 = {
	name="Sezza"	# not a lord
	female=yes
	dynasty=360022

	religion="harpy"
	culture="ghiscari"

	father=106360022
	mother=206360022

	7181.1.1 = {birth="7181.1.1"}
	7211.1.1 = {death="7211.1.1"}
}
108360022 = {
	name="Melazara"	# not a lord
	female=yes
	dynasty=360022

	religion="harpy"
	culture="ghiscari"

	father=106360022
	mother=206360022

	7182.1.1 = {birth="7182.1.1"}
	7215.1.1 = {death="7215.1.1"}
}
109360022 = {
	name="Mizlak"	# a lord
	dynasty=360022

	religion="harpy"
	culture="ghiscari"

	father=106360022
	mother=206360022

	7185.1.1 = {birth="7185.1.1"}
	7201.1.1 = {add_trait=skilled_warrior}
	7203.1.1 = {add_spouse=209360022}
	7205.1.1 = {}
	7242.1.1 = {death="7242.1.1"}
}
209360022 = {
	name="Jezhane"
	female=yes

	religion="harpy"
	culture="ghiscari"

	7185.1.1 = {birth="7185.1.1"}
	7242.1.1 = {death="7242.1.1"}
}
110360022 = {
	name="Grazdhan"	# not a lord
	dynasty=360022

	religion="harpy"
	culture="ghiscari"

	father=106360022
	mother=206360022

	7188.1.1 = {birth="7188.1.1"}
	7204.1.1 = {add_trait=skilled_warrior}
	7206.1.1 = {add_spouse=210360022}
	7234.1.1 = {death="7234.1.1"}
}
210360022 = {
	name="Qezza"
	female=yes

	religion="harpy"
	culture="ghiscari"

	7188.1.1 = {birth="7188.1.1"}
	7234.1.1 = {death="7234.1.1"}
}
111360022 = {
	name="Sesqa"	# not a lord
	female=yes
	dynasty=360022

	religion="harpy"
	culture="ghiscari"

	father=109360022
	mother=209360022

	7206.1.1 = {birth="7206.1.1"}
	7239.1.1 = {death="7239.1.1"}
}
112360022 = {
	name="Skahaz"	# a lord
	dynasty=360022

	religion="harpy"
	culture="ghiscari"

	father=109360022
	mother=209360022

	7208.1.1 = {birth="7208.1.1"}
	7224.1.1 = {add_trait=skilled_warrior}
	7226.1.1 = {add_spouse=212360022}
	7242.1.1 = {}
	7259.1.1 = {death="7259.1.1"}
}
212360022 = {
	name="Bellezara"
	female=yes

	religion="harpy"
	culture="ghiscari"

	7208.1.1 = {birth="7208.1.1"}
	7259.1.1 = {death="7259.1.1"}
}
113360022 = {
	name="Zaraq"	# a lord
	dynasty=360022

	religion="harpy"
	culture="ghiscari"

	father=112360022
	mother=212360022

	7236.1.1 = {birth="7236.1.1"}
	7252.1.1 = {add_trait=trained_warrior}
	7254.1.1 = {add_spouse=213360022}
	7259.1.1 = {}
	7298.1.1 = {death="7298.1.1"}
}
213360022 = {
	name="Mezza"
	female=yes

	religion="harpy"
	culture="ghiscari"

	7236.1.1 = {birth="7236.1.1"}
	7298.1.1 = {death="7298.1.1"}
}
114360022 = {
	name="Ezzara"	# not a lord
	female=yes
	dynasty=360022

	religion="harpy"
	culture="ghiscari"

	father=112360022
	mother=212360022

	7238.1.1 = {birth="7238.1.1"}
	7248.1.1 = {death="7248.1.1"}
}
115360022 = {
	name="Paezdhar"	# not a lord
	dynasty=360022

	religion="harpy"
	culture="ghiscari"

	father=112360022
	mother=212360022

	7239.1.1 = {birth="7239.1.1"}
	7243.1.1 = {death = {death_reason = death_accident}}
}
116360022 = {
	name="Mera"	# not a lord
	female=yes
	dynasty=360022

	religion="harpy"
	culture="ghiscari"

	father=113360022
	mother=213360022

	7262.1.1 = {birth="7262.1.1"}
	7314.1.1 = {death="7314.1.1"}
}
117360022 = {
	name="Lazhak"	# a lord
	dynasty=360022

	religion="harpy"
	culture="ghiscari"

	father=113360022
	mother=213360022

	7259.1.1 = {birth="7259.1.1"}
	7275.1.1 = {add_trait=poor_warrior}
	7277.1.1 = {add_spouse=217360022}
	7298.1.1 = {}
	7318.1.1 = {death="7318.1.1"}
}
217360022 = {
	name="Olezza"
	female=yes

	religion="harpy"
	culture="ghiscari"

	7259.1.1 = {birth="7259.1.1"}
	7318.1.1 = {death="7318.1.1"}
}
118360022 = {
	name="Qezza"	# not a lord
	female=yes
	dynasty=360022

	religion="harpy"
	culture="ghiscari"

	father=113360022
	mother=213360022

	7261.1.1 = {birth="7261.1.1"}
	7319.1.1 = {death="7319.1.1"}
}
119360022 = {
	name="Melezza"	# not a lord
	female=yes
	dynasty=360022

	religion="harpy"
	culture="ghiscari"

	father=117360022
	mother=217360022

	7290.1.1 = {birth="7290.1.1"}
	7334.1.1 = {death="7334.1.1"}
}
120360022 = {
	name="Hizdhar"	# not a lord
	dynasty=360022

	religion="harpy"
	culture="ghiscari"

	father=117360022
	mother=217360022

	7293.1.1 = {birth="7293.1.1"}
	7302.1.1 = {death = {death_reason = death_accident}}
}
121360022 = {
	name="Grazdan"	# a lord
	dynasty=360022

	religion="harpy"
	culture="ghiscari"

	father=117360022
	mother=217360022

	7294.1.1 = {birth="7294.1.1"}
	7310.1.1 = {add_trait=poor_warrior}
	7312.1.1 = {add_spouse=221360022}
	7318.1.1 = {}
	7343.1.1 = {death = {death_reason = death_accident}}
}
221360022 = {
	name="Ezzara"
	female=yes

	religion="harpy"
	culture="ghiscari"

	7294.1.1 = {birth="7294.1.1"}
	7343.1.1 = {death="7343.1.1"}
}
122360022 = {
	name="Sesqa"	# not a lord
	female=yes
	dynasty=360022

	religion="harpy"
	culture="ghiscari"

	father=117360022
	mother=217360022

	7297.1.1 = {birth="7297.1.1"}
	7354.1.1 = {death="7354.1.1"}
}
123360022 = {
	name="Galazza"	# not a lord
	female=yes
	dynasty=360022

	religion="harpy"
	culture="ghiscari"

	father=117360022
	mother=217360022

	7300.1.1 = {birth="7300.1.1"}
	7331.1.1 = {death = {death_reason = death_murder}}
}
124360022 = {
	name="Azzak"	# a lord
	dynasty=360022

	religion="harpy"
	culture="ghiscari"

	father=121360022
	mother=221360022

	7316.1.1 = {birth="7316.1.1"}
	7332.1.1 = {add_trait=poor_warrior}
	7333.1.1 = {add_spouse=224360022}
	7343.1.1 = {}
	7357.1.1 = {death = {death_reason = death_accident}}
}
224360022 = {
	name="Dezzala"
	female=yes

	religion="harpy"
	culture="ghiscari"

	7316.1.1 = {birth="7316.1.1"}
	7357.1.1 = {death="7357.1.1"}
}
125360022 = {
	name="Yurkhazro"	# not a lord
	dynasty=360022

	religion="harpy"
	culture="ghiscari"

	father=121360022
	mother=221360022

	7319.1.1 = {birth="7319.1.1"}
	7335.1.1 = {add_trait=trained_warrior}
	7337.1.1 = {add_spouse=225360022}
	7364.1.1 = {death="7364.1.1"}
}
225360022 = {
	name="Qezza"
	female=yes

	religion="harpy"
	culture="ghiscari"

	7319.1.1 = {birth="7319.1.1"}
	7364.1.1 = {death="7364.1.1"}
}
126360022 = {
	name="Hazzea"	# not a lord
	female=yes
	dynasty=360022

	religion="harpy"
	culture="ghiscari"

	father=121360022
	mother=221360022

	7321.1.1 = {birth="7321.1.1"}
	7375.1.1 = {death="7375.1.1"}
}
127360022 = {
	name="Barkhaz"	# not a lord
	dynasty=360022

	religion="harpy"
	culture="ghiscari"

	father=121360022
	mother=221360022

	7323.1.1 = {birth="7323.1.1"}
	7339.1.1 = {add_trait=master_warrior}
	7341.1.1 = {add_spouse=227360022}
	7391.1.1 = {death="7391.1.1"}
}
227360022 = {
	name="Qarria"
	female=yes

	religion="harpy"
	culture="ghiscari"

	7323.1.1 = {birth="7323.1.1"}
	7391.1.1 = {death="7391.1.1"}
}
128360022 = {
	name="Jalezza"	# not a lord
	female=yes
	dynasty=360022

	religion="harpy"
	culture="ghiscari"

	father=121360022
	mother=221360022

	7325.1.1 = {birth="7325.1.1"}
	7395.1.1 = {death="7395.1.1"}
}
129360022 = {
	name="Galazza"	# not a lord
	female=yes
	dynasty=360022

	religion="harpy"
	culture="ghiscari"

	father=124360022
	mother=224360022

	7334.1.1 = {birth="7334.1.1"}
	7375.1.1 = {death="7375.1.1"}
}
130360022 = {
	name="Ezzara"	# not a lord
	female=yes
	dynasty=360022

	religion="harpy"
	culture="ghiscari"

	father=124360022
	mother=224360022

	7336.1.1 = {birth="7336.1.1"}
	7394.1.1 = {death="7394.1.1"}
}
131360022 = {
	name="Maezon"	# a lord
	dynasty=360022

	religion="harpy"
	culture="ghiscari"

	father=124360022
	mother=224360022

	7337.1.1 = {birth="7337.1.1"}
	7357.1.1 = {}
	7364.1.1 = {add_trait=poor_warrior}
	7366.1.1 = {add_spouse=231360022}
	7382.1.1 = {death = {death_reason = death_murder}}
}
231360022 = {
	name="Jezhane"
	female=yes

	religion="harpy"
	culture="ghiscari"

	7348.1.1 = {birth="7348.1.1"}
	7382.1.1 = {death="7382.1.1"}
}
132360022 = {
	name="Gorzhak"	# not a lord
	dynasty=360022

	religion="harpy"
	culture="ghiscari"

	father=124360022
	mother=224360022

	7349.1.1 = {birth="7349.1.1"}
	7365.1.1 = {add_trait=skilled_warrior}
	7411.1.1 = {death="7411.1.1"}
}
6571005 = {
	name="Paezhar" # Canon
	dynasty = 360022 

	martial = 1
	diplomacy = 4
	intrigue = 5
	stewardship = 5
	learning = 5

	culture = yunkaii
	religion = harpy 

	father=131360022
	mother=231360022		
	
	add_trait="flamboyant_schemer"
	add_trait="cruel"
	add_trait="proud"
	add_trait="deceitful"
	add_trait="ruthless"
	
	7367.1.1 = {
		birth="7367.1.1"
	}
	7382.1.1 = {}
}

##House Zherzyn

150360021 = {
	name="Haezdhar"	# a lord
	dynasty=360021

	religion="harpy"
	culture="ghiscari"

	7060.1.1 = {birth="7060.1.1"}
	7078.1.1 = {add_spouse=250360021}
	7114.1.1 = {death="7114.1.1"}
}
250360021 = {
	name="Elezzara"
	female=yes

	religion="harpy"
	culture="ghiscari"

	7062.1.1 = {birth="7062.1.1"}
	7100.1.1 = {death="7100.1.1"}
}

100360021 = {
	name="Grazdhan"	# a lord
	dynasty=360021

	religion="harpy"
	culture="ghiscari"

	father=150360021
	mother=250360021

	7082.1.1 = {birth="7082.1.1"}
	7104.1.1 = {add_spouse=200360021}
	7114.1.1 = {}
	7116.1.1 = {add_trait=poor_warrior}
	7125.1.1 = {death="7125.1.1"}
}
200360021 = {
	name="Melazzara"
	female=yes

	religion="harpy"
	culture="ghiscari"

	7082.1.1 = {birth="7082.1.1"}
	7125.1.1 = {death="7125.1.1"}
}
101360021 = {
	name="Marghazuo"	# a lord
	dynasty=360021

	religion="harpy"
	culture="ghiscari"

	father=100360021
	mother=200360021

	7106.1.1 = {birth="7106.1.1"}
	7125.1.1 = {}
	7134.1.1 = {add_trait=trained_warrior}
	7136.1.1 = {add_spouse=201360021}
	7160.1.1 = {death="7160.1.1"}
}
201360021 = {
	name="Qezza"
	female=yes

	religion="harpy"
	culture="ghiscari"

	7118.1.1 = {birth="7118.1.1"}
	7160.1.1 = {death="7160.1.1"}
}
102360021 = {
	name="Hazzea"	# not a lord
	female=yes
	dynasty=360021

	religion="harpy"
	culture="ghiscari"

	father=100360021
	mother=200360021

	7120.1.1 = {birth="7120.1.1"}
	7162.1.1 = {death="7162.1.1"}
}
103360021 = {
	name="Sharkaz"	# a lord
	dynasty=360021

	religion="harpy"
	culture="ghiscari"

	father=101360021
	mother=201360021

	7137.1.1 = {birth="7137.1.1"}
	7160.1.1 = {}
	7165.1.1 = {add_trait=trained_warrior}
	7167.1.1 = {add_spouse=203360021}
	7195.1.1 = {death = {death_reason = death_accident}}
}
203360021 = {
	name="Ezzara"
	female=yes

	religion="harpy"
	culture="ghiscari"

	7149.1.1 = {birth="7149.1.1"}
	7195.1.1 = {death="7195.1.1"}
}
104360021 = {
	name="Prendhal"	# not a lord
	dynasty=360021

	religion="harpy"
	culture="ghiscari"

	father=101360021
	mother=201360021

	7150.1.1 = {birth="7150.1.1"}
	7166.1.1 = {add_trait=poor_warrior}
	7168.1.1 = {add_spouse=204360021}
	7193.1.1 = {death="7193.1.1"}
}
204360021 = {
	name="Tezza"
	female=yes

	religion="harpy"
	culture="ghiscari"

	7150.1.1 = {birth="7150.1.1"}
	7193.1.1 = {death="7193.1.1"}
}
105360021 = {
	name="Galazza"	# not a lord
	female=yes
	dynasty=360021

	religion="harpy"
	culture="ghiscari"

	father=101360021
	mother=201360021

	7152.1.1 = {birth="7152.1.1"}
	7199.1.1 = {death="7199.1.1"}
}
106360021 = {
	name="Skahaz"	# a lord
	dynasty=360021

	religion="harpy"
	culture="ghiscari"

	father=103360021
	mother=203360021

	7178.1.1 = {birth="7178.1.1"}
	7194.1.1 = {add_trait=trained_warrior}
	7195.1.1 = {}
	7196.1.1 = {add_spouse=206360021}
	7234.1.1 = {death="7234.1.1"}
}
206360021 = {
	name="Azzara"
	female=yes

	religion="harpy"
	culture="ghiscari"

	7178.1.1 = {birth="7178.1.1"}
	7234.1.1 = {death="7234.1.1"}
}
107360021 = {
	name="Grazdan"	# not a lord
	dynasty=360021

	religion="harpy"
	culture="ghiscari"

	father=103360021
	mother=203360021

	7181.1.1 = {birth="7181.1.1"}
	7197.1.1 = {add_trait=trained_warrior}
	7245.1.1 = {death = {death_reason = death_accident}}
}
108360021 = {
	name="Delezza"	# not a lord
	female=yes
	dynasty=360021

	religion="harpy"
	culture="ghiscari"

	father=103360021
	mother=203360021

	7184.1.1 = {birth="7184.1.1"}
	7235.1.1 = {death="7235.1.1"}
}
109360021 = {
	name="Hizdhar"	# not a lord
	dynasty=360021

	religion="harpy"
	culture="ghiscari"

	father=103360021
	mother=203360021

	7187.1.1 = {birth="7187.1.1"}
	7203.1.1 = {add_trait=master_warrior}
	7220.1.1 = {death="7220.1.1"}
}
110360021 = {
	name="Barkhaz"	# not a lord
	dynasty=360021

	religion="harpy"
	culture="ghiscari"

	father=103360021
	mother=203360021

	7190.1.1 = {birth="7190.1.1"}
	7206.1.1 = {add_trait=skilled_warrior}
	7226.1.1 = {death="7226.1.1"}
}
111360021 = {
	name="Maezon"	# a lord
	dynasty=360021

	religion="harpy"
	culture="ghiscari"

	father=106360021
	mother=206360021

	7206.1.1 = {birth="7206.1.1"}
	7222.1.1 = {add_trait=skilled_warrior}
	7224.1.1 = {add_spouse=211360021}
	7234.1.1 = {}
	7265.1.1 = {death="7265.1.1"}
}
211360021 = {
	name="Qezza"
	female=yes

	religion="harpy"
	culture="ghiscari"

	7206.1.1 = {birth="7206.1.1"}
	7265.1.1 = {death="7265.1.1"}
}
112360021 = {
	name="Azzaq"	# not a lord
	dynasty=360021

	religion="harpy"
	culture="ghiscari"

	father=106360021
	mother=206360021

	7208.1.1 = {birth="7208.1.1"}
	7224.1.1 = {add_trait=poor_warrior}
	7240.1.1 = {death="7240.1.1"}
}
113360021 = {
	name="Delezza"	# not a lord
	female=yes
	dynasty=360021

	religion="harpy"
	culture="ghiscari"

	father=106360021
	mother=206360021

	7211.1.1 = {birth="7211.1.1"}
	7279.1.1 = {death="7279.1.1"}
}
114360021 = {
	name="Paezdhar"	# a lord
	dynasty=360021

	religion="harpy"
	culture="ghiscari"

	father=111360021
	mother=211360021

	7231.1.1 = {birth="7231.1.1"}
	7247.1.1 = {add_trait=trained_warrior}
	7249.1.1 = {add_spouse=214360021}
	7265.1.1 = {}
	7271.1.1 = {death="7271.1.1"}
}
214360021 = {
	name="Dezza"
	female=yes

	religion="harpy"
	culture="ghiscari"

	7231.1.1 = {birth="7231.1.1"}
	7271.1.1 = {death="7271.1.1"}
}
115360021 = {
	name="Grazdhan"	# a lord
	dynasty=360021

	religion="harpy"
	culture="ghiscari"

	father=114360021
	mother=214360021

	7252.1.1 = {birth="7252.1.1"}
	7271.1.1 = {}
	7273.1.1 = {add_trait=poor_warrior}
	7275.1.1 = {add_spouse=215360021}
	7325.1.1 = {death="7325.1.1"}
}
215360021 = {
	name="Nalessa"
	female=yes

	religion="harpy"
	culture="ghiscari"

	7257.1.1 = {birth="7257.1.1"}
	7325.1.1 = {death="7325.1.1"}
}
116360021 = {
	name="Barghazo"	# not a lord
	dynasty=360021

	religion="harpy"
	culture="ghiscari"

	father=114360021
	mother=214360021

	7259.1.1 = {birth="7259.1.1"}
	7275.1.1 = {add_trait=poor_warrior}
	7277.1.1 = {add_spouse=216360021}
	7334.1.1 = {death="7334.1.1"}
}
216360021 = {
	name="Hazzea"
	female=yes

	religion="harpy"
	culture="ghiscari"

	7259.1.1 = {birth="7259.1.1"}
	7334.1.1 = {death="7334.1.1"}
}
117360021 = {
	name="Mezzara"	# not a lord
	female=yes
	dynasty=360021

	religion="harpy"
	culture="ghiscari"

	father=114360021
	mother=214360021

	7260.1.1 = {birth="7260.1.1"}
	7308.1.1 = {death="7308.1.1"}
}
118360021 = {
	name="Skahaz"	# not a lord
	dynasty=360021

	religion="harpy"
	culture="ghiscari"

	father=114360021
	mother=214360021

	7263.1.1 = {birth="7263.1.1"}
	7279.1.1 = {add_trait=skilled_warrior}
	7289.1.1 = {death="7289.1.1"}
}
119360021 = {
	name="Qezza"	# not a lord
	female=yes
	dynasty=360021

	religion="harpy"
	culture="ghiscari"

	father=115360021
	mother=215360021

	7275.1.1 = {birth="7275.1.1"}
	7330.1.1 = {death="7330.1.1"}
}
120360021 = {
	name="Grazdan"	# not a lord
	dynasty=360021

	religion="harpy"
	culture="ghiscari"

	father=115360021
	mother=215360021

	7278.1.1 = {birth="7278.1.1"}
	7294.1.1 = {add_trait=skilled_warrior}
	7321.1.1 = {death="7321.1.1"}
}
121360021 = {
	name="Reznak"	# a lord
	dynasty=360021

	religion="harpy"
	culture="ghiscari"

	father=115360021
	mother=215360021

	7280.1.1 = {birth="7280.1.1"}
	7296.1.1 = {add_trait=poor_warrior}
	7298.1.1 = {add_spouse=221360021}
	7325.1.1 = {}
	7355.1.1 = {death="7355.1.1"}
}
221360021 = {
	name="Ezzara"
	female=yes

	religion="harpy"
	culture="ghiscari"

	7280.1.1 = {birth="7280.1.1"}
	7355.1.1 = {death="7355.1.1"}
}
122360021 = {
	name="Yezzan"	# not a lord
	dynasty=360021

	religion="harpy"
	culture="ghiscari"

	father=115360021
	mother=215360021

	7281.1.1 = {birth="7281.1.1"}
	7297.1.1 = {add_trait=trained_warrior}
	7326.1.1 = {death="7326.1.1"}
}
123360021 = {
	name="Yezza"	# not a lord
	female=yes
	dynasty=360021

	religion="harpy"
	culture="ghiscari"

	father=121360021
	mother=221360021

	7313.1.1 = {birth="7313.1.1"}
	7329.1.1 = {death="7329.1.1"}
}
124360021 = {
	name="Marghaz"	# a lord
	dynasty=360021

	religion="harpy"
	culture="ghiscari"

	father=121360021
	mother=221360021

	7315.1.1 = {birth="7315.1.1"}
	7331.1.1 = {add_trait=poor_warrior}
	7333.1.1 = {add_spouse=224360021}
	7355.1.1 = {}
	7386.1.1 = {death="7386.1.1"}
}
224360021 = {
	name="Melezzara"
	female=yes

	religion="harpy"
	culture="ghiscari"

	7315.1.1 = {birth="7315.1.1"}
	7386.1.1 = {death="7386.1.1"}
}
125360021 = {
	name="Sezza"	# not a lord
	female=yes
	dynasty=360021

	religion="harpy"
	culture="ghiscari"

	father=121360021
	mother=221360021

	7318.1.1 = {birth="7318.1.1"}
	7354.1.1 = {death="7354.1.1"}
}
126360021 = {
	name="Bellara"	# not a lord
	female=yes
	dynasty=360021

	religion="harpy"
	culture="ghiscari"

	father=121360021
	mother=221360021

	7321.1.1 = {birth="7321.1.1"}
	7350.1.1 = {death="7350.1.1"}
}

6571006 = {
	name="Morghaz"  # Canon
	dynasty = 360021 

	martial = 1
	diplomacy = 4
	intrigue = 5
	stewardship = 5
	learning = 5

	culture = yunkaii
	religion = harpy

	father=124360021
	mother=224360021 		
	
	add_trait="drunkard"
	add_trait="cruel"
	add_trait="proud"
	add_trait="deceitful"
	add_trait="ruthless"
	
	7351.1.1 = {
		birth="7351.1.1"
	}
	7386.1.1 = {}
}

##House Eraz

150360020 = {
	name="Grazdhan"	# a lord
	dynasty=360020

	religion="harpy"
	culture="ghiscari"

	7055.1.1 = {birth="7055.1.1"}
	7076.1.1 = {add_spouse=250360020}
	7108.1.1 = {death="7108.1.1"}
}
250360020 = {
	name="Mezzara"
	female=yes

	religion="harpy"
	culture="ghiscari"

	7059.1.1 = {birth="7059.1.1"}
	7114.1.1 = {death="7114.1.1"}
}
100360020 = {
	name="Marghaz"	# a lord
	dynasty=360020

	religion="harpy"
	culture="ghiscari"

	father=150360020
	mother=250360020

	7084.1.1 = {birth="7084.1.1"}
	7102.1.1 = {add_spouse=200360020}
	7108.1.1 = {}
	7116.1.1 = {add_trait=poor_warrior}
	7131.1.1 = {death="7131.1.1"}
}
200360020 = {
	name="Tellezza"
	female=yes

	religion="harpy"
	culture="ghiscari"
	
	# In memory of a very amusing bug
	add_trait = genius
	add_trait = ambitious

	7084.1.1 = {birth="7084.1.1"}
	7131.1.1 = {death="7131.1.1"}
}
101360020 = {
	name="Haezdhar"	# a lord
	dynasty=360020

	religion="harpy"
	culture="ghiscari"

	father=100360020
	mother=200360020

	7103.1.1 = {birth="7103.1.1"}
	7131.1.1 = {}
	7134.1.1 = {add_trait=skilled_warrior}
	7136.1.1 = {add_spouse=201360020}
	7172.1.1 = {death="7172.1.1"}
}
201360020 = {
	name="Ezzara"
	female=yes

	religion="harpy"
	culture="ghiscari"

	7118.1.1 = {birth="7118.1.1"}
	7172.1.1 = {death="7172.1.1"}
}
102360020 = {
	name="Qezza"	# not a lord
	female=yes
	dynasty=360020

	religion="harpy"
	culture="ghiscari"

	father=100360020
	mother=200360020

	7121.1.1 = {birth="7121.1.1"}
	7148.1.1 = {death="7148.1.1"}
}
103360020 = {
	name="Galazza"	# not a lord
	female=yes
	dynasty=360020

	religion="harpy"
	culture="ghiscari"

	father=100360020
	mother=200360020

	7122.1.1 = {birth="7122.1.1"}
	7197.1.1 = {death="7197.1.1"}
}
104360020 = {
	name="Grazdan"	# not a lord
	dynasty=360020

	religion="harpy"
	culture="ghiscari"

	father=100360020
	mother=200360020

	7125.1.1 = {birth="7125.1.1"}
	7141.1.1 = {add_trait=poor_warrior}
	7171.1.1 = {death="7171.1.1"}
}
105360020 = {
	name="Grazdan"	# a lord
	dynasty=360020

	religion="harpy"
	culture="ghiscari"

	father=101360020
	mother=201360020

	7138.1.1 = {birth="7138.1.1"}
	7154.1.1 = {add_trait=skilled_warrior}
	7156.1.1 = {add_spouse=205360020}
	7172.1.1 = {}
	7188.1.1 = {death="7188.1.1"}
}
205360020 = {
	name="Mezzara"
	female=yes

	religion="harpy"
	culture="ghiscari"

	7138.1.1 = {birth="7138.1.1"}
	7188.1.1 = {death="7188.1.1"}
}
106360020 = {
	name="Skahazo"	# not a lord
	dynasty=360020

	religion="harpy"
	culture="ghiscari"

	father=101360020
	mother=201360020

	7141.1.1 = {birth="7141.1.1"}
	7159.1.1 = {
		add_spouse=206360020
		effect = { spouse = { add_lover = ROOT } }
	}
	7173.1.1 = {add_trait = has_bloody_flux}
	7174.1.1 = {death = { death_reason = death_trait } }
}
206360020 = {
	name="Hazzea"
	female=yes

	religion="harpy"
	culture="ghiscari"

	7141.1.1 = {birth="7141.1.1"}
	7174.1.1 = {
		add_trait = widowed
		add_trait = depressed
	}
	7175.1.1 = {
		death = { death_reason = death_suicide }
	}
}
107360020 = {
	name="Mellezza"	# not a lord
	female=yes
	dynasty=360020

	religion="harpy"
	culture="ghiscari"

	father=101360020
	mother=201360020

	7144.1.1 = {birth="7144.1.1"}
	7215.1.1 = {death="7215.1.1"}
}
108360020 = {
	name="Mizlako"	# not a lord
	dynasty=360020

	religion="harpy"
	culture="ghiscari"

	father=101360020
	mother=201360020

	7147.1.1 = {birth="7147.1.1"}
	7163.1.1 = {add_trait=poor_warrior}
	7198.1.1 = {death="7198.1.1"}
}
109360020 = {
	name="Reznakuo"	# not a lord
	dynasty=360020

	religion="harpy"
	culture="ghiscari"

	father=101360020
	mother=201360020

	7150.1.1 = {birth="7150.1.1"}
	7166.1.1 = {add_trait=poor_warrior}
	7220.1.1 = {death="7220.1.1"}
}
110360020 = {
	name="Qezza"	# not a lord
	female=yes
	dynasty=360020

	religion="harpy"
	culture="ghiscari"

	father=105360020
	mother=205360020

	7162.1.1 = {birth="7162.1.1"}
	7198.1.1 = {death="7198.1.1"}
}
111360020 = {
	name="Barkhaz"	# a lord
	dynasty=360020

	religion="harpy"
	culture="ghiscari"

	father=105360020
	mother=205360020

	7165.1.1 = {birth="7165.1.1"}
	7181.1.1 = {add_trait=trained_warrior}
	7183.1.1 = {add_spouse=211360020}
	7188.1.1 = {}
	7222.1.1 = {death="7222.1.1"}
}
211360020 = {
	name="Ezzara"
	female=yes

	religion="harpy"
	culture="ghiscari"

	7165.1.1 = {birth="7165.1.1"}
	7222.1.1 = {death="7222.1.1"}
}
112360020 = {
	name="Azlaq"	# a lord
	dynasty=360020

	religion="harpy"
	culture="ghiscari"

	father=111360020
	mother=211360020

	7192.1.1 = {birth="7192.1.1"}
	7208.1.1 = {add_trait=trained_warrior}
	7210.1.1 = {add_spouse=212360020}
	7222.1.1 = {}
	7237.1.1 = {death="7237.1.1"}
}
212360020 = {
	name="Azzara"
	female=yes

	religion="harpy"
	culture="ghiscari"

	7192.1.1 = {birth="7192.1.1"}
	7237.1.1 = {death="7237.1.1"}
}
113360020 = {
	name="Tezza"	# not a lord
	female=yes
	dynasty=360020

	religion="harpy"
	culture="ghiscari"

	father=111360020
	mother=211360020

	7193.1.1 = {birth="7193.1.1"}
	7261.1.1 = {death="7261.1.1"}
}
114360020 = {
	name="Galazza"	# not a lord
	female=yes
	dynasty=360020

	religion="harpy"
	culture="ghiscari"

	father=112360020
	mother=212360020

	7210.1.1 = {birth="7210.1.1"}
	7257.1.1 = {death="7257.1.1"}
}
115360020 = {
	name="Qezza"	# not a lord
	female=yes
	dynasty=360020

	religion="harpy"
	culture="ghiscari"

	father=112360020
	mother=212360020

	7213.1.1 = {birth="7213.1.1"}
	7263.1.1 = {death="7263.1.1"}
}
116360020 = {
	name="Grazdan"	# a lord
	dynasty=360020

	religion="harpy"
	culture="ghiscari"

	father=112360020
	mother=212360020

	7215.1.1 = {birth="7215.1.1"}
	7231.1.1 = {add_trait=poor_warrior}
	7233.1.1 = {add_spouse=216360020}
	7237.1.1 = {}
	7270.1.1 = {death="7270.1.1"}
}
216360020 = {
	name="Ezzara"
	female=yes

	religion="harpy"
	culture="ghiscari"

	7215.1.1 = {birth="7215.1.1"}
	7270.1.1 = {death="7270.1.1"}
}
117360020 = {
	name="Hazzea"	# not a lord
	female=yes
	dynasty=360020

	religion="harpy"
	culture="ghiscari"

	father=116360020
	mother=216360020

	7240.1.1 = {birth="7240.1.1"}
	7291.1.1 = {death="7291.1.1"}
}
118360020 = {
	name="Qezza"	# not a lord
	female=yes
	dynasty=360020

	religion="harpy"
	culture="ghiscari"

	father=116360020
	mother=216360020

	7243.1.1 = {birth="7243.1.1"}
	7275.1.1 = {death="7275.1.1"}
}
119360020 = {
	name="Hizdhar"	# a lord
	dynasty=360020

	religion="harpy"
	culture="ghiscari"

	father=116360020
	mother=216360020

	7245.1.1 = {birth="7245.1.1"}
	7261.1.1 = {add_trait=trained_warrior}
	7263.1.1 = {add_spouse=219360020}
	7270.1.1 = {}
	7288.1.1 = {death="7288.1.1"}
}
219360020 = {
	name="Mellezza"
	female=yes

	religion="harpy"
	culture="ghiscari"

	7245.1.1 = {birth="7245.1.1"}
	7288.1.1 = {death="7288.1.1"}
}
120360020 = {
	name="Yurkhaz"	# a lord
	dynasty=360020

	religion="harpy"
	culture="ghiscari"

	father=119360020
	mother=219360020

	7264.1.1 = {birth="7264.1.1"}
	7280.1.1 = {add_trait=poor_warrior}
	7282.1.1 = {add_spouse=220360020}
	7288.1.1 = {}
	7325.1.1 = {death="7325.1.1"}
}
220360020 = {
	name="Yna"
	female=yes

	religion="harpy"
	culture="ghiscari"

	7264.1.1 = {birth="7264.1.1"}
	7325.1.1 = {death="7325.1.1"}
}
121360020 = {
	name="Qezza"	# not a lord
	female=yes
	dynasty=360020

	religion="harpy"
	culture="ghiscari"

	father=119360020
	mother=219360020

	7265.1.1 = {birth="7265.1.1"}
	7334.1.1 = {death = {death_reason = death_murder}}
}
122360020 = {
	name="Grazdhan"	# a lord
	dynasty=360020

	religion="harpy"
	culture="ghiscari"

	father=120360020
	mother=220360020

	7292.1.1 = {birth="7292.1.1"}
	7308.1.1 = {add_trait=trained_warrior}
	7310.1.1 = {add_spouse=222360020}
	7325.1.1 = {}
	7339.1.1 = {death="7339.1.1"}
}
222360020 = {
	name="Fezzara"
	female=yes

	religion="harpy"
	culture="ghiscari"

	7292.1.1 = {birth="7292.1.1"}
	7339.1.1 = {death="7339.1.1"}
}
123360020 = {
	name="Qezza"	# not a lord
	female=yes
	dynasty=360020

	religion="harpy"
	culture="ghiscari"

	father=120360020
	mother=220360020

	7295.1.1 = {birth="7295.1.1"}
	7350.1.1 = {death="7350.1.1"}
}
124360020 = {
	name="Yezzan"	# not a lord
	dynasty=360020

	religion="harpy"
	culture="ghiscari"

	father=120360020
	mother=220360020

	7297.1.1 = {birth="7297.1.1"}
	7313.1.1 = {add_trait=poor_warrior}
	7315.1.1 = {add_spouse=224360020}
	7328.1.1 = {death = {death_reason = death_battle}}
}
224360020 = {
	name="Tellezza"
	female=yes

	religion="harpy"
	culture="ghiscari"

	7297.1.1 = {birth="7297.1.1"}
	7328.1.1 = {death="7328.1.1"}
}
125360020 = {
	name="Ezzara"	# not a lord
	female=yes
	dynasty=360020

	religion="harpy"
	culture="ghiscari"

	father=122360020
	mother=222360020

	7311.1.1 = {birth="7311.1.1"}
	7354.1.1 = {death="7354.1.1"}
}
126360020 = {
	name="Paezdhar"	# a lord
	dynasty=360020

	religion="harpy"
	culture="ghiscari"

	father=122360020
	mother=222360020

	7312.1.1 = {birth="7312.1.1"}
	7328.1.1 = {add_trait=poor_warrior}
	7330.1.1 = {add_spouse=226360020}
	7339.1.1 = {}
	7355.1.1 = {death="7355.1.1"}
}
226360020 = {
	name="Hazzea"
	female=yes

	religion="harpy"
	culture="ghiscari"

	7312.1.1 = {birth="7312.1.1"}
	7355.1.1 = {death="7355.1.1"}
}
127360020 = {
	name="Tezzara"	# not a lord
	female=yes
	dynasty=360020

	religion="harpy"
	culture="ghiscari"

	father=122360020
	mother=222360020

	7314.1.1 = {birth="7314.1.1"}
	7369.1.1 = {death="7369.1.1"}
}
128360020 = {
	name="Prendhal"	# not a lord
	dynasty=360020

	religion="harpy"
	culture="ghiscari"

	father=122360020
	mother=222360020

	7316.1.1 = {birth="7316.1.1"}
	7332.1.1 = {add_trait=poor_warrior}
	7334.1.1 = {add_spouse=228360020}
	7361.1.1 = {death="7361.1.1"}
}
228360020 = {
	name="Mezzara"
	female=yes

	religion="harpy"
	culture="ghiscari"

	7316.1.1 = {birth="7316.1.1"}
	7361.1.1 = {death="7361.1.1"}
}
129360020 = {
	name="Hazzea"	# not a lord
	female=yes
	dynasty=360020

	religion="harpy"
	culture="ghiscari"

	father=122360020
	mother=222360020

	7318.1.1 = {birth="7318.1.1"}
	7361.1.1 = {death="7361.1.1"}
}
130360020 = {
	name="Gazdhor"	# a lord
	dynasty=360020

	religion="harpy"
	culture="ghiscari"

	father=126360020
	mother=226360020

	7336.1.1 = {birth="7336.1.1"}
	7352.1.1 = {add_trait=trained_warrior}
	7354.1.1 = {add_spouse=230360020}
	7355.1.1 = {}
	7380.1.1 = {death="7380.1.1"}
}
230360020 = {
	name="Tellezzara"
	female=yes

	religion="harpy"
	culture="ghiscari"

	7336.1.1 = {birth="7336.1.1"}
	7380.1.1 = {death="7380.1.1"}
}

6571007 = {
	name="Grazdan"  # Canon  Lead envoys to Dany in SoS and recruited the Windblown in Volantis in aDwD.
	dynasty = 360020 

	martial = 3
	diplomacy = 10
	intrigue = 7
	stewardship = 10
	learning = 5

	culture = yunkaii
	religion = harpy 

	father=130360020
	mother=230360020		
	
	add_trait="thrifty_clerk"
	add_trait="cruel"
	add_trait="proud"
	add_trait="deceitful"
	add_trait="ruthless"
	add_trait="authoritative"
	
	7360.1.1 = {
		birth="7360.1.1"
	}
	7380.1.1 = {}
}

6571008 = {
	name="Gorzhak"  # Canon
	dynasty = 360020 

	martial = 2
	diplomacy = 4
	intrigue = 4
	stewardship = 3
	learning = 2

	culture = yunkaii
	religion = harpy 

	father=130360020
	mother=230360020		
	
	add_trait="cruel"
	add_trait="proud"
	add_trait="deceitful"
	add_trait="ruthless"
	
	7379.1.1 = {
		birth="7379.1.1"
	}
}

##House Rhaezn

150360017 = {
	name="Zarraq"	# a lord
	dynasty=360017

	religion="harpy"
	culture="ghiscari"

	7054.1.1 = {birth="7054.1.1"}
	7076.1.1 = {add_spouse=250360017}
	7124.1.1 = {death="7124.1.1"}
}
250360017 = {
	name="Dhazzar"
	female=yes

	religion="harpy"
	culture="ghiscari"

	7056.1.1 = {birth="7056.1.1"}
	7123.1.1 = {death="7123.1.1"}
}
100360017 = {
	name="Yurkhaz"	# a lord
	dynasty=360017

	religion="harpy"
	culture="ghiscari"

	father=150360017
	mother=250360017

	7087.1.1 = {birth="7087.1.1"}
	7116.1.1 = {add_trait=poor_warrior}
	7118.1.1 = {add_spouse=200360017}
	7124.1.1 = {}
	7146.1.1 = {death="7146.1.1"}
}
200360017 = {
	name="Hazzea"
	female=yes

	religion="harpy"
	culture="ghiscari"

	7087.1.1 = {birth="7087.1.1"}
	7146.1.1 = {death="7146.1.1"}
}
101360017 = {
	name="Paezdhar"	# a lord
	dynasty=360017

	religion="harpy"
	culture="ghiscari"

	father=100360017
	mother=200360017

	7126.1.1 = {birth="7126.1.1"}
	7142.1.1 = {add_trait=poor_warrior}
	7144.1.1 = {add_spouse=201360017}
	7146.1.1 = {}
	7187.1.1 = {death = {death_reason = death_murder}}
}
201360017 = {
	name="Qezza"
	female=yes

	religion="harpy"
	culture="ghiscari"

	7126.1.1 = {birth="7126.1.1"}
	7187.1.1 = {death="7187.1.1"}
}
102360017 = {
	name="Grazdan"	# not a lord
	dynasty=360017

	religion="harpy"
	culture="ghiscari"

	father=100360017
	mother=200360017

	7127.1.1 = {birth="7127.1.1"}
	7143.1.1 = {add_trait=poor_warrior}
	7188.1.1 = {death="7188.1.1"}
}
103360017 = {
	name="Ezzara"	# not a lord
	female=yes
	dynasty=360017

	religion="harpy"
	culture="ghiscari"

	father=100360017
	mother=200360017

	7128.1.1 = {birth="7128.1.1"}
	7183.1.1 = {death="7183.1.1"}
}
104360017 = {
	name="Mellezza"	# not a lord
	female=yes
	dynasty=360017

	religion="harpy"
	culture="ghiscari"

	father=101360017
	mother=201360017

	7147.1.1 = {birth="7147.1.1"}
	7201.1.1 = {death="7201.1.1"}
}
105360017 = {
	name="Maezon"	# a lord
	dynasty=360017

	religion="harpy"
	culture="ghiscari"

	father=101360017
	mother=201360017

	7148.1.1 = {birth="7148.1.1"}
	7164.1.1 = {add_trait=trained_warrior}
	7166.1.1 = {add_spouse=205360017}
	7187.1.1 = {}
	7218.1.1 = {death="7218.1.1"}
}
205360017 = {
	name="Qezza"
	female=yes

	religion="harpy"
	culture="ghiscari"

	7148.1.1 = {birth="7148.1.1"}
	7218.1.1 = {death="7218.1.1"}
}
106360017 = {
	name="Skahaz"	# not a lord
	dynasty=360017

	religion="harpy"
	culture="ghiscari"

	father=101360017
	mother=201360017

	7151.1.1 = {birth="7151.1.1"}
	7167.1.1 = {add_trait=poor_warrior}
	7198.1.1 = {death="7198.1.1"}
}
107360017 = {
	name="Tellezza"	# not a lord
	female=yes
	dynasty=360017

	religion="harpy"
	culture="ghiscari"

	father=105360017
	mother=205360017

	7174.1.1 = {birth="7174.1.1"}
	7198.1.1 = {death="7198.1.1"}
}
108360017 = {
	name="Ezzara"	# not a lord
	female=yes
	dynasty=360017

	religion="harpy"
	culture="ghiscari"

	father=105360017
	mother=205360017

	7176.1.1 = {birth="7176.1.1"}
	7236.1.1 = {death="7236.1.1"}
}
109360017 = {
	name="Gazdhor"	# a lord
	dynasty=360017

	religion="harpy"
	culture="ghiscari"

	father=105360017
	mother=205360017

	7179.1.1 = {birth="7179.1.1"}
	7195.1.1 = {add_trait=skilled_warrior}
	7197.1.1 = {add_spouse=209360017}
	7218.1.1 = {}
	7244.1.1 = {death="7244.1.1"}
}
209360017 = {
	name="Mezzara"
	female=yes

	religion="harpy"
	culture="ghiscari"

	7179.1.1 = {birth="7179.1.1"}
	7244.1.1 = {death="7244.1.1"}
}
110360017 = {
	name="Marghaz"	# not a lord
	dynasty=360017

	religion="harpy"
	culture="ghiscari"

	father=105360017
	mother=205360017

	7180.1.1 = {birth="7180.1.1"}
	7196.1.1 = {add_trait=trained_warrior}
	7241.1.1 = {death="7241.1.1"}
}
111360017 = {
	name="Grazdan"	# a lord
	dynasty=360017

	religion="harpy"
	culture="ghiscari"

	father=109360017
	mother=209360017

	7208.1.1 = {birth="7208.1.1"}
	7224.1.1 = {add_trait=trained_warrior}
	7226.1.1 = {add_spouse=211360017}
	7244.1.1 = {}
	7250.1.1 = {death="7250.1.1"}
}
211360017 = {
	name="Hazzea"
	female=yes

	religion="harpy"
	culture="ghiscari"

	7208.1.1 = {birth="7208.1.1"}
	7250.1.1 = {death="7250.1.1"}
}
112360017 = {
	name="Yezzan"	# not a lord
	dynasty=360017

	religion="harpy"
	culture="ghiscari"

	father=109360017
	mother=209360017

	7209.1.1 = {birth="7209.1.1"}
	7225.1.1 = {add_trait=trained_warrior}
	7252.1.1 = {death="7252.1.1"}
}
113360017 = {
	name="Qezza"	# not a lord
	female=yes
	dynasty=360017

	religion="harpy"
	culture="ghiscari"

	father=111360017
	mother=211360017

	7228.1.1 = {birth="7228.1.1"}
	7257.1.1 = {death="7257.1.1"}
}
114360017 = {
	name="Sharkhaz"	# a lord
	dynasty=360017

	religion="harpy"
	culture="ghiscari"

	father=111360017
	mother=211360017

	7230.1.1 = {birth="7230.1.1"}
	7246.1.1 = {add_trait=poor_warrior}
	7248.1.1 = {add_spouse=214360017}
	7250.1.1 = {}
	7286.1.1 = {death="7286.1.1"}
}
214360017 = {
	name="Ezzara"
	female=yes

	religion="harpy"
	culture="ghiscari"

	7230.1.1 = {birth="7230.1.1"}
	7286.1.1 = {death="7286.1.1"}
}
115360017 = {
	name="Hizdhar"	# not a lord
	dynasty=360017

	religion="harpy"
	culture="ghiscari"

	father=111360017
	mother=211360017

	7231.1.1 = {birth="7231.1.1"}
	7247.1.1 = {add_trait=trained_warrior}
	7249.1.1 = {add_spouse=215360017}
	7299.1.1 = {death="7299.1.1"}
}
215360017 = {
	name="Sezza"
	female=yes

	religion="harpy"
	culture="ghiscari"

	7231.1.1 = {birth="7231.1.1"}
	7299.1.1 = {death="7299.1.1"}
}
116360017 = {
	name="Azzea"	# not a lord
	female=yes
	dynasty=360017

	religion="harpy"
	culture="ghiscari"

	father=111360017
	mother=211360017

	7232.1.1 = {birth="7232.1.1"}
	7271.1.1 = {death="7271.1.1"}
}
117360017 = {
	name="Kraznys"	# not a lord
	dynasty=360017

	religion="harpy"
	culture="ghiscari"

	father=111360017
	mother=211360017

	7235.1.1 = {birth="7235.1.1"}
	7251.1.1 = {add_trait=trained_warrior}
	7287.1.1 = {death="7287.1.1"}
}
118360017 = {
	name="Grazdan"	# a lord
	dynasty=360017

	religion="harpy"
	culture="ghiscari"

	father=114360017
	mother=214360017

	7264.1.1 = {birth="7264.1.1"}
	7280.1.1 = {add_trait=poor_warrior}
	7282.1.1 = {add_spouse=218360017}
	7286.1.1 = {}
	7300.1.1 = {death="7300.1.1"}
}
218360017 = {
	name="Mezzella"
	female=yes

	religion="harpy"
	culture="ghiscari"

	7264.1.1 = {birth="7264.1.1"}
	7300.1.1 = {death="7300.1.1"}
}
119360017 = {
	name="Galazza"	# not a lord
	female=yes
	dynasty=360017

	religion="harpy"
	culture="ghiscari"

	father=114360017
	mother=214360017

	7265.1.1 = {birth="7265.1.1"}
	7277.1.1 = {death = {death_reason = death_murder}}
}
120360017 = {
	name="Ezzara"	# not a lord
	female=yes
	dynasty=360017

	religion="harpy"
	culture="ghiscari"

	father=114360017
	mother=214360017

	7268.1.1 = {birth="7268.1.1"}
	7308.1.1 = {death="7308.1.1"}
}
121360017 = {
	name="Jezhane"	# not a lord
	female=yes
	dynasty=360017

	religion="harpy"
	culture="ghiscari"

	father=114360017
	mother=214360017

	7270.1.1 = {birth="7270.1.1"}
	7320.1.1 = {death="7320.1.1"}
}
122360017 = {
	name="Paezdhar"	# a lord
	dynasty=360017

	religion="harpy"
	culture="ghiscari"

	father=118360017
	mother=218360017

	7285.1.1 = {birth="7285.1.1"}
	7300.1.1 = {}
	7301.1.1 = {add_trait=master_warrior}
	7303.1.1 = {add_spouse=222360017}
	7330.1.1 = {death="7330.1.1"}
}
222360017 = {
	name="Galazza"
	female=yes

	religion="harpy"
	culture="ghiscari"

	7285.1.1 = {birth="7285.1.1"}
	7330.1.1 = {death="7330.1.1"}
}
123360017 = {
	name="Prendahl"	# not a lord
	dynasty=360017

	religion="harpy"
	culture="ghiscari"

	father=118360017
	mother=218360017

	7286.1.1 = {birth="7286.1.1"}
	7289.1.1 = {death = {death_reason = death_accident}}
}
124360017 = {
	name="Qezza"	# not a lord
	female=yes
	dynasty=360017

	religion="harpy"
	culture="ghiscari"

	father=118360017
	mother=218360017

	7287.1.1 = {birth="7287.1.1"}
	7367.1.1 = {death="7367.1.1"}
}
125360017 = {
	name="Grazdan"	# not a lord
	dynasty=360017

	religion="harpy"
	culture="ghiscari"

	father=118360017
	mother=218360017

	7288.1.1 = {birth="7288.1.1"}
	7304.1.1 = {add_trait=skilled_warrior}
	7351.1.1 = {death="7351.1.1"}
}
126360017 = {
	name="Skahaz"	# not a lord
	dynasty=360017

	religion="harpy"
	culture="ghiscari"

	father=118360017
	mother=218360017

	7289.1.1 = {birth="7289.1.1"}
	7305.1.1 = {add_trait=skilled_warrior}
	7354.1.1 = {death="7354.1.1"}
}
127360017 = {
	name="Ezzea"	# not a lord
	female=yes
	dynasty=360017

	religion="harpy"
	culture="ghiscari"

	father=122360017
	mother=222360017

	7311.1.1 = {birth="7311.1.1"}
	7382.1.1 = {death="7382.1.1"}
}
128360017 = {
	name="Grazdhan"	# a lord
	dynasty=360017

	religion="harpy"
	culture="ghiscari"

	father=122360017
	mother=222360017

	7312.1.1 = {birth="7312.1.1"}
	7328.1.1 = {add_trait=poor_warrior}
	7330.1.1 = {
		add_spouse=228360017
		
	}
	7350.1.1 = {death="7350.1.1"}
}
228360017 = {
	name="Hazzea"
	female=yes

	religion="harpy"
	culture="ghiscari"

	7312.1.1 = {birth="7312.1.1"}
	7345.1.1 = {death="7345.1.1"}
}
129360017 = {
	name="Marghaz"	# not a lord
	dynasty=360017

	religion="harpy"
	culture="ghiscari"

	father=122360017
	mother=222360017

	7314.1.1 = {birth="7314.1.1"}
	7330.1.1 = {add_trait=skilled_warrior}
	7365.1.1 = {death="7365.1.1"}
}
130360017 = {
	name="Olezza"	# not a lord
	female=yes
	dynasty=360017

	religion="harpy"
	culture="ghiscari"

	father=128360017
	mother=228360017

	7331.1.1 = {birth="7331.1.1"}
	7382.1.1 = {death="7382.1.1"}
}
131360017 = {
	name="Tellezzara"	# not a lord
	female=yes
	dynasty=360017

	religion="harpy"
	culture="ghiscari"

	father=128360017
	mother=228360017

	7332.1.1 = {birth="7332.1.1"}
}
132360017 = {
	name="Skahaz"	# a lord
	dynasty=360017

	religion="harpy"
	culture="ghiscari"

	father=128360017
	mother=228360017

	7333.1.1 = {birth="7333.1.1"}
	7349.1.1 = {add_trait=poor_warrior}
	7350.1.1 = {}
	7351.1.1 = {add_spouse=232360017}
	7358.1.1 = {death="7358.1.1"}
}
232360017 = {
	name="Galazza"
	female=yes

	religion="harpy"
	culture="ghiscari"

	7333.1.1 = {birth="7333.1.1"}
	7358.1.1 = {death="7358.1.1"}
}
133360017 = {
	name="Jezhane"	# not a lord
	female=yes
	dynasty=360017

	religion="harpy"
	culture="ghiscari"

	father=128360017
	mother=228360017

	7335.1.1 = {birth="7335.1.1"}
}
134360017 = {
	name="Fellezzara"	# not a lord
	female=yes
	dynasty=360017

	religion="harpy"
	culture="ghiscari"

	father=128360017
	mother=228360017

	7336.1.1 = {birth="7336.1.1"}
	7379.1.1 = {death="7379.1.1"}
}
135360017 = {
	name="Sezqa"	# not a lord
	female=yes
	dynasty=360017

	religion="harpy"
	culture="ghiscari"

	father=132360017
	mother=232360017

	7353.1.1 = {birth="7353.1.1"}
	7395.1.1 = {death="7395.1.1"}
}
136360017 = {
	name="Hizdhar"	# a lord
	dynasty=360017

	religion="harpy"
	culture="ghiscari"

	father=128360017
	mother=228360017

	7335.1.1 = {birth="7335.1.1"}
	7351.1.1 = {add_trait=master_warrior}
	7353.1.1 = {add_spouse=236360017}
	7358.1.1 = {}
	7391.1.1 = {death="7391.1.1"}
}
236360017 = {
	name="Bellezza"
	female=yes

	religion="harpy"
	culture="ghiscari"

	7335.1.1 = {birth="7335.1.1"}
	7391.1.1 = {death="7391.1.1"}
}
137360017 = {
	name="Reznak"	# not a lord
	dynasty=360017

	religion="harpy"
	culture="ghiscari"

	father=132360017
	mother=232360017

	7356.1.1 = {birth="7356.1.1"}
	7372.1.1 = {add_trait=skilled_warrior}
}


###  The Clanker Lords
6571011 = {
	name="Maezon"  ## Canon
	dynasty = 360017 

	martial = 3
	diplomacy = 3
	intrigue = 7
	stewardship = 4
	learning = 5

	culture = yunkaii
	religion = harpy 

	father=136360017
	mother=236360017		
	
	add_trait="cruel"
	add_trait="proud"
	add_trait="deceitful"
	add_trait="ruthless"
	
	7354.1.1 = {
		birth="7354.1.1"
	}
	7391.1.1 = {}
}

6571012 = {
	name="Chezdhar"  ## Canon
	dynasty = 360017 

	martial = 3
	diplomacy = 3
	intrigue = 7
	stewardship = 4
	learning = 5

	culture = yunkaii
	religion = harpy 

	father=136360017
	mother=236360017		
	
	add_trait="cruel"
	add_trait="proud"
	add_trait="deceitful"
	add_trait="ruthless"
	
	7356.1.1 = {
		birth="7356.1.1"
	}
}

6571013 = {
	name="Grazdhan"  ## Canon
	dynasty = 360017 

	martial = 3
	diplomacy = 3
	intrigue = 7
	stewardship = 4
	learning = 5

	culture = yunkaii
	religion = harpy 

	father=136360017
	mother=236360017		
	
	add_trait="cruel"
	add_trait="proud"
	add_trait="deceitful"
	add_trait="ruthless"
	
	7358.1.1 = {
		birth="7358.1.1"
	}
}

