namespace = RIP

#Ordering torture by racks
character_event = {
	id = RIP.20001
	border = GFX_event_normal_frame_intrigue
	picture = GFX_evt_torture
	
	desc = {
		text = EVTDSC_RIP_20001
		trigger = { NOT = { has_character_flag = torture_confession } }
	}
	desc = {
		text = EVTDSC_RIP_20001B
		trigger = { has_character_flag = torture_confession }
	}

	is_triggered_only = yes

	option = {
		name = EVTOPTA_RIP_20001
		clr_character_flag = torture_confession
		tooltip = {
			from = {
				jailor_torture_effect = yes
			}
		}
	}
}

#Getting tortured by racks
character_event = {
	id = RIP.20002
	border = GFX_event_normal_frame_intrigue
	picture = GFX_evt_torture
	
	desc = {
		text = EVTDSC_RIP_20002
		trigger = { NOT = { has_character_flag = torture_confession } }
	}
	desc = {
		text = EVTDSC_RIP_20002B
		trigger = { has_character_flag = torture_confession }
	}

	hide_from = yes

	is_triggered_only = yes

	option = {
		name = {
			text = "EVTOPTA_RIP_20002"
			trigger = {
				NOT = { has_character_flag = torture_confession }
			}
		}
		name = {
			text = "EVTOPTA_RIP_20002B"
			trigger = {
				has_character_flag = torture_confession
			}
		}			
		trigger = {
			NAND = {
				has_character_flag = torture_confession
				trait = craven
			}
		}
		ai_chance = {
			factor = 50
			modifier = {
				factor = 0
				NOR = { 
					trait = brave 
					trait = proud
					trait = lunatic
					trait = wroth
				}
			}
			modifier = {
				factor = 10
				trait = brave 
			}
			modifier = {
				factor = 5
				trait = proud
			}
			modifier = {
				factor = 5
				trait = lunatic
			}
			modifier = {
				factor = 3
				trait = wroth
			}
		}
		FROMFROM = { save_event_target_as = torturer }
		prisoner_torture_effect = yes
		FROMFROM = { clear_event_target = torturer }
	}
	option = { #Confess!
		name = "EVT_OPTB_50052"
		trigger = {
			has_character_flag = torture_confession
		}	
		ai_chance = {
			factor = 100
			
			modifier = {
				factor = 5
				trait = humble
			}
			modifier = {
				factor = 3
				trait = patient
			}
		}
		FROMFROM = { save_event_target_as = torturer }
		prisoner_torture_confession_effect = yes
		FROMFROM = { clear_event_target = torturer }
	}
}

#Ordering torture by whipping
character_event = {
	id = RIP.20003
	border = GFX_event_normal_frame_intrigue
	picture = GFX_evt_torture
	
	desc = {
		text = EVTDSC_RIP_20003
		trigger = { NOT = { has_character_flag = torture_confession } }
	}
	desc = {
		text = EVTDSC_RIP_20003B
		trigger = { has_character_flag = torture_confession }
	}

	is_triggered_only = yes

	option = {
		name = EVTOPTA_RIP_20003
		clr_character_flag = torture_confession
		tooltip = {
			from = {
				jailor_torture_effect = yes
			}
		}
	}
}

#Getting tortured by whipping
character_event = {
	id = RIP.20004
	border = GFX_event_normal_frame_intrigue
	picture = GFX_evt_torture
	
	desc = {
		text = EVTDSC_RIP_20004
		trigger = { NOT = { has_character_flag = torture_confession } }
	}
	desc = {
		text = EVTDSC_RIP_20004B
		trigger = { has_character_flag = torture_confession }
	}

	hide_from = yes

	is_triggered_only = yes

	option = {
		name = {
			text = "EVTOPTA_RIP_20004"
			trigger = {
				NOT = { has_character_flag = torture_confession }
			}
		}
		name = {
			text = "EVTOPTA_RIP_20004B"
			trigger = {
				has_character_flag = torture_confession
			}
		}			
		trigger = {
			NAND = {
				has_character_flag = torture_confession
				trait = craven
			}
		}
		ai_chance = {
			factor = 50
			modifier = {
				factor = 0
				NOR = { 
					trait = brave 
					trait = proud
					trait = lunatic
					trait = wroth
				}
			}
			modifier = {
				factor = 10
				trait = brave 
			}
			modifier = {
				factor = 5
				trait = proud
			}
			modifier = {
				factor = 5
				trait = lunatic
			}
			modifier = {
				factor = 3
				trait = wroth
			}
		}
		FROMFROM = { save_event_target_as = torturer }
		prisoner_torture_effect = yes
		FROMFROM = { clear_event_target = torturer }
	}
	option = { #Confess!
		name = "EVT_OPTB_50052"
		trigger = {
			has_character_flag = torture_confession
		}	
		ai_chance = {
			factor = 100
			
			modifier = {
				factor = 5
				trait = humble
			}
			modifier = {
				factor = 3
				trait = patient
			}
		}	
		FROMFROM = { save_event_target_as = torturer }
		prisoner_torture_confession_effect = yes
		FROMFROM = { clear_event_target = torturer }
	}
}

#Ordering torture by rats
character_event = {
	id = RIP.20005
	border = GFX_event_normal_frame_intrigue
	picture = GFX_evt_torture
	
	desc = {
		text = EVTDSC_RIP_20005
		trigger = { NOT = { has_character_flag = torture_confession } }
	}
	desc = {
		text = EVTDSC_RIP_20005B
		trigger = { has_character_flag = torture_confession }
	}

	is_triggered_only = yes

	option = {
		name = EVTOPTA_RIP_20005
		clr_character_flag = torture_confession
		tooltip = {
			from = {
				jailor_torture_effect = yes
			}
		}
	}
}

#Getting tortured by rats
character_event = {
	id = RIP.20006
	border = GFX_event_normal_frame_intrigue
	picture = GFX_evt_torture
	
	desc = {
		text = EVTDSC_RIP_20006
		trigger = { NOT = { has_character_flag = torture_confession } }
	}
	desc = {
		text = EVTDSC_RIP_20006B
		trigger = { has_character_flag = torture_confession }
	}

	hide_from = yes

	is_triggered_only = yes

	option = {
		name = {
			text = "EVTOPTA_RIP_20006"
			trigger = {
				NOT = { has_character_flag = torture_confession }
			}
		}
		name = {
			text = "EVTOPTA_RIP_20006B"
			trigger = {
				has_character_flag = torture_confession
			}
		}			
		trigger = {
			NAND = {
				has_character_flag = torture_confession
				trait = craven
			}
		}
		ai_chance = {
			factor = 50
			modifier = {
				factor = 0
				NOR = { 
					trait = brave 
					trait = proud
					trait = lunatic
					trait = wroth
				}
			}
			modifier = {
				factor = 10
				trait = brave 
			}
			modifier = {
				factor = 5
				trait = proud
			}
			modifier = {
				factor = 5
				trait = lunatic
			}
			modifier = {
				factor = 3
				trait = wroth
			}
		}
		FROMFROM = { save_event_target_as = torturer }
		prisoner_torture_effect = yes
		FROMFROM = { clear_event_target = torturer }
	}
	option = { #Confess!
		name = "EVT_OPTB_50052"
		trigger = {
			has_character_flag = torture_confession
		}	
		ai_chance = {
			factor = 100
			
			modifier = {
				factor = 5
				trait = humble
			}
			modifier = {
				factor = 3
				trait = patient
			}
		}
		FROMFROM = { save_event_target_as = torturer }
		prisoner_torture_confession_effect = yes
		FROMFROM = { clear_event_target = torturer }
	}
}

#Ordering torture, lunatic
character_event = {
	id = RIP.20007
	border = GFX_event_normal_frame_intrigue
	picture = GFX_evt_lunatic
	
	desc = {
		text = EVTDSC_RIP_20007
		trigger = { NOT = { has_character_flag = torture_confession } }
	}
	desc = {
		text = EVTDSC_RIP_20007B
		trigger = { has_character_flag = torture_confession }
	}

	is_triggered_only = yes

	option = {
		name = EVTOPTA_RIP_20007
		clr_character_flag = torture_confession
		FROM = { 
			random_list = {
				50 = {
					opinion = {
						modifier = opinion_tickled_me_right
						who = ROOT
					}
				}
				50 = {
					opinion = {
						modifier = opinion_tickled_me_wrong
						who = ROOT
					}
				}
			}

			tooltip = {
				random = {
					chance = 20
		 			add_trait = stressed
					hidden_tooltip = {
						character_event = {
							id = 38282 #Notify Stressed
						}
					}
				}
			}
		}
	}
}

#Getting tortured, lunatic
character_event = {
	id = RIP.20008
	border = GFX_event_normal_frame_intrigue
	picture = GFX_evt_lunatic
	
	desc = {
		text = EVTDSC_RIP_20008
		trigger = { NOT = { has_character_flag = torture_confession } }
	}
	desc = {
		text = EVTDSC_RIP_20008B
		trigger = { has_character_flag = torture_confession }
	}

	hide_from = yes

	is_triggered_only = yes

	option = {
		name = {
			text = "EVTOPTA_RIP_20008"
			trigger = {
				NOT = { has_character_flag = torture_confession }
			}
		}
		name = {
			text = "EVTOPTA_RIP_20008B"
			trigger = {
				has_character_flag = torture_confession
			}
		}			
		ai_chance = {
			factor = 500
			modifier = {
				factor = 0
				NOR = { 
					trait = brave 
					trait = proud
					trait = lunatic
					trait = wroth
				}
			}
			modifier = {
				factor = 10
				trait = brave 
			}
			modifier = {
				factor = 5
				trait = proud
			}
			modifier = {
				factor = 5
				trait = lunatic
			}
			modifier = {
				factor = 3
				trait = wroth
			}
		}
		random = {
			chance = 20
			if = {
		   		limit = { NOT = { trait = stressed } }
		 		add_trait = stressed
		 		hidden_tooltip = { character_event = { id = 38282 } }
		 	}
		}
		clr_character_flag = torture_confession
	}
	option = { #Confess!
		name = "EVT_OPTB_50052"
		trigger = {
			has_character_flag = torture_confession
		}	
		ai_chance = {
			factor = 100
			
			modifier = {
				factor = 5
				trait = humble
			}
			modifier = {
				factor = 3
				trait = patient
			}
		}
		FROMFROM = {
			custom_tooltip = {
				text = TOOLTIPEVT_OPTB_50052
				hidden_tooltip = {
					opinion = { who = PREV modifier = opinion_confessed }
					character_event = { id = imprisoned.200 days = 4 }
				}	
			}	
		}
		clr_character_flag = torture_confession
	}
}

#Ordering torture by heat exposure
character_event = {
	id = RIP.20009
	border = GFX_event_normal_frame_intrigue
	picture = GFX_evt_torture
	
	desc = {
		text = EVTDSC_RIP_20009
		trigger = { NOT = { has_character_flag = torture_confession } }
	}
	desc = {
		text = EVTDSC_RIP_20009B
		trigger = { has_character_flag = torture_confession }
	}

	is_triggered_only = yes

	option = {
		name = EVTOPTA_RIP_20009
		clr_character_flag = torture_confession
		tooltip = {
			from = {
				random_list = {
					40 = {
		 				add_trait = stressed
		 			}
					30 = {
		 				add_trait = fatigue
						set_character_flag = disease_not_serious
						character_event = { id = RIP.11011 days = 100 random = 300 }
					}
					20 = {
						trigger = { NOT = { trait = burned } }
						add_trait = burned				
					}
					5 = {
						add_trait = lunatic
					}
					5 = {
						#nothing
					}
				}
			}
		}	
	}
}

 #Getting tortured by heat exposure
character_event = {
	id = RIP.20010
	border = GFX_event_normal_frame_intrigue
	picture = GFX_evt_torture
	
	desc = {
		text = EVTDSC_RIP_20010
		trigger = { NOT = { has_character_flag = torture_confession } }
	}
	desc = {
		text = EVTDSC_RIP_20010B
		trigger = { has_character_flag = torture_confession }
	}

	hide_from = yes

	is_triggered_only = yes

	option = {
		name = {
			text = "EVTOPTA_RIP_20010"
			trigger = {
				NOT = { has_character_flag = torture_confession }
			}
		}
		name = {
			text = "EVTOPTA_RIP_20010B"
			trigger = {
				has_character_flag = torture_confession
			}
		}			
		trigger = {
			NAND = {
				has_character_flag = torture_confession
				trait = craven
			}
		}
		ai_chance = {
			factor = 50
			modifier = {
				factor = 0
				NOR = { 
					trait = brave 
					trait = proud
					trait = lunatic
					trait = wroth
				}
			}
			modifier = {
				factor = 10
				trait = brave 
			}
			modifier = {
				factor = 5
				trait = proud
			}
			modifier = {
				factor = 5
				trait = lunatic
			}
			modifier = {
				factor = 3
				trait = wroth
			}
		}
		add_character_modifier = { name = tortured duration = 180 }

		random_list = {
			40 = {
				if = {
   					limit = { NOT = { trait = stressed } }
 					add_trait = stressed
 					hidden_tooltip = { character_event = { id = 38282 } }
 				}
 			}
			30 = {
				if = {
   					limit = { NOT = { trait = fatigue } }

   					tooltip = { add_trait = fatigue }
 					
 					hidden_tooltip = { 
 						if = {
 							limit = {
	 							NOR = {
	 								has_character_flag = developing_illness
	 								has_character_flag = disease_not_serious
	 							}
	 						}

 						set_character_flag = disease_not_serious 
						character_event = { id = RIP.11011 days = 100 random = 300 }
 						}
 						add_trait = fatigue
 					}
 				}
			}
			20 = {
				trigger = { NOT = { trait = burned } }
				add_trait = burned
				hidden_tooltip = { character_event = { id = trait_notification.23 } }					
			}
			5 = {
				if = {
   					limit = { NOT = { trait = lunatic } }
 					add_trait = lunatic
 					hidden_tooltip = { character_event = { id = 38304 } }
 				}
			}
			5 = {
				#nothing
			}
		}
		clr_character_flag = torture_confession
	}
	option = { #Confess!
		name = "EVT_OPTB_50052"
		trigger = {
			has_character_flag = torture_confession
		}	
		ai_chance = {
			factor = 100
			
			modifier = {
				factor = 5
				trait = humble
			}
			modifier = {
				factor = 3
				trait = patient
			}
		}
		FROMFROM = {
			custom_tooltip = {
				text = TOOLTIPEVT_OPTB_50052
				hidden_tooltip = {
					opinion = { who = PREV modifier = opinion_confessed }
					character_event = { id = imprisoned.200 days = 4 }
				}	
			}	
		}
		clr_character_flag = torture_confession
		add_character_modifier = { name = tortured duration = 180 }

		random_list = {
			30 = {
				if = {
   					limit = { NOT = { trait = stressed } }
 					add_trait = stressed
 					hidden_tooltip = { character_event = { id = 38282 } }
 				}
 			}
			15 = {
				if = {
   					limit = { NOT = { trait = fatigue } }

   					tooltip = { add_trait = fatigue }
 					
 					hidden_tooltip = { 
 						if = {
 							limit = {
	 							NOR = {
	 								has_character_flag = developing_illness
	 								has_character_flag = disease_not_serious
	 							}
	 						}

 						set_character_flag = disease_not_serious 
						character_event = { id = RIP.11011 days = 100 random = 300 }
 						}
 						add_trait = fatigue
 					}
 				}
			}
			55 = {
				#nothing
			}
		}
	}
}

#Ordering torture by cold exposure
character_event = {
	id = RIP.20011
	border = GFX_event_normal_frame_intrigue
	picture = GFX_evt_torture
	
	desc = {
		text = EVTDSC_RIP_20011
		trigger = { NOT = { has_character_flag = torture_confession } }
	}
	desc = {
		text = EVTDSC_RIP_20011B
		trigger = { has_character_flag = torture_confession }
	}

	is_triggered_only = yes

	option = {
		name = EVTOPTA_RIP_20011
		clr_character_flag = torture_confession
		tooltip = {
			from = {
				random_list = {
					60 = {
						add_trait = stressed
		 			}
					30 = {
						set_character_flag = disease_not_serious
		 				add_trait = cough
						character_event = { id = RIP.11002 days = 10 random = 30 }
					}
					5 = {
						add_trait = lunatic
					}
					5 = {
						#nothing
					}
				}
			}
		}
	}
}

#Getting tortured by cold exposure
character_event = {
	id = RIP.20012
	border = GFX_event_normal_frame_intrigue
	picture = GFX_evt_torture
	
	desc = {
		text = EVTDSC_RIP_20012
		trigger = { NOT = { has_character_flag = torture_confession } }
	}
	desc = {
		text = EVTDSC_RIP_20012B
		trigger = { has_character_flag = torture_confession }
	}

	hide_from = yes

	is_triggered_only = yes

	option = {
		name = {
			text = "EVTOPTA_RIP_20012"
			trigger = {
				NOT = { has_character_flag = torture_confession }
			}
		}
		name = {
			text = "EVTOPTA_RIP_20012B"
			trigger = {
				has_character_flag = torture_confession
			}
		}			
		trigger = {
			NAND = {
				has_character_flag = torture_confession
				trait = craven
			}
		}
		ai_chance = {
			factor = 50
			modifier = {
				factor = 0
				NOR = { 
					trait = brave 
					trait = proud
					trait = lunatic
					trait = wroth
				}
			}
			modifier = {
				factor = 10
				trait = brave 
			}
			modifier = {
				factor = 5
				trait = proud
			}
			modifier = {
				factor = 5
				trait = lunatic
			}
			modifier = {
				factor = 3
				trait = wroth
			}
		}
		add_character_modifier = { name = tortured duration = 180 }

		random_list = {
			60 = {
				if = {
   					limit = { NOT = { trait = stressed } }
 					add_trait = stressed
 					hidden_tooltip = { character_event = { id = 38282 } }
 				}
 			}
			30 = {
				if = {
					limit = {
						NOR = {
							num_of_symptoms = 1
							is_ill = yes
							has_character_flag = developing_illness
							has_character_flag = disease_not_serious
						}
					}

   					tooltip = { add_trait = cough }

 					hidden_tooltip = {
						random_list = {
							80 = {
								set_character_flag = disease_not_serious
								character_event = { id = RIP.11002 days = 30 random = 90 }
							}
							20 = {
								set_character_flag = got_pneumonia
								set_character_flag = developing_illness
							}
						}
						character_event = { id = RIP.5000 }
 					}
 				}
			}
			5 = {
				if = {
   					limit = { NOT = { trait = lunatic } }
 					add_trait = lunatic
 					hidden_tooltip = { character_event = { id = 38304 } }
 				}
			}
			5 = {
				#nothing
			}
		}
	}
	option = { #Confess!
		name = "EVT_OPTB_50052"
		trigger = {
			has_character_flag = torture_confession
		}	
		ai_chance = {
			factor = 100
			
			modifier = {
				factor = 5
				trait = humble
			}
			modifier = {
				factor = 3
				trait = patient
			}
		}
		FROMFROM = {
			custom_tooltip = {
				text = TOOLTIPEVT_OPTB_50052
				hidden_tooltip = {
					opinion = { who = PREV modifier = opinion_confessed }
					character_event = { id = imprisoned.200 days = 4 }
				}	
			}	
		}
		clr_character_flag = torture_confession
		
		add_character_modifier = { name = tortured duration = 180 }

		random_list = {
			30 = {
				if = {
   					limit = { NOT = { trait = stressed } }
 					add_trait = stressed
 					hidden_tooltip = { character_event = { id = 38282 } }
 				}
 			}
			15 = {
				if = {
   					limit = { NOT = { trait = cough } }

   					tooltip = { add_trait = cough }

 					hidden_tooltip = { 
 						if = {
 							limit = {
	 							NOR = {
	 								has_character_flag = developing_illness
	 								has_character_flag = disease_not_serious
	 								has_character_flag = got_pneumonia
	 							}
	 						}

 							random_list = {
								80 = { set_character_flag = disease_not_serious }
								20 = { set_character_flag = got_pneumonia } 
							}
						}
						#adds cough
						character_event = { id = RIP.5000 } 
 					}
 				}
			}
			55 = {
				#nothing
			}
		}
	}
}

#Performing mutilation, leg
character_event = {
	id = RIP.20013
	desc = EVTDSC_RIP_20013
	border = GFX_event_normal_frame_intrigue
	picture = GFX_evt_torture

	is_triggered_only = yes

	option = {
		name = EVTOPTA_RIP_20013
		tooltip = {
			from = {
				add_trait = one_legged
				jailor_mutilate_effect = yes
			}
		}
	}
}

#Getting mutilated, loosing a leg
character_event = {
	id = RIP.20014
	desc = EVTDSC_RIP_20014
	border = GFX_event_normal_frame_intrigue
	picture = GFX_evt_torture

	is_triggered_only = yes

	option = {
		name = EVTOPTA_RIP_20014

		add_trait = one_legged
		hidden_tooltip = { character_event = { id = RIP.11503 } }
		prisoner_mutilate_effect = yes
	}
}

#Performing mutilation, hand
character_event = {
	id = RIP.20015
	desc = EVTDSC_RIP_20015
	border = GFX_event_normal_frame_intrigue
	picture = GFX_evt_torture

	is_triggered_only = yes

	option = {
		name = EVTOPTA_RIP_20015
		tooltip = {
			from = {
				add_trait = one_handed
				jailor_mutilate_effect = yes
			}
		}
	}
}
#Getting mutilated, loosing a hand
character_event = {
	id = RIP.20016
	desc = EVTDSC_RIP_20016
	border = GFX_event_normal_frame_intrigue
	picture = GFX_evt_torture

	is_triggered_only = yes

	option = {
		name = EVTOPTA_RIP_20016

		add_trait = one_handed
		hidden_tooltip = { character_event = { id = RIP.11502 } }
		prisoner_mutilate_effect = yes
	}
}

#Performing mutilation, eye
character_event = {
	id = RIP.20017
	desc = EVTDSC_RIP_20017
	border = GFX_event_normal_frame_intrigue
	picture = GFX_evt_torture

	is_triggered_only = yes

	option = {
		name = EVTOPTA_RIP_20017
		tooltip = {
			from = {
				add_trait = one_eyed
				jailor_mutilate_effect = yes
			}
		}
	}
}

#Getting mutilated, loosing an eye
character_event = {
	id = RIP.20018
	desc = EVTDSC_RIP_20018
	border = GFX_event_normal_frame_intrigue
	picture = GFX_evt_torture

	is_triggered_only = yes

	option = {
		name = EVTOPTA_RIP_20018

		add_trait = one_eyed
		hidden_tooltip = { character_event = { id = RIP.11501 } }
		prisoner_mutilate_effect = yes
	}
}

#Performing mutilation, disfigurement
character_event = {
	id = RIP.20019
	desc = EVTDSC_RIP_20019
	border = GFX_event_normal_frame_intrigue
	picture = GFX_evt_torture

	is_triggered_only = yes

	option = {
		name = EVTOPTA_RIP_20019
		tooltip = {
			from = {
				add_trait = disfigured
				jailor_mutilate_effect = yes
			}
		}
	}
}

#Getting mutilated, disfigurement
character_event = {
	id = RIP.20020
	desc = EVTDSC_RIP_20020
	border = GFX_event_normal_frame_intrigue
	picture = GFX_evt_torture

	is_triggered_only = yes

	option = {
		name = EVTOPTA_RIP_20020

		add_trait = disfigured
		hidden_tooltip = { character_event = { id = RIP.11504 } }
		prisoner_mutilate_effect = yes
	}
}

#Performing mutilation, castration
character_event = {
	id = RIP.20021
	desc = EVTDSC_RIP_20021
	border = GFX_event_normal_frame_intrigue
	picture = GFX_evt_torture

	is_triggered_only = yes

	option = {
		name = EVTOPTA_RIP_20021
		tooltip = {
			from = {
				add_trait = eunuch
			
				jailor_mutilate_effect = yes
			}
		}
	}
}

#Getting mutilated, castration
character_event = {
	id = RIP.20022
	desc = EVTDSC_RIP_20022
	border = GFX_event_normal_frame_intrigue
	picture = GFX_evt_torture

	is_triggered_only = yes

	option = {
		name = EVTOPTA_RIP_20022

		add_trait = eunuch
		
		if = {
			limit = { 
				NOR = { trait = craven trait = berserker trait = brave } 
				NOT = { personality_traits = 6 }
			}
			random = {
				chance = 20
				add_trait = craven
				hidden_tooltip = { character_event = { id = 38257 } } #Notify Craven
			}
		}
	
		random_list = {
			80 = {
				if = {
					limit = { NOT = { trait = stressed } }
					add_trait = stressed
					hidden_tooltip = { character_event = { id = 38282 } }
				}
			}
			10 = {
				if = {
					limit = { NOT = { trait = lunatic } }
					add_trait = lunatic
					hidden_tooltip = { character_event = { id = 38304 } }
				}
			}
			10 = {
				#no effect
			}
		}
	}	
}


#Reading poem 1 to prisoner
character_event = {
	id = RIP.20023
	desc = EVTDSC_RIP_20023
	border = GFX_event_normal_frame_intrigue
	picture = GFX_evt_recieve_letter

	is_triggered_only = yes

	option = {
		name = EVTOPTA_RIP_20023
		tooltip = {
			from = {
				random = {
					chance = 5
					add_trait = lunatic
					hidden_tooltip = {
						character_event = { id = 38304 } # notify lunatic
					}
				}
			}
		}
	}
}

#Getting read poem 1
character_event = {
	id = RIP.20024
	desc = EVTDSC_RIP_20024
	border = GFX_event_normal_frame_intrigue
	picture = GFX_evt_recieve_letter

	is_triggered_only = yes

	option = {
		name = EVTOPTA_RIP_20024
		random = {
			chance = 5
			if = { limit = { NOT = { trait = lunatic } }
				add_trait = lunatic
				hidden_tooltip = {
					character_event = { id = 38304 }
				}
			}
		}
	}
}

#Reading poem 2 to prisoner
character_event = {
	id = RIP.20025
	desc = EVTDSC_RIP_20025
	border = GFX_event_normal_frame_intrigue
	picture = GFX_evt_recieve_letter

	is_triggered_only = yes

	option = {
		name = EVTOPTA_RIP_20025
		tooltip = {
			from = {
				random = {
					chance = 5
					add_trait = lunatic
					hidden_tooltip = {
						character_event = { id = 38304 } # notify lunatic
					}
				}
			}
		}
	}
}

#Getting read poem 2
character_event = {
	id = RIP.20026
	desc = EVTDSC_RIP_20026
	border = GFX_event_normal_frame_intrigue
	picture = GFX_evt_recieve_letter

	is_triggered_only = yes

	option = {
		name = EVTOPTA_RIP_20026
		random = {
			chance = 5
			if = { limit = { NOT = { trait = lunatic } }
				add_trait = lunatic
				hidden_tooltip = {
					character_event = { id = 38304 }
				}
			}
		}
	}
}

#Reading poem 3 to prisoner
character_event = {
	id = RIP.20027
	desc = EVTDSC_RIP_20027
	border = GFX_event_normal_frame_intrigue
	picture = GFX_evt_recieve_letter

	is_triggered_only = yes

	option = {
		name = EVTOPTA_RIP_20027
		tooltip = {
			from = {
				random = {
					chance = 5
					add_trait = lunatic
					hidden_tooltip = {
						character_event = { id = 38304 } # notify lunatic
					}
				}
			}
		}
	}
}

#Getting read poem 3
character_event = {
	id = RIP.20028
	desc = EVTDSC_RIP_20028
	border = GFX_event_normal_frame_intrigue
	picture = GFX_evt_recieve_letter

	is_triggered_only = yes

	option = {
		name = EVTOPTA_RIP_20028
		random = {
			chance = 5
			if = { limit = { NOT = { trait = lunatic } }
				add_trait = lunatic
				hidden_tooltip = {
					character_event = { id = 38304 }
				}
			}
		}
	}
}


# Jailor Tar 'n' Feather
character_event = {
	id = RIP.15001
	desc = EVTDESCRIP.15001
	picture = GFX_evt_scandal
	border = GFX_event_normal_frame_intrigue
	
	is_triggered_only = yes
	
	option = {
		name = EVTOPTARIP.15001
		tooltip = {
			from = {
				jailor_humiliation_effect = yes
			}
		}
	}
}
# Prisoner Tar 'n' Feather
character_event = {
	id = RIP.15002
	desc = EVTDESCRIP.15002
	picture = GFX_evt_into_the_dungeon
	border = GFX_event_normal_frame_intrigue
	
	hide_from = yes
	
	is_triggered_only = yes
	
	option = {
		name = EVTOPTARIP.15002
		prisoner_humiliation_effect = yes
	}
}

# Jailor Stocks
character_event = {
	id = RIP.15003
	desc = EVTDESCRIP.15003
	picture = GFX_evt_scandal
	border = GFX_event_normal_frame_intrigue
	
	is_triggered_only = yes
	
	option = {
		name = EVTOPTARIP.15003
		tooltip = {
			from = {
				jailor_humiliation_effect = yes
			}
		}
	}
}
# Prisoner Stocks
character_event = {
	id = RIP.15004
	desc = EVTDESCRIP.15004
	picture = GFX_evt_into_the_dungeon
	border = GFX_event_normal_frame_intrigue

	hide_from = yes
	
	is_triggered_only = yes
	
	option = {
		name = EVTOPTARIP.15004
		prisoner_humiliation_effect = yes
	}
}

# Jailor Walk of Shame
character_event = {
	id = RIP.15005
	desc = EVTDESCRIP.15005
	picture = GFX_evt_scandal
	border = GFX_event_normal_frame_intrigue

	is_triggered_only = yes
	
	option = {
		name = EVTOPTARIP.15005
		tooltip = {
			from = {
				jailor_humiliation_effect = yes
			}
		}
	}
}

# Prisoner Walk of Shame
character_event = {
	id = RIP.15006
	desc = EVTDESCRIP.15006
	picture = GFX_evt_scandal
	border = GFX_event_normal_frame_intrigue
	
	hide_from = yes
	
	is_triggered_only = yes
	
	option = {
		name = EVTOPTARIP.15006
		prisoner_humiliation_effect = yes
	}
}

# Jailor Tar 'n' Feather NOMAD
character_event = {
	id = RIP.15007
	desc = EVTDESCRIP.15007
	picture = GFX_evt_scandal
	border = GFX_event_normal_frame_intrigue
	
	is_triggered_only = yes
	
	option = {
		name = EVTOPTARIP.15007
		tooltip = {
			from = {
				jailor_humiliation_effect = yes
			}
		}
	}
}

# Prisoner Tar 'n' Feather NOMAD
character_event = {
	id = RIP.15008
	desc = EVTDESCRIP.15008
	picture = GFX_evt_into_the_dungeon
	border = GFX_event_normal_frame_intrigue
	
	hide_from = yes
	
	is_triggered_only = yes
	
	option = {
		name = EVTOPTARIP.15008
		prisoner_humiliation_effect = yes
	}
}
