###########################################
#                                         #
# Way of Life Rulership Events            #
#                                         #
# ID WoL.12000-WoL.12999                  #
#                                         #
###########################################

namespace = WoL

# Rulership Level Up
character_event = {
	id = WoL.12500
	hide_window = yes
	
	is_triggered_only = yes
	
	immediate = {
		random_list = {
			50 = {
			}
			10 = {
				modifier = {
					factor = 0
					NOR = {
						trait = indulgent_wastrel
						trait = thrifty_clerk
						trait = fortune_builder
					}
				}
				character_event = { id = WoL.12501 }
			}
			10 = {
				modifier = {
					factor = 0
					trait = administrator
				}
				character_event = { id = WoL.12502 }
			}
			10 = {
				modifier = {
					factor = 0
					NOR = {
						trait = arbitrary
						AND = {
							NOT = { trait = just }
							NOT = { personality_traits = 6 }
						}
					}
				}
				character_event = { id = WoL.12503 }
			}
			10 = {
				modifier = {
					factor = 0
					NOR = {
						trait = slothful
						AND = {
							NOT = { trait = diligent }
							NOT = { personality_traits = 6 }
						}
					}
				}
				character_event = { id = WoL.12504 }
			}
			10 = {
				modifier = {
					factor = 0
					NOR = {
						trait = content
						AND = {
							NOT = { trait = ambitious }
							NOT = { personality_traits = 6 }
						}
					}
				}
				character_event = { id = WoL.12505 }
			}
		}
	}
}

# Stewardship Education Level Up
character_event = {
	id = WoL.12501
	desc = EVTDESC_WoL_12501
	picture = GFX_evt_relaxed_ruler
	border = GFX_event_normal_frame_economy
	
	is_triggered_only = yes
	
	hide_from = yes
	
	option = {
		name = EXCELLENT
		if = {
			limit = { trait = indulgent_wastrel }
			hidden_tooltip = { remove_trait = indulgent_wastrel }
			add_trait = thrifty_clerk
			break = yes
		}
		if = {
			limit = { trait = thrifty_clerk }
			hidden_tooltip = { remove_trait = thrifty_clerk }
			add_trait = fortune_builder
			break = yes
		}
		if = {
			limit = { trait = fortune_builder }
			hidden_tooltip = { remove_trait = fortune_builder }
			add_trait = midas_touched
			if = {
				limit = { has_nickname = no }
				give_nickname = nick_the_lawgiver
			}
			break = yes
		}
	}
}

# Administrator Level Up
character_event = {
	id = WoL.12502
	desc = EVTDESC_WoL_12502
	picture = GFX_evt_relaxed_ruler
	border = GFX_event_normal_frame_economy
	
	is_triggered_only = yes
	
	hide_from = yes
	hide_new = yes

	trigger = {
		NAND = {
			lifestyle_traits = 1 
			has_character_modifier = wol_steward_2
		}
	}
	
	option = {
		name = EXCELLENT
		trigger = {
			NOT = { has_character_modifier = wol_steward_2 }
		}
		if = {
			limit = { has_character_modifier = wol_steward_1 }
			remove_character_modifier = wol_steward_1
			add_character_modifier = {
				modifier = wol_steward_2
				duration = -1
			}
		}
		else = {
			add_character_modifier = {
				modifier = wol_steward_1
				duration = -1
			}
		}
		
		if = {
			limit = { 
				has_character_modifier = wol_steward_2
				NOT = { lifestyle_traits = 1 }
			}
			remove_character_modifier = wol_steward_2
			add_trait = administrator
			break = yes
		}
	}
	
	option = {
		name = EVTOPTAWoL.12502
		trigger = {
			has_character_modifier = wol_steward_2
		}
		add_trait = administrator
	}
	option = {
		name = EVTOPTBWoL.12502
		trigger = {
			has_character_modifier = wol_steward_2
		}
		add_trait = justiciar
	}
}

# More Just
character_event = {
	id = WoL.12503
	desc = EVTDESC_WoL_12503
	picture = GFX_evt_relaxed_ruler
	border = GFX_event_normal_frame_economy
	
	is_triggered_only = yes
	
	hide_from = yes
	
	option = {
		name = EXCELLENT
		if = {
			limit = { trait = arbitrary }
			remove_trait = arbitrary
			break = yes
		}
		if = {
			limit = { NOT = { trait = arbitrary } }
			add_trait = just
			if = {
				limit = { has_nickname = no }
				give_nickname = nick_the_just
			}
			break = yes
		}
	}
}

# More Diligent
character_event = {
	id = WoL.12504
	desc = EVTDESC_WoL_12504
	picture = GFX_evt_relaxed_ruler
	border = GFX_event_normal_frame_economy
	
	is_triggered_only = yes
	
	hide_from = yes
	
	option = {
		name = EXCELLENT
		if = {
			limit = { trait = slothful }
			remove_trait = slothful
			break = yes
		}
		if = {
			limit = { NOT = { trait = slothful } }
			add_trait = diligent
			break = yes
		}
	}
}

# More Ambitious
character_event = {
	id = WoL.12505
	desc = EVTDESC_WoL_12505
	picture = GFX_evt_relaxed_ruler
	border = GFX_event_normal_frame_economy
	
	is_triggered_only = yes
	
	hide_from = yes
	
	option = {
		name = EXCELLENT
		if = {
			limit = { trait = content }
			remove_trait = content
			break = yes
		}
		if = {
			limit = { NOT = { trait = content } }
			add_trait = ambitious
			break = yes
		}
	}
}

# Legendary Wisdom
character_event = {
	id = WoL.12506
	desc = EVTDESC_WoL_12506
	picture = GFX_evt_relaxed_ruler
	border = GFX_event_normal_frame_economy
	
	min_age = 16
	only_playable = yes
	only_capable = yes
	prisoner = no
	
	trigger = {
		trait = administrator
		stewardship = 12
		NOT = { check_variable = { which = "tyrant" value = 5 } }
		NOT = { has_character_modifier = wol_legendary_wisdom }
	}
	
	is_triggered_only = yes
	
	weight_multiplier = {
		factor = 1
	}
	
	option = {
		name = EXCELLENT
		add_character_modifier = {
			modifier = wol_legendary_wisdom
			duration = -1
		}
	}
}

# Respected Ruler
character_event = {
	id = WoL.12507
	desc = EVTDESC_WoL_12507
	picture = GFX_evt_relaxed_ruler
	border = GFX_event_normal_frame_economy
	
	min_age = 16
	only_playable = yes
	only_capable = yes
	prisoner = no
	
	trigger = {
		trait = administrator
		stewardship = 8
		NOT = { check_variable = { which = "tyrant" value = 5 } }
		NOT = { has_character_modifier = wol_respected_ruler }
	}
	
	is_triggered_only = yes
	
	weight_multiplier = {
		factor = 1
	}
	
	option = {
		name = EXCELLENT
		add_character_modifier = {
			modifier = wol_respected_ruler
			duration = -1
		}
	}
}

### The Architect

# Architect (HIDDEN)
character_event = {
	id = WoL.12000
	
	is_triggered_only = yes
	hide_window = yes
	ai = no
	capable_only = yes
	prisoner = no
	
	trigger = {
		has_focus = focus_rulership
		is_ruler = yes
		is_tribal = no
		is_nomadic = no
		wealth = 400
		NOT = { has_character_flag = architect_offer }
		NOT = { has_character_flag = rulership_castle }
		NOT = { has_character_modifier = in_seclusion }
		any_demesne_province = { has_empty_holding = yes }		
	}
	
	weight_multiplier = {
		factor = 1
	}
	
	immediate = {	
		set_character_flag = rulership_castle
		random_demesne_province = {
			limit = { has_empty_holding = yes }
			province_event = { id = WoL.12090 }
		}		
	}
}
province_event = { #ping province
	id = WoL.12090
	
	is_triggered_only = yes
	hide_window = yes
	
	immediate = {
		FROM = {
			if = {
				limit = { 
					job_treasurer = { stewardship = 12 }
				}
				random_list = {
					75 = { 
						character_event = { id = WoL.12003 }
						set_character_flag = architect_offer
					}
					25 = { 
						character_event = { id = WoL.12002 }
						set_character_flag = architect_offer
					}
				}
			}
			if = {
				limit = {
					NOT = { job_treasurer = { stewardship = 12 } }
				}
				character_event = { id = WoL.12001 }
				set_character_flag = architect_offer
			}
		}
	}
}
# Architect brought before court
character_event = {
	id = WoL.12001
	desc = EVTDESC_WoL_12001
	picture = GFX_evt_throne_room
	border = GFX_event_normal_frame_economy
	
	is_triggered_only = yes

	option = {
		name = EVTOPTA_WoL_12001
		wealth = -400
		custom_tooltip = { text = castle_construction_begins }
		set_character_flag = building_castle
		FROM = {
			set_province_flag = castle_province
		}
		hidden_tooltip = {
			random_list = {
				50 = { character_event = { id = WoL.12007 days = 260 } }
				25 = { character_event = { id = WoL.12006 days = 260 } }
				25 = {
					random_list = {
						50 = { character_event = { id = WoL.12004 days = 260 } }
						50 = { character_event = { id = WoL.12005 days = 260 } }
					}
				}
			}
		}
	}
	
	option = {
		name = EVTOPTB_WoL_12001
		custom_tooltip = { text = architect_refused }
		clr_character_flag = rulership_castle
	}
}

# Architect brought before court
character_event = {
	id = WoL.12002
	desc = EVTDESC_WoL_12002
	picture = GFX_evt_throne_room
	border = GFX_event_normal_frame_economy
	
	is_triggered_only = yes

	option = {
		name = EVTOPTA_WoL_12001
		wealth = -400
		custom_tooltip = { text = castle_construction_begins }
		set_character_flag = building_castle
		FROM = {
			set_province_flag = castle_province
		}
		hidden_tooltip = {
			random_list = {
				40 = { character_event = { id = WoL.12004 days = 260 } }
				40 = { character_event = { id = WoL.12005 days = 260 } }
				20 = { character_event = { id = WoL.12007 days = 260 } }
			}
		}
	}
	option = {
		name = EVTOPTB_WoL_12001
		custom_tooltip = { text = architect_refused }
		clr_character_flag = rulership_castle
	}
}

# Architect brought before court
character_event = {
	id = WoL.12003
	desc = EVTDESC_WoL_12003
	picture = GFX_evt_throne_room
	border = GFX_event_normal_frame_economy
	
	is_triggered_only = yes

	option = {
		name = EVTOPTA_WoL_12001
		wealth = -400
		custom_tooltip = { text = castle_construction_begins }
		set_character_flag = building_castle
		FROM = {
			set_province_flag = castle_province
		}
		hidden_tooltip = {
			random_list = {
				60 = { character_event = { id = WoL.12006 days = 260 } }
				40 = { character_event = { id = WoL.12007 days = 260 } }
			}
		}
	}
	option = {
		name = EVTOPTB_WoL_12001
		custom_tooltip = { text = architect_refused }
		clr_character_flag = rulership_castle
	}
}

# Architect caught absconding with money
character_event = {
	id = WoL.12004
	desc = EVTDESC_WoL_12004
	picture = GFX_evt_drunk
	border = GFX_event_normal_frame_economy
	
	is_triggered_only = yes
	
	trigger = {
		has_character_flag = building_castle
	}

	option = {
		name = EVTOPTA_WoL_12004
		wealth = 150
		capital_scope = {
			ROOT = {
				create_character = {
					random_traits = no
					dynasty = NONE
					female = no
					age = 42
					religion = PREV
					culture = PREV
					trait = slothful
					trait = deceitful
					trait = indulgent_wastrel
				}
				new_character = {
					prisoner = yes
				}
			}
		}	
		FROMFROM = { clr_province_flag = castle_province }
		clr_character_flag = rulership_castle
		clr_character_flag = building_castle
	}
}

# Construction more costly than estimated
character_event = {
	id = WoL.12005
	desc = EVTDESC_WoL_12005
	picture = GFX_evt_construction_site
	border = GFX_event_normal_frame_economy
	
	is_triggered_only = yes
	
	trigger = {
		has_character_flag = building_castle
	}

	option = {
		name = EVTOPTA_WoL_12005
		wealth = -100
		hidden_tooltip = { character_event = { id = WoL.12008 days = 60 } }
	}
	option = {
		name = EVTOPTB_WoL_12005
		wealth = 200
		custom_tooltip = { text = construction_ceases }
		FROMFROM = { clr_province_flag = castle_province }
		clr_character_flag = rulership_castle
		clr_character_flag = building_castle
	}
}

# Castle finished with less resources
character_event = {
	id = WoL.12006
	desc = EVTDESC_WoL_12006
	picture = GFX_evt_magnificent_castle
	border = GFX_event_normal_frame_economy
	
	is_triggered_only = yes
	
	trigger = {
		has_character_flag = building_castle
	}

	option = {
		name = EVTOPTA_WoL_12006
		FROMFROM = {
			build_holding = {
				type = castle
				holder = ROOT
			}
			clr_province_flag = castle_province
		}
		wealth = 100
		clr_character_flag = rulership_castle
		clr_character_flag = building_castle
		hidden_tooltip = { character_event = { id = WoL.12500 days = 1 } }
	}
}

# Castle finished
character_event = {
	id = WoL.12007
	desc = EVTDESC_WoL_12007
	picture = GFX_evt_magnificent_castle
	border = GFX_event_normal_frame_economy
	
	is_triggered_only = yes
	
	trigger = {
		has_character_flag = building_castle
	}

	option = {
		name = EVTOPTA_WoL_12007
		FROMFROM = {
			build_holding = {
				type = castle
				holder = ROOT
			}
			clr_province_flag = castle_province
		}
		clr_character_flag = rulership_castle
		clr_character_flag = building_castle
		hidden_tooltip = { character_event = { id = WoL.12500 days = 1 } }
	}
}

# Castle finished after delay
character_event = {
	id = WoL.12008
	desc = EVTDESC_WoL_12008
	picture = GFX_evt_magnificent_castle
	border = GFX_event_normal_frame_economy
	
	is_triggered_only = yes
	
	trigger = {
		has_character_flag = building_castle
	}

	option = {
		name = EVTOPTA_WoL_12008
		FROMFROMFROM = {
			build_holding = {
				type = castle
				holder = ROOT
			}
			clr_province_flag = castle_province
		}
		clr_character_flag = rulership_castle
		clr_character_flag = building_castle
		hidden_tooltip = { character_event = { id = WoL.12500 days = 1 } }
	}
}

# No free holding slots
character_event = {
	id = WoL.12009
	desc = EVTDESC_WoL_12009
	picture = GFX_evt_construction_site
	border = GFX_event_normal_frame_economy
	
	is_triggered_only = yes
	ai = no
	has_character_flag = building_castle
	
	trigger = {
		FROM = { 
			location = {
				has_province_flag = castle_province
				has_empty_holding = no
			}	
		}	
	}
		
	immediate = {
		clr_character_flag = building_castle
		FROM = {
			location = {
				clr_province_flag = castle_province
			}	
		}
		clr_character_flag = rulership_castle
	}

	option = {
		name = EVTOPTA_WoL_12009
		wealth = 350
	}
}

### Depressed
character_event = {
	id = WoL.12010
	desc = EVTDESC_WoL_12010
	picture = GFX_evt_stressed_ruler
	border = GFX_event_normal_frame_economy
	
	is_triggered_only = yes
	capable_only = yes
	prisoner = no
	only_playable = yes
	min_age = 16
	war = no
	
	trigger = {
		has_focus = focus_rulership
		NOT = { trait = depressed }
	}
	
	weight_multiplier = {
		factor = 1
		
		modifier = {
			factor = 1.33
			trait = diligent
		}		
		modifier = {
			factor = 0.1
			trait = slothful
		}
	}
	
	option = {
		name = EVTOPTA_WoL_12010
		add_trait = depressed
	}
}

### Stressed
character_event = {
	id = WoL.12011
	desc = EVTDESC_WoL_12011
	picture = GFX_evt_stressed_ruler
	border = GFX_event_normal_frame_economy
	
	is_triggered_only = yes
	capable_only = yes
	prisoner = no
	only_playable = yes
	min_age = 16
	
	trigger = {
		has_focus = focus_rulership
		NOT = { trait = stressed }
	}
	
	weight_multiplier = {
		factor = 1
		
		modifier = {
			factor = 1.33
			trait = diligent
		}		
		modifier = {
			factor = 0.1
			trait = slothful
		}
	}
	
	option = {
		name = EVTOPTA_WoL_12011
		add_trait = stressed
	}
}

### The Murders

# Peasant Dragged Before Court
character_event = {
	id = WoL.12015
	desc = EVTDESC_WoL_12015
	picture = GFX_evt_throne_room
	border = GFX_event_normal_frame_economy
	
	is_triggered_only = yes
	capable_only = yes
	in_command = no
	prisoner = no
	only_playable = yes
	min_age = 16
	
	trigger = {
		has_focus = focus_rulership
	}
	
	weight_multiplier = {
		factor = 1
	}
	
	option = {
		name = EVTOPTA_WoL_12015
		custom_tooltip = { text = peasant_hanged }
		hidden_tooltip = { character_event = { id = WoL.12500 days = 1 } }
		hidden_tooltip = {
			random = {
				chance = 50
				set_character_flag = peasant_hanged_innocent
				character_event = { id = WoL.12016 days = 365 random = 100 }
			}
		}
	}
	option = {
		name = EVTOPTB_WoL_12015
		custom_tooltip = { text = peasant_imprisoned }
		hidden_tooltip = { character_event = { id = WoL.12500 days = 1 } }
		hidden_tooltip = {
			random = {
				chance = 50
				set_character_flag = peasant_imprisoned_innocent
				character_event = { id = WoL.12016 days = 365 random = 100 }
			}
		}
	}
	option = {
		name = EVTOPTC_WoL_12015
		custom_tooltip = { text = peasant_set_free }
		hidden_tooltip = { character_event = { id = WoL.12500 days = 1 } }
		hidden_tooltip = {
			random = {
				chance = 50
				set_character_flag = peasant_freed_guilty
				character_event = { id = WoL.12017 days = 365 random = 100 }
			}
		}
	}
	option = {
		name = EVTOPTD_WoL_12015
		custom_tooltip = { text = peasant_tortured }
		tooltip_info = impaler
		trigger = { trait = impaler }
		hidden_tooltip = {
			random_list = {
				50 = { character_event = { id = WoL.12018 days = 15 } }
				50 = { character_event = { id = WoL.12019 days = 15 } }
			}
		}
	}
}

# Another Murder (Peasant Hanged)
character_event = {
	id = WoL.12016
	desc = EVTDESC_WoL_12016
	picture = GFX_evt_bloody_man
	border = GFX_event_normal_frame_economy
	
	is_triggered_only = yes
	has_character_flag = peasant_hanged_innocent
	only_playable = yes
	
	trigger = {
		
	}
	
	immediate = {
		clr_character_flag = peasant_hanged_innocent
	}
	
	option = {
		name = EVTOPTA_WoL_12016
		if = {
			limit = { has_nickname = no }
			give_nickname = nick_the_rash
		}
		prestige = -20
	}
}

# Another Murder (Peasant Set Free)
character_event = {
	id = WoL.12017
	desc = EVTDESC_WoL_12017
	picture = GFX_evt_bloody_man
	border = GFX_event_normal_frame_economy
	
	is_triggered_only = yes
	has_character_flag = peasant_freed_guilty
	only_playable = yes
	
	trigger = {
		
	}
	
	immediate = {
		clr_character_flag = peasant_freed_guilty
	}
	
	option = {
		name = EVTOPTA_WoL_12017
		prestige = -20
	}
}

# Peasant admits under torture
character_event = {
	id = WoL.12018
	desc = EVTDESC_WoL_12018
	picture = GFX_evt_torture
	border = GFX_event_normal_frame_economy
	
	is_triggered_only = yes
	only_playable = yes
	
	option = {
		name = EVTOPTA_WoL_12018
		hidden_tooltip = { character_event = { id = WoL.12500 days = 1 } }
		hidden_tooltip = {
			random = {
				chance = 50
				set_character_flag = peasant_tortured_innocent
				random_list = {
					50 = { character_event = { id = WoL.12020 days = 365 random = 100 } }
					50 = { character_event = { id = WoL.12021 days = 365 random = 100 } }
					50 = { character_event = { id = WoL.12022 days = 365 random = 100 } }
				}
			}
		}
	}
}

# Peasant does not admit under torture
character_event = {
	id = WoL.12019
	desc = EVTDESC_WoL_12019
	picture = GFX_evt_torture
	border = GFX_event_normal_frame_economy
	
	is_triggered_only = yes
	only_playable = yes
	
	option = {
		name = EVTOPTA_WoL_12019
		hidden_tooltip = { character_event = { id = WoL.12500 days = 1 } }
		hidden_tooltip = {
			random = {
				chance = 50
				set_character_flag = peasant_tortured_innocent
				random_list = {
					50 = { character_event = { id = WoL.12020 days = 365 random = 100 } }
					50 = { character_event = { id = WoL.12021 days = 365 random = 100 } }
					50 = { character_event = { id = WoL.12022 days = 365 random = 100 } }
				}
			}
		}
	}
}

# Another Murder (Peasant died during torture)
character_event = {
	id = WoL.12020
	desc = EVTDESC_WoL_12020
	picture = GFX_evt_bloody_man
	border = GFX_event_normal_frame_economy
	
	is_triggered_only = yes
	has_character_flag = peasant_tortured_innocent
	only_playable = yes
	
	trigger = {
		
	}
	
	immediate = {
		clr_character_flag = peasant_tortured_innocent
	}
	
	option = {
		name = EVTOPTA_WoL_12020
		prestige = -20
	}
}

# Another Murder (Peasant imprisoned)
character_event = {
	id = WoL.12021
	desc = EVTDESC_WoL_12021
	picture = GFX_evt_bloody_man
	border = GFX_event_normal_frame_economy
	
	is_triggered_only = yes
	has_character_flag = peasant_imprisoned_innocent
	only_playable = yes
	
	trigger = {
		
	}

	immediate = {
		clr_character_flag = peasant_imprisoned_innocent
	}
	
	option = {
		name = EVTOPTA_WoL_12021
		prestige = -20
	}
}

# Another Murder (Peasant died in dungeon)
character_event = {
	id = WoL.12022
	desc = EVTDESC_WoL_12022
	picture = GFX_evt_bloody_man
	border = GFX_event_normal_frame_economy
	
	is_triggered_only = yes
	has_character_flag = peasant_imprisoned_innocent
	only_playable = yes
	
	trigger = {
		
	}
	
	immediate = {
		clr_character_flag = peasant_imprisoned_innocent
	}
	
	option = {
		name = EVTOPTA_WoL_12022
		prestige = -20
	}
}

### Noble Feud (HIDDEN)
character_event = {
	id = WoL.12025
	
	is_triggered_only = yes	
	hide_window = yes	
	only_playable = yes
	capable_only = yes
	prisoner = no
	min_age = 16
	
	trigger = {
		has_focus = focus_rulership
	}
	
	weight_multiplier = {
		factor = 1
	}
	
	immediate = {	
		random_vassal = {
			limit = {
				is_adult = yes
				prisoner = no
				NOT = { trait = incapable }
				ai = yes
				
				ROOT = {
					any_vassal = {
						is_adult = yes
						prisoner = no
						NOT = { trait = incapable }
						NOT = { is_close_relative = PREV }
						NOT = { is_married = PREV }
						NOT = { character = PREV }
						NOR = {
							character = PREVPREV
							opinion = { who = PREVPREV value = -30 }
							reverse_opinion = { who = PREVPREV value = -30 }
							has_character_flag = noble_feuder
						}
						OR = {
							at_location = PREVPREV
							is_foe = PREVPREV
							culture = PREVPREV					
						}
						ai = yes
					}
				}	
			}
			ROOT = {
				random_vassal = {
					limit = {
						is_adult = yes
						prisoner = no
						NOT = { trait = incapable }
						NOT = { is_close_relative = PREV }
						NOT = { is_married = PREV }
						NOT = { character = PREV }
						NOR = {
							character = PREVPREV
							opinion = { who = PREVPREV value = -30 }
							reverse_opinion = { who = PREVPREV value = -30 }
							has_character_flag = noble_feuder
						}
						OR = {
							at_location = PREVPREV
							is_foe = PREVPREV
							culture = PREVPREV					
						}
						ai = yes
					}
					save_event_target_as = feuding_noble_1
					set_character_flag = noble_feuder
				}	
			}
			save_event_target_as = feuding_noble_2
			set_character_flag = noble_feuder
			ROOT = { character_event = { id = WoL.12026 } }
		}			
	}
}

# Noble Feud
character_event = {
	id = WoL.12026
	desc = EVTDESC_WoL_12026
	picture = GFX_evt_throne_room
	border = GFX_event_normal_frame_economy
	
#	hide_from = yes
	
	is_triggered_only = yes
	capable_only = yes
	
	option = {
		name = EVTOPTA_WoL_12026
		event_target:feuding_noble_1 = {
			prestige = 25
			opinion = {
				modifier = opinion_happy
				who = ROOT
				years = 2
			}
		}
		event_target:feuding_noble_2 = {
			prestige = -25
			opinion = {
				modifier = opinion_angry
				who = ROOT
				years = 2
			}
		}
		hidden_tooltip = { character_event = { id = WoL.12500 days = 1 } }
	}
	option = {
		name = EVTOPTB_WoL_12026
		event_target:feuding_noble_2 = {
			prestige = 25
			opinion = {
				modifier = opinion_happy
				who = ROOT
				years = 2
			}
		}
		event_target:feuding_noble_1 = {
			prestige = -25
			opinion = {
				modifier = opinion_angry
				who = ROOT
				years = 2
			}
		}
		hidden_tooltip = { character_event = { id = WoL.12500 days = 1 } }
	}
	option = {
		name = EVTOPTC_WoL_12026
		prestige = 50
		event_target:feuding_noble_1 = {
			prestige = -15
			opinion = {
				modifier = opinion_upset
				who = ROOT
				years = 2
			}
		}
		event_target:feuding_noble_2 = {
			prestige = -15
			opinion = {
				modifier = opinion_upset
				who = ROOT
				years = 2
			}
		}
		hidden_tooltip = { character_event = { id = WoL.12500 days = 1 } }
	}
}

### Farm Fire
character_event = {
	id = WoL.12027
	desc = EVTDESC_WoL_12027
	picture = GFX_evt_throne_room
	border = GFX_event_normal_frame_economy
	
	is_triggered_only = yes
	capable_only = yes
	prisoner = no
	only_playable = yes
	min_age = 16
	
	trigger = {
		has_focus = focus_rulership
		is_nomadic = no
		any_vassal = {
			is_adult = yes
			prisoner = no
			is_ruler = yes
			NOT = { trait = incapable }
			NOT = { is_close_relative = ROOT }
			spouse = { NOT = { character = ROOT } }
			ai = yes
			is_nomadic = no
		}
	}
	
	weight_multiplier = {
		factor = 1
	}
	
	immediate = {
		random_vassal = {
			limit = {
				is_adult = yes
				prisoner = no
				is_ruler = yes
				NOT = { trait = incapable }
				NOT = { is_close_relative = ROOT }
				spouse = { NOT = { character = ROOT } }
				ai = yes
			}
			save_event_target_as = farm_fire_noble
		}
	}

	option = {
		name = EVTOPTA_WoL_12027
		event_target:farm_fire_noble = { 
			wealth = -50
			opinion = {
				modifier = opinion_angry
				who = ROOT
				years = 2
			}
		}
		hidden_tooltip = { character_event = { id = WoL.12500 days = 1 } }
	}
	option = {
		name = EVTOPTB_WoL_12027
		capital_scope = {
			add_province_modifier = {
				name = peasant_unrest
				duration = 365
			}
		}
		event_target:farm_fire_noble = {
			opinion = {
				modifier = opinion_happy
				who = ROOT
				years = 2
			}
		}
		hidden_tooltip = { character_event = { id = WoL.12500 days = 1 } }
	}
	option = {
		name = EVTOPTC_WoL_12027
		wealth = -50
		event_target:farm_fire_noble = {
			opinion = {
				modifier = opinion_happy
				who = ROOT
				years = 2
			}
		}
		hidden_tooltip = { character_event = { id = WoL.12500 days = 1 } }
	}
}

### Witch
character_event = {
	id = WoL.12028
	desc = EVTDESC_WoL_12028
	picture = GFX_evt_throne_room
	border = GFX_event_normal_frame_economy
	
	is_triggered_only = yes
	capable_only = yes
	prisoner = no
	only_playable = yes
	min_age = 16
	
	trigger = {
		has_focus = focus_rulership
		demesne_size = 1
	}
	
	weight_multiplier = {
		factor = 1
	}
	
	immediate = {
		random_demesne_province = {
			save_event_target_as = witch_province
		}
	}
	
	option = {
		name = EVTOPTA_WoL_12028
		event_target:witch_province = {
			add_province_modifier = {
				name = peasants_protected
				duration = 365
			}
		}
		hidden_tooltip = { character_event = { id = WoL.12500 days = 1 } }
		piety = 30
	}
	option = {
		name = EVTOPTB_WoL_12028
		event_target:witch_province = {
			ROOT = {
				create_character = {
					random_traits = no
					dynasty = NONE
					female = yes
					age = 28
					religion = PREV
					culture = PREV
					trait = ugly
					trait = kind
					trait = charitable
					trait = humble
					trait = honest
					trait = shy
					trait = trusting
					trait = naive_appeaser
				}
				new_character = {
					prisoner = yes
				}
			}
		}	
		hidden_tooltip = { character_event = { id = WoL.12500 days = 1 } }
	}
	option = {
		name = EVTOPTC_WoL_12028
		event_target:witch_province = {
			add_province_modifier = {
				name = peasant_unrest
				duration = 365
			}
		}
		prestige = 30
		hidden_tooltip = { character_event = { id = WoL.12500 days = 1 } }
	}
}

### Drunkard
character_event = {
	id = WoL.12029
	desc = EVTDESC_WoL_12029
	picture = GFX_evt_drunk
	border = GFX_event_normal_frame_economy
	
	is_triggered_only = yes
	capable_only = yes
	in_command = no
	prisoner = no
	only_playable = yes
	min_age = 16
	
	trigger = {
		has_focus = focus_rulership
		any_vassal = {
			is_adult = yes
			prisoner = no
			is_ruler = yes
			NOT = { trait = incapable }
			NOT = { is_close_relative = ROOT }
			spouse = { NOT = { character = ROOT } }
			trait = drunkard
			ai = yes
		}
	}
	
	weight_multiplier = {
		factor = 1
	}
	
	immediate = {
		random_demesne_province = {
			save_event_target_as = drunken_rampage
		}
		random_vassal = {
			limit = {
				is_adult = yes
				prisoner = no
				is_ruler = yes
				NOT = { trait = incapable }
				NOT = { is_close_relative = ROOT }
				spouse = { NOT = { character = ROOT } }
				trait = drunkard
				ai = yes
			}
			save_event_target_as = noble_drunkard
		}
	}
	
	option = {
		name = EVTOPTA_WoL_12029
		prestige = 30
		event_target:noble_drunkard = {
			opinion = {
				modifier = opinion_angry
				who = ROOT
				years = 2
			}
			wealth = -50
		}
		hidden_tooltip = { character_event = { id = WoL.12500 days = 1 } }
	}
	option = {
		name = EVTOPTB_WoL_12029
		prestige = -30
		event_target:drunken_rampage = {
			add_province_modifier = {
				name = merchants_unhappy
				duration = 365
			}
		}
		event_target:noble_drunkard = {
			opinion = {
				modifier = opinion_happy
				who = ROOT
				years = 2
			}
		}
		hidden_tooltip = { character_event = { id = WoL.12500 days = 1 } }
	}
	option = {
		name = EVTOPTC_WoL_12029
		wealth = -50
		event_target:noble_drunkard = {
			opinion = {
				modifier = opinion_happy
				who = ROOT
				years = 2
			}
		}
		hidden_tooltip = { character_event = { id = WoL.12500 days = 1 } }
	}
}

### City Brigands (AI Mayor)
character_event = {
	id = WoL.12030
	
	is_triggered_only = yes
	hide_window = yes
	
	capable_only = yes	
	prisoner = no
	only_rulers = yes
	min_age = 16
	
	trigger = {
		has_focus = focus_rulership
		is_nomadic = no
	}
	
	weight_multiplier = {
		factor = 1
	}
	
	immediate = {
		random_vassal = {
			limit = {
				is_republic = yes
				ai = yes
				NOT = { trait = incapable }
				NOT = { is_close_relative = ROOT }
				NOT = { character = ROOT }
				is_adult = yes
				NOT = { is_married = ROOT }
				ROOT = {
					any_vassal = {
						is_adult = yes
						prisoner = no
						is_republic = no
						NOT = { trait = incapable }
						NOT = { is_close_relative = ROOT }
						NOT = { is_married = ROOT }
						NOT = { character = PREVPREV }
						ai = yes
					}
				}
			}
			save_event_target_as = brigands_mayor
			primary_title = { save_event_target_as = mayor_city }	
			ROOT = { 
				random_vassal = {
					limit = {
						is_adult = yes
						prisoner = no
						is_republic = no
						NOT = { trait = incapable }
						NOT = { is_close_relative = ROOT }
						NOT = { is_married = ROOT }
						NOT = { character = PREVPREV }
						ai = yes
					}
					save_event_target_as = brigands_noble
				}
				character_event = { id = WoL.12031 }
			}
		}	
	}
}

# City Brigands
character_event = {
	id = WoL.12031
	desc = EVTDESC_WoL_12031
	picture = GFX_evt_throne_room
	border = GFX_event_normal_frame_economy
	
	is_triggered_only = yes
	
	#hide_from = yes
	
	option = {
		name = EVTOPTA_WoL_12031
		event_target:brigands_noble = {
			opinion = {
				modifier = opinion_happy
				who = ROOT
				years = 2
			}
			hidden_tooltip = { wealth = 50 }
		}
		event_target:brigands_mayor = {
			opinion = {
				modifier = opinion_unhappy
				who = ROOT
				years = 2
			}
			hidden_tooltip = { wealth = -50 }
		}
		hidden_tooltip = { character_event = { id = WoL.12500 days = 1 } }
	}
	option = {
		name = EVTOPTB_WoL_12031
		event_target:brigands_noble = {
			opinion = {
				modifier = opinion_unhappy
				who = ROOT
				years = 2
			}
		}
		event_target:brigands_mayor = {
			opinion = {
				modifier = opinion_happy
				who = ROOT
				years = 2
			}
		}
		hidden_tooltip = { character_event = { id = WoL.12500 days = 1 } }
	}
	option = {
		name = EVTOPTC_WoL_12031
		wealth = -50
		event_target:brigands_noble = {
			opinion = {
				modifier = opinion_happy
				who = ROOT
				years = 2
			}
			hidden_tooltip = { wealth = 50 }
		}
		event_target:brigands_mayor = {
			opinion = {
				modifier = opinion_happy
				who = ROOT
				years = 2
			}
		}
		hidden_tooltip = { character_event = { id = WoL.12500 days = 1 } }
	}
}