900.1.1={ 
	liege="c_blackhaven"
}
#House Cole
7830.1.1 = { holder=60341007 }
7890.1.1 = { holder=60331007 }
7907.1.1 = { holder=60321007 }
7924.1.1 = { holder=60311007 }
7954.1.1 = { holder=60301007 }
7989.1.1 = { holder=60001007 } # Triston (nc)
8008.1.1 = { holder=60021007 } # Lothor (nc)
8021.1.1 = { holder=60051007 } # Malcolm (nc)
8042.1.1 = { holder=60081007 } # Allar (nc)
8067.1.1 = { holder=60121007 } # Clarence (nc)
8087.1.1 = { holder=60131007 } # Monford (nc)
8108.1.1 = { holder=60181007 } # Gwayne (nc)

#Cole exiled
8131.2.1 = { holder = 306303 } # Rickard Dondarrion (nc)
8161.1.1 = { holder = 307303 } # Devan Dondarrion (nc)
8176.1.1 = { holder = 200303 } # Lyonel Dondarrion (C)
8212.1.1 = { holder = 201303 } # Manfred Dondarrion (C)
8241.1.1 = { holder = 310303 } # Gulian Dondarrion (nc)
8271.1.1 = { holder = 303 } # Edric Dondarrion (nc)
8296.1.1 = { holder = 1303 } # Beric Dondarrion (C)
8298.10.28={ holder = 2303 } 



