900.1.1={ 
	liege="c_blue_grove"
}
#House Brownhill
7846.1.1 = { holder=24881808 }
7900.1.1 = { holder=23881808 }
7914.1.1 = { holder=22881808 }
7943.1.1 = { holder=21881808 }
7965.1.1 = { holder=20881808 }
7980.1.1 = { holder=16881808 } # Walter (nc)
8033.1.1 = { holder=15881808 } # Addam (nc)
8050.1.1 = { holder=14881808 } # Willem (nc)
8078.1.1 = { holder=13881808 } # Walter (nc)
8101.1.1 = { holder=88000854 } # Walter (C)
8157.1.1 = { holder=88000857 } # Rickard (nc)
8160.1.1 = { holder=12881808 } # Robert (nc)
8190.1.1 = { holder=11881808 } # Rickard (nc)
8255.1.1 = { holder=10881808 } # Walter (nc)



