#House Caswell
900.1.1={ law=succ_primogeniture law=cognatic_succession
	liege="c_bitterbridge"
}
7866.1.1 = { holder=3044264 } # Lorent (nc)
7872.1.1 = { holder=3043264 } # Clarice (nc)
7901.1.1 = { holder=3042264 } # Uthor (nc)
7933.1.1 = { holder=3041264 } # Bayard (nc)
7939.1.1 = { holder=3040264 } # Norman (nc)

7956.1.1 = { holder=3000264 } # Robert (nc)
7999.1.1 = { holder=3001264 } # Mervyn (nc)
8013.1.1 = { holder=3004264 } # Orton (nc)
8042.1.1 = { holder=3008264 } # Lorent (nc)
8068.1.1 = { holder=3011264 } # Mark (nc)
8110.1.1 = { holder=4014264 } # Delena (nc)
8129.8.1={ holder=3016264 } # Dontos (nc)
8171.1.1 = { holder=3017264 } # Dickon (nc)

8188.1.1={
	holder=88294 #Armon (nc)
}
8207.1.1={
	holder=88293 #Joffrey 
}
8242.1.1={
	holder=88292 #Mathis (nc) 
}
8267.1.1={
	holder=88036 #Desmind (nc)
}
8293.1.1={
	holder=88037 #Lorent
}


