7000.1.1 = {
	liege = d_norvos
	holding_dynasty = 300531 #Daryth
}
7860.1.1 = { holder=344300531 } # Lysodos (nc)
7898.1.1 = { holder=343300531 } # Relapho (nc)
7901.1.1 = { holder=342300531 } # Zoro (nc)
7915.1.1 = { holder=341300531 } # Horio (nc)
7944.1.1 = { holder=340300531 } # Byan (nc)

7965.1.1 = { holder=100300531 } # Ezzelyno (nc)
8018.1.1 = { holder=103300531 } # Illyrio (nc)
8048.1.1 = { holder=106300531 } # Ordello (nc)
8051.1.1 = { holder=104300531 } # Moredo (nc)
8080.1.1 = { holder=113300531 } # Daario (nc)
8110.1.1 = { holder=116300531 } # Tagganaro (nc)
8129.1.1 = { holder=118300531 } # Yorko (nc)
8142.1.1 = { holder=122300531 } # Gyleno (nc)
8179.1.1 = { holder=125300531 } # Areo (nc)
8195.1.1 = { holder=126300531 } # Groleo (nc)
8196.1.1 = { holder=128300531 } # Syrio (nc)
8201.1.1 = { holder=130300531 } # Luco (nc)
8215.1.1 = { holder=131300531 } # Moredo (nc)
8228.1.1 = { holder=132300531 } # Cossomo (nc)
8274.1.1 = { holder=134300531 } # Gyloro (nc)
8297.1.1 = { holder=136300531 } # Ezzelyno (nc)
