900.1.1={ 
	law=succ_primogeniture law=cognatic_succession
	liege="c_new_barrel"
}
#House Peake
7833.1.1 = { holder=6400298 } # Garse (nc)
7850.1.1 = { holder=6100298 } # Gwayne (nc)
7887.1.1 = { holder=6200298 } # Mervyn (nc)
7895.1.1 = { holder=65000298 } # Perceon (nc)
7930.1.1 = { holder=65100298 } # Galadon (nc)
7984.1.1 = { holder=65200298 } # Gareth (nc)
7988.1.1 = { holder=3000298 } # Mern (nc)
7998.6.6 = { holder=3001298 } # Tania (nc)
8017.1.1 = { holder=3004298 } # Mathis (nc)
8045.1.1 = { holder=3008298 } # Morm (nc)
8080.1.1 = { holder=3010298 } # Martyn (nc)
8124.1.1 = { holder=3011298 } # Arryn (nc)
8146.1.1 = { holder=3015298 } # Franklyn (nc)
8170.1.1 = { holder=3019298 } # Horas (nc)
8194.1.1 = { holder=3022298 } # Gormon (nc)

#8196 Gormon Peake loses castle after balckfyre rebellion, house fossoway takes over
#House Fossoway
8196.1.1={
	holder=3262
	liege="c_cider_hall"
}
8215.1.1={
	holder=4262
}
8236.1.1={
	holder=6262
}
8256.1.1={
	holder=7262
}
8279.1.1={
	holder=262
}


