900.1.1={ law=succ_primogeniture law=cognatic_succession
	liege="c_bitterbridge"
}
#House Bridges
7845.1.1={holder=100268}
7895.1.1={holder=101268}
7920.1.1={holder=102268}
7945.1.1={holder=103268}
7970.1.1={holder=104268}
7995.1.1={holder=105268}
8020.1.1={holder=106268}
8045.1.1={holder=107268}
8070.1.1={holder=108268}
8095.1.1={holder=109268}
8120.1.1={holder=110268}
8145.1.1={holder=111268}
8170.1.1={holder=112268}
8195.1.1={holder=113268}
8220.1.1={holder=114268}
8245.1.1={holder=115268}
8270.1.1={
	holder=2268
}







