900.1.1={ 
	liege="d_meereen"
	holding_dynasty = 360008 # Reznak
}
7839.1.1 = { holder=345360008 } # Omdhaz (nc)
7867.1.1 = { holder=344360008 } # Reznak (nc)
7889.1.1 = { holder=343360008 } # Ghrazz (nc)
7919.1.1 = { holder=342360008 } # Reznak (nc)
7949.1.1 = { holder=341360008 } # Yarkhaz (nc)
7966.1.1 = { holder=340360008 } # Hazrak (nc)

7990.1.1 = { holder=150360008 } # Skahaz (nc)
8027.1.1 = { holder=100360008 } # Reznak (nc)
8045.1.1 = { holder=101360008 } # Gorhaz (nc)
8087.1.1 = { holder=105360008 } # Grazdan (nc)
8128.1.1 = { holder=109360008 } # Reznak (nc)
8145.1.1 = { holder=116360008 } # Gorzhak (nc)
8171.1.1 = { holder=120360008 } # Haznak (nc)
8204.1.1 = { holder=123360008 } # Mazdhak (nc)
8233.1.1 = { holder=126360008 } # Marghaz (nc)
8249.1.1 = { holder=129360008 } # Grazdan (nc)
8279.1.1={
	holder=16571012 # Reznak
}