900.1.1={ law=succ_primogeniture law=cognatic_succession
	liege="c_highgarden"
}
#House Norridge
7830.1.1={holder=136269}
7880.1.1={holder=135269}
7905.1.1={holder=134269}
7930.1.1={holder=133269}
7955.1.1={holder=132269}
7980.1.1={holder=131269}
8002.1.1 = { holder=100269 } # Tristram (nc)
8032.1.1 = { holder=102269 } # Arthur (nc)
8073.1.1 = { holder=105269 } # Canther (nc)
8076.1.1 = { holder=106269 } # Waldon (nc)
8137.1.1 = { holder=108269 } # Gauter (nc)
8168.1.1 = { holder=113269 } # Bertram (nc)
8206.1.1 = { holder=117269 } # Quenton (nc)
8225.1.1 = { holder=119269 } # Garlan (nc)
8269.1.1 = { holder=122269 } # Leyton (nc)
8272.1.1 = { holder=126269 } # Olymer (nc)





