900.1.1={ 
	liege="c_the_citadel"
}

7955.1.1 = { holder=88000200 }  
8025.1.1 = { holder=88000201 } 
8031.1.1 = { holder=88000202 } 
8045.1.1 = { holder=88000203 } 
8100.1.1 = { holder=88000204 } 
8125.1.1 = { holder=88000205 }

8156.1.1={
	holder=90129 #Oriel Allyrion
}
8193.1.1 = {
	holder=88765002 #Haereg
}
8221.1.1 = {
	holder=88765003 #Hake
}
8249.1.1 = {
	holder=88765004 #Harmune
}
8278.1.1={
	holder=88129 #Ryam
}
8292.1.1={
	holder=88124 #Norren
}
8298.1.1={
	holder=88130 #Theobald
}




