#House Appleton
1.1.1={
	law=succ_primogeniture 
	law=cognatic_succession
	liege="d_blueburn"
}
7844.1.1 = { holder=66000266 } # Adren (nc)
7850.1.1 = { holder=63000266 } # Harrison (nc)
7887.1.1 = { holder=64000266 } # Elstar (nc)
7895.1.1 = { holder=65000266 } # Ellison (nc)
7920.1.1 = { holder=68001266 } # Emmett (nc)
7943.1.1 = { holder=61100266 } # Braeburn (nc)

7957.1.1 = { holder=6000266 } # Garrett (nc)
8005.1.1 = { holder=6003266 } # Harrold (nc)
8031.1.1 = { holder=6007266 } # Runceford (nc)
8044.1.1 = { holder=6010266 } # Arryn (nc)
8062.1.1 = { holder=6013266 } # Abelar (nc)
8098.1.1 = { holder=6015266 } # Lorent (nc)
8143.1.1 = { holder=6019266 } # Elwood (nc)
8157.1.1 = { holder=6021266 } # Gerold (nc)
8181.1.1 = { holder=6023266 } # Willas (nc)
8210.1.1 = { holder=6024266 } # Hosman (nc)
8231.1.1 = { holder=6028266 } # Edgerran (nc)
8267.1.1 = { holder=6032266 } # Wendell (nc)

8274.1.1={
	holder=266
}
8283.1.1 = { liege="k_reach" }


