#House Kassis
600.1.1={
	liege="d_asabhad"
}
7864.1.1 = { holder=34555944 } # Siq (nc)
7885.1.1 = { holder=34455944 } # Jyrki (nc)
7904.1.1 = { holder=34355944 } # Panu (nc)
7935.1.1 = { holder=34255944 } # Peng (nc)
7955.1.1 = { holder=34155944 } # Muyen (nc)
7977.1.1 = { holder=34055944 } # Armas (nc)

7999.1.1 = { holder=100055944 } # Husam (nc)
8028.1.1 = { holder=100155944 } # Nizam (nc)
8034.1.1 = { holder=100355944 } # Alim (nc)
8093.1.1 = { holder=100555944 } # Ramadan (nc)
8094.1.1 = { holder=100855944 } # Mansur (nc)
8123.1.1 = { holder=100955944 } # Bahir (nc)
8139.1.1 = { holder=101055944 } # Ramadan (nc)
8171.1.1 = { holder=101455944 } # Talib (nc)
8205.1.1 = { holder=101555944 } # Sadiq (nc)
8219.1.1 = { holder=102055944 } # Mirza (nc)
8250.1.1 = { holder=102155944 } # Talib (nc)
8266.1.1 = { holder=102455944 } # Azam (nc)
8286.1.1 = { holder=102555944 } # Sadiq (nc)

