#House Buckler
202.1.1={ liege="d_wendwater" }
7863.1.1={ holder=344319 } # Bryen (nc)
7880.1.1={ holder=343319 } # Reynard (nc)
7914.1.1={ holder=342319 } # Willem (nc)
7921.1.1={ holder=341319 } # Harwyn (nc)
7934.1.1={ holder=340319 } # Andrew (nc)

7960.1.1={ holder=60000319} # Edric (nc)
8002.1.1={ holder=3000319 } # Rickard (nc)
8028.1.1={ holder=3001319 } # Edric (nc)
8055.1.1={ holder=3002319 } # Orys (nc)
8073.1.1={ holder=3003319 } # Rickard (nc)
8087.1.1={ holder=3004319 } # Maric (nc)
8103.1.1={ holder=60100319 } # Barristan (nc)
8129.8.1={ holder=60200319 } # Brienne (nc)
8133.12.1={ holder=3006319 } # Regenard (nc)
8154.1.1={ holder=3007319 } # Kennald (nc)
8175.1.1={ holder=3008319 } # Halion (nc)
8210.1.1={ holder=3011319 } # Rickard (nc)
8254.1.1={ holder=3012319 } # Byron (nc)
8281.1.1={ holder=319 } # Ralph Buckler (C)