#House Wull
6000.1.1={
	liege="e_north"
	law = succ_primogeniture
}
7859.1.1 = { holder=344099 } # Bodger (nc)
7879.1.1 = { holder=343099 } # Hullen (nc)
7902.1.1 = { holder=342099 } # Hugo (nc)
7919.1.1 = { holder=341099 } # Wendel (nc)
7941.1.1 = { holder=340099 } # Walder (nc)

7965.1.1 = { holder=43099 } # Wynton (nc)
7999.1.1={
	liege="k_north"
}
8012.1.1 = { holder=42099 } # Artos (nc)
8027.1.1 = { holder=40099 } # Mallador (nc)
8044.1.1 = { holder=39099 } # Robett (nc)
8051.1.1 = { holder=38099 } # Donnor (nc)
8076.1.1 = { holder=37099 } # Jon (nc)
8109.1.1 = { holder=36099 } # Jathan (nc)
8121.1.1 = { holder=35099 } # Lothor (nc)
8131.1.1 = { holder=34099 } # Walton (nc)
8179.1.1 = { holder=33099 } # Wylis (nc)
8191.1.1 = { holder=32099 } # Arthor (nc)
8201.1.1 = { holder=31099 } # Brandon (nc)
8243.1.1 = { holder=10099 }
8262.1.1 = {
	holder=99 # Hugo Wull (C)
}
