#House Sloane
900.1.1={ law=succ_primogeniture law=cognatic_succession
	liege="d_west_marches"
}
7856.1.1 = { holder=3011259 } # Talbert (nc)
7873.1.1 = { holder=3006259 } # Celement (nc)
7911.1.1 = { holder=3005259 } # Edger (nc)
7934.1.1 = { holder=3003259 } # Dorian (nc)
7956.1.1 = { holder=3002259 } # Samwell (nc)

7965.1.1 = { holder=3000259 } # Olymer (nc)
7990.1.1 = { holder=3001259 } # Mern (nc)
8052.1.1 = { holder=3004259 } # Lorens (nc)
8072.1.1 = { holder=3007259 } # Leyla (nc)
8099.1.1 = { holder=3009259 } # Androw (nc)
8141.1.1 = { holder=3010259 } # Medwick (nc)
8155.1.1 = { holder=3014259 } # Quentin (nc)
8199.1.1 = { holder=3016259 } # Garlan (nc)
8202.1.1 = { holder=3017259 } # Abelar (nc)
8229.1.1 = { holder=3023259 } # Alester (nc)
8275.1.1 = { holder=3025259 } # Orton (nc)
8282.1.1={
	holder=259 #Tristram (nc)
}



