#House Redbeard
7866.1.1 = { holder=345174353 } # Medger (nc)
7880.1.1 = { holder=344174353 } # Bernarr (nc)
7904.1.1 = { holder=343174353 } # Walton (nc)
7925.1.1 = { holder=342174353 } # Torghen (nc)
7946.1.1 = { holder=341174353 } # Lenyl (nc)
7967.1.1 = { holder=340174353 } # Owen (nc)
7988.1.1 = { holder=10174353 } # Sigorn (nc)
8016.1.1 = { holder=11174353 } # Borroq (nc)
8037.1.1 = { holder=13174353 } # Vayon (nc)
8084.1.1 = { holder=14174353 } # Lenyl (nc)
8113.1.1 = { holder=17174353 } # Harle (nc)
8115.1.1 = { holder=18174353 } # Howd (nc)
8153.1.1 = { holder=21174353 } # Soren (nc)
8175.1.1={
	holder=1021359
}
8197.1.1={
	holder=21359
}
8213.1.1={
	liege="k_beyond_wall"
}
8226.9.9={
	holder=121359
	liege=0
	effect = {
		b_haunted_keep = {
			remove_building = ca_wildling_barracks4
			remove_building = ca_wildling_barracks3
			remove_building = ca_wildling_barracks2
		}
	}
}
8230.1.1={
	holder=421359
}
8252.1.1={
	holder=521359
}
8278.1.1={
	holder=574800
}
8298.1.1={
	liege="k_beyond_wall"
}
8300.2.10={
	holder=999000666
}


