#House Asker
600.1.1={
	liege="d_hills_tiqui"
}
7876.1.1 = { holder=34469100 } # Ran (nc)
7885.1.1 = { holder=34369100 } # Xun (nc)
7933.1.1 = { holder=34269100 } # Xun (nc)
7945.1.1 = { holder=34169100 } # Lo (nc)
7977.1.1 = { holder=34069100 } # Ding (nc)

7995.1.1 = { holder=10069100 } # Binh (nc)
8041.1.1 = { holder=10169100 } # Youkhanna (nc)
8053.1.1 = { holder=10569100 } # Aram (nc)
8062.1.1 = { holder=10669100 } # Mubarak (nc)
8119.1.1 = { holder=10969100 } # Sami (nc)
8138.1.1 = { holder=11169100 } # Mahdi (nc)
8156.1.1 = { holder=11369100 } # Jibril (nc)
8174.1.1 = { holder=11769100 } # Hasan_Hasan (nc)
8205.1.1 = { holder=11869100 } # Bakr (nc)
8228.1.1 = { holder=12069100 } # Fadl (nc)
8231.1.1 = { holder=12469100 } # Idris (nc)
8298.1.1 = { holder=12669100 } # Ramadan (nc)


