#House Umaru
7800.1.1 = {
	liege=d_red_flower_vale
	law = succ_seniority
	law = cognatic_succession
}
7861.1.1 = { holder=340304034 } # Xhondo (nc)
7885.1.1 = { holder=341304034 } # Qubhar (nc)
7914.1.1 = { holder=342304034 } # Xhondo (nc)
7946.1.1 = { holder=343304034 } # Simbhar (nc)
7968.1.1 = { holder=344304034 } # Isodo (nc)
8003.1.1 = { holder=100304034 } # Xhakan (nc)
8045.1.1 = { holder=101304034 } # Tal (nc)
8050.1.1 = { holder=104304034 } # Makhan (nc)
8087.1.1 = { holder=110304034 } # Qaro (nc)
8104.1.1 = { holder=113304034 } # Xhonodo (nc)
8138.1.1 = { holder=119304034 } # Tapuhuru (nc)
8202.1.1 = { holder=120304034 } # Simbhar (nc)
8208.1.1 = { holder=121304034 } # Gwalahuru (nc)
8213.1.1 = { holder=123304034 } # Sango (nc)
8245.1.1 = { holder=129304034 } # Konde (nc)
8270.1.1 = { holder=130304034 } # Anyim (nc)
8286.1.1 = { holder=132304034 } # Manahuru (nc)
