5214.1.1={
	liege="k_sarnor"
	law = succ_primogeniture
}
7809.1.1 = { holder=10056812 } # Sahat (nc)
7845.1.1 = { holder=10256812 } # Amritlal (nc)
7864.1.1 = { holder=10456812 } # Nishad (nc)
7892.1.1 = { holder=10956812 } # Vishruth (nc)
7904.1.1 = { holder=11056812 } # Ishan (nc)
7940.1.1 = { holder=11456812 } # Onkar (nc)

#Dothraki
7975.1.1 = { 
	holder=100600217 
	liege = d_mardosh
} # Rogo (nc)
8010.1.1 = { holder=102600217 } # Ogo (nc)
8033.1.1 = { holder=107600217 } # Rhogoro (nc)
8070.1.1 = { holder=111600217 } # Mosko (nc)
8089.1.1 = { holder=112600217 } # Temmo (nc)
8093.1.1 = { holder=116600217 } # Cohollo (nc)
8121.1.1 = { holder=121600217 } # Pono (nc)
8125.1.1 = { holder=123600217 } # Zerqollo (nc)
8164.1.1 = { holder=127600217 } # Hezzo (nc)
8166.1.1 = { holder=131600217 } # Moro (nc)
8187.1.1 = { holder=135600217 } # Remekko (nc)
8237.1.1 = { holder=139600217 } # Rhogoro (nc)
8265.1.1 = { holder=142600217 } # Jasso (nc)
8294.1.1 = { holder=147600217 } # Remekko (nc)