6200.1.1={
	liege="d_the_sisters"
	law = succ_primogeniture
}
7830.1.1 = { holder=3034164 }
7874.1.1 = { holder=3033164 }
7900.1.1 = { holder=3032164 }
7924.1.1 = { holder=3031164 }
7940.1.1 = { holder=3030164 }
7984.1.1 = { holder=3002164 }
8021.1.1 = { holder=3000164 } # Raymar (nc)
8038.1.1 = { holder=3005164 } # Denys (nc)
8041.1.1 = { holder=3007164 } # Artys (nc)
8071.1.1 = { holder=3010164 } # Waymar (nc)
8090.1.1 = { holder=3012164 } # Denys (nc)
8121.1.1 = { holder=3013164 } # Pate (nc)
8158.1.1 = { holder=3014164 } # Osgood (nc)
8214.1.1 = { holder=3015164 } # Humfrey (nc)
8222.1.1 = { holder=3017164 } # Rolland (nc)
8228.1.1 = { holder=3021164 } # Gilwood (nc)
8267.1.1 = { holder=3024164 } # Horton (nc)
8280.1.1={
	holder=94034
}