6000.1.1={
	liege="d_oldstones"
}
7825.1.1={
	holder=31133
}
7870.1.1={
	holder=30133
}
7900.1.1={
	holder=29133
}
7935.1.1={
	holder=28133
}
7960.1.1={
	holder=27133
}
7980.1.1={
	holder=22133
}
8008.1.1={
	holder=21133
}
8022.1.1={
	holder=20133
}
8028.1.1={
	holder=19133
}
8038.1.1={
	holder=18133
}
8048.1.1={
	holder=17133
}
8087.1.1={
	holder=15133
}
8114.1.1={
	holder=14133 # Anson Grell
}
8168.1.1={
	holder=13133 
}
8171.1.1={
    holder=23133 # Bryne Grell
}	
8178.1.1 = {
	holder=12133 # Jostyn Grell
}
8198.1.1={
	holder=11133
}
8233.1.1={
	holder=10133
}
8252.1.1={
	holder=9133
}
8268.1.1={
	holder=8133
}
8279.1.1={
	holder=133
}