3.1.1={ liege="d_runestone" }
7825.1.1 = { holder=28174835 }
7876.1.1 = { holder=27174835 }
7900.1.1 = { holder=26174835 }
7923.1.1 = { holder=25174835 }
7957.1.1 = { holder=24174835 }
7985.1.1 = { holder=23174835 } # Donnel Dutton (nc)
8004.1.1 = { holder=13174835 } # Denys Dutton (nc)
8043.1.1 = { holder=15174835 } # Harrold Dutton (nc)
8075.1.1 = { holder=16174835 } # Lothor Dutton (nc)
8120.1.1 = { holder=17174835 } # Harlan Dutton (nc)
8130.1.1 = { holder=18174835 } # Malcolm Dutton (nc)
8160.1.1 = { holder=19174835 } # Randyll Dutton (nc)
8202.1.1 = { holder=21174835 } # Wyllis Dutton (nc)
8225.1.1 = { holder=22174835 } # Martyn Dutton (nc)
8244.1.1 = { holder=174835 } # Gilbert Dutton (nc)
8291.1.1 = { holder=10174835 } # Martyn Dutton (nc)