#House Overton
6000.1.1={
	liege="d_dreadfort"
	law = succ_primogeniture
}
7877.1.1 = { holder=344085 } # Alton (nc)
7885.1.1 = { holder=343085 } # Alaric (nc)
7911.1.1 = { holder=342085 } # Osric (nc)
7932.1.1 = { holder=341085 } # Owen (nc)
7966.1.1 = { holder=340085 } # Porther (nc)

7972.1.1 = { holder=16085 } # Daryn (nc) 
8007.1.1 = { holder=15085 } # Arnolf (nc)
8013.1.1 = { holder=14085 } # Garth (nc)
8028.1.1 = { holder=13085 } # Desmond (nc)
8039.1.1 = { holder=12085 } # Roger (nc)
8084.1.1 = { holder=10085 } # Galbart (nc)
8092.1.1 = { holder=9085 } # Garris (nc)
8115.1.1 = { holder=8085 } # Donnis (nc)
8159.1.1 = { holder=7085 } # Dywen (nc)
8172.1.1 = { holder=6085 } # Alaric (nc)
8184.1.1 = { holder=5085 } # Donnel (nc)
8229.1.1 = { holder=4085 } # Vayon (nc)
8262.1.1={
	holder=85
}
