#House Liddle
6000.1.1 = {
	liege="e_north"
	law = succ_primogeniture
}
7854.1.1 = { holder=344097 } # Kyle (nc)
7876.1.1 = { holder=343097 } # Jeor (nc)
7900.1.1 = { holder=342097 } # Osbert (nc)
7939.1.1 = { holder=341097 } # Byren (nc)
7958.1.1 = { holder=340097 } # Hugo (nc)

7980.1.1 = { holder=16097} # Lothor (nc)
7999.1.1 = {
	liege="k_north"
}
8006.1.1 = { holder=13097 } # Lonnel (nc)
8022.1.1 = { holder=12097 } # Jory (nc)
8037.1.1 = { holder=11097 } # Helman (nc)
8078.1.1 = { holder=10097 } # Brenett (nc)
8092.1.1 = { holder=9097 } # Duncan (nc)
8142.1.1 = { holder=8097 } # Jonos (nc)
8176.1.1 = { holder=7097 } # Aethan (nc)
8187.1.1 = { holder=6097 } # Ethan (nc)
8224.1.1 = { holder=5097 } # Bran (nc)
8267.1.1 = { holder=4097 } # Theodan (nc)
8282.1.5 = { 
	holder=97 # Torren Liddle (C)
}
