6200.1.1={
	liege="d_redfort"
	law = succ_primogeniture
}
6502.1.1={
	holder=3002183
}
6538.6.6 = {
	holder=0
}
7798.1.1 = {
	holder=3025183
}
7845.1.1 = {
	holder=3024183
}
7886.1.1 = {
	holder=3023183
}
7900.1.1 = {
	holder=3022183
}
7924.1.1 = {
	holder=3013183
}
7962.1.1 = {
	holder=3005183
}
7985.1.1 = {
	holder=3001183 
}
8015.1.1 = { holder=3000183 } # Humfrey (nc)
8032.1.1 = { holder=3003183 } # Danwell (nc)
8045.1.1 = { holder=3006183 } # Narbert (nc)
8064.1.1 = { holder=3007183 } # Andrey (nc)
8100.1.1 = { holder=3008183 } # Aethelmure (nc)
8144.1.1 = { holder=3010183 } # Clement (nc)
8146.1.1 = { holder=3012183 } # Lothar (nc)
8161.1.1 = { holder=3015183 } # Marq (nc)
8221.1.1 = { holder=3018183 } # Malwyn (nc)

8242.1.1={
	holder=94058
}