6200.1.1={
	liege="k_the_fingersTK"
	law = succ_primogeniture
}

6470.1.1 = { holder = 550881801 } #Jon Brightstone, King of The Fingers

6479.1.1={ 
	liege = d_the_fingers 
	holder = 0
}

7349.1.1 = { liege="e_vale" }
7846.1.1 = { holder=3036173 }
7900.1.1 = { holder=3035173 }
7920.1.1 = { holder=3034173 }
7942.1.1 = { holder=3033173 }
7975.1.1 = { holder=3032173 }
7995.1.1 = { holder=3000173 } # Umfred (nc)
7999.1.1={ 
	liege="k_vale"
} 
8030.1.1 = { holder=3002173 } # Morgarth (nc)
8045.1.1 = { holder=3009173 } # Elys (nc)
8066.1.1 = { holder=3012173 } # Osgood (nc)
8110.1.1 = { holder=3018173 } # Lyonel (nc)
8145.1.1 = { holder=3020173 } # Eddison (nc)
8162.1.1 = { holder=3025173 } # Gyles (nc)
8173.1.1 = { holder=3028173 } # Robin (nc)
8224.1.1 = { holder=3030173 } # Lyonel (nc)

8251.1.1={
	holder = 94082 	#Lord Cerwyn Donniger
}