#NOTE: The holder of this title has the House Westerling dynasty tracker set in roberts_rebellion_events
#c_the_crag
900.1.1={
	liege="d_the_crag"
}
7821.1.1={
	holder=41199
}
7878.1.1={
	holder=40199
}
7905.1.1={
	holder=39199
}
7931.1.1={
	holder=38199
}
7962.1.1={
	holder=36199
}
7984.1.1={
	holder=34199
}
7996.1.1 = {
	holder=21199
}
8034.1.1 = {
holder=20199
}
8059.2.1 = {
holder=19199
}
8077.1.1 = {
holder=18199
}
8098.1.1 = {
holder=16199
}
8133.6.1 = {
holder=17199
}
8138.1.1 = {
holder=15199
}
8176.1.1 = {
holder=13199
}
8196.2.5 = {
holder=12199
}
8211.1.1 = {
holder=11199
}
8254.1.1 = {
holder=10199
}
8273.1.1 = {	
holder=199
}