7875.1.1 = { holder=345559121 } # Doss (nc)
7884.1.1 = { holder=344559121 } # Dryn (nc)
7908.1.1 = { holder=343559121 } # Brogg (nc)
7913.1.1 = { holder=342559121 } # Borroq (nc)
7944.1.1 = { holder=341559121 } # Dormund (nc)
7961.1.1 = { holder=340559121 } # Styr (nc)
7986.1.1 = { holder=10559121 } # Yoren (nc)
8024.1.1 = { holder=12559121 } # Wallen (nc)
8052.1.1 = { holder=13559121 } # Dormund (nc)
8096.1.1 = { holder=14559121 } # Cregan (nc)
8137.1.1 = { holder=15559121 } # Henk (nc)
8148.1.1 = { holder=17559121 } # Briar (nc)
8184.1.1 = { holder=18559121 } # Joramun (nc)
8206.1.1 = { holder=19559121 } # Halleck (nc)
8210.1.1 = { holder=22559121 } # Gendel (nc)
8213.1.1 = {
	liege="k_beyond_wall"
}
8226.9.9 = {
	liege="0"
}
8235.1.1 = { holder=23559121 } # Ondrew (nc)
8239.1.1 = { holder=25559121 } # Dan (nc)
8270.1.1 = { holder=26559121 } # Lenn (nc)
#8294.1.1 = { holder=28559121 } # Walton (nc)

8280.1.1 = {
	holder=174345
}
8298.1.1 = {
	liege="k_beyond_wall"
}
8300.2.10 = {
	liege="d_lower_frostfangs"
	holder=157001 #The Weeper
}