#House Vynenohr
600.1.1={
	law = succ_open_elective
}
7870.1.1 = { holder=345300206 } # Conio (nc)
7883.1.1 = { holder=344300206 } # Nakaario (nc)
7915.1.1 = { holder=343300206 } # Ryllo (nc)
7944.1.1 = { holder=342300206 } # Haario (nc)
7961.1.1 = { holder=341300206 } # Ballio (nc)
7981.1.1 = { holder=340300206 } # Daario (nc)

7989.1.1 = { holder=100300206 } # Ordello (nc)
8015.1.1 = { holder=101300206 } # Pynto (nc)
8040.1.1 = { holder=102300206 } # Lotho (nc)
8072.1.1 = { holder=105300206 } # Moredo (nc)
8096.6.1={
	liege="d_southern_stepstones"
}
8109.1.1={
	liege="k_stepstones"
}
8110.1.1 = { holder=109300206 } # Areo (nc)
8116.1.1={
	liege="0"
}

8131.9.1 = {
	holder = 105030533 #Racallio Ryndoon
	liege="k_stepstones"
}
8134.1.1 = {
	liege="0"
	holder=109300206
}

8143.1.1 = { holder=112300206 } # Lotho (nc)
8146.1.1 = { holder=113300206 } # Tregar (nc)
8157.1.1={
	liege="k_stepstones"
}
8159.1.1={
	liege="0"
}
8175.1.1 = { holder=115300206 } # Izembaro (nc)
8182.1.1 = { holder=118300206 } # Syrio (nc)
8200.1.1 = { holder=120300206 } # Cossomo (nc)
8254.1.1 = { holder=122300206 } # Joss (nc)

8258.1.1={
	liege="d_southern_stepstones"
}
8258.1.1={
	holder = 600000064 #Old Mother
}
8260.12.31={
	liege="0"
}
8270.11.11={
	holder=122300206
}

8291.1.1 = { holder=125300206 } # Daario (nc)

8300.2.1={
	holder = 15052 #Aurane Waters
}
