#House Ullhor
600.1.1={
	liege="k_astapor"
}
7872.1.1 = { holder=344360000 } # Grazdan (nc)
7884.1.1 = { holder=343360000 } # Oznak (nc)
7910.1.1 = { holder=342360000 } # Prendahl (nc)
7937.1.1 = { holder=341360000 } # Gazdhor (nc)
7959.1.1 = { holder=340360000 } # Grazdan (nc)

7990.1.1 = { holder=150360000 } # Marghaz (nc)
8015.1.1 = { holder=100360000 } # Barghaz (nc)
8042.1.1 = { holder=101360000 } # Grazdan (nc)
8062.1.1 = { holder=104360000 } # Marghaz (nc)
8100.1.1 = { holder=109360000 } # Zarraq (nc)
8135.1.1 = { holder=111360000 } # Gazdhor (nc)
8170.1.1 = { holder=115360000 } # Grazdan (nc)
8196.1.1 = { holder=116360000 } # Prendahl (nc)
8227.1.1 = { holder=123360000 } # Grazdhan (nc)
8237.1.1 = { holder=126360000 } # Yezzan (nc)
8253.1.1 = { holder=129360000 } # Marghaz (nc)
8289.1.1={
	holder=6571001 # Grazdan
}
8299.12.12={
	holder=0 # Dany happened !!
}