#House Wythers
900.1.1={ law=succ_primogeniture law=cognatic_succession
	liege="d_torrentpeak"
}
7850.1.1 = { holder=6044244 } # Lorent (nc)
7883.1.1 = { holder=6043244 } # Raymund (nc)
7905.1.1 = { holder=6042244 } # Omer (nc)
7934.1.1 = { holder=6041244 } # Warryn (nc)
7972.1.1 = { holder=6040244 } # Willam (nc)

7992.1.1 = { holder=6100244 } # Titus (nc)
8010.1.1 = { holder=6103244 } # Runceford (nc)
8028.1.1 = { holder=6006244 } # Luthor (nc)
8071.1.1 = { holder=6009244 } # Russell (nc)
8088.1.1 = { holder=6014244 } # Medwick (nc)
8106.1.1 = { holder=6015244 } # Erren (nc)
8126.1.1 = { holder=6018244 } # Leyton (nc)
8176.1.1 = { holder=6019244 } # Hyle (nc)
8179.1.1 = { holder=6024244 } # Ronnel (nc)

8230.1.1={
	holder=88279
}
8274.1.1={
	holder=244
}





