#House Wyl
1.1.1={
	liege="d_stoneway"
	law = true_cognatic_succession
}
200.1.1 = { holder=60002019 } # Wylla (Canon)
235.1.1 = { holder=0 }
7855.1.1 = { holder=66419 } # Edwyle (nc)
7881.1.1 = { holder=66319 } # Edwyle (nc)
7922.1.1 = { holder=66219 } # Galwell (nc)
7948.1.1 = { holder=66119 } # Edwyle (nc)
7970.1.1 = { holder=60000019 } # Wyland (nc)
7993.1.1 = { holder=65019 } # Wyl (Canon)
8027.1.1 = { holder=65119 } # Walter (Canon)
8053.1.1 = { holder=65419 } # Colin (nc)
8075.1.1 = { holder=65619 } # Tremond (nc)
8107.1.1 = { holder=65819 } # Alaric (nc)
8148.1.1 = { holder=651919 } # Guerin (nc)
8199.1.1 = { holder=652019 } # Coran (nc)
8203.1.1 = { holder=652419 } # Mariya (nc)
8209.1.1 = { holder=652519 } # Mors (nc)
8248.1.1 = {  holder=19 } # Edmynd (nc)