7850.1.1 = { 
	holder=345607303 # Gharak (nc)
	historical_nomad = yes
}
7875.1.1 = { holder=344607303 } # Qomol (nc)
7887.1.1 = { holder=343607303 } # Vidak (nc)
7912.1.1 = { holder=342607303 } # Elhash (nc)
7930.1.1 = { holder=341607303 } # Shilor (nc)
7959.1.1 = { holder=340607303 } # Esenin (nc)

7980.1.1 = { holder=100607303 } # Zaid (nc)
8019.1.1 = { holder=101607303 } # Edrees (nc)
8035.1.1 = { holder=106607303 } # Qader (nc)
8048.1.1 = { holder=107607303 } # Sabeir (nc)
8079.1.1 = { holder=109607303 } # Taj (nc)
8099.1.1 = { holder=110607303 } # Kahkazan (nc)
8155.1.1 = { holder=113607303 } # Usma (nc)
8176.1.1 = { holder=114607303 } # Naim (nc)
8178.1.1 = { holder=115607303 } # Faqar (nc)
8195.1.1 = { holder=117607303 } # Aarak (nc)
8226.1.1 = { holder=119607303 } # Ehsan (nc)
8252.1.1 = { holder=122607303 } # Parviz (nc)
8293.1.1 = { holder=126607303 } # Ramazan (nc)

