7871.1.1 = {
	holder=343607302 # Basir (nc)
	historical_nomad = yes
}
7884.1.1 = { holder=342607302 } # Latik (nc)
7921.1.1 = { holder=341607302 } # Parviz (nc)
7946.1.1 = { holder=340607302 } # Temur (nc)
7955.1.1 = { holder=100607302 } # Jawak (nc)
8001.1.1 = { holder=101607302 } # Faqar (nc)
8030.1.1 = { holder=105607302 } # Kahkazan (nc)
8046.1.1 = { holder=110607302 } # Zeba (nc)
8059.1.1 = { holder=113607302 } # Basir (nc)
8103.1.1 = { holder=114607302 } # Jaan (nc)
8147.1.1 = { holder=115607302 } # Yasen (nc)
8163.1.1 = { holder=116607302 } # Sabeir (nc)
8172.1.1 = { holder=118607302 } # Ramazan (nc)
8191.1.1 = { holder=120607302 } # Tamim (nc)
8217.1.1 = { holder=125607302 } # Obiad (nc)
8221.1.1 = { holder=128607302 } # Zabi (nc)
8258.1.1 = { holder=129607302 } # Wahida (nc)
8274.1.1 = { holder=130607302 } # Rasoul (nc)

