2000.1.1={
	liege="e_riverlands"
	law = succ_primogeniture
}
#House Tully
6648.1.1 = { holder=561159 } # Axel (C)
6660.1.1 = { holder=0 }

7668.1.1 = { holder=1502159 } # Elston (C)
7680.1.1 = { holder=0 }

7860.1.1 = { holder=341159 } # Edmure (nc)
7879.1.1 = { holder=340159 } # Edmyn (nc)

7902.1.1 = { holder=550159 } # Tommen (C)
7940.1.1 = { holder=551159 } # Lymond (nc)
7954.1.1 = { holder=553159 } # Ben (nc)

7982.1.1 = {
	holder=17159 # Edmyn Tully (C)
}
7998.2.1={
	liege="k_riverlands"
}
8035.1.1={
	holder=16159 # Samwell
}
8037.1.1={
	holder=150159 # Prentys Tully (C)
}
8059.2.1={
	holder=15159 # Grover Tully (C)
}
8130.6.5 = {
	holder=14159 # Elmo Tully (C)
}
8130.7.14 = {
	holder=13159 # Kermit Tully (C)
}
8170.1.1={
	holder=19159 # Edmure Tully
}
8182.1.1={
    holder=2280159 # Edmund Tully
}	
8195.12.10={
	holder=1159 # Medgar Tully
}
8210.1.1={
	holder=10159
}
8258.1.1={
	holder=175159
}
8265.1.1 = {
	holder=159 # Hoster Tully (C)
}
8299.10.15={
	holder=4159 # Edmure Tully (C)
}

#House Frey
8300.4.15 = {
	holder=2127 #Emmon Frey
}