#House Adiur#
10032901 = {
	name="Sumalika"	# a lord
	dynasty=32901

	religion="shadowbinders"
	culture="asshai"

	7555.1.1 = {birth="7555.1.1"}
	7571.1.1 = {add_trait=trained_warrior}
	7573.1.1 = {add_spouse=40032901}
	7628.1.1 = {death="7628.1.1"}
}
40032901 = {
	name="Quaithe"
	female=yes

	religion="shadowbinders"
	culture="asshai"

	7555.1.1 = {birth="7555.1.1"}
	7628.1.1 = {death="7628.1.1"}
}
10132901 = {
	name="Urnammu"	# not a lord
	dynasty=32901

	religion="shadowbinders"
	culture="asshai"

	father=10032901
	mother=40032901

	7576.1.1 = {birth="7576.1.1"}
	7592.1.1 = {add_trait=trained_warrior}
	7594.1.1 = {add_spouse=40132901}
	7617.1.1 = {death="7617.1.1"}
}
40132901 = {
	name="Belessa"
	female=yes

	religion="shadowbinders"
	culture="asshai"

	7576.1.1 = {birth="7576.1.1"}
	7617.1.1 = {death="7617.1.1"}
}
10232901 = {
	name="Quazur"	# not a lord
	dynasty=32901

	religion="shadowbinders"
	culture="asshai"

	father=10032901
	mother=40032901

	7578.1.1 = {birth="7578.1.1"}
	7594.1.1 = {add_trait=poor_warrior}
	7630.1.1 = {death="7630.1.1"}
}
10332901 = {
	name="Taram"	# not a lord
	female=yes
	dynasty=32901

	religion="shadowbinders"
	culture="asshai"

	father=10032901
	mother=40032901

	7579.1.1 = {birth="7579.1.1"}
	7611.1.1 = {death="7611.1.1"}
}
10432901 = {
	name="Sapurtum"	# not a lord
	female=yes
	dynasty=32901

	religion="shadowbinders"
	culture="asshai"

	father=10132901
	mother=40132901

	7595.1.1 = {birth="7595.1.1"}
	7678.1.1 = {death="7678.1.1"}
}
10532901 = {
	name="Awil"	# a lord
	dynasty=32901

	religion="shadowbinders"
	culture="asshai"

	father=10132901
	mother=40132901

	7597.1.1 = {birth="7597.1.1"}
	7613.1.1 = {add_trait=poor_warrior}
	7615.1.1 = {add_spouse=40532901}
	7643.1.1 = {death="7643.1.1"}
}
40532901 = {
	name="Aya"
	female=yes

	religion="shadowbinders"
	culture="asshai"

	7597.1.1 = {birth="7597.1.1"}
	7643.1.1 = {death="7643.1.1"}
}
10632901 = {
	name="Munawirtum"	# not a lord
	dynasty=32901

	religion="shadowbinders"
	culture="asshai"

	father=10132901
	mother=40132901

	7598.1.1 = {birth="7598.1.1"}
	7614.1.1 = {add_trait=poor_warrior}
	7662.1.1 = {death="7662.1.1"}
}
10732901 = {
	name="Dadanum"	# a lord
	dynasty=32901

	religion="shadowbinders"
	culture="asshai"

	father=10532901
	mother=40532901

	7621.1.1 = {birth="7621.1.1"}
	7637.1.1 = {add_trait=trained_warrior}
	7639.1.1 = {add_spouse=40732901}
	7654.1.1 = {death = {death_reason = death_murder}}
}
40732901 = {
	name="Aya"
	female=yes

	religion="shadowbinders"
	culture="asshai"

	7621.1.1 = {birth="7621.1.1"}
	7654.1.1 = {death="7654.1.1"}
}
10832901 = {
	name="Ishtup"	# not a lord
	dynasty=32901

	religion="shadowbinders"
	culture="asshai"

	father=10532901
	mother=40532901

	7622.1.1 = {birth="7622.1.1"}
	7638.1.1 = {add_trait=skilled_warrior}
	7640.1.1 = {add_spouse=40832901}
	7671.1.1 = {death="7671.1.1"}
}
40832901 = {
	name="Gemethega"
	female=yes

	religion="shadowbinders"
	culture="asshai"

	7622.1.1 = {birth="7622.1.1"}
	7671.1.1 = {death="7671.1.1"}
}
10932901 = {
	name="Bikku"	# not a lord
	female=yes
	dynasty=32901

	religion="shadowbinders"
	culture="asshai"

	father=10532901
	mother=40532901

	7625.1.1 = {birth="7625.1.1"}
	7661.1.1 = {death="7661.1.1"}
}
11032901 = {
	name="Enheduana"	# not a lord
	female=yes
	dynasty=32901

	religion="shadowbinders"
	culture="asshai"

	father=10532901
	mother=40532901

	7628.1.1 = {birth="7628.1.1"}
	7670.1.1 = {death="7670.1.1"}
}
11132901 = {
	name="Mamagal"	# a lord
	dynasty=32901

	religion="shadowbinders"
	culture="asshai"

	father=10732901
	mother=40732901

	7648.1.1 = {birth="7648.1.1"}
	7664.1.1 = {add_trait=poor_warrior}
	7666.1.1 = {add_spouse=41132901}
	7714.1.1 = {death="7714.1.1"}
}
41132901 = {
	name="Ishtare"
	female=yes

	religion="shadowbinders"
	culture="asshai"

	7648.1.1 = {birth="7648.1.1"}
	7714.1.1 = {death="7714.1.1"}
}
11232901 = {
	name="Nammu"	# not a lord
	female=yes
	dynasty=32901

	religion="shadowbinders"
	culture="asshai"

	father=10832901
	mother=40832901

	7647.1.1 = {birth="7647.1.1"}
	7689.1.1 = {death = {death_reason = death_accident}}
}
11332901 = {
	name="Bunuth"	# not a lord
	dynasty=32901

	religion="shadowbinders"
	culture="asshai"

	father=10832901
	mother=40832901

	7650.1.1 = {birth="7650.1.1"}
	7666.1.1 = {add_trait=trained_warrior}
	7702.1.1 = {death="7702.1.1"}
}
11432901 = {
	name="Tehuth"	# not a lord
	dynasty=32901

	religion="shadowbinders"
	culture="asshai"

	father=10832901
	mother=40832901

	7653.1.1 = {birth="7653.1.1"}
	7669.1.1 = {add_trait=trained_warrior}
	7706.1.1 = {death="7706.1.1"}
}
11532901 = {
	name="Damuzi"	# a lord
	dynasty=32901

	religion="shadowbinders"
	culture="asshai"

	father=11132901
	mother=41132901

	7679.1.1 = {birth="7679.1.1"}
	7695.1.1 = {add_trait=trained_warrior}
	7697.1.1 = {add_spouse=41532901}
	7733.1.1 = {death="7733.1.1"}
}
41532901 = {
	name="Daqqartum"
	female=yes

	religion="shadowbinders"
	culture="asshai"

	7679.1.1 = {birth="7679.1.1"}
	7733.1.1 = {death="7733.1.1"}
}
11632901 = {
	name="Ubaruth"	# not a lord
	dynasty=32901

	religion="shadowbinders"
	culture="asshai"

	father=11132901
	mother=41132901

	7681.1.1 = {birth="7681.1.1"}
	7697.1.1 = {add_trait=trained_warrior}
	7751.1.1 = {death="7751.1.1"}
}
11732901 = {
	name="Dadazig"	# not a lord
	dynasty=32901

	religion="shadowbinders"
	culture="asshai"

	father=11132901
	mother=41132901

	7682.1.1 = {birth="7682.1.1"}
	7698.1.1 = {add_trait=poor_warrior}
	7747.1.1 = {death="7747.1.1"}
}
11832901 = {
	name="Quaithe"	# not a lord
	female=yes
	dynasty=32901

	religion="shadowbinders"
	culture="asshai"

	father=11532901
	mother=41532901

	7702.1.1 = {birth="7702.1.1"}
	7751.1.1 = {death="7751.1.1"}
}
11932901 = {
	name="Qasmath"	# a lord
	dynasty=32901

	religion="shadowbinders"
	culture="asshai"

	father=11532901
	mother=41532901

	7704.1.1 = {birth="7704.1.1"}
	7720.1.1 = {add_trait=skilled_warrior}
	7722.1.1 = {add_spouse=41932901}
	7747.1.1 = {death="7747.1.1"}
}
41932901 = {
	name="Aya"
	female=yes

	religion="shadowbinders"
	culture="asshai"

	7704.1.1 = {birth="7704.1.1"}
	7747.1.1 = {death="7747.1.1"}
}
12032901 = {
	name="Shepsin"	# not a lord
	dynasty=32901

	religion="shadowbinders"
	culture="asshai"

	father=11532901
	mother=41532901

	7707.1.1 = {birth="7707.1.1"}
	7723.1.1 = {add_trait=trained_warrior}
	7725.1.1 = {add_spouse=42032901}
	7748.1.1 = {death="7748.1.1"}
}
42032901 = {
	name="Daqqartum"
	female=yes

	religion="shadowbinders"
	culture="asshai"

	7707.1.1 = {birth="7707.1.1"}
	7748.1.1 = {death="7748.1.1"}
}
12132901 = {
	name="Samuqan"	# a lord
	dynasty=32901

	religion="shadowbinders"
	culture="asshai"

	father=11932901
	mother=41932901

	7731.1.1 = {birth="7731.1.1"}
	7747.1.1 = {add_trait=poor_warrior}
	7749.1.1 = {add_spouse=42132901}
	7776.1.1 = {death="7776.1.1"}
}
42132901 = {
	name="Ahassuth"
	female=yes

	religion="shadowbinders"
	culture="asshai"

	7731.1.1 = {birth="7731.1.1"}
	7776.1.1 = {death="7776.1.1"}
}
12232901 = {
	name="Kithar"	# not a lord
	female=yes
	dynasty=32901

	religion="shadowbinders"
	culture="asshai"

	father=11932901
	mother=41932901

	7732.1.1 = {birth="7732.1.1"}
	7789.1.1 = {death="7789.1.1"}
}
12332901 = {
	name="Bau"	# not a lord
	female=yes
	dynasty=32901

	religion="shadowbinders"
	culture="asshai"

	father=12032901
	mother=42032901

	7735.1.1 = {birth="7735.1.1"}
	7769.1.1 = {death="7769.1.1"}
}
12432901 = {
	name="Erethkiga"	# not a lord
	female=yes
	dynasty=32901

	religion="shadowbinders"
	culture="asshai"

	father=12032901
	mother=42032901

	7737.1.1 = {birth="7737.1.1"}
	7765.1.1 = {death="7765.1.1"}
}
12532901 = {
	name="Utu"	# a lord
	dynasty=32901

	religion="shadowbinders"
	culture="asshai"

	father=12032901
	mother=42032901

	7739.1.1 = {birth="7739.1.1"}
	7755.1.1 = {add_trait=poor_warrior}
	7757.1.1 = {add_spouse=42532901}
	7815.1.1 = {death = {death_reason = death_accident}}
}
42532901 = {
	name="Gemithe"
	female=yes

	religion="shadowbinders"
	culture="asshai"

	7739.1.1 = {birth="7739.1.1"}
	7815.1.1 = {death="7815.1.1"}
}
12632901 = {
	name="Hunhal"	# not a lord
	dynasty=32901

	religion="shadowbinders"
	culture="asshai"

	father=12032901
	mother=42032901

	7741.1.1 = {birth="7741.1.1"}
	7757.1.1 = {add_trait=poor_warrior}
	7798.1.1 = {death="7798.1.1"}
}
12732901 = {
	name="Humbab"	# not a lord
	dynasty=32901

	religion="shadowbinders"
	culture="asshai"

	father=12532901
	mother=42532901

	7764.1.1 = {birth="7764.1.1"}
	7780.1.1 = {add_trait=skilled_warrior}
	7782.1.1 = {add_spouse=42732901}
	7805.1.1 = {death = {death_reason = death_accident}}
}
42732901 = {
	name="Nindukugga"
	female=yes

	religion="shadowbinders"
	culture="asshai"

	7764.1.1 = {birth="7764.1.1"}
	7805.1.1 = {death="7805.1.1"}
}
12832901 = {
	name="Ninsun"	# not a lord
	female=yes
	dynasty=32901

	religion="shadowbinders"
	culture="asshai"

	father=12532901
	mother=42532901

	7767.1.1 = {birth="7767.1.1"}
	7821.1.1 = {death="7821.1.1"}
}
12932901 = {
	name="Ibnatum"	# a lord
	dynasty=32901

	religion="shadowbinders"
	culture="asshai"

	father=12732901
	mother=42732901

	7784.1.1 = {birth="7784.1.1"}
	7800.1.1 = {add_trait=trained_warrior}
	7802.1.1 = {add_spouse=42932901}
	7840.1.1 = {death="7840.1.1"}
}
42932901 = {
	name="Erethe"
	female=yes

	religion="shadowbinders"
	culture="asshai"

	7784.1.1 = {birth="7784.1.1"}
	7840.1.1 = {death="7840.1.1"}
}
13032901 = {
	name="Quazur"	# not a lord
	dynasty=32901

	religion="shadowbinders"
	culture="asshai"

	father=12732901
	mother=42732901

	7787.1.1 = {birth="7787.1.1"}
	7803.1.1 = {add_trait=skilled_warrior}
	7838.1.1 = {death="7838.1.1"}
}
13132901 = {
	name="Ishtup"	# not a lord
	dynasty=32901

	religion="shadowbinders"
	culture="asshai"

	father=12732901
	mother=42732901

	7789.1.1 = {birth="7789.1.1"}
	7805.1.1 = {add_trait=poor_warrior}
	7832.1.1 = {death="7832.1.1"}
}
13232901 = {
	name="Ahassuth"	# not a lord
	female=yes
	dynasty=32901

	religion="shadowbinders"
	culture="asshai"

	father=12732901
	mother=42732901

	7790.1.1 = {birth="7790.1.1"}
	7826.1.1 = {death="7826.1.1"}
}
13332901 = {
	name="Qasmath"	# a lord
	dynasty=32901

	religion="shadowbinders"
	culture="asshai"

	father=12932901
	mother=42932901

	7812.1.1 = {birth="7812.1.1"}
	7828.1.1 = {add_trait=poor_warrior}
	7830.1.1 = {add_spouse=43332901}
	7873.1.1 = {death="7873.1.1"}
}
43332901 = {
	name="Ninsun"
	female=yes

	religion="shadowbinders"
	culture="asshai"

	7812.1.1 = {birth="7812.1.1"}
	7873.1.1 = {death="7873.1.1"}
}
13432901 = {
	name="Murrim"	# not a lord
	female=yes
	dynasty=32901

	religion="shadowbinders"
	culture="asshai"

	father=12932901
	mother=42932901

	7814.1.1 = {birth="7814.1.1"}
	7855.1.1 = {death="7855.1.1"}
}
13532901 = {
	name="Nammu"	# not a lord
	female=yes
	dynasty=32901

	religion="shadowbinders"
	culture="asshai"

	father=13332901
	mother=43332901

	7830.1.1 = {birth="7830.1.1"}
	7869.1.1 = {death="7869.1.1"}
}
13632901 = {
	name="Bunuth"	# a lord
	dynasty=32901

	religion="shadowbinders"
	culture="asshai"

	father=13332901
	mother=43332901

	7833.1.1 = {birth="7833.1.1"}
	7849.1.1 = {add_trait=skilled_warrior}
	7851.1.1 = {add_spouse=43632901}
	7874.1.1 = {death="7874.1.1"}
}
43632901 = {
	name="Erethkiga"
	female=yes

	religion="shadowbinders"
	culture="asshai"

	7833.1.1 = {birth="7833.1.1"}
	7874.1.1 = {death="7874.1.1"}
}
13732901 = {
	name="Enlil"	# not a lord
	dynasty=32901

	religion="shadowbinders"
	culture="asshai"

	father=13332901
	mother=43332901

	7834.1.1 = {birth="7834.1.1"}
	7850.1.1 = {add_trait=poor_warrior}
	7891.1.1 = {death="7891.1.1"}
}
13832901 = {
	name="Nanna"	# not a lord
	female=yes
	dynasty=32901

	religion="shadowbinders"
	culture="asshai"

	father=13332901
	mother=43332901

	7835.1.1 = {birth="7835.1.1"}
	7888.1.1 = {death="7888.1.1"}
}
13932901 = {
	name="Yatum"	# a lord
	dynasty=32901

	religion="shadowbinders"
	culture="asshai"

	father=13632901
	mother=43632901

	7858.1.1 = {birth="7858.1.1"}
	7874.1.1 = {add_trait=poor_warrior}
	7876.1.1 = {add_spouse=43932901}
}
43932901 = {
	name="Erethe"
	female=yes

	religion="shadowbinders"
	culture="asshai"

	7858.1.1 = {birth="7858.1.1"}
}
14032901 = {
	name="Quaithe"	# not a lord
	female=yes
	dynasty=32901
	
	martial = 2
	stewardship = 3
	intrigue = 7
	learning = 8
	diplomacy = 7

	religion="shadowbinders"
	culture="asshai"

	father=13632901
	mother=43632901
	
	add_trait = elusive_shadow
	
	7859.1.1 = {birth="7859.1.1"}
	7879.1.1 = {
		add_trait = shadowbinder
		add_trait = mystic
		effect = {
			k_asshai = { holder_scope = { ROOT = { move_character = PREV } } }
		}
	}
}
14132901 = {
	name="Bunuth"	# not a lord
	dynasty=32901

	religion="shadowbinders"
	culture="asshai"

	father=13632901
	mother=43632901

	7862.1.1 = {birth="7862.1.1"}
	7878.1.1 = {add_trait=trained_warrior}
	7880.1.1 = {add_spouse=44132901}
}
44132901 = {
	name="Nammu"
	female=yes

	religion="shadowbinders"
	culture="asshai"

	7862.1.1 = {birth="7862.1.1"}
}
14232901 = {
	name="Mushtal"	# not a lord
	dynasty=32901

	religion="shadowbinders"
	culture="asshai"

	father=13932901
	mother=43932901

	7879.1.1 = {birth="7879.1.1"}
	7895.1.1 = {add_trait=trained_warrior}
}
14332901 = {
	name="Gemethega"	# not a lord
	female=yes
	dynasty=32901

	religion="shadowbinders"
	culture="asshai"

	father=14132901
	mother=44132901

	7894.1.1 = {birth="7894.1.1"}
}
14432901 = {
	name="Nintuda"	# not a lord
	female=yes
	dynasty=32901

	religion="shadowbinders"
	culture="asshai"

	father=14132901
	mother=44132901

	7896.1.1 = {birth="7896.1.1"}
}
14532901 = {
	name="Munawirtum"	# not a lord
	dynasty=32901

	religion="shadowbinders"
	culture="asshai"

	father=14132901
	mother=44132901

	7899.1.1 = {birth="7899.1.1"}
	7915.1.1 = {add_trait=trained_warrior}
}
##Manpos
10033911 = {
	name="Kurum"	# a lord
	dynasty=33911

	religion="shadowbinders"
	culture="shadowlander"

	7572.1.1 = {birth="7572.1.1"}
	7588.1.1 = {add_trait=trained_warrior}
	7590.1.1 = {add_spouse=40033911}
	7634.1.1 = {death="7634.1.1"}
}
40033911 = {
	name="Urbau"
	female=yes

	religion="shadowbinders"
	culture="shadowlander"

	7572.1.1 = {birth="7572.1.1"}
	7634.1.1 = {death="7634.1.1"}
}
10133911 = {
	name="Belessa"	# not a lord
	female=yes
	dynasty=33911

	religion="shadowbinders"
	culture="shadowlander"

	father=10033911
	mother=40033911

	7592.1.1 = {birth="7592.1.1"}
	7660.1.1 = {death="7660.1.1"}
}
10233911 = {
	name="Yasmath"	# a lord
	dynasty=33911

	religion="shadowbinders"
	culture="shadowlander"

	father=10033911
	mother=40033911

	7594.1.1 = {birth="7594.1.1"}
	7610.1.1 = {add_trait=poor_warrior}
	7612.1.1 = {add_spouse=40233911}
	7643.1.1 = {death="7643.1.1"}
}
40233911 = {
	name="Quaithe"
	female=yes

	religion="shadowbinders"
	culture="shadowlander"

	7594.1.1 = {birth="7594.1.1"}
	7643.1.1 = {death="7643.1.1"}
}
10333911 = {
	name="Sapurtum"	# not a lord
	female=yes
	dynasty=33911

	religion="shadowbinders"
	culture="shadowlander"

	father=10033911
	mother=40033911

	7596.1.1 = {birth="7596.1.1"}
	7658.1.1 = {death="7658.1.1"}
}
10433911 = {
	name="Wusum"	# not a lord
	dynasty=33911

	religion="shadowbinders"
	culture="shadowlander"

	father=10033911
	mother=40033911

	7597.1.1 = {birth="7597.1.1"}
	7613.1.1 = {add_trait=skilled_warrior}
	7652.1.1 = {death="7652.1.1"}
}
10533911 = {
	name="Mushtal"	# a lord
	dynasty=33911

	religion="shadowbinders"
	culture="shadowlander"

	father=10233911
	mother=40233911

	7617.1.1 = {birth="7617.1.1"}
	7633.1.1 = {add_trait=poor_warrior}
	7635.1.1 = {add_spouse=40533911}
	7672.1.1 = {death="7672.1.1"}
}
40533911 = {
	name="Urbau"
	female=yes

	religion="shadowbinders"
	culture="shadowlander"

	7617.1.1 = {birth="7617.1.1"}
	7672.1.1 = {death="7672.1.1"}
}
10633911 = {
	name="Qasmath"	# not a lord
	dynasty=33911

	religion="shadowbinders"
	culture="shadowlander"

	father=10233911
	mother=40233911

	7619.1.1 = {birth="7619.1.1"}
	7635.1.1 = {add_trait=poor_warrior}
	7644.1.1 = {death="7644.1.1"}
}
10733911 = {
	name="Zimu"	# not a lord
	female=yes
	dynasty=33911

	religion="shadowbinders"
	culture="shadowlander"

	father=10233911
	mother=40233911

	7621.1.1 = {birth="7621.1.1"}
	7652.1.1 = {death="7652.1.1"}
}
10833911 = {
	name="Erethe"	# not a lord
	female=yes
	dynasty=33911

	religion="shadowbinders"
	culture="shadowlander"

	father=10233911
	mother=40233911

	7623.1.1 = {birth="7623.1.1"}
	7675.1.1 = {death="7675.1.1"}
}
10933911 = {
	name="Erethkiga"	# not a lord
	female=yes
	dynasty=33911

	religion="shadowbinders"
	culture="shadowlander"

	father=10533911
	mother=40533911

	7640.1.1 = {birth="7640.1.1"}
	7698.1.1 = {death="7698.1.1"}
}
11033911 = {
	name="Arganth"	# a lord
	dynasty=33911

	religion="shadowbinders"
	culture="shadowlander"

	father=10533911
	mother=40533911

	7643.1.1 = {birth="7643.1.1"}
	7659.1.1 = {add_trait=trained_warrior}
	7661.1.1 = {add_spouse=41033911}
	7690.1.1 = {death="7690.1.1"}
}
41033911 = {
	name="Ninsun"
	female=yes

	religion="shadowbinders"
	culture="shadowlander"

	7643.1.1 = {birth="7643.1.1"}
	7690.1.1 = {death="7690.1.1"}
}
11133911 = {
	name="Murrim"	# not a lord
	female=yes
	dynasty=33911

	religion="shadowbinders"
	culture="shadowlander"

	father=10533911
	mother=40533911

	7645.1.1 = {birth="7645.1.1"}
	7708.1.1 = {death="7708.1.1"}
}
11233911 = {
	name="Urbau"	# not a lord
	female=yes
	dynasty=33911

	religion="shadowbinders"
	culture="shadowlander"

	father=11033911
	mother=41033911

	7678.1.1 = {birth="7678.1.1"}
	7738.1.1 = {death="7738.1.1"}
}
11333911 = {
	name="Belshun"	# a lord
	dynasty=33911

	religion="shadowbinders"
	culture="shadowlander"

	father=11033911
	mother=41033911

	7681.1.1 = {birth="7681.1.1"}
	7697.1.1 = {add_trait=trained_warrior}
	7699.1.1 = {add_spouse=41333911}
	7754.1.1 = {death="7754.1.1"}
}
41333911 = {
	name="Ilutha"
	female=yes

	religion="shadowbinders"
	culture="shadowlander"

	7681.1.1 = {birth="7681.1.1"}
	7754.1.1 = {death="7754.1.1"}
}
11433911 = {
	name="Ilutha"	# not a lord
	female=yes
	dynasty=33911

	religion="shadowbinders"
	culture="shadowlander"

	father=11033911
	mother=41033911

	7683.1.1 = {birth="7683.1.1"}
	7723.1.1 = {death="7723.1.1"}
}
11533911 = {
	name="Shullat"	# not a lord
	dynasty=33911

	religion="shadowbinders"
	culture="shadowlander"

	father=11033911
	mother=41033911

	7685.1.1 = {birth="7685.1.1"}
	7701.1.1 = {add_trait=trained_warrior}
	7703.1.1 = {add_spouse=41533911}
	7739.1.1 = {death="7739.1.1"}
}
41533911 = {
	name="Enheduana"
	female=yes

	religion="shadowbinders"
	culture="shadowlander"

	7685.1.1 = {birth="7685.1.1"}
	7739.1.1 = {death="7739.1.1"}
}
11633911 = {
	name="Belessa"	# not a lord
	female=yes
	dynasty=33911

	religion="shadowbinders"
	culture="shadowlander"

	father=11333911
	mother=41333911

	7715.1.1 = {birth="7715.1.1"}
	7747.1.1 = {death="7747.1.1"}
}
11733911 = {
	name="Ninhursag"	# not a lord
	female=yes
	dynasty=33911

	religion="shadowbinders"
	culture="shadowlander"

	father=11333911
	mother=41333911

	7717.1.1 = {birth="7717.1.1"}
	7764.1.1 = {death = {death_reason = death_accident}}
}
11833911 = {
	name="Erethkiga"	# not a lord
	female=yes
	dynasty=33911

	religion="shadowbinders"
	culture="shadowlander"

	father=11333911
	mother=41333911

	7720.1.1 = {birth="7720.1.1"}
	7786.1.1 = {death="7786.1.1"}
}
11933911 = {
	name="Lugatum"	# a lord
	dynasty=33911

	religion="shadowbinders"
	culture="shadowlander"

	father=11333911
	mother=41333911

	7722.1.1 = {birth="7722.1.1"}
	7738.1.1 = {add_trait=poor_warrior}
	7740.1.1 = {add_spouse=41933911}
	7764.1.1 = {death="7764.1.1"}
}
41933911 = {
	name="Nanna"
	female=yes

	religion="shadowbinders"
	culture="shadowlander"

	7722.1.1 = {birth="7722.1.1"}
	7764.1.1 = {death="7764.1.1"}
}
12033911 = {
	name="Gemithe"	# not a lord
	female=yes
	dynasty=33911

	religion="shadowbinders"
	culture="shadowlander"

	father=11933911
	mother=41933911

	7756.1.1 = {birth="7756.1.1"}
	7789.1.1 = {death="7789.1.1"}
}
12133911 = {
	name="Ninsun"	# not a lord
	female=yes
	dynasty=33911

	religion="shadowbinders"
	culture="shadowlander"

	father=11533911
	mother=41533911

	7708.1.1 = {birth="7708.1.1"}
	7763.1.1 = {death="7763.1.1"}
}
12233911 = {
	name="Kugbau"	# a lord
	dynasty=33911

	religion="shadowbinders"
	culture="shadowlander"

	father=11533911
	mother=41533911

	7711.1.1 = {birth="7711.1.1"}
	7727.1.1 = {add_trait=poor_warrior}
	7729.1.1 = {add_spouse=42233911}
	7788.1.1 = {death="7788.1.1"}
}
42233911 = {
	name="Eala"
	female=yes

	religion="shadowbinders"
	culture="shadowlander"

	7711.1.1 = {birth="7711.1.1"}
	7788.1.1 = {death="7788.1.1"}
}
12333911 = {
	name="Irrara"	# not a lord
	dynasty=33911

	religion="shadowbinders"
	culture="shadowlander"

	father=11533911
	mother=41533911

	7713.1.1 = {birth="7713.1.1"}
	7729.1.1 = {add_trait=trained_warrior}
	7731.1.1 = {add_spouse=42333911}
	7755.1.1 = {death="7755.1.1"}
}
42333911 = {
	name="Zimu"
	female=yes

	religion="shadowbinders"
	culture="shadowlander"

	7713.1.1 = {birth="7713.1.1"}
	7755.1.1 = {death="7755.1.1"}
}
12433911 = {
	name="Erethkiga"	# not a lord
	female=yes
	dynasty=33911

	religion="shadowbinders"
	culture="shadowlander"

	father=12233911
	mother=42233911

	7736.1.1 = {birth="7736.1.1"}
	7812.1.1 = {death="7812.1.1"}
}
12533911 = {
	name="Nammu"	# not a lord
	female=yes
	dynasty=33911

	religion="shadowbinders"
	culture="shadowlander"

	father=12333911
	mother=42333911

	7736.1.1 = {birth="7736.1.1"}
	7789.1.1 = {death="7789.1.1"}
}
12633911 = {
	name="Munawirtum"	# a lord
	dynasty=33911

	religion="shadowbinders"
	culture="shadowlander"

	father=12333911
	mother=42333911

	7737.1.1 = {birth="7737.1.1"}
	7753.1.1 = {add_trait=trained_warrior}
	7755.1.1 = {add_spouse=42633911}
	7800.1.1 = {death="7800.1.1"}
}
42633911 = {
	name="Nindukugga"
	female=yes

	religion="shadowbinders"
	culture="shadowlander"

	7737.1.1 = {birth="7737.1.1"}
	7800.1.1 = {death="7800.1.1"}
}
12733911 = {
	name="Zimu"	# not a lord
	female=yes
	dynasty=33911

	religion="shadowbinders"
	culture="shadowlander"

	father=12633911
	mother=42633911

	7757.1.1 = {birth="7757.1.1"}
	7789.1.1 = {death="7789.1.1"}
}
12833911 = {
	name="Ibnatum"	# a lord
	dynasty=33911

	religion="shadowbinders"
	culture="shadowlander"

	father=12633911
	mother=42633911

	7759.1.1 = {birth="7759.1.1"}
	7775.1.1 = {add_trait=skilled_warrior}
	7777.1.1 = {add_spouse=42833911}
	7815.1.1 = {death="7815.1.1"}
}
42833911 = {
	name="Ahassuth"
	female=yes

	religion="shadowbinders"
	culture="shadowlander"

	7759.1.1 = {birth="7759.1.1"}
	7815.1.1 = {death="7815.1.1"}
}
12933911 = {
	name="Ninsun"	# not a lord
	female=yes
	dynasty=33911

	religion="shadowbinders"
	culture="shadowlander"

	father=12633911
	mother=42633911

	7762.1.1 = {birth="7762.1.1"}
	7816.1.1 = {death="7816.1.1"}
}
13033911 = {
	name="Sumalika"	# a lord
	dynasty=33911

	religion="shadowbinders"
	culture="shadowlander"

	father=12633911
	mother=42633911

	7765.1.1 = {birth="7765.1.1"}
	7781.1.1 = {add_trait=trained_warrior}
	7783.1.1 = {add_spouse=43033911}
	7823.1.1 = {death="7823.1.1"}
}
43033911 = {
	name="Irkalla"
	female=yes

	religion="shadowbinders"
	culture="shadowlander"

	7765.1.1 = {birth="7765.1.1"}
	7823.1.1 = {death="7823.1.1"}
}
13133911 = {
	name="Puabi"	# not a lord
	female=yes
	dynasty=33911

	religion="shadowbinders"
	culture="shadowlander"

	father=12833911
	mother=42833911

	7793.1.1 = {birth="7793.1.1"}
	7856.1.1 = {death="7856.1.1"}
}
13233911 = {
	name="Iluath"	# a lord
	dynasty=33911

	religion="shadowbinders"
	culture="shadowlander"

	father=13033911
	mother=43033911

	7797.1.1 = {birth="7797.1.1"}
	7813.1.1 = {add_trait=poor_warrior}
	7815.1.1 = {add_spouse=43233911}
	7872.1.1 = {death="7872.1.1"}
}
43233911 = {
	name="Zimu"
	female=yes

	religion="shadowbinders"
	culture="shadowlander"

	7797.1.1 = {birth="7797.1.1"}
	7872.1.1 = {death="7872.1.1"}
}
13333911 = {
	name="Lugatum"	# not a lord
	dynasty=33911

	religion="shadowbinders"
	culture="shadowlander"

	father=13033911
	mother=43033911

	7799.1.1 = {birth="7799.1.1"}
	7815.1.1 = {add_trait=skilled_warrior}
	7851.1.1 = {death = {death_reason = death_murder}}
}
13433911 = {
	name="Bikku"	# not a lord
	female=yes
	dynasty=33911

	religion="shadowbinders"
	culture="shadowlander"

	father=13033911
	mother=43033911

	7801.1.1 = {birth="7801.1.1"}
	7840.1.1 = {death="7840.1.1"}
}
13533911 = {
	name="Ubaruth"	# not a lord
	dynasty=33911

	religion="shadowbinders"
	culture="shadowlander"

	father=13033911
	mother=43033911

	7802.1.1 = {birth="7802.1.1"}
	7818.1.1 = {add_trait=poor_warrior}
	7837.1.1 = {death="7837.1.1"}
}
13633911 = {
	name="Daqqartum"	# not a lord
	female=yes
	dynasty=33911

	religion="shadowbinders"
	culture="shadowlander"

	father=13033911
	mother=43033911

	7803.1.1 = {birth="7803.1.1"}
	7855.1.1 = {death="7855.1.1"}
}
13733911 = {
	name="Shepsin"	# a lord
	dynasty=33911

	religion="shadowbinders"
	culture="shadowlander"

	father=13233911
	mother=43233911

	7817.1.1 = {birth="7817.1.1"}
	7833.1.1 = {add_trait=skilled_warrior}
	7835.1.1 = {add_spouse=43733911}
	7897.1.1 = {death="7897.1.1"}
}
43733911 = {
	name="Ilutha"
	female=yes

	religion="shadowbinders"
	culture="shadowlander"

	7817.1.1 = {birth="7817.1.1"}
	7897.1.1 = {death="7897.1.1"}
}
13833911 = {
	name="Aya"	# not a lord
	female=yes
	dynasty=33911

	religion="shadowbinders"
	culture="shadowlander"

	father=13233911
	mother=43233911

	7818.1.1 = {birth="7818.1.1"}
	7885.1.1 = {death="7885.1.1"}
}
13933911 = {
	name="Urbau"	# not a lord
	female=yes
	dynasty=33911

	religion="shadowbinders"
	culture="shadowlander"

	father=13233911
	mother=43233911

	7821.1.1 = {birth="7821.1.1"}
	7862.1.1 = {death="7862.1.1"}
}
14033911 = {
	name="Gudeath"	# not a lord
	dynasty=33911

	religion="shadowbinders"
	culture="shadowlander"

	father=13233911
	mother=43233911

	7822.1.1 = {birth="7822.1.1"}
	7838.1.1 = {add_trait=trained_warrior}
	7881.1.1 = {death="7881.1.1"}
}
14133911 = {
	name="Eala"	# not a lord
	female=yes
	dynasty=33911

	religion="shadowbinders"
	culture="shadowlander"

	father=13733911
	mother=43733911

	7842.1.1 = {birth="7842.1.1"}
	7889.1.1 = {death="7889.1.1"}
}
14233911 = {
	name="Shusuen"	# a lord
	dynasty=33911

	religion="shadowbinders"
	culture="shadowlander"

	father=13733911
	mother=43733911

	7844.1.1 = {birth="7844.1.1"}
	7860.1.1 = {add_trait=trained_warrior}
	7862.1.1 = {add_spouse=44233911}
}
44233911 = {
	name="Anu"
	female=yes

	religion="shadowbinders"
	culture="shadowlander"

	7844.1.1 = {birth="7844.1.1"}
}
14333911 = {
	name="Lipith"	# not a lord
	dynasty=33911

	religion="shadowbinders"
	culture="shadowlander"

	father=13733911
	mother=43733911

	7845.1.1 = {birth="7845.1.1"}
	7861.1.1 = {add_trait=trained_warrior}
	7863.1.1 = {add_spouse=44333911}
	7895.1.1 = {death="7895.1.1"}
}
44333911 = {
	name="Ahassuth"
	female=yes

	religion="shadowbinders"
	culture="shadowlander"

	7845.1.1 = {birth="7845.1.1"}
	7895.1.1 = {death="7895.1.1"}
}
14433911 = {
	name="Lugatum"	# not a lord
	dynasty=33911

	religion="shadowbinders"
	culture="shadowlander"

	father=14233911
	mother=44233911

	7869.1.1 = {birth="7869.1.1"}
	7885.1.1 = {add_trait=trained_warrior}
}
14533911 = {
	name="Utu"	# not a lord
	dynasty=33911

	religion="shadowbinders"
	culture="shadowlander"

	father=14333911
	mother=44333911

	7873.1.1 = {birth="7873.1.1"}
	7889.1.1 = {add_trait=trained_warrior}
}
##Kumirai
10033914 = {
	name="Samuqan"	# a lord
	dynasty=33914

	religion="shadowbinders"
	culture="shadowlander"

	7544.1.1 = {birth="7544.1.1"}
	7560.1.1 = {add_trait=trained_warrior}
	7562.1.1 = {add_spouse=40033914}
	7609.1.1 = {death="7609.1.1"}
}
40033914 = {
	name="Bau"
	female=yes

	religion="shadowbinders"
	culture="shadowlander"

	7544.1.1 = {birth="7544.1.1"}
	7609.1.1 = {death="7609.1.1"}
}
10133914 = {
	name="La'um"	# a lord
	dynasty=33914

	religion="shadowbinders"
	culture="shadowlander"

	father=10033914
	mother=40033914

	7576.1.1 = {birth="7576.1.1"}
	7592.1.1 = {add_trait=trained_warrior}
	7594.1.1 = {add_spouse=40133914}
	7636.1.1 = {death="7636.1.1"}
}
40133914 = {
	name="Delondra"
	female=yes

	religion="shadowbinders"
	culture="shadowlander"

	7576.1.1 = {birth="7576.1.1"}
	7636.1.1 = {death="7636.1.1"}
}
10233914 = {
	name="Taram"	# not a lord
	female=yes
	dynasty=33914

	religion="shadowbinders"
	culture="shadowlander"

	father=10033914
	mother=40033914

	7578.1.1 = {birth="7578.1.1"}
	7656.1.1 = {death="7656.1.1"}
}
10333914 = {
	name="Humbab"	# a lord
	dynasty=33914

	religion="shadowbinders"
	culture="shadowlander"

	father=10033914
	mother=40033914

	7581.1.1 = {birth="7581.1.1"}
	7597.1.1 = {add_trait=trained_warrior}
	7599.1.1 = {add_spouse=40333914}
	7654.1.1 = {death="7654.1.1"}
}
40333914 = {
	name="Waqrat"
	female=yes

	religion="shadowbinders"
	culture="shadowlander"

	7581.1.1 = {birth="7581.1.1"}
	7654.1.1 = {death="7654.1.1"}
}
10433914 = {
	name="Wusum"	# not a lord
	dynasty=33914

	religion="shadowbinders"
	culture="shadowlander"

	father=10033914
	mother=40033914

	7584.1.1 = {birth="7584.1.1"}
	7600.1.1 = {add_trait=skilled_warrior}
	7626.1.1 = {death="7626.1.1"}
}
10533914 = {
	name="Urbau"	# not a lord
	female=yes
	dynasty=33914

	religion="shadowbinders"
	culture="shadowlander"

	father=10133914
	mother=40133914

	7598.1.1 = {birth="7598.1.1"}
	7666.1.1 = {death="7666.1.1"}
}
10633914 = {
	name="Ninhursag"	# not a lord
	female=yes
	dynasty=33914

	religion="shadowbinders"
	culture="shadowlander"

	father=10133914
	mother=40133914

	7600.1.1 = {birth="7600.1.1"}
	7652.1.1 = {death="7652.1.1"}
}
10733914 = {
	name="Urbau"	# not a lord
	female=yes
	dynasty=33914

	religion="shadowbinders"
	culture="shadowlander"

	father=10333914
	mother=40333914

	7605.1.1 = {birth="7605.1.1"}
	7645.1.1 = {death="7645.1.1"}
}
10833914 = {
	name="Ammith"	# not a lord
	dynasty=33914

	religion="shadowbinders"
	culture="shadowlander"

	father=10333914
	mother=40333914

	7607.1.1 = {birth="7607.1.1"}
	7623.1.1 = {add_trait=trained_warrior}
	7625.1.1 = {add_spouse=40833914}
	7642.1.1 = {death="7642.1.1"}
}
40833914 = {
	name="Aya"
	female=yes

	religion="shadowbinders"
	culture="shadowlander"

	7607.1.1 = {birth="7607.1.1"}
	7642.1.1 = {death="7642.1.1"}
}
10933914 = {
	name="La'um"	# not a lord
	dynasty=33914

	religion="shadowbinders"
	culture="shadowlander"

	father=10333914
	mother=40333914

	7609.1.1 = {birth="7609.1.1"}
	7625.1.1 = {add_trait=trained_warrior}
	7658.1.1 = {death="7658.1.1"}
}
11033914 = {
	name="Enheduana"	# not a lord
	female=yes
	dynasty=33914

	religion="shadowbinders"
	culture="shadowlander"

	father=10333914
	mother=40333914

	7610.1.1 = {birth="7610.1.1"}
	7671.1.1 = {death="7671.1.1"}
}
11133914 = {
	name="Eala"	# not a lord
	female=yes
	dynasty=33914

	religion="shadowbinders"
	culture="shadowlander"

	father=10333914
	mother=40333914

	7612.1.1 = {birth="7612.1.1"}
	7656.1.1 = {death="7656.1.1"}
}
11233914 = {
	name="Taram"	# not a lord
	female=yes
	dynasty=33914

	religion="shadowbinders"
	culture="shadowlander"

	father=10833914
	mother=40833914

	7635.1.1 = {birth="7635.1.1"}
	7692.1.1 = {death="7692.1.1"}
}
11333914 = {
	name="Naqir"	# a lord
	dynasty=33914

	religion="shadowbinders"
	culture="shadowlander"

	father=10833914
	mother=40833914

	7637.1.1 = {birth="7637.1.1"}
	7653.1.1 = {add_trait=trained_warrior}
	7655.1.1 = {add_spouse=41333914}
	7713.1.1 = {death="7713.1.1"}
}
41333914 = {
	name="Summirathe"
	female=yes

	religion="shadowbinders"
	culture="shadowlander"

	7637.1.1 = {birth="7637.1.1"}
	7713.1.1 = {death="7713.1.1"}
}
11433914 = {
	name="Murrithe"	# not a lord
	female=yes
	dynasty=33914

	religion="shadowbinders"
	culture="shadowlander"

	father=10833914
	mother=40833914

	7638.1.1 = {birth="7638.1.1"}
	7689.1.1 = {death="7689.1.1"}
}
11533914 = {
	name="Utu"	# not a lord
	dynasty=33914

	religion="shadowbinders"
	culture="shadowlander"

	father=10833914
	mother=40833914

	7641.1.1 = {birth="7641.1.1"}
	7657.1.1 = {add_trait=skilled_warrior}
	7687.1.1 = {death="7687.1.1"}
}
11633914 = {
	name="Kuda"	# not a lord
	dynasty=33914

	religion="shadowbinders"
	culture="shadowlander"

	father=11333914
	mother=41333914

	7656.1.1 = {birth="7656.1.1"}
	7672.1.1 = {add_trait=skilled_warrior}
	7674.1.1 = {add_spouse=41633914}
	7708.1.1 = {death="7708.1.1"}
}
41633914 = {
	name="Summirathe"
	female=yes

	religion="shadowbinders"
	culture="shadowlander"

	7656.1.1 = {birth="7656.1.1"}
	7708.1.1 = {death="7708.1.1"}
}
11733914 = {
	name="Shulpae"	# a lord
	dynasty=33914

	religion="shadowbinders"
	culture="shadowlander"

	father=11633914
	mother=41633914

	7674.1.1 = {birth="7674.1.1"}
	7690.1.1 = {add_trait=trained_warrior}
	7692.1.1 = {add_spouse=41733914}
	7732.1.1 = {death="7732.1.1"}
}
41733914 = {
	name="Nanna"
	female=yes

	religion="shadowbinders"
	culture="shadowlander"

	7674.1.1 = {birth="7674.1.1"}
	7732.1.1 = {death="7732.1.1"}
}
11833914 = {
	name="Sapurtum"	# not a lord
	female=yes
	dynasty=33914

	religion="shadowbinders"
	culture="shadowlander"

	father=11633914
	mother=41633914

	7677.1.1 = {birth="7677.1.1"}
	7722.1.1 = {death="7722.1.1"}
}
11933914 = {
	name="Ibnatum"	# not a lord
	dynasty=33914

	religion="shadowbinders"
	culture="shadowlander"

	father=11633914
	mother=41633914

	7678.1.1 = {birth="7678.1.1"}
	7694.1.1 = {add_trait=skilled_warrior}
	7732.1.1 = {death="7732.1.1"}
}
12033914 = {
	name="Urbau"	# not a lord
	female=yes
	dynasty=33914

	religion="shadowbinders"
	culture="shadowlander"

	father=11633914
	mother=41633914

	7680.1.1 = {birth="7680.1.1"}
	7704.1.1 = {death="7704.1.1"}
}
12133914 = {
	name="Sidu"	# a lord
	dynasty=33914

	religion="shadowbinders"
	culture="shadowlander"

	father=11733914
	mother=41733914

	7703.1.1 = {birth="7703.1.1"}
	7719.1.1 = {add_trait=trained_warrior}
	7721.1.1 = {add_spouse=42133914}
	7739.1.1 = {death="7739.1.1"}
}
42133914 = {
	name="Ninhursag"
	female=yes

	religion="shadowbinders"
	culture="shadowlander"

	7703.1.1 = {birth="7703.1.1"}
	7739.1.1 = {death="7739.1.1"}
}
12233914 = {
	name="Quaiduri"	# not a lord
	female=yes
	dynasty=33914

	religion="shadowbinders"
	culture="shadowlander"

	father=11733914
	mother=41733914

	7704.1.1 = {birth="7704.1.1"}
	7782.1.1 = {death="7782.1.1"}
}
12333914 = {
	name="Warad"	# a lord
	dynasty=33914

	religion="shadowbinders"
	culture="shadowlander"

	father=12133914
	mother=42133914

	7735.1.1 = {birth="7735.1.1"}
	7751.1.1 = {add_trait=trained_warrior}
	7753.1.1 = {add_spouse=42333914}
	7771.1.1 = {death="7771.1.1"}
}
42333914 = {
	name="Bau"
	female=yes

	religion="shadowbinders"
	culture="shadowlander"

	7735.1.1 = {birth="7735.1.1"}
	7771.1.1 = {death="7771.1.1"}
}
12433914 = {
	name="Naqir"	# not a lord
	dynasty=33914

	religion="shadowbinders"
	culture="shadowlander"

	father=12133914
	mother=42133914

	7738.1.1 = {birth="7738.1.1"}
	7754.1.1 = {add_trait=skilled_warrior}
	7781.1.1 = {death="7781.1.1"}
}
12533914 = {
	name="Palusum"	# a lord
	dynasty=33914

	religion="shadowbinders"
	culture="shadowlander"

	father=12333914
	mother=42333914

	7768.1.1 = {birth="7768.1.1"}
	7784.1.1 = {add_trait=skilled_warrior}
	7786.1.1 = {add_spouse=42533914}
	7816.1.1 = {death="7816.1.1"}
}
42533914 = {
	name="Silili"
	female=yes

	religion="shadowbinders"
	culture="shadowlander"

	7768.1.1 = {birth="7768.1.1"}
	7816.1.1 = {death="7816.1.1"}
}
12633914 = {
	name="Enlil"	# a lord
	dynasty=33914

	religion="shadowbinders"
	culture="shadowlander"

	father=12333914
	mother=42333914

	7769.1.1 = {birth="7769.1.1"}
	7785.1.1 = {add_trait=trained_warrior}
	7787.1.1 = {add_spouse=42633914}
	7827.1.1 = {death="7827.1.1"}
}
42633914 = {
	name="Gemethega"
	female=yes

	religion="shadowbinders"
	culture="shadowlander"

	7769.1.1 = {birth="7769.1.1"}
	7827.1.1 = {death="7827.1.1"}
}
12733914 = {
	name="Gemithe"	# not a lord
	female=yes
	dynasty=33914

	religion="shadowbinders"
	culture="shadowlander"

	father=12533914
	mother=42533914

	7793.1.1 = {birth="7793.1.1"}
	7852.1.1 = {death="7852.1.1"}
}
12833914 = {
	name="Ahassuth"	# not a lord
	female=yes
	dynasty=33914

	religion="shadowbinders"
	culture="shadowlander"

	father=12533914
	mother=42533914

	7796.1.1 = {birth="7796.1.1"}
	7844.1.1 = {death="7844.1.1"}
}
12933914 = {
	name="Damuzi"	# a lord
	dynasty=33914

	religion="shadowbinders"
	culture="shadowlander"

	father=12633914
	mother=42633914

	7794.1.1 = {birth="7794.1.1"}
	7810.1.1 = {add_trait=trained_warrior}
	7812.1.1 = {add_spouse=42933914}
	7861.1.1 = {death="7861.1.1"}
}
42933914 = {
	name="Gemithe"
	female=yes

	religion="shadowbinders"
	culture="shadowlander"

	7794.1.1 = {birth="7794.1.1"}
	7861.1.1 = {death="7861.1.1"}
}
13033914 = {
	name="Puzur"	# not a lord
	dynasty=33914

	religion="shadowbinders"
	culture="shadowlander"

	father=12633914
	mother=42633914

	7796.1.1 = {birth="7796.1.1"}
	7812.1.1 = {add_trait=skilled_warrior}
	7846.1.1 = {death="7846.1.1"}
}
13133914 = {
	name="Dadanum"	# a lord
	dynasty=33914

	religion="shadowbinders"
	culture="shadowlander"

	father=12933914
	mother=42933914

	7828.1.1 = {birth="7828.1.1"}
	7844.1.1 = {add_trait=trained_warrior}
	7846.1.1 = {add_spouse=43133914}
	7862.1.1 = {death="7862.1.1"}
}
43133914 = {
	name="Eala"
	female=yes

	religion="shadowbinders"
	culture="shadowlander"

	7828.1.1 = {birth="7828.1.1"}
	7862.1.1 = {death="7862.1.1"}
}
13233914 = {
	name="Limer"	# a lord
	dynasty=33914

	religion="shadowbinders"
	culture="shadowlander"

	father=13133914
	mother=43133914

	7847.1.1 = {birth="7847.1.1"}
	7863.1.1 = {add_trait=trained_warrior}
	7865.1.1 = {add_spouse=43233914}
}
43233914 = {
	name="Shub-ad"
	female=yes

	religion="shadowbinders"
	culture="shadowlander"

	7847.1.1 = {birth="7847.1.1"}
}
13333914 = {
	name="Naqir"	# not a lord
	dynasty=33914

	religion="shadowbinders"
	culture="shadowlander"

	father=13133914
	mother=43133914

	7850.1.1 = {birth="7850.1.1"}
	7866.1.1 = {add_trait=skilled_warrior}
	7868.1.1 = {add_spouse=43333914}
}
43333914 = {
	name="Shub-ad"
	female=yes

	religion="shadowbinders"
	culture="shadowlander"

	7850.1.1 = {birth="7850.1.1"}
}
13433914 = {
	name="Shulpae"	# not a lord
	dynasty=33914

	religion="shadowbinders"
	culture="shadowlander"

	father=13133914
	mother=43133914

	7851.1.1 = {birth="7851.1.1"}
	7867.1.1 = {add_trait=trained_warrior}
}
13533914 = {
	name="Waqrat"	# not a lord
	female=yes
	dynasty=33914

	religion="shadowbinders"
	culture="shadowlander"

	father=13133914
	mother=43133914

	7853.1.1 = {birth="7853.1.1"}
}
13633914 = {
	name="Ninsun"	# not a lord
	female=yes
	dynasty=33914

	religion="shadowbinders"
	culture="shadowlander"

	father=13233914
	mother=43233914

	7876.1.1 = {birth="7876.1.1"}
}
13733914 = {
	name="Quaithe"	# not a lord
	female=yes
	dynasty=33914

	religion="shadowbinders"
	culture="shadowlander"

	father=13233914
	mother=43233914

	7877.1.1 = {birth="7877.1.1"}
}
13833914 = {
	name="Ninbanda"	# not a lord
	female=yes
	dynasty=33914

	religion="shadowbinders"
	culture="shadowlander"

	father=13233914
	mother=43233914

	7879.1.1 = {birth="7879.1.1"}
}
13933914 = {
	name="Ishtare"	# not a lord
	female=yes
	dynasty=33914

	religion="shadowbinders"
	culture="shadowlander"

	father=13233914
	mother=43233914

	7880.1.1 = {birth="7880.1.1"}
}
14033914 = {
	name="Nin"	# not a lord
	female=yes
	dynasty=33914

	religion="shadowbinders"
	culture="shadowlander"

	father=13333914
	mother=43333914

	7878.1.1 = {birth="7878.1.1"}
}
14133914 = {
	name="Qasmath"	# not a lord
	dynasty=33914

	religion="shadowbinders"
	culture="shadowlander"

	father=13333914
	mother=43333914

	7880.1.1 = {birth="7880.1.1"}
	7896.1.1 = {add_trait=skilled_warrior}
}
14233914 = {
	name="Gudeath"	# not a lord
	dynasty=33914

	religion="shadowbinders"
	culture="shadowlander"

	father=13333914
	mother=43333914

	7883.1.1 = {birth="7883.1.1"}
	7899.1.1 = {add_trait=skilled_warrior}
}
#The Shadow Mountains
10033901 = {
	name="Munawirtum"	# a lord
	dynasty=33901

	religion="shadowbinders"
	culture="shadowlander"

	7565.1.1 = {birth="7565.1.1"}
	7581.1.1 = {add_trait=skilled_warrior}
	7583.1.1 = {add_spouse=40033901}
	7637.1.1 = {death="7637.1.1"}
}
40033901 = {
	name="Ishtare"
	female=yes

	religion="shadowbinders"
	culture="shadowlander"

	7565.1.1 = {birth="7565.1.1"}
	7637.1.1 = {death="7637.1.1"}
}
10133901 = {
	name="Murrim"	# not a lord
	female=yes
	dynasty=33901

	religion="shadowbinders"
	culture="shadowlander"

	father=10033901
	mother=40033901

	7590.1.1 = {birth="7590.1.1"}
	7671.1.1 = {death="7671.1.1"}
}
10233901 = {
	name="Shub-ad"	# not a lord
	female=yes
	dynasty=33901

	religion="shadowbinders"
	culture="shadowlander"

	father=10033901
	mother=40033901

	7592.1.1 = {birth="7592.1.1"}
	7655.1.1 = {death="7655.1.1"}
}
10333901 = {
	name="Ishtup"	# a lord
	dynasty=33901

	religion="shadowbinders"
	culture="shadowlander"

	father=10033901
	mother=40033901

	7595.1.1 = {birth="7595.1.1"}
	7611.1.1 = {add_trait=poor_warrior}
	7613.1.1 = {add_spouse=40333901}
	7664.1.1 = {death="7664.1.1"}
}
40333901 = {
	name="Erethkiga"
	female=yes

	religion="shadowbinders"
	culture="shadowlander"

	7595.1.1 = {birth="7595.1.1"}
	7664.1.1 = {death="7664.1.1"}
}
10433901 = {
	name="Mushtal"	# not a lord
	dynasty=33901

	religion="shadowbinders"
	culture="shadowlander"

	father=10033901
	mother=40033901

	7596.1.1 = {birth="7596.1.1"}
	7612.1.1 = {add_trait=trained_warrior}
	7645.1.1 = {death="7645.1.1"}
}
10533901 = {
	name="Puzur"	# a lord
	dynasty=33901

	religion="shadowbinders"
	culture="shadowlander"

	father=10333901
	mother=40333901

	7613.1.1 = {birth="7613.1.1"}
	7629.1.1 = {add_trait=poor_warrior}
	7631.1.1 = {add_spouse=40533901}
	7680.1.1 = {death="7680.1.1"}
}
40533901 = {
	name="Bau"
	female=yes

	religion="shadowbinders"
	culture="shadowlander"

	7613.1.1 = {birth="7613.1.1"}
	7680.1.1 = {death="7680.1.1"}
}
10633901 = {
	name="Ubaruth"	# not a lord
	dynasty=33901

	religion="shadowbinders"
	culture="shadowlander"

	father=10333901
	mother=40333901

	7614.1.1 = {birth="7614.1.1"}
	7630.1.1 = {add_trait=skilled_warrior}
	7683.1.1 = {death="7683.1.1"}
}
10733901 = {
	name="Wusum"	# not a lord
	dynasty=33901

	religion="shadowbinders"
	culture="shadowlander"

	father=10333901
	mother=40333901

	7615.1.1 = {birth="7615.1.1"}
	7631.1.1 = {add_trait=skilled_warrior}
	7654.1.1 = {death="7654.1.1"}
}
10833901 = {
	name="Nammu"	# not a lord
	female=yes
	dynasty=33901

	religion="shadowbinders"
	culture="shadowlander"

	father=10333901
	mother=40333901

	7617.1.1 = {birth="7617.1.1"}
	7677.1.1 = {death="7677.1.1"}
}
10933901 = {
	name="Gemethega"	# not a lord
	female=yes
	dynasty=33901

	religion="shadowbinders"
	culture="shadowlander"

	father=10533901
	mother=40533901

	7631.1.1 = {birth="7631.1.1"}
	7705.1.1 = {death="7705.1.1"}
}
11033901 = {
	name="Quaithe"	# not a lord
	female=yes
	dynasty=33901

	religion="shadowbinders"
	culture="shadowlander"

	father=10533901
	mother=40533901

	7632.1.1 = {birth="7632.1.1"}
	7685.1.1 = {death="7685.1.1"}
}
11133901 = {
	name="Awil"	# not a lord
	dynasty=33901

	religion="shadowbinders"
	culture="shadowlander"

	father=10533901
	mother=40533901

	7633.1.1 = {birth="7633.1.1"}
	7649.1.1 = {add_trait=trained_warrior}
	7666.1.1 = {death="7666.1.1"}
}
11233901 = {
	name="Hunhal"	# a lord
	dynasty=33901

	religion="shadowbinders"
	culture="shadowlander"

	father=10533901
	mother=40533901

	7634.1.1 = {birth="7634.1.1"}
	7650.1.1 = {add_trait=trained_warrior}
	7652.1.1 = {add_spouse=41233901}
	7690.1.1 = {death="7690.1.1"}
}
41233901 = {
	name="Gemethega"
	female=yes

	religion="shadowbinders"
	culture="shadowlander"

	7634.1.1 = {birth="7634.1.1"}
	7690.1.1 = {death="7690.1.1"}
}
11333901 = {
	name="Wusum"	# not a lord
	dynasty=33901

	religion="shadowbinders"
	culture="shadowlander"

	father=10533901
	mother=40533901

	7637.1.1 = {birth="7637.1.1"}
	7653.1.1 = {add_trait=skilled_warrior}
	7680.1.1 = {death="7680.1.1"}
}
11433901 = {
	name="Quaithe"	# not a lord
	female=yes
	dynasty=33901

	religion="shadowbinders"
	culture="shadowlander"

	father=11233901
	mother=41233901

	7653.1.1 = {birth="7653.1.1"}
	7706.1.1 = {death="7706.1.1"}
}
11533901 = {
	name="Dadanum"	# a lord
	dynasty=33901

	religion="shadowbinders"
	culture="shadowlander"

	father=11233901
	mother=41233901

	7655.1.1 = {birth="7655.1.1"}
	7671.1.1 = {add_trait=trained_warrior}
	7673.1.1 = {add_spouse=41533901}
	7731.1.1 = {death="7731.1.1"}
}
41533901 = {
	name="Quaiduri"
	female=yes

	religion="shadowbinders"
	culture="shadowlander"

	7655.1.1 = {birth="7655.1.1"}
	7731.1.1 = {death="7731.1.1"}
}
11633901 = {
	name="Lugatum"	# a lord
	dynasty=33901

	religion="shadowbinders"
	culture="shadowlander"

	father=11533901
	mother=41533901

	7686.1.1 = {birth="7686.1.1"}
	7702.1.1 = {add_trait=skilled_warrior}
	7704.1.1 = {add_spouse=41633901}
	7753.1.1 = {death="7753.1.1"}
}
41633901 = {
	name="Taram"
	female=yes

	religion="shadowbinders"
	culture="shadowlander"

	7686.1.1 = {birth="7686.1.1"}
	7753.1.1 = {death="7753.1.1"}
}
11733901 = {
	name="Puzur"	# not a lord
	dynasty=33901

	religion="shadowbinders"
	culture="shadowlander"

	father=11533901
	mother=41533901

	7689.1.1 = {birth="7689.1.1"}
	7705.1.1 = {add_trait=poor_warrior}
	7731.1.1 = {death="7731.1.1"}
}
11833901 = {
	name="Yasmath"	# a lord
	dynasty=33901

	religion="shadowbinders"
	culture="shadowlander"

	father=11633901
	mother=41633901

	7715.1.1 = {birth="7715.1.1"}
	7731.1.1 = {add_trait=poor_warrior}
	7733.1.1 = {add_spouse=41833901}
	7767.1.1 = {death="7767.1.1"}
}
41833901 = {
	name="Silili"
	female=yes

	religion="shadowbinders"
	culture="shadowlander"

	7715.1.1 = {birth="7715.1.1"}
	7767.1.1 = {death="7767.1.1"}
}
11933901 = {
	name="Bikku"	# not a lord
	female=yes
	dynasty=33901

	religion="shadowbinders"
	culture="shadowlander"

	father=11633901
	mother=41633901

	7716.1.1 = {birth="7716.1.1"}
	7772.1.1 = {death="7772.1.1"}
}
12033901 = {
	name="Awil"	# a lord
	dynasty=33901

	religion="shadowbinders"
	culture="shadowlander"

	father=11633901
	mother=41633901

	7719.1.1 = {birth="7719.1.1"}
	7735.1.1 = {add_trait=trained_warrior}
	7737.1.1 = {add_spouse=42033901}
	7777.1.1 = {death = {death_reason = death_murder}}
}
42033901 = {
	name="Silili"
	female=yes

	religion="shadowbinders"
	culture="shadowlander"

	7719.1.1 = {birth="7719.1.1"}
	7777.1.1 = {death="7777.1.1"}
}
12133901 = {
	name="Eala"	# not a lord
	female=yes
	dynasty=33901

	religion="shadowbinders"
	culture="shadowlander"

	father=11833901
	mother=41833901

	7739.1.1 = {birth="7739.1.1"}
	7807.1.1 = {death="7807.1.1"}
}
12233901 = {
	name="Nawirum"	# a lord
	dynasty=33901

	religion="shadowbinders"
	culture="shadowlander"

	father=12033901
	mother=42033901

	7751.1.1 = {birth="7751.1.1"}
	7767.1.1 = {add_trait=poor_warrior}
	7769.1.1 = {add_spouse=42233901}
	7783.1.1 = {death="7783.1.1"}
}
42233901 = {
	name="Erethe"
	female=yes

	religion="shadowbinders"
	culture="shadowlander"

	7751.1.1 = {birth="7751.1.1"}
	7783.1.1 = {death="7783.1.1"}
}
12333901 = {
	name="Ninhursag"	# not a lord
	female=yes
	dynasty=33901

	religion="shadowbinders"
	culture="shadowlander"

	father=12033901
	mother=42033901

	7752.1.1 = {birth="7752.1.1"}
	7825.1.1 = {death="7825.1.1"}
}
12433901 = {
	name="Nammu"	# not a lord
	female=yes
	dynasty=33901

	religion="shadowbinders"
	culture="shadowlander"

	father=12033901
	mother=42033901

	7755.1.1 = {birth="7755.1.1"}
	7819.1.1 = {death="7819.1.1"}
}
12533901 = {
	name="Bunuth"	# a lord
	dynasty=33901

	religion="shadowbinders"
	culture="shadowlander"

	father=12233901
	mother=42233901

	7770.1.1 = {birth="7770.1.1"}
	7786.1.1 = {add_trait=skilled_warrior}
	7788.1.1 = {add_spouse=42533901}
	7803.1.1 = {death="7803.1.1"}
}
42533901 = {
	name="Daqqartum"
	female=yes

	religion="shadowbinders"
	culture="shadowlander"

	7770.1.1 = {birth="7770.1.1"}
	7833.1.1 = {death="7833.1.1"}
}
12633901 = {
	name="Bau"	# not a lord
	female=yes
	dynasty=33901

	religion="shadowbinders"
	culture="shadowlander"

	father=12533901
	mother=42533901

	7797.1.1 = {birth="7797.1.1"}
	7860.1.1 = {death="7860.1.1"}
}
12733901 = {
	name="Silili"	# not a lord
	female=yes
	dynasty=33901

	religion="shadowbinders"
	culture="shadowlander"

	father=12533901
	mother=42533901

	7800.1.1 = {birth="7800.1.1"}
	7867.1.1 = {death="7867.1.1"}
}
12833901 = {
	name="Wusum"	# a lord
	dynasty=33901

	religion="shadowbinders"
	culture="shadowlander"

	father=12533901
	mother=42533901

	7801.1.1 = {birth="7801.1.1"}
	7817.1.1 = {add_trait=poor_warrior}
	7824.1.1 = {add_spouse=42833901}
	7868.1.1 = {death="7868.1.1"}
}
42833901 = {
	name="Ninhursag"
	female=yes

	religion="shadowbinders"
	culture="shadowlander"

	7806.1.1 = {birth="7806.1.1"}
	7868.1.1 = {death="7868.1.1"}
}
12933901 = {
	name="Urbau"	# not a lord
	female=yes
	dynasty=33901

	religion="shadowbinders"
	culture="shadowlander"

	father=12833901
	mother=42833901

	7832.1.1 = {birth="7832.1.1"}
	7906.1.1 = {death="7906.1.1"}
}
13033901 = {
	name="Ugazum"	# a lord
	dynasty=33901

	religion="shadowbinders"
	culture="shadowlander"

	father=12833901
	mother=42833901

	7835.1.1 = {birth="7835.1.1"}
	7851.1.1 = {add_trait=trained_warrior}
	7853.1.1 = {add_spouse=43033901}
	7881.1.1 = {death="7881.1.1"}
}
43033901 = {
	name="Gemethega"
	female=yes

	religion="shadowbinders"
	culture="shadowlander"

	7835.1.1 = {birth="7835.1.1"}
	7881.1.1 = {death="7881.1.1"}
}
13133901 = {
	name="Enlil"	# a lord
	dynasty=33901

	religion="shadowbinders"
	culture="shadowlander"

	father=12833901
	mother=42833901

	7836.1.1 = {birth="7836.1.1"}
	7852.1.1 = {add_trait=poor_warrior}
	7854.1.1 = {add_spouse=43133901}
	7890.1.1 = {death="7890.1.1"}
}
43133901 = {
	name="Puabi"
	female=yes

	religion="shadowbinders"
	culture="shadowlander"

	7836.1.1 = {birth="7836.1.1"}
	7890.1.1 = {death="7890.1.1"}
}
13233901 = {
	name="Zimu"	# not a lord
	female=yes
	dynasty=33901

	religion="shadowbinders"
	culture="shadowlander"

	father=12833901
	mother=42833901

	7838.1.1 = {birth="7838.1.1"}
}
13333901 = {
	name="Ishtare"	# not a lord
	female=yes
	dynasty=33901

	religion="shadowbinders"
	culture="shadowlander"

	father=13033901
	mother=43033901

	7860.1.1 = {birth="7860.1.1"}
}
13433901 = {
	name="Sidu"	# a lord
	dynasty=33901

	religion="shadowbinders"
	culture="shadowlander"

	father=13133901
	mother=43133901

	7869.1.1 = {birth="7869.1.1"}
	7885.1.1 = {add_trait=trained_warrior}
	7887.1.1 = {add_spouse=43433901}
}
43433901 = {
	name="Ishtare"
	female=yes

	religion="shadowbinders"
	culture="shadowlander"

	7869.1.1 = {birth="7869.1.1"}
}
13533901 = {
	name="Ishtare"	# not a lord
	female=yes
	dynasty=33901

	religion="shadowbinders"
	culture="shadowlander"

	father=13433901
	mother=43433901

	7889.1.1 = {birth="7889.1.1"}
}
13633901 = {
	name="Amurri"	# not a lord
	dynasty=33901

	religion="shadowbinders"
	culture="shadowlander"

	father=13433901
	mother=43433901

	7892.1.1 = {birth="7892.1.1"}
	7908.1.1 = {add_trait=trained_warrior}
}
13733901 = {
	name="Ninhursag"	# not a lord
	female=yes
	dynasty=33901

	religion="shadowbinders"
	culture="shadowlander"

	father=13433901
	mother=43433901

	7894.1.1 = {birth="7894.1.1"}
}
13833901 = {
	name="Awil"	# not a lord
	dynasty=33901

	religion="shadowbinders"
	culture="shadowlander"

	father=13433901
	mother=43433901

	7895.1.1 = {birth="7895.1.1"}
	7911.1.1 = {add_trait=trained_warrior}
}
