###Jogos Nhai
100607399 = {
	name="Gharak"	# Legendary Jhattar

	religion="jogos_pagan"
	culture="jogos_nhai"
	
	give_nickname = nick_squint_eye
	
	add_trait="brilliant_strategist"
	add_trait="ambitious"
	add_trait="brave"
	add_trait="authoritative"

	7274.1.1 = {birth=yes}
	7290.1.1 = {add_trait=master_warrior}
	7328.1.1 = {death="7328.1.1"}
}
101607399 = {
	name="Zhea"	# Jhattar, Repelled Yi Ti Invasion
	female=yes
	
	martial=8
	stewardship=3
	diplomacy=6
	intrigue=5
	learning=2
	
	religion="jogos_pagan"
	culture="jogos_nhai"
	
	give_nickname = nick_the_cruel
	
	add_trait="brilliant_strategist"
	add_trait="quick"
	add_trait="ambitious"
	add_trait="cruel"
	add_trait="authoritative"
	add_trait="deceitful"
	
	add_trait=trickster
	add_trait=cavalry_leader
	add_trait=organizer
	add_trait=defensive_leader
	disallow_random_traits = yes
	
	6678.1.1 = {birth="6678.1.1"}
	6695.1.1 = {add_trait=trained_warrior}
	6723.1.1 = {death="6723.1.1"}
}
#Jhogwin#
100607300 = {
	name="Fardeen"	# a lord
	dynasty=607300

	religion="jogos_pagan"
	culture="jogos_nhai"

	7557.1.1 = {birth="7557.1.1"}
	7573.1.1 = {add_trait=trained_warrior}
	7575.1.1 = {add_spouse=400607300}
	7612.1.1 = {death="7612.1.1"}
}
400607300 = {
	name="Inaara"
	female=yes

	religion="jogos_pagan"
	culture="jogos_nhai"

	7557.1.1 = {birth="7557.1.1"}
	7612.1.1 = {death="7612.1.1"}
}
101607300 = {
	name="Isak"	# a lord
	dynasty=607300

	religion="jogos_pagan"
	culture="jogos_nhai"

	father=100607300
	mother=400607300

	7584.1.1 = {birth="7584.1.1"}
	7600.1.1 = {add_trait=trained_warrior}
	7602.1.1 = {add_spouse=401607300}
	7647.1.1 = {death="7647.1.1"}
}
401607300 = {
	name="Hadi"
	female=yes

	religion="jogos_pagan"
	culture="jogos_nhai"

	7584.1.1 = {birth="7584.1.1"}
	7647.1.1 = {death="7647.1.1"}
}
102607300 = {
	name="Latifa"	# not a lord
	female=yes
	dynasty=607300

	religion="jogos_pagan"
	culture="jogos_nhai"

	father=100607300
	mother=400607300

	7587.1.1 = {birth="7587.1.1"}
	7639.1.1 = {death="7639.1.1"}
}
103607300 = {
	name="Mahwak"	# a lord
	dynasty=607300

	religion="jogos_pagan"
	culture="jogos_nhai"

	father=101607300
	mother=401607300

	7604.1.1 = {birth="7604.1.1"}
	7620.1.1 = {add_trait=skilled_warrior}
	7622.1.1 = {add_spouse=403607300}
	7671.1.1 = {death="7671.1.1"}
}
403607300 = {
	name="Patra"
	female=yes

	religion="jogos_pagan"
	culture="jogos_nhai"

	7604.1.1 = {birth="7604.1.1"}
	7671.1.1 = {death="7671.1.1"}
}
104607300 = {
	name="Vida"	# not a lord
	female=yes
	dynasty=607300

	religion="jogos_pagan"
	culture="jogos_nhai"

	father=101607300
	mother=401607300

	7607.1.1 = {birth="7607.1.1"}
	7657.1.1 = {death="7657.1.1"}
}
105607300 = {
	name="Faqar"	# not a lord
	dynasty=607300

	religion="jogos_pagan"
	culture="jogos_nhai"

	father=101607300
	mother=401607300

	7609.1.1 = {birth="7609.1.1"}
	7625.1.1 = {add_trait=skilled_warrior}
	7664.1.1 = {death="7664.1.1"}
}
106607300 = {
	name="Jakar"	# a lord
	dynasty=607300

	religion="jogos_pagan"
	culture="jogos_nhai"

	father=103607300
	mother=403607300

	7626.1.1 = {birth="7626.1.1"}
	7642.1.1 = {add_trait=trained_warrior}
	7644.1.1 = {add_spouse=406607300}
	7682.1.1 = {death="7682.1.1"}
}
406607300 = {
	name="Laila"
	female=yes

	religion="jogos_pagan"
	culture="jogos_nhai"

	7626.1.1 = {birth="7626.1.1"}
	7682.1.1 = {death="7682.1.1"}
}
107607300 = {
	name="Halima"	# not a lord
	female=yes
	dynasty=607300

	religion="jogos_pagan"
	culture="jogos_nhai"

	father=103607300
	mother=403607300

	7629.1.1 = {birth="7629.1.1"}
	7698.1.1 = {death="7698.1.1"}
}
108607300 = {
	name="Chaman"	# not a lord
	dynasty=607300

	religion="jogos_pagan"
	culture="jogos_nhai"

	father=103607300
	mother=403607300

	7632.1.1 = {birth="7632.1.1"}
	7648.1.1 = {add_trait=master_warrior}
	7688.1.1 = {death="7688.1.1"}
}
109607300 = {
	name="Wafa"	# a lord
	dynasty=607300

	religion="jogos_pagan"
	culture="jogos_nhai"

	father=106607300
	mother=406607300

	7649.1.1 = {birth="7649.1.1"}
	7665.1.1 = {add_trait=poor_warrior}
	7667.1.1 = {add_spouse=409607300}
	7697.1.1 = {death="7697.1.1"}
}
409607300 = {
	name="Tarana"
	female=yes

	religion="jogos_pagan"
	culture="jogos_nhai"

	7649.1.1 = {birth="7649.1.1"}
	7697.1.1 = {death="7697.1.1"}
}
110607300 = {
	name="Vida"	# a lord
	female=yes
	dynasty=607300

	religion="jogos_pagan"
	culture="jogos_nhai"

	father=109607300
	mother=409607300

	7670.1.1 = {birth="7670.1.1"}
	7726.1.1 = {death="7726.1.1"}
}
410607300 = {
	name="Kahkazan"

	religion="jogos_pagan"
	culture="jogos_nhai"

	7670.1.1 = {birth="7670.1.1"}
	7686.1.1 = {add_trait=poor_warrior}
	7688.1.1 = {add_spouse=110607300}
	7726.1.1 = {death="7726.1.1"}
}
111607300 = {
	name="Tahib"	# a lord
	dynasty=607300

	religion="jogos_pagan"
	culture="jogos_nhai"

	father=410607300
	mother=110607300

	7688.1.1 = {birth="7688.1.1"}
	7704.1.1 = {add_trait=trained_warrior}
	7706.1.1 = {add_spouse=411607300}
	7742.1.1 = {death="7742.1.1"}
}
411607300 = {
	name="Qudratu"
	female=yes

	religion="jogos_pagan"
	culture="jogos_nhai"

	7688.1.1 = {birth="7688.1.1"}
	7742.1.1 = {death="7742.1.1"}
}
112607300 = {
	name="Malia"	# not a lord
	female=yes
	dynasty=607300

	religion="jogos_pagan"
	culture="jogos_nhai"

	father=111607300
	mother=411607300

	7722.1.1 = {birth="7722.1.1"}
	7785.1.1 = {death="7785.1.1"}
}
113607300 = {
	name="Lemar"	# a lord
	dynasty=607300

	religion="jogos_pagan"
	culture="jogos_nhai"

	father=111607300
	mother=411607300

	7725.1.1 = {birth="7725.1.1"}
	7741.1.1 = {add_trait=trained_warrior}
	7743.1.1 = {add_spouse=413607300}
	7773.1.1 = {death="7773.1.1"}
}
413607300 = {
	name="Hila"
	female=yes

	religion="jogos_pagan"
	culture="jogos_nhai"

	7725.1.1 = {birth="7725.1.1"}
	7773.1.1 = {death="7773.1.1"}
}
114607300 = {
	name="Fakhria"	# not a lord
	female=yes
	dynasty=607300

	religion="jogos_pagan"
	culture="jogos_nhai"

	father=111607300
	mother=411607300

	7727.1.1 = {birth="7727.1.1"}
	7783.1.1 = {death="7783.1.1"}
}
115607300 = {
	name="Khalek"	# not a lord
	dynasty=607300

	religion="jogos_pagan"
	culture="jogos_nhai"

	father=111607300
	mother=411607300

	7730.1.1 = {birth="7730.1.1"}
	7746.1.1 = {add_trait=poor_warrior}
	7790.1.1 = {death="7790.1.1"}
}
116607300 = {
	name="Barialy"	# a lord
	dynasty=607300

	religion="jogos_pagan"
	culture="jogos_nhai"

	father=113607300
	mother=413607300

	7743.1.1 = {birth="7743.1.1"}
	7759.1.1 = {add_trait=skilled_warrior}
	7761.1.1 = {add_spouse=416607300}
	7780.1.1 = {death="7780.1.1"}
}
416607300 = {
	name="Nabi"
	female=yes

	religion="jogos_pagan"
	culture="jogos_nhai"

	7743.1.1 = {birth="7743.1.1"}
	7780.1.1 = {death="7780.1.1"}
}
117607300 = {
	name="Naherak"	# not a lord
	dynasty=607300

	religion="jogos_pagan"
	culture="jogos_nhai"

	father=113607300
	mother=413607300

	7744.1.1 = {birth="7744.1.1"}
	7760.1.1 = {add_trait=master_warrior}
	7811.1.1 = {death="7811.1.1"}
}
118607300 = {
	name="Sabry"	# a lord
	dynasty=607300

	religion="jogos_pagan"
	culture="jogos_nhai"

	father=116607300
	mother=416607300

	7776.1.1 = {birth="7776.1.1"}
	7792.1.1 = {add_trait=trained_warrior}
	7794.1.1 = {add_spouse=418607300}
	7855.1.1 = {death="7855.1.1"}
}
418607300 = {
	name="Zahra"
	female=yes

	religion="jogos_pagan"
	culture="jogos_nhai"

	7776.1.1 = {birth="7776.1.1"}
	7855.1.1 = {death="7855.1.1"}
}
119607300 = {
	name="Lima"	# not a lord
	female=yes
	dynasty=607300

	religion="jogos_pagan"
	culture="jogos_nhai"

	father=116607300
	mother=416607300

	7779.1.1 = {birth="7779.1.1"}
	7837.1.1 = {death="7837.1.1"}
}
120607300 = {
	name="Usma"	# not a lord
	female=yes
	dynasty=607300

	religion="jogos_pagan"
	culture="jogos_nhai"

	father=116607300
	mother=416607300

	7780.1.1 = {birth="7780.1.1"}
	7831.1.1 = {death="7831.1.1"}
}
121607300 = {
	name="Lida"	# a lord
	female=yes
	dynasty=607300

	religion="jogos_pagan"
	culture="jogos_nhai"

	father=118607300
	mother=418607300

	7800.1.1 = {birth="7800.1.1"}
	7865.1.1 = {death="7865.1.1"}
}
421607300 = {
	name="Temur"

	religion="jogos_pagan"
	culture="jogos_nhai"

	7800.1.1 = {birth="7800.1.1"}
	7816.1.1 = {add_trait=poor_warrior}
	7818.1.1 = {add_spouse=121607300}
	7865.1.1 = {death="7865.1.1"}
}
122607300 = {
	name="Temur"	# not a lord
	dynasty=607300

	religion="jogos_pagan"
	culture="jogos_nhai"

	father=118607300
	mother=418607300

	7802.1.1 = {birth="7802.1.1"}
	7818.1.1 = {add_trait=trained_warrior}
	7852.1.1 = {death="7852.1.1"}
}
123607300 = {
	name="Aarak"	# a lord
	dynasty=607300

	religion="jogos_pagan"
	culture="jogos_nhai"

	father=421607300
	mother=121607300

	7826.1.1 = {birth="7826.1.1"}
	7842.1.1 = {add_trait=trained_warrior}
	7844.1.1 = {add_spouse=423607300}
}
423607300 = {
	name="Darya"
	female=yes

	religion="jogos_pagan"
	culture="jogos_nhai"

	7826.1.1 = {birth="7826.1.1"}
}
124607300 = {
	name="Gulloo"	# not a lord
	dynasty=607300

	religion="jogos_pagan"
	culture="jogos_nhai"

	father=123607300
	mother=423607300

	7859.1.1 = {birth="7859.1.1"}
	7875.1.1 = {add_trait=poor_warrior}
	7877.1.1 = {add_spouse=424607300}
}
424607300 = {
	name="Geeti"
	female=yes

	religion="jogos_pagan"
	culture="jogos_nhai"

	7859.1.1 = {birth="7859.1.1"}
}
125607300 = {
	name="Lemar"	# not a lord
	dynasty=607300

	religion="jogos_pagan"
	culture="jogos_nhai"

	father=123607300
	mother=423607300

	7862.1.1 = {birth="7862.1.1"}
	7878.1.1 = {add_trait=trained_warrior}
	7880.1.1 = {add_spouse=425607300}
}
425607300 = {
	name="Zabia"
	female=yes

	religion="jogos_pagan"
	culture="jogos_nhai"

	7862.1.1 = {birth="7862.1.1"}
}
126607300 = {
	name="Gulloo"	# not a lord
	dynasty=607300

	religion="jogos_pagan"
	culture="jogos_nhai"

	father=124607300
	mother=424607300

	7886.1.1 = {birth="7886.1.1"}
	7902.1.1 = {add_trait=poor_warrior}
}
127607300 = {
	name="Zeba"	# not a lord
	female=yes
	dynasty=607300

	religion="jogos_pagan"
	culture="jogos_nhai"

	father=124607300
	mother=424607300

	7888.1.1 = {birth="7888.1.1"}
}
128607300 = {
	name="Inaara"	# not a lord
	female=yes
	dynasty=607300

	religion="jogos_pagan"
	culture="jogos_nhai"

	father=124607300
	mother=424607300

	7890.1.1 = {birth="7890.1.1"}
}
129607300 = {
	name="Pari"	# not a lord
	female=yes
	dynasty=607300

	religion="jogos_pagan"
	culture="jogos_nhai"

	father=124607300
	mother=424607300

	7892.1.1 = {birth="7892.1.1"}
}
130607300 = {
	name="Isak"	# not a lord
	dynasty=607300

	religion="jogos_pagan"
	culture="jogos_nhai"

	father=124607300
	mother=424607300

	7895.1.1 = {birth="7895.1.1"}
	7911.1.1 = {add_trait=skilled_warrior}
}
131607300 = {
	name="Qurban"	# not a lord
	dynasty=607300

	religion="jogos_pagan"
	culture="jogos_nhai"

	father=125607300
	mother=425607300

	7890.1.1 = {birth="7890.1.1"}
	7906.1.1 = {add_trait=poor_warrior}
}
132607300 = {
	name="Diba"	# not a lord
	female=yes
	dynasty=607300

	religion="jogos_pagan"
	culture="jogos_nhai"

	father=125607300
	mother=425607300

	7893.1.1 = {birth="7893.1.1"}
}
#West Plains#
100607301 = {
	name="Barialy"	# a lord
	dynasty=607301

	religion="jogos_pagan"
	culture="jogos_nhai"

	7566.1.1 = {birth="7566.1.1"}
	7582.1.1 = {add_trait=trained_warrior}
	7584.1.1 = {add_spouse=400607301}
	7628.1.1 = {death="7628.1.1"}
}
400607301 = {
	name="Donyaa"
	female=yes

	religion="jogos_pagan"
	culture="jogos_nhai"

	7566.1.1 = {birth="7566.1.1"}
	7628.1.1 = {death="7628.1.1"}
}
101607301 = {
	name="Kahkazan"	# a lord
	dynasty=607301

	religion="jogos_pagan"
	culture="jogos_nhai"

	father=100607301
	mother=400607301

	7595.1.1 = {birth="7595.1.1"}
	7611.1.1 = {add_trait=skilled_warrior}
	7613.1.1 = {add_spouse=401607301}
	7634.1.1 = {death = {death_reason = death_murder}}
}
401607301 = {
	name="Geeti"
	female=yes

	religion="jogos_pagan"
	culture="jogos_nhai"

	7595.1.1 = {birth="7595.1.1"}
	7634.1.1 = {death="7634.1.1"}
}
102607301 = {
	name="Mahwak"	# not a lord
	dynasty=607301

	religion="jogos_pagan"
	culture="jogos_nhai"

	father=100607301
	mother=400607301

	7596.1.1 = {birth="7596.1.1"}
	7612.1.1 = {add_trait=skilled_warrior}
	7671.1.1 = {death="7671.1.1"}
}
103607301 = {
	name="Laimah"	# a lord
	female=yes
	dynasty=607301

	religion="jogos_pagan"
	culture="jogos_nhai"

	father=101607301
	mother=401607301

	7623.1.1 = {birth="7623.1.1"}
	7688.1.1 = {death = {death_reason = death_accident}}
}
403607301 = {
	name="Aamir"

	religion="jogos_pagan"
	culture="jogos_nhai"

	7623.1.1 = {birth="7623.1.1"}
	7639.1.1 = {add_trait=poor_warrior}
	7641.1.1 = {add_spouse=103607301}
	7688.1.1 = {death="7688.1.1"}
}
104607301 = {
	name="Wajia"	# not a lord
	female=yes
	dynasty=607301

	religion="jogos_pagan"
	culture="jogos_nhai"

	father=101607301
	mother=401607301

	7625.1.1 = {birth="7625.1.1"}
	7694.1.1 = {death="7694.1.1"}
}
105607301 = {
	name="Lailuma"	# not a lord
	female=yes
	dynasty=607301

	religion="jogos_pagan"
	culture="jogos_nhai"

	father=101607301
	mother=401607301

	7628.1.1 = {birth="7628.1.1"}
	7698.1.1 = {death="7698.1.1"}
}
106607301 = {
	name="Sadaf"	# a lord
	dynasty=607301

	religion="jogos_pagan"
	culture="jogos_nhai"

	father=403607301
	mother=103607301

	7646.1.1 = {birth="7646.1.1"}
	7662.1.1 = {add_trait=trained_warrior}
	7664.1.1 = {add_spouse=406607301}
	7700.1.1 = {death="7700.1.1"}
}
406607301 = {
	name="Tahmina"
	female=yes

	religion="jogos_pagan"
	culture="jogos_nhai"

	7646.1.1 = {birth="7646.1.1"}
	7700.1.1 = {death="7700.1.1"}
}
107607301 = {
	name="Zaid"	# a lord
	dynasty=607301

	religion="jogos_pagan"
	culture="jogos_nhai"

	father=106607301
	mother=406607301

	7666.1.1 = {birth="7666.1.1"}
	7682.1.1 = {add_trait=master_warrior}
	7684.1.1 = {add_spouse=407607301}
	7711.1.1 = {death="7711.1.1"}
}
407607301 = {
	name="Fakhria"
	female=yes

	religion="jogos_pagan"
	culture="jogos_nhai"

	7666.1.1 = {birth="7666.1.1"}
	7711.1.1 = {death="7711.1.1"}
}
108607301 = {
	name="Zabia"	# not a lord
	female=yes
	dynasty=607301

	religion="jogos_pagan"
	culture="jogos_nhai"

	father=106607301
	mother=406607301

	7668.1.1 = {birth="7668.1.1"}
	7719.1.1 = {death="7719.1.1"}
}
109607301 = {
	name="Obiada"	# not a lord
	female=yes
	dynasty=607301

	religion="jogos_pagan"
	culture="jogos_nhai"

	father=106607301
	mother=406607301

	7669.1.1 = {birth="7669.1.1"}
	7744.1.1 = {death="7744.1.1"}
}
110607301 = {
	name="Elhash"	# not a lord
	dynasty=607301

	religion="jogos_pagan"
	culture="jogos_nhai"

	father=106607301
	mother=406607301

	7671.1.1 = {birth="7671.1.1"}
	7687.1.1 = {add_trait=skilled_warrior}
	7737.1.1 = {death="7737.1.1"}
}
111607301 = {
	name="Naim"	# a lord
	dynasty=607301

	religion="jogos_pagan"
	culture="jogos_nhai"

	father=107607301
	mother=407607301

	7684.1.1 = {birth="7684.1.1"}
	7700.1.1 = {add_trait=poor_warrior}
	7702.1.1 = {add_spouse=411607301}
	7727.1.1 = {death="7727.1.1"}
}
411607301 = {
	name="Orzala"
	female=yes

	religion="jogos_pagan"
	culture="jogos_nhai"

	7684.1.1 = {birth="7684.1.1"}
	7727.1.1 = {death="7727.1.1"}
}
112607301 = {
	name="Darya"	# not a lord
	female=yes
	dynasty=607301

	religion="jogos_pagan"
	culture="jogos_nhai"

	father=107607301
	mother=407607301

	7686.1.1 = {birth="7686.1.1"}
	7759.1.1 = {death="7759.1.1"}
}
113607301 = {
	name="Lima"	# not a lord
	female=yes
	dynasty=607301

	religion="jogos_pagan"
	culture="jogos_nhai"

	father=111607301
	mother=411607301

	7713.1.1 = {birth="7713.1.1"}
	7765.1.1 = {death="7765.1.1"}
}
114607301 = {
	name="Walia"	# not a lord
	female=yes
	dynasty=607301

	religion="jogos_pagan"
	culture="jogos_nhai"

	father=111607301
	mother=411607301

	7714.1.1 = {birth="7714.1.1"}
	7766.1.1 = {death="7766.1.1"}
}
115607301 = {
	name="Jakar"	# a lord
	dynasty=607301

	religion="jogos_pagan"
	culture="jogos_nhai"

	father=111607301
	mother=411607301

	7716.1.1 = {birth="7716.1.1"}
	7732.1.1 = {add_trait=skilled_warrior}
	7734.1.1 = {add_spouse=415607301}
	7763.1.1 = {death="7763.1.1"}
}
415607301 = {
	name="Nabila"
	female=yes

	religion="jogos_pagan"
	culture="jogos_nhai"

	7716.1.1 = {birth="7716.1.1"}
	7763.1.1 = {death="7763.1.1"}
}
116607301 = {
	name="Bakhtiyar"	# not a lord
	dynasty=607301

	religion="jogos_pagan"
	culture="jogos_nhai"

	father=111607301
	mother=411607301

	7717.1.1 = {birth="7717.1.1"}
	7733.1.1 = {add_trait=trained_warrior}
	7760.1.1 = {death="7760.1.1"}
}
117607301 = {
	name="Abagull"	# a lord
	female=yes
	dynasty=607301

	religion="jogos_pagan"
	culture="jogos_nhai"

	father=115607301
	mother=415607301

	7744.1.1 = {birth="7744.1.1"}
	7823.1.1 = {death="7823.1.1"}
}
417607301 = {
	name="Uzrak"

	religion="jogos_pagan"
	culture="jogos_nhai"

	7744.1.1 = {birth="7744.1.1"}
	7760.1.1 = {add_trait=poor_warrior}
	7762.1.1 = {add_spouse=117607301}
	7823.1.1 = {death="7823.1.1"}
}
118607301 = {
	name="Inzir"	# a lord
	dynasty=607301

	religion="jogos_pagan"
	culture="jogos_nhai"

	father=417607301
	mother=117607301

	7771.1.1 = {birth="7771.1.1"}
	7787.1.1 = {add_trait=trained_warrior}
	7789.1.1 = {add_spouse=418607301}
	7830.1.1 = {death="7830.1.1"}
}
418607301 = {
	name="Nadera"
	female=yes

	religion="jogos_pagan"
	culture="jogos_nhai"

	7771.1.1 = {birth="7771.1.1"}
	7830.1.1 = {death="7830.1.1"}
}
119607301 = {
	name="Jaan"	# not a lord
	dynasty=607301

	religion="jogos_pagan"
	culture="jogos_nhai"

	father=417607301
	mother=117607301

	7773.1.1 = {birth="7773.1.1"}
	7789.1.1 = {add_trait=poor_warrior}
	7830.1.1 = {death="7830.1.1"}
}
120607301 = {
	name="Hadi"	# not a lord
	female=yes
	dynasty=607301

	religion="jogos_pagan"
	culture="jogos_nhai"

	father=118607301
	mother=418607301

	7791.1.1 = {birth="7791.1.1"}
	7822.1.1 = {death="7822.1.1"}
}
121607301 = {
	name="Zahra"	# not a lord
	female=yes
	dynasty=607301

	religion="jogos_pagan"
	culture="jogos_nhai"

	father=118607301
	mother=418607301

	7793.1.1 = {birth="7793.1.1"}
	7826.1.1 = {death="7826.1.1"}
}
122607301 = {
	name="Malia"	# a lord
	female=yes
	dynasty=607301

	religion="jogos_pagan"
	culture="jogos_nhai"

	father=118607301
	mother=418607301

	7796.1.1 = {birth="7796.1.1"}
	7858.1.1 = {death = {death_reason = death_accident}}
}
422607301 = {
	name="Wafa"

	religion="jogos_pagan"
	culture="jogos_nhai"

	7796.1.1 = {birth="7796.1.1"}
	7812.1.1 = {add_trait=poor_warrior}
	7814.1.1 = {add_spouse=122607301}
	7858.1.1 = {death="7858.1.1"}
}
123607301 = {
	name="Ghulak"	# a lord
	dynasty=607301

	religion="jogos_pagan"
	culture="jogos_nhai"

	father=422607301
	mother=122607301

	7819.1.1 = {birth="7819.1.1"}
	7835.1.1 = {add_trait=skilled_warrior}
	7837.1.1 = {add_spouse=423607301}
	7862.1.1 = {death="7862.1.1"}
}
423607301 = {
	name="Makai"
	female=yes

	religion="jogos_pagan"
	culture="jogos_nhai"

	7819.1.1 = {birth="7819.1.1"}
	7862.1.1 = {death="7862.1.1"}
}
124607301 = {
	name="Zabia"	# not a lord
	female=yes
	dynasty=607301

	religion="jogos_pagan"
	culture="jogos_nhai"

	father=422607301
	mother=122607301

	7828.1.1 = {birth="7828.1.1"}
	7864.1.1 = {death="7864.1.1"}
}
125607301 = {
	name="Yaldak"	# a lord
	dynasty=607301

	religion="jogos_pagan"
	culture="jogos_nhai"

	father=123607301
	mother=423607301

	7840.1.1 = {birth="7840.1.1"}
	7856.1.1 = {add_trait=poor_warrior}
	7858.1.1 = {add_spouse=425607301}
	7882.1.1 = {death="7882.1.1"}
}
425607301 = {
	name="Orzala"
	female=yes

	religion="jogos_pagan"
	culture="jogos_nhai"

	7840.1.1 = {birth="7840.1.1"}
	7882.1.1 = {death="7882.1.1"}
}
126607301 = {
	name="Mahwak"	# not a lord
	dynasty=607301

	religion="jogos_pagan"
	culture="jogos_nhai"

	father=123607301
	mother=423607301

	7843.1.1 = {birth="7843.1.1"}
	7859.1.1 = {add_trait=poor_warrior}
	7861.1.1 = {add_spouse=426607301}
}
426607301 = {
	name="Daywa"
	female=yes

	religion="jogos_pagan"
	culture="jogos_nhai"

	7843.1.1 = {birth="7843.1.1"}
}
127607301 = {
	name="Fardeen"	# a lord
	dynasty=607301

	religion="jogos_pagan"
	culture="jogos_nhai"

	father=125607301
	mother=425607301

	7872.1.1 = {birth="7872.1.1"}
	7888.1.1 = {add_trait=trained_warrior}
}
128607301 = {
	name="Ghezal"	# not a lord
	female=yes
	dynasty=607301

	religion="jogos_pagan"
	culture="jogos_nhai"

	father=125607301
	mother=425607301

	7875.1.1 = {birth="7875.1.1"}
}
129607301 = {
	name="Elhash"	# not a lord
	dynasty=607301

	religion="jogos_pagan"
	culture="jogos_nhai"

	father=125607301
	mother=425607301

	7877.1.1 = {birth="7877.1.1"}
	7893.1.1 = {add_trait=skilled_warrior}
}
130607301 = {
	name="Karima"	# not a lord
	female=yes
	dynasty=607301

	religion="jogos_pagan"
	culture="jogos_nhai"

	father=125607301
	mother=425607301

	7878.1.1 = {birth="7878.1.1"}
}
131607301 = {
	name="Taj"	# not a lord
	dynasty=607301

	religion="jogos_pagan"
	culture="jogos_nhai"

	father=126607301
	mother=426607301

	7878.1.1 = {birth="7878.1.1"}
	7894.1.1 = {add_trait=poor_warrior}
}
132607301 = {
	name="Uzrak"	# not a lord
	dynasty=607301

	religion="jogos_pagan"
	culture="jogos_nhai"

	father=126607301
	mother=426607301

	7880.1.1 = {birth="7880.1.1"}
	7896.1.1 = {add_trait=trained_warrior}
}
133607301 = {
	name="Haider"	# not a lord
	dynasty=607301

	religion="jogos_pagan"
	culture="jogos_nhai"

	father=126607301
	mother=426607301

	7881.1.1 = {birth="7881.1.1"}
	7897.1.1 = {add_trait=skilled_warrior}
}

#North Plains#
100607302 = {
	name="Jawak"	# a lord
	dynasty=607302

	religion="jogos_pagan"
	culture="jogos_nhai"

	7535.1.1 = {birth="7535.1.1"}
	7551.1.1 = {add_trait=trained_warrior}
	7553.1.1 = {add_spouse=400607302}
	7601.1.1 = {death="7601.1.1"}
}
400607302 = {
	name="Ghezal"
	female=yes

	religion="jogos_pagan"
	culture="jogos_nhai"

	7535.1.1 = {birth="7535.1.1"}
	7601.1.1 = {death="7601.1.1"}
}
101607302 = {
	name="Faqar"	# a lord
	dynasty=607302

	religion="jogos_pagan"
	culture="jogos_nhai"

	father=100607302
	mother=400607302

	7558.1.1 = {birth="7558.1.1"}
	7574.1.1 = {add_trait=poor_warrior}
	7576.1.1 = {add_spouse=401607302}
	7630.1.1 = {death="7630.1.1"}
}
401607302 = {
	name="Rabeha"
	female=yes

	religion="jogos_pagan"
	culture="jogos_nhai"

	7558.1.1 = {birth="7558.1.1"}
	7630.1.1 = {death="7630.1.1"}
}
102607302 = {
	name="Tahira"	# not a lord
	female=yes
	dynasty=607302

	religion="jogos_pagan"
	culture="jogos_nhai"

	father=100607302
	mother=400607302

	7559.1.1 = {birth="7559.1.1"}
	7622.1.1 = {death="7622.1.1"}
}
103607302 = {
	name="Daoud"	# not a lord
	dynasty=607302

	religion="jogos_pagan"
	culture="jogos_nhai"

	father=100607302
	mother=400607302

	7560.1.1 = {birth="7560.1.1"}
	7576.1.1 = {add_trait=skilled_warrior}
	7619.1.1 = {death="7619.1.1"}
}
104607302 = {
	name="Rasoul"	# not a lord
	dynasty=607302

	religion="jogos_pagan"
	culture="jogos_nhai"

	father=100607302
	mother=400607302

	7561.1.1 = {birth="7561.1.1"}
	7577.1.1 = {add_trait=trained_warrior}
	7640.1.1 = {death="7640.1.1"}
}
105607302 = {
	name="Kahkazan"	# a lord
	dynasty=607302

	religion="jogos_pagan"
	culture="jogos_nhai"

	father=101607302
	mother=401607302

	7590.1.1 = {birth="7590.1.1"}
	7606.1.1 = {add_trait=skilled_warrior}
	7608.1.1 = {add_spouse=405607302}
	7646.1.1 = {death="7646.1.1"}
}
405607302 = {
	name="Xebaida"
	female=yes

	religion="jogos_pagan"
	culture="jogos_nhai"

	7590.1.1 = {birth="7590.1.1"}
	7646.1.1 = {death="7646.1.1"}
}
106607302 = {
	name="Ghulak"	# not a lord
	dynasty=607302

	religion="jogos_pagan"
	culture="jogos_nhai"

	father=101607302
	mother=401607302

	7593.1.1 = {birth="7593.1.1"}
	7609.1.1 = {add_trait=poor_warrior}
	7641.1.1 = {death="7641.1.1"}
}
107607302 = {
	name="Tabish"	# not a lord
	dynasty=607302

	religion="jogos_pagan"
	culture="jogos_nhai"

	father=101607302
	mother=401607302

	7595.1.1 = {birth="7595.1.1"}
	7598.1.1 = {death="7598.1.1"}
}
108607302 = {
	name="Zeba"	# not a lord
	female=yes
	dynasty=607302

	religion="jogos_pagan"
	culture="jogos_nhai"

	father=101607302
	mother=401607302

	7598.1.1 = {birth="7598.1.1"}
	7641.1.1 = {death="7641.1.1"}
}
109607302 = {
	name="Lemar"	# not a lord
	dynasty=607302

	religion="jogos_pagan"
	culture="jogos_nhai"

	father=105607302
	mother=405607302

	7613.1.1 = {birth="7613.1.1"}
	7629.1.1 = {add_trait=poor_warrior}
	7646.1.1 = {death="7646.1.1"}
}
110607302 = {
	name="Zeba"	# a lord
	female=yes
	dynasty=607302

	religion="jogos_pagan"
	culture="jogos_nhai"

	father=105607302
	mother=405607302

	7616.1.1 = {birth="7616.1.1"}
	7659.1.1 = {death="7659.1.1"}
}
410607302 = {
	name="Changaze"

	religion="jogos_pagan"
	culture="jogos_nhai"

	7616.1.1 = {birth="7616.1.1"}
	7632.1.1 = {add_trait=poor_warrior}
	7634.1.1 = {add_spouse=110607302}
	7659.1.1 = {death="7659.1.1"}
}
111607302 = {
	name="Tarana"	# not a lord
	female=yes
	dynasty=607302

	religion="jogos_pagan"
	culture="jogos_nhai"

	father=105607302
	mother=405607302

	7619.1.1 = {birth="7619.1.1"}
	7666.1.1 = {death="7666.1.1"}
}
112607302 = {
	name="Rahila"	# not a lord
	female=yes
	dynasty=607302

	religion="jogos_pagan"
	culture="jogos_nhai"

	father=105607302
	mother=405607302

	7620.1.1 = {birth="7620.1.1"}
	7695.1.1 = {death="7695.1.1"}
}
113607302 = {
	name="Basir"	# a lord
	dynasty=607302

	religion="jogos_pagan"
	culture="jogos_nhai"

	father=410607302
	mother=110607302

	7645.1.1 = {birth="7645.1.1"}
	7661.1.1 = {add_trait=poor_warrior}
	7663.1.1 = {add_spouse=413607302}
	7703.1.1 = {death="7703.1.1"}
}
413607302 = {
	name="Daywa"
	female=yes

	religion="jogos_pagan"
	culture="jogos_nhai"

	7645.1.1 = {birth="7645.1.1"}
	7703.1.1 = {death="7703.1.1"}
}
114607302 = {
	name="Jaan"	# a lord
	dynasty=607302

	religion="jogos_pagan"
	culture="jogos_nhai"

	father=113607302
	mother=413607302

	7679.1.1 = {birth="7679.1.1"}
	7695.1.1 = {add_trait=poor_warrior}
	7697.1.1 = {add_spouse=414607302}
	7747.1.1 = {death="7747.1.1"}
}
414607302 = {
	name="Leepa"
	female=yes

	religion="jogos_pagan"
	culture="jogos_nhai"

	7679.1.1 = {birth="7679.1.1"}
	7747.1.1 = {death="7747.1.1"}
}
115607302 = {
	name="Yasen"	# a lord
	dynasty=607302

	religion="jogos_pagan"
	culture="jogos_nhai"

	father=114607302
	mother=414607302

	7702.1.1 = {birth="7702.1.1"}
	7718.1.1 = {add_trait=master_warrior}
	7720.1.1 = {add_spouse=415607302}
	7763.1.1 = {death="7763.1.1"}
}
415607302 = {
	name="Bakhtawar"
	female=yes

	religion="jogos_pagan"
	culture="jogos_nhai"

	7702.1.1 = {birth="7702.1.1"}
	7763.1.1 = {death="7763.1.1"}
}
116607302 = {
	name="Sabeir"	# a lord
	dynasty=607302

	religion="jogos_pagan"
	culture="jogos_nhai"

	father=114607302
	mother=414607302

	7703.1.1 = {birth="7703.1.1"}
	7719.1.1 = {add_trait=master_warrior}
	7721.1.1 = {add_spouse=416607302}
	7772.1.1 = {death="7772.1.1"}
}
416607302 = {
	name="Aatifa"
	female=yes

	religion="jogos_pagan"
	culture="jogos_nhai"

	7703.1.1 = {birth="7703.1.1"}
	7772.1.1 = {death="7772.1.1"}
}
117607302 = {
	name="Leena"	# not a lord
	female=yes
	dynasty=607302

	religion="jogos_pagan"
	culture="jogos_nhai"

	father=115607302
	mother=415607302

	7722.1.1 = {birth="7722.1.1"}
	7776.1.1 = {death="7776.1.1"}
}
118607302 = {
	name="Ramazan"	# a lord
	dynasty=607302

	religion="jogos_pagan"
	culture="jogos_nhai"

	father=116607302
	mother=416607302

	7736.1.1 = {birth="7736.1.1"}
	7752.1.1 = {add_trait=trained_warrior}
	7754.1.1 = {add_spouse=418607302}
	7791.1.1 = {death="7791.1.1"}
}
418607302 = {
	name="Faria"
	female=yes

	religion="jogos_pagan"
	culture="jogos_nhai"

	7736.1.1 = {birth="7736.1.1"}
	7791.1.1 = {death="7791.1.1"}
}
119607302 = {
	name="Sadik"	# not a lord
	dynasty=607302

	religion="jogos_pagan"
	culture="jogos_nhai"

	father=116607302
	mother=416607302

	7737.1.1 = {birth="7737.1.1"}
	7753.1.1 = {add_trait=skilled_warrior}
	7815.1.1 = {death="7815.1.1"}
}
120607302 = {
	name="Tamim"	# a lord
	dynasty=607302

	religion="jogos_pagan"
	culture="jogos_nhai"

	father=118607302
	mother=418607302

	7760.1.1 = {birth="7760.1.1"}
	7776.1.1 = {add_trait=trained_warrior}
	7778.1.1 = {add_spouse=420607302}
	7817.1.1 = {death="7817.1.1"}
}
420607302 = {
	name="Halima"
	female=yes

	religion="jogos_pagan"
	culture="jogos_nhai"

	7760.1.1 = {birth="7760.1.1"}
	7817.1.1 = {death="7817.1.1"}
}
121607302 = {
	name="Elhash"	# not a lord
	dynasty=607302

	religion="jogos_pagan"
	culture="jogos_nhai"

	father=118607302
	mother=418607302

	7761.1.1 = {birth="7761.1.1"}
	7777.1.1 = {add_trait=trained_warrior}
	7828.1.1 = {death="7828.1.1"}
}
122607302 = {
	name="Wais"	# not a lord
	dynasty=607302

	religion="jogos_pagan"
	culture="jogos_nhai"

	father=118607302
	mother=418607302

	7762.1.1 = {birth="7762.1.1"}
	7778.1.1 = {add_trait=trained_warrior}
	7822.1.1 = {death="7822.1.1"}
}
123607302 = {
	name="Tahira"	# not a lord
	female=yes
	dynasty=607302

	religion="jogos_pagan"
	culture="jogos_nhai"

	father=118607302
	mother=418607302

	7763.1.1 = {birth="7763.1.1"}
	7820.1.1 = {death = {death_reason = death_accident}}
}
124607302 = {
	name="Nadera"	# not a lord
	female=yes
	dynasty=607302

	religion="jogos_pagan"
	culture="jogos_nhai"

	father=120607302
	mother=420607302

	7779.1.1 = {birth="7779.1.1"}
	7836.1.1 = {death="7836.1.1"}
}
125607302 = {
	name="Obiad"	# a lord
	dynasty=607302

	religion="jogos_pagan"
	culture="jogos_nhai"

	father=120607302
	mother=420607302

	7781.1.1 = {birth="7781.1.1"}
	7797.1.1 = {add_trait=master_warrior}
	7799.1.1 = {add_spouse=425607302}
	7821.1.1 = {death="7821.1.1"}
}
425607302 = {
	name="Faria"
	female=yes

	religion="jogos_pagan"
	culture="jogos_nhai"

	7781.1.1 = {birth="7781.1.1"}
	7821.1.1 = {death="7821.1.1"}
}
126607302 = {
	name="Lailuma"	# not a lord
	female=yes
	dynasty=607302

	religion="jogos_pagan"
	culture="jogos_nhai"

	father=120607302
	mother=420607302

	7782.1.1 = {birth="7782.1.1"}
	7841.1.1 = {death="7841.1.1"}
}
127607302 = {
	name="Zahar"	# not a lord
	dynasty=607302

	religion="jogos_pagan"
	culture="jogos_nhai"

	father=120607302
	mother=420607302

	7785.1.1 = {birth="7785.1.1"}
	7801.1.1 = {add_trait=skilled_warrior}
	7847.1.1 = {death="7847.1.1"}
}
128607302 = {
	name="Zabi"	# a lord
	dynasty=607302

	religion="jogos_pagan"
	culture="jogos_nhai"

	father=125607302
	mother=425607302

	7805.1.1 = {birth="7805.1.1"}
	7821.1.1 = {add_trait=poor_warrior}
	7823.1.1 = {add_spouse=428607302}
	7858.1.1 = {death="7858.1.1"}
}
428607302 = {
	name="Orzala"
	female=yes

	religion="jogos_pagan"
	culture="jogos_nhai"

	7805.1.1 = {birth="7805.1.1"}
	7858.1.1 = {death="7858.1.1"}
}
129607302 = {
	name="Wahida"	# a lord
	female=yes
	dynasty=607302

	religion="jogos_pagan"
	culture="jogos_nhai"

	father=128607302
	mother=428607302

	7829.1.1 = {birth="7829.1.1"}
	7874.1.1 = {death="7874.1.1"}
}
429607302 = {
	name="Changaze"

	religion="jogos_pagan"
	culture="jogos_nhai"

	7829.1.1 = {birth="7829.1.1"}
	7845.1.1 = {add_trait=poor_warrior}
	7847.1.1 = {add_spouse=129607302}
	7874.1.1 = {death="7874.1.1"}
}
130607302 = {
	name="Rasoul"	# a lord
	dynasty=607302

	religion="jogos_pagan"
	culture="jogos_nhai"

	father=429607302
	mother=129607302

	7851.1.1 = {birth="7851.1.1"}
	7867.1.1 = {add_trait=trained_warrior}
	7869.1.1 = {add_spouse=430607302}
}
430607302 = {
	name="Ilaaha"
	female=yes

	religion="jogos_pagan"
	culture="jogos_nhai"

	7851.1.1 = {birth="7851.1.1"}
}
131607302 = {
	name="Aasif"	# not a lord
	dynasty=607302

	religion="jogos_pagan"
	culture="jogos_nhai"

	father=130607302
	mother=430607302

	7874.1.1 = {birth="7874.1.1"}
	7890.1.1 = {add_trait=trained_warrior}
}
132607302 = {
	name="Farhad"	# not a lord
	dynasty=607302

	religion="jogos_pagan"
	culture="jogos_nhai"

	father=130607302
	mother=430607302

	7877.1.1 = {birth="7877.1.1"}
	7893.1.1 = {add_trait=skilled_warrior}
}

#Central Plains#
100607303 = {
	name="Zaid"	# a lord
	dynasty=607303

	religion="jogos_pagan"
	culture="jogos_nhai"

	7560.1.1 = {birth="7560.1.1"}
	7576.1.1 = {add_trait=trained_warrior}
	7578.1.1 = {add_spouse=400607303}
	7619.1.1 = {death="7619.1.1"}
}
400607303 = {
	name="Donyaa"
	female=yes

	religion="jogos_pagan"
	culture="jogos_nhai"

	7560.1.1 = {birth="7560.1.1"}
	7619.1.1 = {death="7619.1.1"}
}
101607303 = {
	name="Edrees"	# a lord
	dynasty=607303

	religion="jogos_pagan"
	culture="jogos_nhai"

	father=100607303
	mother=400607303

	7583.1.1 = {birth="7583.1.1"}
	7599.1.1 = {add_trait=trained_warrior}
	7601.1.1 = {add_spouse=401607303}
	7635.1.1 = {death="7635.1.1"}
}
401607303 = {
	name="Laimah"
	female=yes

	religion="jogos_pagan"
	culture="jogos_nhai"

	7583.1.1 = {birth="7583.1.1"}
	7635.1.1 = {death="7635.1.1"}
}
102607303 = {
	name="Yama"	# not a lord
	female=yes
	dynasty=607303

	religion="jogos_pagan"
	culture="jogos_nhai"

	father=100607303
	mother=400607303

	7585.1.1 = {birth="7585.1.1"}
	7637.1.1 = {death="7637.1.1"}
}
103607303 = {
	name="Taj"	# not a lord
	dynasty=607303

	religion="jogos_pagan"
	culture="jogos_nhai"

	father=100607303
	mother=400607303

	7586.1.1 = {birth="7586.1.1"}
	7602.1.1 = {add_trait=trained_warrior}
	7640.1.1 = {death="7640.1.1"}
}
104607303 = {
	name="Tahira"	# not a lord
	female=yes
	dynasty=607303

	religion="jogos_pagan"
	culture="jogos_nhai"

	father=100607303
	mother=400607303

	7588.1.1 = {birth="7588.1.1"}
	7630.1.1 = {death="7630.1.1"}
}
105607303 = {
	name="Chehra"	# not a lord
	female=yes
	dynasty=607303

	religion="jogos_pagan"
	culture="jogos_nhai"

	father=101607303
	mother=401607303

	7603.1.1 = {birth="7603.1.1"}
	7653.1.1 = {death="7653.1.1"}
}
106607303 = {
	name="Qader"	# a lord
	dynasty=607303

	religion="jogos_pagan"
	culture="jogos_nhai"

	father=101607303
	mother=401607303

	7606.1.1 = {birth="7606.1.1"}
	7622.1.1 = {add_trait=trained_warrior}
	7624.1.1 = {add_spouse=406607303}
	7648.1.1 = {death="7648.1.1"}
}
406607303 = {
	name="Xebaida"
	female=yes

	religion="jogos_pagan"
	culture="jogos_nhai"

	7606.1.1 = {birth="7606.1.1"}
	7648.1.1 = {death="7648.1.1"}
}
107607303 = {
	name="Sabeir"	# a lord
	dynasty=607303

	religion="jogos_pagan"
	culture="jogos_nhai"

	father=106607303
	mother=406607303

	7630.1.1 = {birth="7630.1.1"}
	7646.1.1 = {add_trait=master_warrior}
	7648.1.1 = {add_spouse=407607303}
	7679.1.1 = {death="7679.1.1"}
}
407607303 = {
	name="Tahira"
	female=yes

	religion="jogos_pagan"
	culture="jogos_nhai"

	7630.1.1 = {birth="7630.1.1"}
	7679.1.1 = {death="7679.1.1"}
}
108607303 = {
	name="Tamim"	# not a lord
	dynasty=607303

	religion="jogos_pagan"
	culture="jogos_nhai"

	father=106607303
	mother=406607303

	7632.1.1 = {birth="7632.1.1"}
	7648.1.1 = {add_trait=trained_warrior}
	7673.1.1 = {death="7673.1.1"}
}
109607303 = {
	name="Taj"	# a lord
	dynasty=607303

	religion="jogos_pagan"
	culture="jogos_nhai"

	father=107607303
	mother=407607303

	7659.1.1 = {birth="7659.1.1"}
	7675.1.1 = {add_trait=trained_warrior}
	7677.1.1 = {add_spouse=409607303}
	7699.1.1 = {death="7699.1.1"}
}
409607303 = {
	name="Tamana"
	female=yes

	religion="jogos_pagan"
	culture="jogos_nhai"

	7659.1.1 = {birth="7659.1.1"}
	7699.1.1 = {death="7699.1.1"}
}
110607303 = {
	name="Kahkazan"	# a lord
	dynasty=607303

	religion="jogos_pagan"
	culture="jogos_nhai"

	father=109607303
	mother=409607303

	7687.1.1 = {birth="7687.1.1"}
	7703.1.1 = {add_trait=trained_warrior}
	7705.1.1 = {add_spouse=410607303}
	7755.1.1 = {death="7755.1.1"}
}
410607303 = {
	name="Daywa"
	female=yes

	religion="jogos_pagan"
	culture="jogos_nhai"

	7687.1.1 = {birth="7687.1.1"}
	7755.1.1 = {death="7755.1.1"}
}
111607303 = {
	name="Walia"	# not a lord
	female=yes
	dynasty=607303

	religion="jogos_pagan"
	culture="jogos_nhai"

	father=109607303
	mother=409607303

	7690.1.1 = {birth="7690.1.1"}
	7754.1.1 = {death="7754.1.1"}
}
112607303 = {
	name="Aamir"	# not a lord
	dynasty=607303

	religion="jogos_pagan"
	culture="jogos_nhai"

	father=109607303
	mother=409607303

	7691.1.1 = {birth="7691.1.1"}
	7707.1.1 = {add_trait=trained_warrior}
	7744.1.1 = {death="7744.1.1"}
}
113607303 = {
	name="Usma"	# a lord
	female=yes
	dynasty=607303

	religion="jogos_pagan"
	culture="jogos_nhai"

	father=110607303
	mother=410607303

	7708.1.1 = {birth="7708.1.1"}
	7776.1.1 = {death="7776.1.1"}
}
413607303 = {
	name="Tahib"

	religion="jogos_pagan"
	culture="jogos_nhai"

	7708.1.1 = {birth="7708.1.1"}
	7724.1.1 = {add_trait=poor_warrior}
	7726.1.1 = {add_spouse=113607303}
	7776.1.1 = {death="7776.1.1"}
}
114607303 = {
	name="Naim"	# a lord
	dynasty=607303

	religion="jogos_pagan"
	culture="jogos_nhai"

	father=413607303
	mother=113607303

	7737.1.1 = {birth="7737.1.1"}
	7753.1.1 = {add_trait=skilled_warrior}
	7755.1.1 = {add_spouse=414607303}
	7778.1.1 = {death="7778.1.1"}
}
414607303 = {
	name="Leena"
	female=yes

	religion="jogos_pagan"
	culture="jogos_nhai"

	7737.1.1 = {birth="7737.1.1"}
	7778.1.1 = {death="7778.1.1"}
}
115607303 = {
	name="Faqar"	# a lord
	dynasty=607303

	religion="jogos_pagan"
	culture="jogos_nhai"

	father=413607303
	mother=113607303

	7739.1.1 = {birth="7739.1.1"}
	7755.1.1 = {add_trait=trained_warrior}
	7757.1.1 = {add_spouse=415607303}
	7795.1.1 = {death="7795.1.1"}
}
415607303 = {
	name="Aatifa"
	female=yes

	religion="jogos_pagan"
	culture="jogos_nhai"

	7739.1.1 = {birth="7739.1.1"}
	7795.1.1 = {death="7795.1.1"}
}
116607303 = {
	name="Rahila"	# not a lord
	female=yes
	dynasty=607303

	religion="jogos_pagan"
	culture="jogos_nhai"

	father=114607303
	mother=414607303

	7771.1.1 = {birth="7771.1.1"}
	7798.1.1 = {death="7798.1.1"}
}
117607303 = {
	name="Aarak"	# a lord
	dynasty=607303

	religion="jogos_pagan"
	culture="jogos_nhai"

	father=114607303
	mother=414607303

	7774.1.1 = {birth="7774.1.1"}
	7790.1.1 = {add_trait=poor_warrior}
	7792.1.1 = {add_spouse=417607303}
	7826.1.1 = {death = {death_reason = death_murder}}
}
417607303 = {
	name="Chehra"
	female=yes

	religion="jogos_pagan"
	culture="jogos_nhai"

	7774.1.1 = {birth="7774.1.1"}
	7826.1.1 = {death="7826.1.1"}
}
118607303 = {
	name="Elina"	# not a lord
	female=yes
	dynasty=607303

	religion="jogos_pagan"
	culture="jogos_nhai"

	father=115607303
	mother=415607303

	7762.1.1 = {birth="7762.1.1"}
	7821.1.1 = {death="7821.1.1"}
}
119607303 = {
	name="Ehsan"	# a lord
	dynasty=607303

	religion="jogos_pagan"
	culture="jogos_nhai"

	father=117607303
	mother=417607303

	7799.1.1 = {birth="7799.1.1"}
	7815.1.1 = {add_trait=trained_warrior}
	7817.1.1 = {add_spouse=419607303}
	7852.1.1 = {death="7852.1.1"}
}
419607303 = {
	name="Obiada"
	female=yes

	religion="jogos_pagan"
	culture="jogos_nhai"

	7799.1.1 = {birth="7799.1.1"}
	7852.1.1 = {death="7852.1.1"}
}
120607303 = {
	name="Leepa"	# not a lord
	female=yes
	dynasty=607303

	religion="jogos_pagan"
	culture="jogos_nhai"

	father=117607303
	mother=417607303

	7801.1.1 = {birth="7801.1.1"}
	7880.1.1 = {death="7880.1.1"}
}
121607303 = {
	name="Orzala"	# not a lord
	female=yes
	dynasty=607303

	religion="jogos_pagan"
	culture="jogos_nhai"

	father=117607303
	mother=417607303

	7803.1.1 = {birth="7803.1.1"}
	7844.1.1 = {death="7844.1.1"}
}
122607303 = {
	name="Parviz"	# a lord
	dynasty=607303

	religion="jogos_pagan"
	culture="jogos_nhai"

	father=119607303
	mother=419607303

	7826.1.1 = {birth="7826.1.1"}
	7842.1.1 = {add_trait=trained_warrior}
	7844.1.1 = {add_spouse=422607303}
	7893.1.1 = {death="7893.1.1"}
}
422607303 = {
	name="Patra"
	female=yes

	religion="jogos_pagan"
	culture="jogos_nhai"

	7826.1.1 = {birth="7826.1.1"}
	7893.1.1 = {death="7893.1.1"}
}
123607303 = {
	name="Wajia"	# not a lord
	female=yes
	dynasty=607303

	religion="jogos_pagan"
	culture="jogos_nhai"

	father=119607303
	mother=419607303

	7827.1.1 = {birth="7827.1.1"}
	7874.1.1 = {death="7874.1.1"}
}
124607303 = {
	name="Yasaman"	# not a lord
	dynasty=607303

	religion="jogos_pagan"
	culture="jogos_nhai"

	father=119607303
	mother=419607303

	7830.1.1 = {birth="7830.1.1"}
	7846.1.1 = {add_trait=poor_warrior}
	7848.1.1 = {add_spouse=424607303}
	7895.1.1 = {death="7895.1.1"}
}
424607303 = {
	name="Laimah"
	female=yes

	religion="jogos_pagan"
	culture="jogos_nhai"

	7830.1.1 = {birth="7830.1.1"}
	7895.1.1 = {death="7895.1.1"}
}
125607303 = {
	name="Sabeir"	# not a lord
	dynasty=607303

	religion="jogos_pagan"
	culture="jogos_nhai"

	father=119607303
	mother=419607303

	7833.1.1 = {birth="7833.1.1"}
	7849.1.1 = {add_trait=poor_warrior}
	7884.1.1 = {death="7884.1.1"}
}
126607303 = {
	name="Ramazan"	# a lord
	dynasty=607303

	religion="jogos_pagan"
	culture="jogos_nhai"

	father=122607303
	mother=422607303

	7861.1.1 = {birth="7861.1.1"}
	7877.1.1 = {add_trait=trained_warrior}
	7879.1.1 = {add_spouse=426607303}
}
426607303 = {
	name="Obiada"
	female=yes

	religion="jogos_pagan"
	culture="jogos_nhai"

	7861.1.1 = {birth="7861.1.1"}
}
127607303 = {
	name="Zahra"	# not a lord
	female=yes
	dynasty=607303

	religion="jogos_pagan"
	culture="jogos_nhai"

	father=126607303
	mother=426607303

	7884.1.1 = {birth="7884.1.1"}
}
128607303 = {
	name="Sabroo"	# not a lord
	female=yes
	dynasty=607303

	religion="jogos_pagan"
	culture="jogos_nhai"

	father=124607303
	mother=424607303

	7853.1.1 = {birth="7853.1.1"}
}
129607303 = {
	name="Qader"	# a lord
	dynasty=607303

	religion="jogos_pagan"
	culture="jogos_nhai"

	father=124607303
	mother=424607303

	7855.1.1 = {birth="7855.1.1"}
	7871.1.1 = {add_trait=trained_warrior}
	7873.1.1 = {add_spouse=429607303}
}
429607303 = {
	name="Darya"
	female=yes

	religion="jogos_pagan"
	culture="jogos_nhai"

	7855.1.1 = {birth="7855.1.1"}
}
132607303 = {
	name="Maiwand"	# not a lord
	dynasty=607303

	religion="jogos_pagan"
	culture="jogos_nhai"

	father=124607303
	mother=424607303

	7858.1.1 = {birth="7858.1.1"}
	7874.1.1 = {add_trait=trained_warrior}
}
133607303 = {
	name="Fateh"	# not a lord
	dynasty=607303

	religion="jogos_pagan"
	culture="jogos_nhai"

	father=129607303
	mother=429607303

	7877.1.1 = {birth="7877.1.1"}
	7893.1.1 = {add_trait=master_warrior}
}

#East Plains#
100607304 = {
	name="Ehsan"	# a lord
	dynasty=607304

	religion="jogos_pagan"
	culture="jogos_nhai"

	7554.1.1 = {birth="7554.1.1"}
	7570.1.1 = {add_trait=skilled_warrior}
	7572.1.1 = {add_spouse=400607304}
	7605.1.1 = {death="7605.1.1"}
}
400607304 = {
	name="Wahida"
	female=yes

	religion="jogos_pagan"
	culture="jogos_nhai"

	7554.1.1 = {birth="7554.1.1"}
	7605.1.1 = {death="7605.1.1"}
}
101607304 = {
	name="Qader"	# a lord
	dynasty=607304

	religion="jogos_pagan"
	culture="jogos_nhai"

	father=100607304
	mother=400607304

	7577.1.1 = {birth="7577.1.1"}
	7593.1.1 = {add_trait=trained_warrior}
	7595.1.1 = {add_spouse=401607304}
	7627.1.1 = {death="7627.1.1"}
}
401607304 = {
	name="Malalai"
	female=yes

	religion="jogos_pagan"
	culture="jogos_nhai"

	7577.1.1 = {birth="7577.1.1"}
	7627.1.1 = {death="7627.1.1"}
}
102607304 = {
	name="Elhash"	# not a lord
	dynasty=607304

	religion="jogos_pagan"
	culture="jogos_nhai"

	father=100607304
	mother=400607304

	7580.1.1 = {birth="7580.1.1"}
	7596.1.1 = {add_trait=poor_warrior}
	7640.1.1 = {death="7640.1.1"}
}
103607304 = {
	name="Qudratu"	# a lord
	female=yes
	dynasty=607304

	religion="jogos_pagan"
	culture="jogos_nhai"

	father=101607304
	mother=401607304

	7604.1.1 = {birth="7604.1.1"}
	7639.1.1 = {death="7639.1.1"}
}
403607304 = {
	name="Wakel"

	religion="jogos_pagan"
	culture="jogos_nhai"

	7604.1.1 = {birth="7604.1.1"}
	7620.1.1 = {add_trait=poor_warrior}
	7622.1.1 = {add_spouse=103607304}
	7639.1.1 = {death="7639.1.1"}
}
104607304 = {
	name="Zhea"	# not a lord
	female=yes
	dynasty=607304

	religion="jogos_pagan"
	culture="jogos_nhai"

	father=101607304
	mother=401607304

	7606.1.1 = {birth="7606.1.1"}
	7665.1.1 = {death="7665.1.1"}
}
105607304 = {
	name="Camila"	# not a lord
	female=yes
	dynasty=607304

	religion="jogos_pagan"
	culture="jogos_nhai"

	father=101607304
	mother=401607304

	7609.1.1 = {birth="7609.1.1"}
	7636.1.1 = {death="7636.1.1"}
}
106607304 = {
	name="Jakan"	# a lord
	dynasty=607304

	religion="jogos_pagan"
	culture="jogos_nhai"

	father=403607304
	mother=103607304

	7624.1.1 = {birth="7624.1.1"}
	7640.1.1 = {add_trait=trained_warrior}
	7642.1.1 = {add_spouse=406607304}
	7683.1.1 = {death="7683.1.1"}
}
406607304 = {
	name="Wahida"
	female=yes

	religion="jogos_pagan"
	culture="jogos_nhai"

	7624.1.1 = {birth="7624.1.1"}
	7683.1.1 = {death="7683.1.1"}
}
107607304 = {
	name="Kamila"	# not a lord
	female=yes
	dynasty=607304

	religion="jogos_pagan"
	culture="jogos_nhai"

	father=106607304
	mother=406607304

	7647.1.1 = {birth="7647.1.1"}
	7688.1.1 = {death="7688.1.1"}
}
108607304 = {
	name="Tahmina"	# not a lord
	female=yes
	dynasty=607304

	religion="jogos_pagan"
	culture="jogos_nhai"

	father=106607304
	mother=406607304

	7648.1.1 = {birth="7648.1.1"}
	7711.1.1 = {death="7711.1.1"}
}
109607304 = {
	name="Rasoul"	# a lord
	dynasty=607304

	religion="jogos_pagan"
	culture="jogos_nhai"

	father=106607304
	mother=406607304

	7650.1.1 = {birth="7650.1.1"}
	7666.1.1 = {add_trait=skilled_warrior}
	7668.1.1 = {add_spouse=409607304}
	7709.1.1 = {death="7709.1.1"}
}
409607304 = {
	name="Tarana"
	female=yes

	religion="jogos_pagan"
	culture="jogos_nhai"

	7650.1.1 = {birth="7650.1.1"}
	7709.1.1 = {death="7709.1.1"}
}
110607304 = {
	name="Hila"	# not a lord
	female=yes
	dynasty=607304

	religion="jogos_pagan"
	culture="jogos_nhai"

	father=109607304
	mother=409607304

	7677.1.1 = {birth="7677.1.1"}
	7744.1.1 = {death="7744.1.1"}
}
111607304 = {
	name="Durkhany"	# not a lord
	female=yes
	dynasty=607304

	religion="jogos_pagan"
	culture="jogos_nhai"

	father=109607304
	mother=409607304

	7679.1.1 = {birth="7679.1.1"}
	7724.1.1 = {death="7724.1.1"}
}
112607304 = {
	name="Tarakai"	# a lord
	dynasty=607304

	religion="jogos_pagan"
	culture="jogos_nhai"

	father=109607304
	mother=409607304

	7682.1.1 = {birth="7682.1.1"}
	7698.1.1 = {add_trait=skilled_warrior}
	7700.1.1 = {add_spouse=412607304}
	7749.1.1 = {death="7749.1.1"}
}
412607304 = {
	name="Nabila"
	female=yes

	religion="jogos_pagan"
	culture="jogos_nhai"

	7682.1.1 = {birth="7682.1.1"}
	7749.1.1 = {death="7749.1.1"}
}
113607304 = {
	name="Sahar"	# not a lord
	dynasty=607304

	religion="jogos_pagan"
	culture="jogos_nhai"

	father=109607304
	mother=409607304

	7683.1.1 = {birth="7683.1.1"}
	7699.1.1 = {add_trait=poor_warrior}
	7741.1.1 = {death = {death_reason = death_accident}}
}
114607304 = {
	name="Nagia"	# not a lord
	female=yes
	dynasty=607304

	religion="jogos_pagan"
	culture="jogos_nhai"

	father=112607304
	mother=412607304

	7706.1.1 = {birth="7706.1.1"}
	7743.1.1 = {death="7743.1.1"}
}
115607304 = {
	name="Ramez"	# a lord
	dynasty=607304

	religion="jogos_pagan"
	culture="jogos_nhai"

	father=112607304
	mother=412607304

	7707.1.1 = {birth="7707.1.1"}
	7723.1.1 = {add_trait=trained_warrior}
	7725.1.1 = {add_spouse=415607304}
	7777.1.1 = {death="7777.1.1"}
}
415607304 = {
	name="Naazi"
	female=yes

	religion="jogos_pagan"
	culture="jogos_nhai"

	7707.1.1 = {birth="7707.1.1"}
	7777.1.1 = {death="7777.1.1"}
}
116607304 = {
	name="Elhash"	# not a lord
	dynasty=607304

	religion="jogos_pagan"
	culture="jogos_nhai"

	father=112607304
	mother=412607304

	7710.1.1 = {birth="7710.1.1"}
	7726.1.1 = {add_trait=poor_warrior}
	7772.1.1 = {death="7772.1.1"}
}
117607304 = {
	name="Fateh"	# not a lord
	dynasty=607304

	religion="jogos_pagan"
	culture="jogos_nhai"

	father=115607304
	mother=415607304

	7732.1.1 = {birth="7732.1.1"}
	7748.1.1 = {add_trait=skilled_warrior}
	7750.1.1 = {add_spouse=417607304}
	7775.1.1 = {death="7775.1.1"}
}
417607304 = {
	name="Rahila"
	female=yes

	religion="jogos_pagan"
	culture="jogos_nhai"

	7732.1.1 = {birth="7732.1.1"}
	7775.1.1 = {death="7775.1.1"}
}
118607304 = {
	name="Aarak"	# a lord
	dynasty=607304

	religion="jogos_pagan"
	culture="jogos_nhai"

	father=115607304
	mother=415607304

	7735.1.1 = {birth="7735.1.1"}
	7751.1.1 = {add_trait=poor_warrior}
	7753.1.1 = {add_spouse=418607304}
	7779.1.1 = {death="7779.1.1"}
}
418607304 = {
	name="Durkhany"
	female=yes

	religion="jogos_pagan"
	culture="jogos_nhai"

	7735.1.1 = {birth="7735.1.1"}
	7779.1.1 = {death="7779.1.1"}
}
119607304 = {
	name="Daywa"	# not a lord
	female=yes
	dynasty=607304

	religion="jogos_pagan"
	culture="jogos_nhai"

	father=117607304
	mother=417607304

	7751.1.1 = {birth="7751.1.1"}
	7815.1.1 = {death="7815.1.1"}
}
120607304 = {
	name="Tarakai"	# a lord
	dynasty=607304

	religion="jogos_pagan"
	culture="jogos_nhai"

	father=118607304
	mother=418607304

	7758.1.1 = {birth="7758.1.1"}
	7774.1.1 = {add_trait=poor_warrior}
	7776.1.1 = {add_spouse=420607304}
	7824.1.1 = {death="7824.1.1"}
}
420607304 = {
	name="Ghezal"
	female=yes

	religion="jogos_pagan"
	culture="jogos_nhai"

	7758.1.1 = {birth="7758.1.1"}
	7824.1.1 = {death="7824.1.1"}
}
121607304 = {
	name="Abagull"	# not a lord
	female=yes
	dynasty=607304

	religion="jogos_pagan"
	culture="jogos_nhai"

	father=120607304
	mother=420607304

	7782.1.1 = {birth="7782.1.1"}
	7835.1.1 = {death="7835.1.1"}
}
122607304 = {
	name="Inzir"	# a lord
	dynasty=607304

	religion="jogos_pagan"
	culture="jogos_nhai"

	father=120607304
	mother=420607304

	7783.1.1 = {birth="7783.1.1"}
	7799.1.1 = {add_trait=skilled_warrior}
	7801.1.1 = {add_spouse=422607304}
	7850.1.1 = {death="7850.1.1"}
}
422607304 = {
	name="Tarana"
	female=yes

	religion="jogos_pagan"
	culture="jogos_nhai"

	7783.1.1 = {birth="7783.1.1"}
	7850.1.1 = {death="7850.1.1"}
}
123607304 = {
	name="Jakan"	# a lord
	dynasty=607304

	religion="jogos_pagan"
	culture="jogos_nhai"

	father=122607304
	mother=422607304

	7817.1.1 = {birth="7817.1.1"}
	7833.1.1 = {add_trait=trained_warrior}
	7835.1.1 = {add_spouse=423607304}
	7875.1.1 = {death="7875.1.1"}
}
423607304 = {
	name="Camila"
	female=yes

	religion="jogos_pagan"
	culture="jogos_nhai"

	7817.1.1 = {birth="7817.1.1"}
	7875.1.1 = {death="7875.1.1"}
}
124607304 = {
	name="Sadaf"	# a lord
	dynasty=607304

	religion="jogos_pagan"
	culture="jogos_nhai"

	father=123607304
	mother=423607304

	7849.1.1 = {birth="7849.1.1"}
	7865.1.1 = {add_trait=trained_warrior}
	7867.1.1 = {add_spouse=424607304}
	7891.1.1 = {death="7891.1.1"}
}
424607304 = {
	name="Leepa"
	female=yes

	religion="jogos_pagan"
	culture="jogos_nhai"

	7849.1.1 = {birth="7849.1.1"}
	7891.1.1 = {death="7891.1.1"}
}
125607304 = {
	name="Ilaaha"	# not a lord
	female=yes
	dynasty=607304

	religion="jogos_pagan"
	culture="jogos_nhai"

	father=123607304
	mother=423607304

	7850.1.1 = {birth="7850.1.1"}
	7897.1.1 = {death="7897.1.1"}
}
126607304 = {
	name="Janan"	# a lord
	dynasty=607304

	religion="jogos_pagan"
	culture="jogos_nhai"

	father=124607304
	mother=424607304

	7872.1.1 = {birth="7872.1.1"}
	7888.1.1 = {add_trait=poor_warrior}
}
127607304 = {
	name="Zeba"	# not a lord
	female=yes
	dynasty=607304

	religion="jogos_pagan"
	culture="jogos_nhai"

	father=124607304
	mother=424607304

	7873.1.1 = {birth="7873.1.1"}
}
128607304 = {
	name="Temur"	# not a lord
	dynasty=607304

	religion="jogos_pagan"
	culture="jogos_nhai"

	father=124607304
	mother=424607304

	7874.1.1 = {birth="7874.1.1"}
	7890.1.1 = {add_trait=poor_warrior}
}
