##  House Tumitis


155300544 = {
	name="Denzo"	# a lord
	dynasty=300544

	religion="trios"
	culture="tyroshi"

	7563.1.1 = {birth="7563.1.1"}
	7587.1.1 = {add_spouse=250300544}
	7624.1.1 = {death="7624.1.1"}
}
250300544 = {
	name="Shae"
	female=yes

	religion="trios"
	culture="tyroshi"

	7561.1.1 = {birth="7561.1.1"}
	7619.1.1 = {death="7619.1.1"}
}
100300544 = {
	name="Doniphos"	# a lord
	dynasty=300544

	religion="trios"
	culture="tyroshi"

	father=155300544
	mother=250300544

	7594.1.1 = {birth="7594.1.1"}
	7616.1.1 = {add_trait=poor_warrior}
	7618.1.1 = {add_spouse=200300544}
	7646.1.1 = {death="7646.1.1"}
}
200300544 = {
	name="Gylora"
	female=yes

	religion="trios"
	culture="tyroshi"

	7600.1.1 = {birth="7600.1.1"}
	7646.1.1 = {death="7646.1.1"}
}
101300544 = {
	name="Jaqen"	# a lord
	dynasty=300544

	religion="trios"
	culture="tyroshi"

	father=100300544
	mother=200300544

	7618.1.1 = {birth="7618.1.1"}
	7634.1.1 = {add_trait=trained_warrior}
	7636.1.1 = {add_spouse=201300544}
	7679.1.1 = {death="7679.1.1"}
}
201300544 = {
	name="Orios"
	female=yes

	religion="trios"
	culture="tyroshi"

	7618.1.1 = {birth="7618.1.1"}
	7679.1.1 = {death="7679.1.1"}
}
102300544 = {
	name="Syrio"	# not a lord
	dynasty=300544

	religion="trios"
	culture="tyroshi"

	father=100300544
	mother=200300544

	7621.1.1 = {birth="7621.1.1"}
	7637.1.1 = {add_trait=trained_warrior}
	7639.1.1 = {add_spouse=202300544}
	7685.1.1 = {death="7685.1.1"}
}
202300544 = {
	name="Mera"
	female=yes

	religion="trios"
	culture="tyroshi"

	7621.1.1 = {birth="7621.1.1"}
	7685.1.1 = {death="7685.1.1"}
}
103300544 = {
	name="Roro"	# not a lord
	dynasty=300544

	religion="trios"
	culture="tyroshi"

	father=102300544
	mother=202300544

	7644.1.1 = {birth="7644.1.1"}
	7660.1.1 = {add_trait=master_warrior}
	7676.1.1 = {death="7676.1.1"}
}
104300544 = {
	name="Brusco"	# not a lord
	dynasty=300544

	religion="trios"
	culture="tyroshi"

	father=102300544
	mother=202300544

	7646.1.1 = {birth="7646.1.1"}
	7662.1.1 = {add_trait=skilled_warrior}
	7692.1.1 = {death="7692.1.1"}
}
105300544 = {
	name="Bellonara"	# not a lord
	female=yes
	dynasty=300544

	religion="trios"
	culture="tyroshi"

	father=101300544
	mother=201300544

	7643.1.1 = {birth="7643.1.1"}
	7706.1.1 = {death="7706.1.1"}
}
106300544 = {
	name="Ordello"	# a lord
	dynasty=300544

	religion="trios"
	culture="tyroshi"

	father=101300544
	mother=201300544

	7645.1.1 = {birth="7645.1.1"}
	7661.1.1 = {add_trait=skilled_warrior}
	7663.1.1 = {add_spouse=206300544}
	7711.1.1 = {death="7711.1.1"}
}
206300544 = {
	name="Syrea"
	female=yes

	religion="trios"
	culture="tyroshi"

	7645.1.1 = {birth="7645.1.1"}
	7711.1.1 = {death="7711.1.1"}
}
107300544 = {
	name="Denia"	# not a lord
	female=yes
	dynasty=300544

	religion="trios"
	culture="tyroshi"

	father=101300544
	mother=201300544

	7648.1.1 = {birth="7648.1.1"}
	7689.1.1 = {death="7689.1.1"}
}
108300544 = {
	name="Izembaro"	# not a lord
	dynasty=300544

	religion="trios"
	culture="tyroshi"

	father=101300544
	mother=201300544

	7651.1.1 = {birth="7651.1.1"}
	7667.1.1 = {add_trait=skilled_warrior}
	7669.1.1 = {add_spouse=208300544}
	7709.1.1 = {death="7709.1.1"}
}
208300544 = {
	name="Bellegere"
	female=yes

	religion="trios"
	culture="tyroshi"

	7651.1.1 = {birth="7651.1.1"}
	7709.1.1 = {death="7709.1.1"}
}
109300544 = {
	name="Orios"	# not a lord
	female=yes
	dynasty=300544

	religion="trios"
	culture="tyroshi"

	father=106300544
	mother=206300544

	7664.1.1 = {birth="7664.1.1"}
	7709.1.1 = {death="7709.1.1"}
}
110300544 = {
	name="Pynto"	# a lord
	dynasty=300544

	religion="trios"
	culture="tyroshi"

	father=106300544
	mother=206300544

	7667.1.1 = {birth="7667.1.1"}
	7683.1.1 = {add_trait=trained_warrior}
	7685.1.1 = {add_spouse=210300544}
	7734.1.1 = {death = {death_reason = death_accident}}
}
210300544 = {
	name="Myrmellios"
	female=yes

	religion="trios"
	culture="tyroshi"

	7667.1.1 = {birth="7667.1.1"}
	7734.1.1 = {death="7734.1.1"}
}
111300544 = {
	name="Izembaro"	# not a lord
	dynasty=300544

	religion="trios"
	culture="tyroshi"

	father=106300544
	mother=206300544

	7668.1.1 = {birth="7668.1.1"}
	7684.1.1 = {add_trait=poor_warrior}
	7686.1.1 = {add_spouse=211300544}
	7705.1.1 = {death="7705.1.1"}
}
211300544 = {
	name="Tagganaria"
	female=yes

	religion="trios"
	culture="tyroshi"

	7668.1.1 = {birth="7668.1.1"}
	7705.1.1 = {death="7705.1.1"}
}
112300544 = {
	name="Moredea"	# not a lord
	female=yes
	dynasty=300544

	religion="trios"
	culture="tyroshi"

	father=110300544
	mother=210300544

	7688.1.1 = {birth="7688.1.1"}
	7734.1.1 = {death="7734.1.1"}
}
113300544 = {
	name="Pynto"	# not a lord
	dynasty=300544

	religion="trios"
	culture="tyroshi"

	father=110300544
	mother=210300544

	7695.1.1 = {birth="7695.1.1"}
	7746.1.1 = {death="7746.1.1"}
}
114300544 = {
	name="Tormo"	# a lord
	dynasty=300544

	religion="trios"
	culture="tyroshi"

	father=110300544
	mother=210300544

	7694.1.1 = {birth="7694.1.1"}
	7710.1.1 = {add_trait=poor_warrior}
	7735.1.1 = {death="7735.1.1"}
}
115300544 = {
	name="Tagganaria"	# not a lord
	female=yes
	dynasty=300544

	religion="trios"
	culture="tyroshi"

	father=110300544
	mother=210300544

	7697.1.1 = {birth="7697.1.1"}
	7756.1.1 = {death="7756.1.1"}
}
116300544 = {
	name="Lucerre"	# a lord
	female=yes
	dynasty=300544

	religion="trios"
	culture="tyroshi"

	father=111300544
	mother=211300544

	7690.1.1 = {birth="7690.1.1"}
	7741.1.1 = {death="7741.1.1"}
}
216300544 = {
	name="Ollo"

	religion="trios"
	culture="tyroshi"

	7690.1.1 = {birth="7690.1.1"}
	7706.1.1 = {add_trait=poor_warrior}
	7708.1.1 = {add_spouse=116300544}
	7741.1.1 = {death="7741.1.1"}
}
117300544 = {
	name="Ferrego"	# a lord
	dynasty=300544

	religion="trios"
	culture="tyroshi"

	father=216300544
	mother=116300544

	7717.1.1 = {birth="7717.1.1"}
	7733.1.1 = {add_trait=trained_warrior}
	7735.1.1 = {add_spouse=217300544}
	7767.1.1 = {death="7767.1.1"}
}
217300544 = {
	name="Serra"
	female=yes

	religion="trios"
	culture="tyroshi"

	7717.1.1 = {birth="7717.1.1"}
	7767.1.1 = {death="7767.1.1"}
}
118300544 = {
	name="Allaquo"	# a lord
	dynasty=300544

	religion="trios"
	culture="tyroshi"

	father=117300544
	mother=217300544

	7746.1.1 = {birth="7746.1.1"}
	7762.1.1 = {add_trait=poor_warrior}
	7764.1.1 = {add_spouse=218300544}
	7779.1.1 = {death="7779.1.1"}
}
218300544 = {
	name="Orbela"
	female=yes

	religion="trios"
	culture="tyroshi"

	7746.1.1 = {birth="7746.1.1"}
	7779.1.1 = {death="7779.1.1"}
}
119300544 = {
	name="Serenei"	# not a lord
	female=yes
	dynasty=300544

	religion="trios"
	culture="tyroshi"

	father=117300544
	mother=217300544

	7748.1.1 = {birth="7748.1.1"}
	7809.1.1 = {death="7809.1.1"}
}
120300544 = {
	name="Gylenios"	# not a lord
	female=yes
	dynasty=300544

	religion="trios"
	culture="tyroshi"

	father=118300544
	mother=218300544

	7764.1.1 = {birth="7764.1.1"}
	7783.1.1 = {death="7783.1.1"}
}
121300544 = {
	name="Ordello"	# a lord
	dynasty=300544
	
	martial=8
	stewardship=8

	religion="trios"
	culture="tyroshi"

	father=118300544
	mother=218300544
	
	add_trait=ambitious

	7766.1.1 = {birth="7766.1.1"}
	7782.1.1 = {add_trait=trained_warrior}
	7784.1.1 = {add_spouse=221300544}
	7834.1.1 = {death="7834.1.1"}
}
221300544 = {
	name="Betharios"
	female=yes

	religion="trios"
	culture="tyroshi"

	7766.1.1 = {birth="7766.1.1"}
	7834.1.1 = {death="7834.1.1"}
}
122300544 = {
	name="Yorko"	# not a lord
	dynasty=300544

	religion="trios"
	culture="tyroshi"

	father=118300544
	mother=218300544

	7769.1.1 = {birth="7769.1.1"}
	7785.1.1 = {add_trait=trained_warrior}
	7787.1.1 = {add_spouse=222300544}
	7830.1.1 = {death="7830.1.1"}
}
222300544 = {
	name="Bellonara"
	female=yes

	religion="trios"
	culture="tyroshi"

	7769.1.1 = {birth="7769.1.1"}
	7830.1.1 = {death="7830.1.1"}
}
123300544 = {
	name="Mera"	# not a lord
	female=yes
	dynasty=300544

	religion="trios"
	culture="tyroshi"

	father=118300544
	mother=218300544

	7772.1.1 = {birth="7772.1.1"}
	7821.1.1 = {death="7821.1.1"}
}
124300544 = {
	name="Moreo"	# not a lord
	dynasty=300544

	religion="trios"
	culture="tyroshi"

	father=118300544
	mother=218300544

	7773.1.1 = {birth="7773.1.1"}
	7789.1.1 = {add_trait=skilled_warrior}
	7791.1.1 = {add_spouse=224300544}
	7818.1.1 = {death="7818.1.1"}
}
224300544 = {
	name="Qarria"
	female=yes

	religion="trios"
	culture="tyroshi"

	7773.1.1 = {birth="7773.1.1"}
	7818.1.1 = {death="7818.1.1"}
}
125300544 = {
	name="Daario"	# not a lord
	dynasty=300544

	religion="trios"
	culture="tyroshi"

	father=121300544
	mother=221300544

	7786.1.1 = {birth="7786.1.1"}
	7802.1.1 = {add_trait=skilled_warrior}
	7829.1.1 = {death="7829.1.1"}
}
126300544 = {
	name="Ezzelyno"	# a lord
	dynasty=300544

	religion="trios"
	culture="tyroshi"

	father=121300544
	mother=221300544

	7789.1.1 = {birth="7789.1.1"}
	7805.1.1 = {add_trait=skilled_warrior}
	7807.1.1 = {add_spouse=226300544}
	7850.1.1 = {death="7850.1.1"}
}
150300544 = {
	name="Kiera"	# married Valarr/Daeron Targaryen
	female=yes
	dynasty=300544

	religion="trios"
	culture="tyroshi"

	father=121300544
	mother=221300544
	
	add_trait=fair

	7790.1.1 = {
		birth="7790.1.1"
		effect = { 
			fertility = -0.4
		}
	}
	7850.1.1 = {death="7850.1.1"}
}
226300544 = {
	name="Serala"
	female=yes

	religion="trios"
	culture="tyroshi"

	7789.1.1 = {birth="7789.1.1"}
	7850.1.1 = {death="7850.1.1"}
}
127300544 = {
	name="Pynto"	# a lord
	dynasty=300544

	religion="trios"
	culture="tyroshi"

	father=126300544
	mother=226300544

	7808.1.1 = {birth="7808.1.1"}
	7824.1.1 = {add_trait=poor_warrior}
	7826.1.1 = {add_spouse=227300544}
	7853.1.1 = {death="7853.1.1"}
}
227300544 = {
	name="Umma"
	female=yes

	religion="trios"
	culture="tyroshi"

	7808.1.1 = {birth="7808.1.1"}
	7853.1.1 = {death="7853.1.1"}
}
128300544 = {
	name="Moredea"	# not a lord
	female=yes
	dynasty=300544

	religion="trios"
	culture="tyroshi"

	father=126300544
	mother=226300544

	7810.1.1 = {birth="7810.1.1"}
	7890.1.1 = {death="7890.1.1"}
}
129300544 = {
	name="Tagganaro"	# a lord
	dynasty=300544

	religion="trios"
	culture="tyroshi"

	father=127300544
	mother=227300544

	7835.1.1 = {birth="7835.1.1"}
	7851.1.1 = {add_trait=trained_warrior}
	7853.1.1 = {add_spouse=229300544}
	7874.1.1 = {death="7874.1.1"}
}
229300544 = {
	name="Orbela"
	female=yes

	religion="trios"
	culture="tyroshi"

	7835.1.1 = {birth="7835.1.1"}
	7874.1.1 = {death="7874.1.1"}
}
130300544 = {
	name="Lanna"	# not a lord
	female=yes
	dynasty=300544

	religion="trios"
	culture="tyroshi"

	father=129300544
	mother=229300544

	7856.1.1 = {birth="7856.1.1"}
}
131300544 = {
	name="Moreo"	# a lord
	dynasty=300544

	religion="trios"
	culture="tyroshi"

	father=129300544
	mother=229300544

	7858.1.1 = {birth="7858.1.1"}
	7874.1.1 = {add_trait=poor_warrior}
}
132300544 = {
	name="Tregar"	# not a lord
	dynasty=300544

	religion="trios"
	culture="tyroshi"

	father=129300544
	mother=229300544

	7860.1.1 = {birth="7860.1.1"}
	7876.1.1 = {add_trait=skilled_warrior}
}
133300544 = {
	name="Terro"	# not a lord
	dynasty=300544

	religion="trios"
	culture="tyroshi"

	father=129300544
	mother=229300544

	7863.1.1 = {birth="7863.1.1"}
	7879.1.1 = {add_trait=poor_warrior}
}


###  House Adarys

150300543 = {
	name="Belicho"	# not a lord
	dynasty=300543

	religion="trios"
	culture="tyroshi"

	7560.1.1 = {birth="7560.1.1"}
	7581.1.1 = {add_spouse=250300543}
	7628.1.1 = {death="7628.1.1"}
}
250300543 = {
	name="Tysha"
	female=yes

	religion="trios"
	culture="tyroshi"

	7564.1.1 = {birth="7564.1.1"}
	7630.1.1 = {death="7630.1.1"}
}
100300543 = {
	name="Mallaquo"	# a lord
	dynasty=300543

	religion="trios"
	culture="tyroshi"

	father=150300543
	mother=250300543

	7612.1.1 = {birth="7612.1.1"}
	7628.1.1 = {add_trait=poor_warrior}
	7630.1.1 = {add_spouse=200300543}
	7664.1.1 = {death="7664.1.1"}
}
200300543 = {
	name="Izembara"
	female=yes

	religion="trios"
	culture="tyroshi"

	7612.1.1 = {birth="7612.1.1"}
	7664.1.1 = {death="7664.1.1"}
}
101300543 = {
	name="Narba"	# not a lord
	female=yes
	dynasty=300543

	religion="trios"
	culture="tyroshi"

	father=100300543
	mother=200300543

	7635.1.1 = {birth="7635.1.1"}
	7675.1.1 = {death="7675.1.1"}
}
102300543 = {
	name="Doreah"	# not a lord
	female=yes
	dynasty=300543

	religion="trios"
	culture="tyroshi"

	father=100300543
	mother=200300543

	7637.1.1 = {birth="7637.1.1"}
	7683.1.1 = {death="7683.1.1"}
}
103300543 = {
	name="Roggo"	# a lord
	dynasty=300543

	religion="trios"
	culture="tyroshi"

	father=100300543
	mother=200300543

	7640.1.1 = {birth="7640.1.1"}
	7656.1.1 = {add_trait=poor_warrior}
	7658.1.1 = {add_spouse=203300543}
	7698.1.1 = {death="7698.1.1"}
}
203300543 = {
	name="S'vrone"
	female=yes

	religion="trios"
	culture="tyroshi"

	7640.1.1 = {birth="7640.1.1"}
	7698.1.1 = {death="7698.1.1"}
}
104300543 = {
	name="Cossoma"	# not a lord
	female=yes
	dynasty=300543

	religion="trios"
	culture="tyroshi"

	father=100300543
	mother=200300543

	7641.1.1 = {birth="7641.1.1"}
	7692.1.1 = {death="7692.1.1"}
}
105300543 = {
	name="Meralyia"	# not a lord
	female=yes
	dynasty=300543

	religion="trios"
	culture="tyroshi"

	father=103300543
	mother=203300543

	7660.1.1 = {birth="7660.1.1"}
	7677.1.1 = {death="7677.1.1"}
}
106300543 = {
	name="Pynta"	# not a lord
	female=yes
	dynasty=300543

	religion="trios"
	culture="tyroshi"

	father=103300543
	mother=203300543

	7662.1.1 = {birth="7662.1.1"}
	7714.1.1 = {death="7714.1.1"}
}
107300543 = {
	name="Mera"	# not a lord
	female=yes
	dynasty=300543

	religion="trios"
	culture="tyroshi"

	father=103300543
	mother=203300543

	7665.1.1 = {birth="7665.1.1"}
	7679.1.1 = {death="7679.1.1"}
}
108300543 = {
	name="Mero"	# a lord
	dynasty=300543

	religion="trios"
	culture="tyroshi"

	father=103300543
	mother=203300543

	7666.1.1 = {birth="7666.1.1"}
	7682.1.1 = {add_trait=poor_warrior}
	7684.1.1 = {add_spouse=208300543}
	7716.1.1 = {death="7716.1.1"}
}
208300543 = {
	name="Yorka"
	female=yes

	religion="trios"
	culture="tyroshi"

	7666.1.1 = {birth="7666.1.1"}
	7716.1.1 = {death="7716.1.1"}
}
109300543 = {
	name="Lotho"	# a lord
	dynasty=300543

	religion="trios"
	culture="tyroshi"

	father=108300543
	mother=208300543

	7700.1.1 = {birth="7700.1.1"}
	7716.1.1 = {add_trait=trained_warrior}
	7718.1.1 = {add_spouse=209300543}
	7754.1.1 = {death="7754.1.1"}
}
209300543 = {
	name="Umma"
	female=yes

	religion="trios"
	culture="tyroshi"

	7700.1.1 = {birth="7700.1.1"}
	7754.1.1 = {death="7754.1.1"}
}
110300543 = {
	name="Tagganaria"	# not a lord
	female=yes
	dynasty=300543

	religion="trios"
	culture="tyroshi"

	father=108300543
	mother=208300543

	7703.1.1 = {birth="7703.1.1"}
	7735.1.1 = {death="7735.1.1"}
}
111300543 = {
	name="Narba"	# not a lord
	female=yes
	dynasty=300543

	religion="trios"
	culture="tyroshi"

	father=108300543
	mother=208300543

	7705.1.1 = {birth="7705.1.1"}
	7784.1.1 = {death = {death_reason = death_accident}}
}
112300543 = {
	name="Narba"	# not a lord
	female=yes
	dynasty=300543

	religion="trios"
	culture="tyroshi"

	father=109300543
	mother=209300543

	7725.1.1 = {birth="7725.1.1"}
	7759.1.1 = {death="7759.1.1"}
}
113300543 = {
	name="Meralyn"	# a lord
	dynasty=300543

	religion="trios"
	culture="tyroshi"

	father=109300543
	mother=209300543

	7726.1.1 = {birth="7726.1.1"}
	7742.1.1 = {add_trait=trained_warrior}
	7744.1.1 = {add_spouse=213300543}
	7764.1.1 = {death="7764.1.1"}
}
213300543 = {
	name="Rogga"
	female=yes

	religion="trios"
	culture="tyroshi"

	7726.1.1 = {birth="7726.1.1"}
	7764.1.1 = {death="7764.1.1"}
}
114300543 = {
	name="Byan"	# not a lord
	dynasty=300543

	religion="trios"
	culture="tyroshi"

	father=109300543
	mother=209300543

	7728.1.1 = {birth="7728.1.1"}
	7744.1.1 = {add_trait=trained_warrior}
	7746.1.1 = {add_spouse=214300543}
	7774.1.1 = {death="7774.1.1"}
}
214300543 = {
	name="Ternesia"
	female=yes

	religion="trios"
	culture="tyroshi"

	7728.1.1 = {birth="7728.1.1"}
	7774.1.1 = {death="7774.1.1"}
}
115300543 = {
	name="Byan"	# not a lord
	dynasty=300543

	religion="trios"
	culture="tyroshi"

	father=114300543
	mother=214300543

	7747.1.1 = {birth="7747.1.1"}
	7763.1.1 = {add_trait=poor_warrior}
	7765.1.1 = {add_spouse=215300543}
	7813.1.1 = {death="7813.1.1"}
}
215300543 = {
	name="Lothea"
	female=yes

	religion="trios"
	culture="tyroshi"

	7747.1.1 = {birth="7747.1.1"}
	7813.1.1 = {death="7813.1.1"}
}
116300543 = {
	name="Ezzere"	# not a lord
	female=yes
	dynasty=300543

	religion="trios"
	culture="tyroshi"

	father=114300543
	mother=214300543

	7750.1.1 = {birth="7750.1.1"}
	7797.1.1 = {death="7797.1.1"}
}
117300543 = {
	name="Areo"	# a lord
	dynasty=300543

	religion="trios"
	culture="tyroshi"

	father=113300543
	mother=213300543

	7752.1.1 = {birth="7752.1.1"}
	7768.1.1 = {add_trait=poor_warrior}
	7770.1.1 = {add_spouse=217300543}
	7803.1.1 = {death="7803.1.1"}
}
217300543 = {
	name="Cossoma"
	female=yes

	religion="trios"
	culture="tyroshi"

	7752.1.1 = {birth="7752.1.1"}
	7803.1.1 = {death="7803.1.1"}
}
118300543 = {
	name="Tycha"	# not a lord
	female=yes
	dynasty=300543

	religion="trios"
	culture="tyroshi"

	father=113300543
	mother=213300543

	7754.1.1 = {birth="7754.1.1"}
	7799.1.1 = {death="7799.1.1"}
}
119300543 = {
	name="Tycha"	# not a lord
	female=yes
	dynasty=300543

	religion="trios"
	culture="tyroshi"

	father=113300543
	mother=213300543

	7757.1.1 = {birth="7757.1.1"}
	7809.1.1 = {death="7809.1.1"}
}
120300543 = {
	name="Byan"	# a lord
	dynasty=300543

	religion="trios"
	culture="tyroshi"

	father=117300543
	mother=217300543

	7778.1.1 = {birth="7778.1.1"}
	7794.1.1 = {add_trait=trained_warrior}
	7796.1.1 = {add_spouse=220300543}
	7845.1.1 = {death="7845.1.1"}
}
220300543 = {
	name="Serala"
	female=yes

	religion="trios"
	culture="tyroshi"

	7778.1.1 = {birth="7778.1.1"}
	7845.1.1 = {death="7845.1.1"}
}
121300543 = {
	name="Orbelo"	# not a lord
	dynasty=300543

	religion="trios"
	culture="tyroshi"

	father=117300543
	mother=217300543

	7781.1.1 = {birth="7781.1.1"}
	7797.1.1 = {add_trait=skilled_warrior}
	7799.1.1 = {add_spouse=221300543}
	7827.1.1 = {death="7827.1.1"}
}
221300543 = {
	name="Gylora"
	female=yes

	religion="trios"
	culture="tyroshi"

	7781.1.1 = {birth="7781.1.1"}
	7827.1.1 = {death="7827.1.1"}
}
122300543 = {
	name="Tregar"	# a lord
	dynasty=300543

	religion="trios"
	culture="tyroshi"

	father=120300543
	mother=220300543

	7805.1.1 = {birth="7805.1.1"}
	7821.1.1 = {add_trait=poor_warrior}
	7847.1.1 = {death="7847.1.1"}
}
600000059 = {
	name="Alequo"
	dynasty = 300543
	
	religion="trios"
	culture="tyroshi"
	
	martial=2
	diplomacy=7
	intrigue=5
	stewardship=5
	add_trait="scholar"
	add_trait="ambitious"
	add_trait="charismatic_negotiator"
	
	father=120300543
	mother=220300543
	
	7829.1.1={birth="7829.1.1"}
	7855.1.1 = {
		give_nickname = nick_silvertounge
		add_spouse = 126300533
		effect = { 
			set_character_flag = band_of_nine
			liege = {
				reverse_opinion = {
					who = ROOT
					modifier = opinion_band_of_nine
					years = 20
				}
			}	
			spouse = {
				opinion = {
					who = ROOT
					modifier = opinion_forced_marriage
				}
			}
		} 
	}
	7859.1.1={
		effect = {
			if = {
				limit = { has_landed_title = c_tyrosh }
				b_tyrosh = { gain_title = ROOT }
			}	
		}
	}
	7865.6.1 = { 
		death = {
			death_reason = death_murder
			killer = 126300533 #His Queen
		}
	}
}
123300543 = {
	name="Yorko"	# not a lord
	dynasty=300543

	religion="trios"
	culture="tyroshi"

	father=120300543
	mother=220300543

	7807.1.1 = {birth="7807.1.1"}
	7823.1.1 = {add_trait=trained_warrior}
	7825.1.1 = {add_spouse=223300543}
	7876.1.1 = {death="7876.1.1"}
}
223300543 = {
	name="Jaqea"
	female=yes

	religion="trios"
	culture="tyroshi"

	7807.1.1 = {birth="7807.1.1"}
	7876.1.1 = {death="7876.1.1"}
}
124300543 = {
	name="Byan"	# not a lord
	dynasty=300543

	religion="trios"
	culture="tyroshi"

	father=123300543
	mother=223300543

	7834.1.1 = {birth="7834.1.1"}
	7850.1.1 = {add_trait=skilled_warrior}
	7876.1.1 = {death = {death_reason = death_murder}}
}
125300543 = {
	name="Luco"	# a lord
	dynasty=300543

	religion="trios"
	culture="tyroshi"

	father=123300543
	mother=223300543

	7836.1.1 = {birth="7836.1.1"}
	7852.1.1 = {add_trait=trained_warrior}
	7854.1.1 = {add_spouse=225300543}
}
225300543 = {
	name="Yorka"
	female=yes

	religion="trios"
	culture="tyroshi"

	7836.1.1 = {birth="7836.1.1"}
	7899.1.1 = {death="7899.1.1"}
}
126300543 = {
	name="Brea"	# not a lord
	female=yes
	dynasty=300543

	religion="trios"
	culture="tyroshi"

	father=125300543
	mother=225300543

	7864.1.1 = {birth="7864.1.1"}
}
127300543 = {
	name="Tycho"	# not a lord
	dynasty=300543

	religion="trios"
	culture="tyroshi"

	father=125300543
	mother=225300543

	7867.1.1 = {birth="7867.1.1"}
	7883.1.1 = {add_trait=skilled_warrior}
	7898.1.1 = {death="7898.1.1"}
}
128300543 = {
	name="Myrmellios"	# not a lord
	female=yes
	dynasty=300543

	religion="trios"
	culture="tyroshi"

	father=125300543
	mother=225300543

	7868.1.1 = {birth="7868.1.1"}
}
129300543 = {
	name="Qarro"	# not a lord
	dynasty=300543

	religion="trios"
	culture="tyroshi"

	father=125300543
	mother=225300543

	7870.1.1 = {birth="7870.1.1"}
	7871.1.1 = {death = {death_reason = death_murder}}
}


###  House Uhoris

150300542 = {
	name="Vogarro"	# a lord
	dynasty=300542

	religion="trios"
	culture="tyroshi"

	7558.1.1 = {birth="7558.1.1"}
	7572.1.1 = {add_spouse=250300542}
	7619.1.1 = {death="7619.1.1"}
}
250300542 = {
	name="Bellegere"
	female=yes

	religion="trios"
	culture="tyroshi"

	7558.1.1 = {birth="7558.1.1"}
	7624.1.1 = {death="7624.1.1"}
}
100300542 = {
	name="Moreo"	# a lord
	dynasty=300542

	religion="trios"
	culture="tyroshi"

	father=150300542
	mother=250300542

	7591.1.1 = {birth="7591.1.1"}
	7617.1.1 = {add_trait=poor_warrior}
	7619.1.1 = {add_spouse=200300542}
	7652.1.1 = {death="7652.1.1"}
}
200300542 = {
	name="Bellonara"
	female=yes

	religion="trios"
	culture="tyroshi"

	7601.1.1 = {birth="7601.1.1"}
	7652.1.1 = {death="7652.1.1"}
}
101300542 = {
	name="Ezzere"	# not a lord
	female=yes
	dynasty=300542

	religion="trios"
	culture="tyroshi"

	father=100300542
	mother=200300542

	7623.1.1 = {birth="7623.1.1"}
	7661.1.1 = {death="7661.1.1"}
}
102300542 = {
	name="Tycho"	# a lord
	dynasty=300542

	religion="trios"
	culture="tyroshi"

	father=100300542
	mother=200300542

	7625.1.1 = {birth="7625.1.1"}
	7641.1.1 = {add_trait=poor_warrior}
	7643.1.1 = {add_spouse=202300542}
	7671.1.1 = {death="7671.1.1"}
}
202300542 = {
	name="Yna"
	female=yes

	religion="trios"
	culture="tyroshi"

	7625.1.1 = {birth="7625.1.1"}
	7671.1.1 = {death="7671.1.1"}
}
103300542 = {
	name="Mera"	# not a lord
	female=yes
	dynasty=300542

	religion="trios"
	culture="tyroshi"

	father=100300542
	mother=200300542

	7628.1.1 = {birth="7628.1.1"}
	7672.1.1 = {death="7672.1.1"}
}
104300542 = {
	name="Noho"	# not a lord
	dynasty=300542

	religion="trios"
	culture="tyroshi"

	father=100300542
	mother=200300542

	7631.1.1 = {birth="7631.1.1"}
	7647.1.1 = {add_trait=trained_warrior}
	7649.1.1 = {add_spouse=204300542}
	7682.1.1 = {death="7682.1.1"}
}
204300542 = {
	name="Doreah"
	female=yes

	religion="trios"
	culture="tyroshi"

	7631.1.1 = {birth="7631.1.1"}
	7682.1.1 = {death="7682.1.1"}
}
105300542 = {
	name="Syrio"	# a lord
	dynasty=300542

	religion="trios"
	culture="tyroshi"

	father=102300542
	mother=202300542

	7649.1.1 = {birth="7649.1.1"}
	7665.1.1 = {add_trait=trained_warrior}
	7667.1.1 = {add_spouse=205300542}
	7708.1.1 = {death="7708.1.1"}
}
205300542 = {
	name="Doreah"
	female=yes

	religion="trios"
	culture="tyroshi"

	7649.1.1 = {birth="7649.1.1"}
	7708.1.1 = {death="7708.1.1"}
}
106300542 = {
	name="Gyloro"	# not a lord
	dynasty=300542

	religion="trios"
	culture="tyroshi"

	father=102300542
	mother=202300542

	7650.1.1 = {birth="7650.1.1"}
	7666.1.1 = {add_trait=poor_warrior}
	7668.1.1 = {add_spouse=206300542}
	7700.1.1 = {death="7700.1.1"}
}
206300542 = {
	name="Yna"
	female=yes

	religion="trios"
	culture="tyroshi"

	7650.1.1 = {birth="7650.1.1"}
	7700.1.1 = {death="7700.1.1"}
}
107300542 = {
	name="Jaqen"	# not a lord
	dynasty=300542

	religion="trios"
	culture="tyroshi"

	father=102300542
	mother=202300542

	7653.1.1 = {birth="7653.1.1"}
	7669.1.1 = {add_trait=skilled_warrior}
	7671.1.1 = {add_spouse=207300542}
	7714.1.1 = {death="7714.1.1"}
}
207300542 = {
	name="Moredea"
	female=yes

	religion="trios"
	culture="tyroshi"

	7653.1.1 = {birth="7653.1.1"}
	7714.1.1 = {death="7714.1.1"}
}
108300542 = {
	name="Gyloro"	# not a lord
	dynasty=300542

	religion="trios"
	culture="tyroshi"

	father=102300542
	mother=202300542

	7656.1.1 = {birth="7656.1.1"}
	7672.1.1 = {add_trait=skilled_warrior}
	7674.1.1 = {add_spouse=208300542}
	7707.1.1 = {death="7707.1.1"}
}
208300542 = {
	name="Tagganaria"
	female=yes

	religion="trios"
	culture="tyroshi"

	7656.1.1 = {birth="7656.1.1"}
	7707.1.1 = {death="7707.1.1"}
}
109300542 = {
	name="Mellario"	# not a lord
	female=yes
	dynasty=300542

	religion="trios"
	culture="tyroshi"

	father=105300542
	mother=205300542

	7673.1.1 = {birth="7673.1.1"}
	7725.1.1 = {death="7725.1.1"}
}
110300542 = {
	name="Yorka"	# not a lord
	female=yes
	dynasty=300542

	religion="trios"
	culture="tyroshi"

	father=105300542
	mother=205300542

	7676.1.1 = {birth="7676.1.1"}
	7692.1.1 = {death="7692.1.1"}
}
111300542 = {
	name="Serala"	# not a lord
	female=yes
	dynasty=300542

	religion="trios"
	culture="tyroshi"

	father=105300542
	mother=205300542

	7678.1.1 = {birth="7678.1.1"}
	7702.1.1 = {death="7702.1.1"}
}
112300542 = {
	name="Tormo"	# a lord
	dynasty=300542

	religion="trios"
	culture="tyroshi"

	father=105300542
	mother=205300542

	7680.1.1 = {birth="7680.1.1"}
	7696.1.1 = {add_trait=poor_warrior}
	7698.1.1 = {add_spouse=212300542}
	7736.1.1 = {death="7736.1.1"}
}
212300542 = {
	name="Gylenios"
	female=yes

	religion="trios"
	culture="tyroshi"

	7680.1.1 = {birth="7680.1.1"}
	7736.1.1 = {death="7736.1.1"}
}
113300542 = {
	name="Beqqo"	# a lord
	dynasty=300542

	religion="trios"
	culture="tyroshi"

	father=112300542
	mother=212300542

	7709.1.1 = {birth="7709.1.1"}
	7725.1.1 = {add_trait=trained_warrior}
	7727.1.1 = {add_spouse=213300542}
	7765.1.1 = {death="7765.1.1"}
}
213300542 = {
	name="Umma"
	female=yes

	religion="trios"
	culture="tyroshi"

	7709.1.1 = {birth="7709.1.1"}
	7765.1.1 = {death="7765.1.1"}
}
114300542 = {
	name="Illyrio"	# not a lord
	dynasty=300542

	religion="trios"
	culture="tyroshi"

	father=112300542
	mother=212300542

	7712.1.1 = {birth="7712.1.1"}
	7725.1.1 = {death="7725.1.1"}
}
115300542 = {
	name="Jaqea"	# not a lord
	female=yes
	dynasty=300542

	religion="trios"
	culture="tyroshi"

	father=112300542
	mother=212300542

	7713.1.1 = {birth="7713.1.1"}
	7770.1.1 = {death="7770.1.1"}
}
116300542 = {
	name="Betharios"	# not a lord
	female=yes
	dynasty=300542

	religion="trios"
	culture="tyroshi"

	father=112300542
	mother=212300542

	7715.1.1 = {birth="7715.1.1"}
	7755.1.1 = {death="7755.1.1"}
}
117300542 = {
	name="Syrio"	# not a lord
	dynasty=300542

	religion="trios"
	culture="tyroshi"

	father=112300542
	mother=212300542

	7717.1.1 = {birth="7717.1.1"}
	7733.1.1 = {add_trait=skilled_warrior}
	7735.1.1 = {add_spouse=217300542}
	7755.1.1 = {death="7755.1.1"}
}
217300542 = {
	name="Denia"
	female=yes

	religion="trios"
	culture="tyroshi"

	7717.1.1 = {birth="7717.1.1"}
	7755.1.1 = {death="7755.1.1"}
}
118300542 = {
	name="Qarro"	# a lord
	dynasty=300542

	religion="trios"
	culture="tyroshi"

	father=113300542
	mother=213300542

	7733.1.1 = {birth="7733.1.1"}
	7749.1.1 = {add_trait=trained_warrior}
	7751.1.1 = {add_spouse=218300542}
	7778.1.1 = {death="7778.1.1"}
}
218300542 = {
	name="Ternesia"
	female=yes

	religion="trios"
	culture="tyroshi"

	7733.1.1 = {birth="7733.1.1"}
	7778.1.1 = {death="7778.1.1"}
}
119300542 = {
	name="Lanna"	# not a lord
	female=yes
	dynasty=300542

	religion="trios"
	culture="tyroshi"

	father=113300542
	mother=213300542

	7734.1.1 = {birth="7734.1.1"}
	7784.1.1 = {death="7784.1.1"}
}
120300542 = {
	name="Daario"	# not a lord
	dynasty=300542

	religion="trios"
	culture="tyroshi"

	father=113300542
	mother=213300542

	7735.1.1 = {birth="7735.1.1"}
	7751.1.1 = {add_trait=master_warrior}
	7778.1.1 = {death="7778.1.1"}
}
121300542 = {
	name="Roro"	# not a lord
	dynasty=300542

	religion="trios"
	culture="tyroshi"

	father=113300542
	mother=213300542

	7738.1.1 = {birth="7738.1.1"}
	7754.1.1 = {add_trait=poor_warrior}
	7796.1.1 = {death="7796.1.1"}
}
122300542 = {
	name="Ordello"	# not a lord
	dynasty=300542

	religion="trios"
	culture="tyroshi"

	father=113300542
	mother=213300542

	7741.1.1 = {birth="7741.1.1"}
	7757.1.1 = {add_trait=poor_warrior}
	7784.1.1 = {death="7784.1.1"}
}
123300542 = {
	name="Narba"	# not a lord
	female=yes
	dynasty=300542

	religion="trios"
	culture="tyroshi"

	father=118300542
	mother=218300542

	7761.1.1 = {birth="7761.1.1"}
	7816.1.1 = {death="7816.1.1"}
}
124300542 = {
	name="Torma"	# not a lord
	female=yes
	dynasty=300542

	religion="trios"
	culture="tyroshi"

	father=118300542
	mother=218300542

	7763.1.1 = {birth="7763.1.1"}
	7831.1.1 = {death="7831.1.1"}
}
125300542 = {
	name="Gyleno"	# a lord
	dynasty=300542

	religion="trios"
	culture="tyroshi"

	father=118300542
	mother=218300542

	7764.1.1 = {birth="7764.1.1"}
	7780.1.1 = {add_trait=poor_warrior}
	7782.1.1 = {add_spouse=225300542}
	7824.1.1 = {death="7824.1.1"}
}
225300542 = {
	name="Lanna"
	female=yes

	religion="trios"
	culture="tyroshi"

	7764.1.1 = {birth="7764.1.1"}
	7824.1.1 = {death="7824.1.1"}
}
126300542 = {
	name="Orbela"	# not a lord
	female=yes
	dynasty=300542

	religion="trios"
	culture="tyroshi"

	father=118300542
	mother=218300542

	7767.1.1 = {birth="7767.1.1"}
	7800.1.1 = {death = {death_reason = death_execution}}
}
127300542 = {
	name="Izembara"	# not a lord
	female=yes
	dynasty=300542

	religion="trios"
	culture="tyroshi"

	father=125300542
	mother=225300542

	7790.1.1 = {birth="7790.1.1"}
	7856.1.1 = {death="7856.1.1"}
}
128300542 = {
	name="Ordello"	# a lord
	dynasty=300542

	religion="trios"
	culture="tyroshi"

	father=125300542
	mother=225300542

	7791.1.1 = {birth="7791.1.1"}
	7807.1.1 = {add_trait=poor_warrior}
	7809.1.1 = {add_spouse=228300542}
	7837.1.1 = {death="7837.1.1"}
}
228300542 = {
	name="Tycha"
	female=yes

	religion="trios"
	culture="tyroshi"

	7791.1.1 = {birth="7791.1.1"}
	7837.1.1 = {death="7837.1.1"}
}
129300542 = {
	name="Qarro"	# a lord
	dynasty=300542

	religion="trios"
	culture="tyroshi"

	father=128300542
	mother=228300542

	7820.1.1 = {birth="7820.1.1"}
	7836.1.1 = {add_trait=skilled_warrior}
	7838.1.1 = {add_spouse=229300542}
	7893.1.1 = {death="7893.1.1"}
}
229300542 = {
	name="Narba"
	female=yes

	religion="trios"
	culture="tyroshi"

	7820.1.1 = {birth="7820.1.1"}
	7893.1.1 = {death="7893.1.1"}
}
130300542 = {
	name="Yna"	# not a lord
	female=yes
	dynasty=300542

	religion="trios"
	culture="tyroshi"

	father=128300542
	mother=228300542

	7823.1.1 = {birth="7823.1.1"}
	7891.1.1 = {death="7891.1.1"}
}
131300542 = {
	name="Cossoma"	# not a lord
	female=yes
	dynasty=300542

	religion="trios"
	culture="tyroshi"

	father=129300542
	mother=229300542

	7840.1.1 = {birth="7840.1.1"}
	7898.1.1 = {death="7898.1.1"}
}
132300542 = {
	name="Myrmello"	# a lord
	dynasty=300542

	religion="trios"
	culture="tyroshi"

	father=129300542
	mother=229300542

	7842.1.1 = {birth="7842.1.1"}
	7858.1.1 = {add_trait=trained_warrior}
	7860.1.1 = {add_spouse=232300542}
	7896.1.1 = {death="7896.1.1"}
}
232300542 = {
	name="Nohia"
	female=yes

	religion="trios"
	culture="tyroshi"

	7842.1.1 = {birth="7842.1.1"}
	7896.1.1 = {death="7896.1.1"}
}
133300542 = {
	name="Groleo"	# not a lord
	dynasty=300542

	religion="trios"
	culture="tyroshi"

	father=129300542
	mother=229300542

	7843.1.1 = {birth="7843.1.1"}
	7859.1.1 = {add_trait=trained_warrior}
	7891.1.1 = {death="7891.1.1"}
}
134300542 = {
	name="Ordello"	# not a lord
	dynasty=300542

	religion="trios"
	culture="tyroshi"

	father=129300542
	mother=229300542

	7845.1.1 = {birth="7845.1.1"}
	7861.1.1 = {add_trait=skilled_warrior}
	7870.1.1 = {death="7870.1.1"}
}
135300542 = {
	name="Mellario"	# not a lord
	female=yes
	dynasty=300542

	religion="trios"
	culture="tyroshi"

	father=132300542
	mother=232300542

	7866.1.1 = {birth="7866.1.1"}
}
136300542 = {
	name="Oro"	# a lord
	dynasty=300542

	religion="trios"
	culture="tyroshi"

	father=132300542
	mother=232300542

	7867.1.1 = {birth="7867.1.1"}
	7883.1.1 = {add_trait=trained_warrior}
}


###  House Lectris

150300533 = {
	name="Illyrio"	# a lord
	dynasty=300533

	religion="trios"
	culture="tyroshi"

	7561.1.1 = {birth="7561.1.1"}
	7583.1.1 = {add_spouse=250300533}
	7615.1.1 = {death="7615.1.1"}
}
250300533 = {
	name="Cassadora"
	female=yes

	religion="trios"
	culture="tyroshi"

	7565.1.1 = {birth="7565.1.1"}
	7620.1.1 = {death="7620.1.1"}
}
100300533 = {
	name="Groleo"	# a lord
	dynasty=300533

	religion="trios"
	culture="tyroshi"

	father=150300533
	mother=250300533

	7585.1.1 = {birth="7585.1.1"}
	7621.1.1 = {add_trait=poor_warrior}
	7623.1.1 = {add_spouse=200300533}
	7651.1.1 = {death="7651.1.1"}
}
200300533 = {
	name="Cossoma"
	female=yes

	religion="trios"
	culture="tyroshi"

	7605.1.1 = {birth="7605.1.1"}
	7651.1.1 = {death="7651.1.1"}
}
101300533 = {
	name="Alia"	# not a lord
	female=yes
	dynasty=300533

	religion="trios"
	culture="tyroshi"

	father=100300533
	mother=200300533

	7624.1.1 = {birth="7624.1.1"}
	7633.1.1 = {death = {death_reason = death_murder}}
}
102300533 = {
	name="Ferrego"	# a lord
	dynasty=300533

	religion="trios"
	culture="tyroshi"

	father=100300533
	mother=200300533

	7625.1.1 = {birth="7625.1.1"}
	7641.1.1 = {add_trait=poor_warrior}
	7643.1.1 = {add_spouse=202300533}
	7662.1.1 = {death = {death_reason = death_battle}}
}
202300533 = {
	name="Tagganaria"
	female=yes

	religion="trios"
	culture="tyroshi"

	7625.1.1 = {birth="7625.1.1"}
	7662.1.1 = {death="7662.1.1"}
}
103300533 = {
	name="Tycha"	# a lord
	female=yes
	dynasty=300533

	religion="trios"
	culture="tyroshi"

	father=102300533
	mother=202300533

	7654.1.1 = {birth="7654.1.1"}
	7697.1.1 = {death="7697.1.1"}
}
104300533 = {
	name="Meralyn"	# a lord
	dynasty=300533

	religion="trios"
	culture="tyroshi"

	father=102300533
	mother=202300533

	7655.1.1 = {birth="7655.1.1"}
	7671.1.1 = {add_trait=skilled_warrior}
	7673.1.1 = {add_spouse=204300533}
	7696.1.1 = {add_trait=widowed}
	7706.1.1 = {death="7706.1.1"}
}
204300533 = {
	name="Syrea"
	female=yes

	religion="trios"
	culture="tyroshi"

	7655.1.1 = {birth="7655.1.1"}
	7696.1.1 = {death="7696.1.1"}
}
105300533 = {
	name="Narba"	# not a lord
	female=yes
	dynasty=300533

	religion="trios"
	culture="tyroshi"

	father=102300533
	mother=202300533

	7658.1.1 = {birth="7658.1.1"}
	7705.1.1 = {death="7705.1.1"}
}
106300533 = {
	name="Umma"	# not a lord
	female=yes
	dynasty=300533

	religion="trios"
	culture="tyroshi"

	father=102300533
	mother=202300533

	7660.1.1 = {birth="7660.1.1"}
	7720.1.1 = {death = {death_reason = death_murder}}
}
107300533 = {
	name="Bellonara"	# not a lord
	female=yes
	dynasty=300533

	religion="trios"
	culture="tyroshi"

	father=104300533
	mother=204300533

	7674.1.1 = {birth="7674.1.1"}
	7701.1.1 = {death="7701.1.1"}
}
108300533 = {
	name="Qarro"	# a lord
	dynasty=300533

	religion="trios"
	culture="tyroshi"

	father=104300533
	mother=204300533
	
	7676.1.1 = {birth="7676.1.1"}
	7694.1.1 = {add_trait=trained_warrior}
	7696.1.1 = {add_spouse=208300533}
	7734.1.1 = {death="7734.1.1"}
}
208300533 = {
	name="Narba"
	female=yes

	religion="trios"
	culture="tyroshi"

	7678.1.1 = {birth="7678.1.1"}
	7734.1.1 = {death="7734.1.1"}
}
105030533 = {
	name="Racallio"	# a lord, Admiral and Later Pirate King
	dynasty=300533

	religion="trios"
	culture="tyroshi"

	father=104300533
	mother=204300533
	
	add_trait = skilled_tactician
	add_trait = ruthless
	add_trait = greedy
	add_trait = ambitious

	7679.1.1 = {birth="7679.1.1"}
	7695.1.1 = {add_trait=trained_warrior}
	7732.1.1 = { #Goes Pirate
		effect = { religion = pirate }
		add_trait = pirate
	}
	7740.1.1 = {
		death="7740.1.1"
		religion = pirate
	}
}
109300533 = {
	name="Areo"	# a lord
	dynasty=300533

	religion="trios"
	culture="tyroshi"

	father=108300533
	mother=208300533

	7698.1.1 = {birth="7698.1.1"}
	7714.1.1 = {add_trait=poor_warrior}
	7716.1.1 = {add_spouse=209300533}
	7754.1.1 = {death="7754.1.1"}
}
209300533 = {
	name="Brea"
	female=yes

	religion="trios"
	culture="tyroshi"

	7698.1.1 = {birth="7698.1.1"}
	7754.1.1 = {death="7754.1.1"}
}
110300533 = {
	name="Lucerre"	# not a lord
	female=yes
	dynasty=300533

	religion="trios"
	culture="tyroshi"

	father=108300533
	mother=208300533

	7701.1.1 = {birth="7701.1.1"}
	7757.1.1 = {death="7757.1.1"}
}
111300533 = {
	name="Qarria"	# not a lord
	female=yes
	dynasty=300533

	religion="trios"
	culture="tyroshi"

	father=108300533
	mother=208300533

	7702.1.1 = {birth="7702.1.1"}
	7761.1.1 = {death="7761.1.1"}
}
112300533 = {
	name="Brea"	# not a lord
	female=yes
	dynasty=300533

	religion="trios"
	culture="tyroshi"

	father=109300533
	mother=209300533

	7720.1.1 = {birth="7720.1.1"}
	7767.1.1 = {death="7767.1.1"}
}
113300533 = {
	name="Jaqea"	# not a lord
	female=yes
	dynasty=300533

	religion="trios"
	culture="tyroshi"

	father=109300533
	mother=209300533

	7722.1.1 = {birth="7722.1.1"}
	7779.1.1 = {death="7779.1.1"}
}
114300533 = {
	name="Denyo"	# a lord
	dynasty=300533

	religion="trios"
	culture="tyroshi"

	father=109300533
	mother=209300533

	7725.1.1 = {birth="7725.1.1"}
	7741.1.1 = {add_trait=trained_warrior}
	7743.1.1 = {add_spouse=214300533}
	7759.1.1 = {death="7759.1.1"}
}
214300533 = {
	name="Cossoma"
	female=yes

	religion="trios"
	culture="tyroshi"

	7725.1.1 = {birth="7725.1.1"}
	7759.1.1 = {death="7759.1.1"}
}
115300533 = {
	name="Luco"	# not a lord
	dynasty=300533

	religion="trios"
	culture="tyroshi"

	father=109300533
	mother=209300533

	7727.1.1 = {birth="7727.1.1"}
	7743.1.1 = {add_trait=skilled_warrior}
	7745.1.1 = {add_spouse=215300533}
	7796.1.1 = {death="7796.1.1"}
}
215300533 = {
	name="Nohia"
	female=yes

	religion="trios"
	culture="tyroshi"

	7727.1.1 = {birth="7727.1.1"}
	7796.1.1 = {death="7796.1.1"}
}
116300533 = {
	name="Myrmellios"	# not a lord
	female=yes
	dynasty=300533

	religion="trios"
	culture="tyroshi"

	father=114300533
	mother=214300533

	7743.1.1 = {birth="7743.1.1"}
	7800.1.1 = {death="7800.1.1"}
}
117300533 = {
	name="Yna"	# not a lord
	female=yes
	dynasty=300533

	religion="trios"
	culture="tyroshi"

	father=114300533
	mother=214300533

	7745.1.1 = {birth="7745.1.1"}
	7799.1.1 = {death="7799.1.1"}
}
118300533 = {
	name="Byan"	# a lord
	dynasty=300533

	religion="trios"
	culture="tyroshi"

	father=114300533
	mother=214300533

	7747.1.1 = {birth="7747.1.1"}
	7763.1.1 = {add_trait=skilled_warrior}
	7765.1.1 = {add_spouse=218300533}
	7818.1.1 = {death="7818.1.1"}
}
218300533 = {
	name="Mellario"
	female=yes

	religion="trios"
	culture="tyroshi"

	7747.1.1 = {birth="7747.1.1"}
	7818.1.1 = {death="7818.1.1"}
}
119300533 = {
	name="Nohia"	# not a lord
	female=yes
	dynasty=300533

	religion="trios"
	culture="tyroshi"

	father=118300533
	mother=218300533

	7772.1.1 = {birth="7772.1.1"}
	7807.1.1 = {death="7807.1.1"}
}
121300533 = {
	name="Serenei"	# not a lord
	female=yes
	dynasty=300533

	religion="trios"
	culture="tyroshi"

	father=118300533
	mother=218300533

	7776.1.1 = { birth="7776.1.1" }
	7812.1.1 = {death="7812.1.1"}
}
122300533 = {
	name="Illyrio"	# a lord
	dynasty=300533

	religion="trios"
	culture="tyroshi"

	father=118300533
	mother=218300533

	7776.1.1 = { birth="7776.1.1" }
	7792.1.1 = {add_trait=skilled_warrior}
	7794.1.1 = {add_spouse=222300533}
	7828.1.1 = {death="7828.1.1"}
}
222300533 = {
	name="Pynta"
	female=yes

	religion="trios"
	culture="tyroshi"

	7776.1.1 = {birth="7776.1.1"}
	7828.1.1 = {death="7828.1.1"}
}
123300533 = {
	name="Roggo"	# a lord
	dynasty=300533

	religion="trios"
	culture="tyroshi"

	father=122300533
	mother=222300533

	7798.1.1 = {birth="7798.1.1"}
	7814.1.1 = {add_trait=skilled_warrior}
	7877.1.1 = {death="7877.1.1"}
}
124300533 = {
	name="Yorka"	# not a lord
	female=yes
	dynasty=300533

	religion="trios"
	culture="tyroshi"

	father=122300533
	mother=222300533

	7800.1.1 = {birth="7800.1.1"}
	7803.1.1 = {death = {death_reason = death_accident}}
}
125300533 = {
	name="Lotho"	# not a lord
	dynasty=300533

	religion="trios"
	culture="tyroshi"

	father=122300533
	mother=222300533

	7802.1.1 = {birth="7802.1.1"}
	7818.1.1 = {add_trait=poor_warrior}
	7820.1.1 = {add_spouse=225300533}
	7856.1.1 = {death="7856.1.1"}
}
225300533 = {
	name="Doreah"
	female=yes

	religion="trios"
	culture="tyroshi"

	7802.1.1 = {birth="7802.1.1"}
	7856.1.1 = {death="7856.1.1"}
}
126300533 = {
	name="Narba"	# not a lord, Queen of Alequo Goldentongue
	female=yes
	dynasty=300533

	religion="trios"
	culture="tyroshi"

	father=125300533
	mother=225300533
	
	add_trait = proud
	add_trait = fair
	add_trait = ruthless
	add_trait = intricate_webweaver
	
	7833.1.1 = {birth="7833.1.1"}
	7865.6.1 = { #Kills her husband
		#add_trait=dishonorable1
		effect = {		
			set_variable = { which = "dishonorable" value = 10 }
			hidden_tooltip = { character_event = { id = maintenance.3 } }#dishonour trait
		}
	}
	7896.1.1 = {death="7896.1.1"}
}
127300533 = {
	name="Ollo"	# a lord
	dynasty=300533

	religion="trios"
	culture="tyroshi"

	father=125300533
	mother=225300533

	7836.1.1 = {birth="7836.1.1"}
	7852.1.1 = {add_trait=skilled_warrior}
}
128300533 = {
	name="Moredea"	# not a lord
	female=yes
	dynasty=300533

	religion="trios"
	culture="tyroshi"

	father=125300533
	mother=225300533

	7838.1.1 = {birth="7838.1.1"}
}


###  House Zokan
250300024 = {
	name="Lotho"	# a lord
	dynasty=300024

	religion="trios"
	culture="tyroshi"

	7532.1.1 = {birth="7532.1.1"}
	7561.1.1 = {add_spouse=450300024} 
	7585.1.1 = {death="7585.1.1"}
}
450300024 = {
	name="Rogga"
	female=yes

	religion="trios"
	culture="tyroshi"

	7532.1.1 = {birth="7532.1.1"}
	7585.1.1 = {death="7585.1.1"}
}
150300024 = {
	name="Myrmello"	# a lord
	dynasty=300024

	religion="trios"
	culture="tyroshi"
	
	father = 250300024
	mother = 450300024

	7562.1.1 = {birth="7562.1.1"}
	7593.1.1 = {add_spouse=101300012} #Tycha Arsenys
	7628.1.1 = {death="7628.1.1"}
}
251300024 = {
	name="Pynto"	# Not a lord
	dynasty=300024

	religion="trios"
	culture="tyroshi"
	
	father = 250300024
	mother = 450300024

	7564.1.1 = {birth="7564.1.1"}
	7625.1.1 = {death="7625.1.1"}
}
100300024 = {
	name="Illyrio"	# a lord
	dynasty=300024

	religion="trios"
	culture="tyroshi"

	father=150300024
	mother=101300012

	7594.1.1 = {birth="7594.1.1"}
	7616.1.1 = {add_trait=poor_warrior}
	7618.1.1 = {add_spouse=200300024}
	7653.1.1 = {death="7653.1.1"}
}
200300024 = {
	name="Tagganaria"
	female=yes

	religion="trios"
	culture="tyroshi"

	7600.1.1 = {birth="7600.1.1"}
	7653.1.1 = {death="7653.1.1"}
}
101300024 = {
	name="Mellario"	# not a lord
	female=yes
	dynasty=300024

	religion="trios"
	culture="tyroshi"

	father=100300024
	mother=200300024

	7622.1.1 = {birth="7622.1.1"}
	7679.1.1 = {death="7679.1.1"}
}
102300024 = {
	name="Tycho"	# a lord
	dynasty=300024

	religion="trios"
	culture="tyroshi"

	father=100300024
	mother=200300024

	7625.1.1 = {birth="7625.1.1"}
	7641.1.1 = {add_trait=trained_warrior}
	7643.1.1 = {add_spouse=202300024}
	7665.1.1 = {death="7665.1.1"}
}
202300024 = {
	name="Lothea"
	female=yes

	religion="trios"
	culture="tyroshi"

	7625.1.1 = {birth="7625.1.1"}
	7665.1.1 = {death="7665.1.1"}
}
103300024 = {
	name="Tycha"	# not a lord
	female=yes
	dynasty=300024

	religion="trios"
	culture="tyroshi"

	father=100300024
	mother=200300024

	7627.1.1 = {birth="7627.1.1"}
	7658.1.1 = {death="7658.1.1"}
}
104300024 = {
	name="Tagganaria"	# not a lord
	female=yes
	dynasty=300024

	religion="trios"
	culture="tyroshi"

	father=100300024
	mother=200300024

	7629.1.1 = {birth="7629.1.1"}
	7685.1.1 = {death="7685.1.1"}
}
105300024 = {
	name="Collio"	# a lord
	dynasty=300024

	religion="trios"
	culture="tyroshi"

	father=102300024
	mother=202300024

	7653.1.1 = {birth="7653.1.1"}
	7669.1.1 = {add_trait=trained_warrior}
	7671.1.1 = {add_spouse=205300024}
	7711.1.1 = {death="7711.1.1"}
}
205300024 = {
	name="Orbela"
	female=yes

	religion="trios"
	culture="tyroshi"

	7653.1.1 = {birth="7653.1.1"}
	7711.1.1 = {death="7711.1.1"}
}
106300024 = {
	name="Yna"	# not a lord
	female=yes
	dynasty=300024

	religion="trios"
	culture="tyroshi"

	father=102300024
	mother=202300024

	7655.1.1 = {birth="7655.1.1"}
	7682.1.1 = {death="7682.1.1"}
}
107300024 = {
	name="Nohia"	# not a lord
	female=yes
	dynasty=300024

	religion="trios"
	culture="tyroshi"

	father=102300024
	mother=202300024

	7657.1.1 = {birth="7657.1.1"}
	7700.1.1 = {death="7700.1.1"}
}
108300024 = {
	name="Qarro"	# not a lord
	dynasty=300024

	religion="trios"
	culture="tyroshi"

	father=102300024
	mother=202300024

	7660.1.1 = {birth="7660.1.1"}
	7676.1.1 = {add_trait=trained_warrior}
	7678.1.1 = {add_spouse=208300024}
	7735.1.1 = {death="7735.1.1"}
}
208300024 = {
	name="Cossoma"
	female=yes

	religion="trios"
	culture="tyroshi"

	7660.1.1 = {birth="7660.1.1"}
	7735.1.1 = {death="7735.1.1"}
}
109300024 = {
	name="Ordello"	# a lord
	dynasty=300024

	religion="trios"
	culture="tyroshi"

	father=105300024
	mother=205300024

	7679.1.1 = {birth="7679.1.1"}
	7695.1.1 = {add_trait=poor_warrior}
	7746.1.1 = {death="7746.1.1"}
}
110300024 = {
	name="Ollo"	# not a lord
	dynasty=300024

	religion="trios"
	culture="tyroshi"

	father=105300024
	mother=205300024

	7682.1.1 = {birth="7682.1.1"}
	7698.1.1 = {add_trait=trained_warrior}
	7700.1.1 = {add_spouse=210300024}
	7746.1.1 = {death="7746.1.1"}
}
210300024 = {
	name="Yorka"
	female=yes

	religion="trios"
	culture="tyroshi"

	7682.1.1 = {birth="7682.1.1"}
	7746.1.1 = {death="7746.1.1"}
}
111300024 = {
	name="Ferrego"	# not a lord
	dynasty=300024

	religion="trios"
	culture="tyroshi"

	father=105300024
	mother=205300024

	7684.1.1 = {birth="7684.1.1"}
	7700.1.1 = {add_trait=poor_warrior}
	7745.1.1 = {death="7745.1.1"}
}
112300024 = {
	name="Ferrego"	# not a lord
	dynasty=300024

	religion="trios"
	culture="tyroshi"

	father=105300024
	mother=205300024

	7686.1.1 = {birth="7686.1.1"}
	7702.1.1 = {add_trait=trained_warrior}
	7704.1.1 = {add_spouse=212300024}
	7765.1.1 = {death="7765.1.1"}
}
212300024 = {
	name="Orios"
	female=yes

	religion="trios"
	culture="tyroshi"

	7686.1.1 = {birth="7686.1.1"}
	7765.1.1 = {death="7765.1.1"}
}
113300024 = {
	name="Cossoma"	# a lord
	female=yes
	dynasty=300024

	religion="trios"
	culture="tyroshi"

	father=110300024
	mother=210300024

	7717.1.1 = {birth="7717.1.1"}
	7785.1.1 = {death="7785.1.1"}
}
213300024 = {
	name="Beqqo"

	religion="trios"
	culture="tyroshi"

	7717.1.1 = {birth="7717.1.1"}
	7733.1.1 = {add_trait=poor_warrior}
	7735.1.1 = {add_spouse=113300024}
	7785.1.1 = {death="7785.1.1"}
}
114300024 = {
	name="Orbela"	# not a lord
	female=yes
	dynasty=300024

	religion="trios"
	culture="tyroshi"

	father=110300024
	mother=210300024

	7719.1.1 = {birth="7719.1.1"}
	7753.1.1 = {death="7753.1.1"}
}
115300024 = {
	name="Taena"	# not a lord
	female=yes
	dynasty=300024

	religion="trios"
	culture="tyroshi"

	father=110300024
	mother=210300024

	7721.1.1 = {birth="7721.1.1"}
	7775.1.1 = {death="7775.1.1"}
}
116300024 = {
	name="Yna"	# not a lord
	female=yes
	dynasty=300024

	religion="trios"
	culture="tyroshi"

	father=110300024
	mother=210300024

	7724.1.1 = {birth="7724.1.1"}
	7753.1.1 = {death="7753.1.1"}
}
117300024 = {
	name="Tycha"	# not a lord
	female=yes
	dynasty=300024

	religion="trios"
	culture="tyroshi"

	father=112300024
	mother=212300024

	7708.1.1 = {birth="7708.1.1"}
	7767.1.1 = {death="7767.1.1"}
}
118300024 = {
	name="Mera"	# not a lord
	female=yes
	dynasty=300024

	religion="trios"
	culture="tyroshi"

	father=112300024
	mother=212300024

	7711.1.1 = {birth="7711.1.1"}
	7787.1.1 = {death="7787.1.1"}
}
119300024 = {
	name="Denia"	# not a lord
	female=yes
	dynasty=300024

	religion="trios"
	culture="tyroshi"

	father=112300024
	mother=212300024

	7712.1.1 = {birth="7712.1.1"}
	7736.1.1 = {death="7736.1.1"}
}
120300024 = {
	name="Orbelo"	# not a lord
	dynasty=300024

	religion="trios"
	culture="tyroshi"

	father=112300024
	mother=212300024

	7713.1.1 = {birth="7713.1.1"}
	7729.1.1 = {add_trait=skilled_warrior}
	7777.1.1 = {death="7777.1.1"}
}
121300024 = {
	name="Myrmello"	# not a lord
	dynasty=300024

	religion="trios"
	culture="tyroshi"

	father=213300024
	mother=113300024

	7736.1.1 = {birth="7736.1.1"}
	7752.1.1 = {add_trait=poor_warrior}
	7754.1.1 = {add_spouse=221300024}
	7778.1.1 = {death="7778.1.1"}
}
221300024 = {
	name="Moredea"
	female=yes

	religion="trios"
	culture="tyroshi"

	7736.1.1 = {birth="7736.1.1"}
	7778.1.1 = {death="7778.1.1"}
}
122300024 = {
	name="Oro"	# a lord
	dynasty=300024

	religion="trios"
	culture="tyroshi"

	father=213300024
	mother=113300024

	7751.1.1 = {birth="7751.1.1"}
	7767.1.1 = {add_trait=poor_warrior}
	7769.1.1 = {add_spouse=222300024}
	7803.1.1 = {death="7803.1.1"}
}
222300024 = {
	name="Nohia"
	female=yes

	religion="trios"
	culture="tyroshi"

	7751.1.1 = {birth="7751.1.1"}
	7803.1.1 = {death="7803.1.1"}
}
123300024 = {
	name="Moreo"	# a lord
	dynasty=300024

	religion="trios"
	culture="tyroshi"

	father=122300024
	mother=222300024
	
	add_trait = twin

	7770.1.1 = {birth="7770.1.1"}
	7786.1.1 = {add_trait=poor_warrior}
	7788.1.1 = {add_spouse=223300024}
	7825.1.1 = {death="7825.1.1"}
}
77024496 = {
	name="Rohanne" # Lady of Tyrosh, married Daemon Blackfyre
	dynasty=300024
	female=yes

	religion="trios"
	culture="tyroshi"
	
	father=122300024
	mother=222300024
	
	add_trait = twin
	
	7770.1.1={ 
		birth="7770.1.1" 
		effect = { fertility = 0.4 } #had many children
	} 
	7820.1.1={
		death="7820.1.1"
	}
}
223300024 = {
	name="Moredea"
	female=yes

	religion="trios"
	culture="tyroshi"

	7770.1.1 = {birth="7770.1.1"}
	7825.1.1 = {death="7825.1.1"}
}
124300024 = {
	name="Lothea"	# not a lord
	female=yes
	dynasty=300024

	religion="trios"
	culture="tyroshi"

	father=122300024
	mother=222300024

	7773.1.1 = {birth="7773.1.1"}
	7822.1.1 = {death="7822.1.1"}
}
125300024 = {
	name="Roggo"	# not a lord
	dynasty=300024

	religion="trios"
	culture="tyroshi"

	father=122300024
	mother=222300024

	7775.1.1 = {birth="7775.1.1"}
	7791.1.1 = {add_trait=trained_warrior}
	7793.1.1 = {add_spouse=225300024}
	7814.1.1 = {death = {death_reason = death_accident}}
}
225300024 = {
	name="Serala"
	female=yes

	religion="trios"
	culture="tyroshi"

	7775.1.1 = {birth="7775.1.1"}
	7814.1.1 = {death="7814.1.1"}
}
126300024 = {
	name="Yna"	# not a lord
	female=yes
	dynasty=300024

	religion="trios"
	culture="tyroshi"

	father=122300024
	mother=222300024

	7778.1.1 = {birth="7778.1.1"}
	7832.1.1 = {death="7832.1.1"}
}
127300024 = {
	name="Narba"	# not a lord
	female=yes
	dynasty=300024

	religion="trios"
	culture="tyroshi"

	father=123300024
	mother=223300024

	7794.1.1 = {birth="7794.1.1"}
	7805.1.1 = {death = {death_reason = death_accident}}
}
128300024 = {
	name="Tycho"	# a lord
	dynasty=300024

	religion="trios"
	culture="tyroshi"

	father=123300024
	mother=223300024

	7796.1.1 = {birth="7796.1.1"}
	7812.1.1 = {add_trait=master_warrior}
	7814.1.1 = {add_spouse=228300024}
	7870.1.1 = {death="7870.1.1"}
}
228300024 = {
	name="Serenei"
	female=yes

	religion="trios"
	culture="tyroshi"

	7796.1.1 = {birth="7796.1.1"}
	7870.1.1 = {death="7870.1.1"}
}
129300024 = {
	name="Serala"	# not a lord
	female=yes
	dynasty=300024

	religion="trios"
	culture="tyroshi"

	father=128300024
	mother=228300024

	7824.1.1 = {birth="7824.1.1"}
	7847.1.1 = {death="7847.1.1"}
}
130300024 = {
	name="Gyloro"	# a lord
	dynasty=300024

	religion="trios"
	culture="tyroshi"

	father=128300024
	mother=228300024

	7825.1.1 = {birth="7825.1.1"}
	7841.1.1 = {add_trait=trained_warrior}
	7843.1.1 = {add_spouse=230300024}
	7878.1.1 = {death="7878.1.1"}
}
230300024 = {
	name="Betharios"
	female=yes

	religion="trios"
	culture="tyroshi"

	7825.1.1 = {birth="7825.1.1"}
	7878.1.1 = {death="7878.1.1"}
}
131300024 = {
	name="Syrio"	# a lord
	dynasty=300024

	religion="trios"
	culture="tyroshi"

	father=130300024
	mother=230300024

	7853.1.1 = {birth="7853.1.1"}
	7869.1.1 = {add_trait=poor_warrior}
	7875.1.1 = {
		add_spouse = 43130024
	}
}
43130024 = {
	name="Gylora"
	female=yes

	religion="trios"
	culture="tyroshi"

	7853.1.1 = {birth="7853.1.1"}
}
132300024 = {
	name="Bellegere"	# not a lord
	female=yes
	dynasty=300024

	religion="trios"
	culture="tyroshi"

	father=130300024
	mother=230300024

	7856.1.1 = {birth="7856.1.1"}
}
133300024 = {
	name="Pynta"	# not a lord
	female=yes
	dynasty=300024

	religion="trios"
	culture="tyroshi"

	father=130300024
	mother=230300024

	7859.1.1 = {birth="7859.1.1"}
	7878.1.1 = {death="7878.1.1"}
}
134300024 = {
	name="Gyloro"	# not a lord
	dynasty=300024

	religion="trios"
	culture="tyroshi"

	father=130300024
	mother=230300024

	7860.1.1 = {birth="7860.1.1"}
	7876.1.1 = {
		add_trait=poor_warrior
	}
}

105030024 = {
	name="Tysha"
	female = yes
	dynasty=300024

	religion="trios"
	culture="tyroshi"

	father=131300024
	mother=43130024

	7876.1.1 = {birth="7876.1.1"}
}
105130024 = {
	name="Mallaquo"
	dynasty=300024

	religion="trios"
	culture="tyroshi"

	father=131300024
	mother=43130024

	7880.1.1 = {birth="7880.1.1"}
	7896.1.1 = {
		add_trait=poor_warrior
	}
}


#Pirates of Torturers Deep
1000206 = {
	name="Ordello"	# a lord
	dynasty=300206

	religion="pirate"
	culture="tyroshi"

	7569.1.1 = {birth="7569.1.1"}
	7585.1.1 = {add_trait=trained_warrior}
	7587.1.1 = {add_spouse=4000206}
	7615.1.1 = {death="7615.1.1"}
}
4000206 = {
	name="Mellario"
	female=yes

	religion="pirate"
	culture="tyroshi"

	7569.1.1 = {birth="7569.1.1"}
	7615.1.1 = {death="7615.1.1"}
}
1010206 = {
	name="Pynto"	# a lord
	dynasty=300206

	religion="pirate"
	culture="tyroshi"

	father=1000206
	mother=4000206

	7594.1.1 = {birth="7594.1.1"}
	7610.1.1 = {add_trait=poor_warrior}
	7612.1.1 = {add_spouse=4010206}
	7640.1.1 = {death="7640.1.1"}
}
4010206 = {
	name="Orbela"
	female=yes

	religion="pirate"
	culture="tyroshi"

	7594.1.1 = {birth="7594.1.1"}
	7640.1.1 = {death="7640.1.1"}
}
1020206 = {
	name="Lotho"	# a lord
	dynasty=300206

	religion="pirate"
	culture="tyroshi"

	father=1010206
	mother=4010206

	7614.1.1 = {birth="7614.1.1"}
	7630.1.1 = {add_trait=poor_warrior}
	7632.1.1 = {add_spouse=4020206}
	7672.1.1 = {death="7672.1.1"}
}
4020206 = {
	name="Syrea"
	female=yes

	religion="pirate"
	culture="tyroshi"

	7614.1.1 = {birth="7614.1.1"}
	7672.1.1 = {death="7672.1.1"}
}
1030206 = {
	name="Nohia"	# not a lord
	female=yes
	dynasty=300206

	religion="pirate"
	culture="tyroshi"

	father=1010206
	mother=4010206

	7617.1.1 = {birth="7617.1.1"}
	7696.1.1 = {death="7696.1.1"}
}
1040206 = {
	name="Narbo"	# not a lord
	dynasty=300206

	religion="pirate"
	culture="tyroshi"

	father=1010206
	mother=4010206

	7620.1.1 = {birth="7620.1.1"}
	7636.1.1 = {add_trait=trained_warrior}
	7696.1.1 = {death="7696.1.1"}
}
1050206 = {
	name="Moredo"	# a lord
	dynasty=300206

	religion="pirate"
	culture="tyroshi"

	father=1020206
	mother=4020206

	7640.1.1 = {birth="7640.1.1"}
	7656.1.1 = {add_trait=skilled_warrior}
	7658.1.1 = {add_spouse=4050206}
	7710.1.1 = {death="7710.1.1"}
}
4050206 = {
	name="Alia"
	female=yes

	religion="pirate"
	culture="tyroshi"

	7640.1.1 = {birth="7640.1.1"}
	7710.1.1 = {death="7710.1.1"}
}
1060206 = {
	name="Bellonara"	# not a lord
	female=yes
	dynasty=300206

	religion="pirate"
	culture="tyroshi"

	father=1020206
	mother=4020206

	7642.1.1 = {birth="7642.1.1"}
	7679.1.1 = {death="7679.1.1"}
}
1080206 = {
	name="Orbela"	# not a lord
	female=yes
	dynasty=300206

	religion="pirate"
	culture="tyroshi"

	father=1050206
	mother=4050206

	7671.1.1 = {birth="7671.1.1"}
	7740.1.1 = {death="7740.1.1"}
}
1090206 = {
	name="Areo"	# a lord
	dynasty=300206

	religion="pirate"
	culture="tyroshi"

	father=1050206
	mother=4050206

	7672.1.1 = {birth="7672.1.1"}
	7688.1.1 = {add_trait=trained_warrior}
	7690.1.1 = {add_spouse=4090206}
	7743.1.1 = {death="7743.1.1"}
}
4090206 = {
	name="Tagganaria"
	female=yes

	religion="pirate"
	culture="tyroshi"

	7672.1.1 = {birth="7672.1.1"}
	7743.1.1 = {death="7743.1.1"}
}
1110206 = {
	name="Syrio"	# not a lord
	dynasty=300206

	religion="pirate"
	culture="tyroshi"

	father=1050206
	mother=4050206

	7676.1.1 = {birth="7676.1.1"}
	7692.1.1 = {add_trait=poor_warrior}
	7714.1.1 = {death="7714.1.1"}
}
1120206 = {
	name="Lotho"	# a lord
	dynasty=300206

	religion="pirate"
	culture="tyroshi"

	father=1090206
	mother=4090206

	7696.1.1 = {birth="7696.1.1"}
	7712.1.1 = {add_trait=trained_warrior}
	7714.1.1 = {add_spouse=4120206}
	7746.1.1 = {death="7746.1.1"}
}
4120206 = {
	name="Izembara"
	female=yes

	religion="pirate"
	culture="tyroshi"

	7696.1.1 = {birth="7696.1.1"}
	7746.1.1 = {death="7746.1.1"}
}
1130206 = {
	name="Tregar"	# a lord
	dynasty=300206

	religion="pirate"
	culture="tyroshi"

	father=1120206
	mother=4120206

	7715.1.1 = {birth="7715.1.1"}
	7731.1.1 = {add_trait=skilled_warrior}
	7733.1.1 = {add_spouse=4130206}
	7775.1.1 = {death="7775.1.1"}
}
4130206 = {
	name="Alia"
	female=yes

	religion="pirate"
	culture="tyroshi"

	7715.1.1 = {birth="7715.1.1"}
	7775.1.1 = {death="7775.1.1"}
}
1140206 = {
	name="Beqqo"	# not a lord
	dynasty=300206

	religion="pirate"
	culture="tyroshi"

	father=1130206
	mother=4130206

	7738.1.1 = {birth="7738.1.1"}
	7754.1.1 = {add_trait=poor_warrior}
	7773.1.1 = {death="7773.1.1"}
}
1150206 = {
	name="Izembaro"	# a lord
	dynasty=300206

	religion="pirate"
	culture="tyroshi"

	father=1130206
	mother=4130206

	7739.1.1 = {birth="7739.1.1"}
	7755.1.1 = {add_trait=skilled_warrior}
	7757.1.1 = {add_spouse=4150206}
	7782.1.1 = {death="7782.1.1"}
}
4150206 = {
	name="Izembara"
	female=yes

	religion="pirate"
	culture="tyroshi"

	7739.1.1 = {birth="7739.1.1"}
	7782.1.1 = {death="7782.1.1"}
}
1160206 = {
	name="Pynto"	# not a lord
	dynasty=300206

	religion="pirate"
	culture="tyroshi"

	father=1130206
	mother=4130206

	7740.1.1 = {birth="7740.1.1"}
	7756.1.1 = {add_trait=trained_warrior}
	7779.1.1 = {death="7779.1.1"}
}
1170206 = {
	name="Syrea"	# not a lord
	female=yes
	dynasty=300206

	religion="pirate"
	culture="tyroshi"

	father=1150206
	mother=4150206

	7764.1.1 = {birth="7764.1.1"}
	7794.1.1 = {death="7794.1.1"}
}
1180206 = {
	name="Syrio"	# a lord
	dynasty=300206

	religion="pirate"
	culture="tyroshi"

	father=1150206
	mother=4150206

	7765.1.1 = {birth="7765.1.1"}
	7781.1.1 = {add_trait=trained_warrior}
	7783.1.1 = {add_spouse=4180206}
	7800.1.1 = {death="7800.1.1"}
}
4180206 = {
	name="Serra"
	female=yes

	religion="pirate"
	culture="tyroshi"

	7765.1.1 = {birth="7765.1.1"}
	7800.1.1 = {death="7800.1.1"}
}
1190206 = {
	name="Groleo"	# not a lord
	dynasty=300206

	religion="pirate"
	culture="tyroshi"

	father=1150206
	mother=4150206

	7768.1.1 = {birth="7768.1.1"}
	7784.1.1 = {add_trait=poor_warrior}
	7805.1.1 = {death="7805.1.1"}
}
1200206 = {
	name="Cossomo"	# a lord
	dynasty=300206

	religion="pirate"
	culture="tyroshi"

	father=1180206
	mother=4180206

	7792.1.1 = {birth="7792.1.1"}
	7808.1.1 = {add_trait=skilled_warrior}
	7810.1.1 = {add_spouse=4200206}
	7854.1.1 = {death="7854.1.1"}
}
4200206 = {
	name="Serala"
	female=yes

	religion="pirate"
	culture="tyroshi"

	7792.1.1 = {birth="7792.1.1"}
	7854.1.1 = {death="7854.1.1"}
}
1210206 = {
	name="Ternesia"	# not a lord
	female=yes
	dynasty=300206

	religion="pirate"
	culture="tyroshi"

	father=1180206
	mother=4180206

	7795.1.1 = {birth="7795.1.1"}
	7848.1.1 = {death="7848.1.1"}
}
1220206 = {
	name="Joss"	# a lord
	dynasty=300206

	religion="pirate"
	culture="tyroshi"

	father=1200206
	mother=4200206

	7819.1.1 = {birth="7819.1.1"}
	7835.1.1 = {add_trait=trained_warrior}
	7837.1.1 = {add_spouse=4220206}
	7891.1.1 = {death="7891.1.1"}
}
4220206 = {
	name="Taena"
	female=yes

	religion="pirate"
	culture="tyroshi"

	7819.1.1 = {birth="7819.1.1"}
	7891.1.1 = {death="7891.1.1"}
}
1230206 = {
	name="Allaquo"	# not a lord
	dynasty=300206

	religion="pirate"
	culture="tyroshi"

	father=1200206
	mother=4200206

	7821.1.1 = {birth="7821.1.1"}
	7837.1.1 = {add_trait=skilled_warrior}
	7863.1.1 = {death="7863.1.1"}
}
1240206 = {
	name="Yna"	# not a lord
	female=yes
	dynasty=300206

	religion="pirate"
	culture="tyroshi"

	father=1200206
	mother=4200206

	7822.1.1 = {birth="7822.1.1"}
	7869.1.1 = {death="7869.1.1"}
}
1250206 = {
	name="Daario"	# a lord
	dynasty=300206

	religion="pirate"
	culture="tyroshi"

	father=1220206
	mother=4220206

	7853.1.1 = {birth="7853.1.1"}
	7869.1.1 = {add_trait=poor_warrior}
	7871.1.1 = {add_spouse=4250206}
}
4250206 = {
	name="Gylora"
	female=yes

	religion="pirate"
	culture="tyroshi"

	7853.1.1 = {birth="7853.1.1"}
}
1260206 = {
	name="Izembaro"	# not a lord
	dynasty=300206

	religion="pirate"
	culture="tyroshi"

	father=1220206
	mother=4220206

	7856.1.1 = {birth="7856.1.1"}
	7872.1.1 = {add_trait=skilled_warrior}
}
1270206 = {
	name="Gyloro"	# not a lord
	dynasty=300206

	religion="pirate"
	culture="tyroshi"

	father=1250206
	mother=4250206

	7881.1.1 = {birth="7881.1.1"}
	7897.1.1 = {add_trait=skilled_warrior}
}
1280206 = {
	name="Brea"	# not a lord
	female=yes
	dynasty=300206

	religion="pirate"
	culture="tyroshi"

	father=1250206
	mother=4250206

	7883.1.1 = {birth="7883.1.1"}
}