asoiaf_mild_winter = {
	supply_limit = -1
	local_build_time_modifier = 0.5
	local_build_cost_modifier = 0.25
	castle_levy_size = -0.10
	city_levy_size = -0.10
	temple_levy_size = -0.10
	levy_reinforce_rate = -0.10
	population_growth = -0.1
	manpower_growth = -0.1
	local_movement_speed = -0.05
	icon = 86
}
asoiaf_normal_winter = {
	supply_limit = -2
	local_build_time_modifier = 0.75
	local_build_cost_modifier = 0.50
	castle_levy_size = -0.25
	city_levy_size = -0.25
	temple_levy_size = -0.25
	levy_reinforce_rate = -0.15
	population_growth = -0.15
	manpower_growth = -0.15
	local_movement_speed = -0.1
	icon = 87
}
asoiaf_harsh_winter = {
	supply_limit = -4
	local_build_time_modifier = 1
	local_build_cost_modifier = 0.75
	castle_levy_size = -0.50
	city_levy_size = -0.50
	temple_levy_size = -0.50
	levy_reinforce_rate = -0.25
	population_growth = -0.25
	manpower_growth = -0.25
	local_movement_speed = -0.2
	icon = 88
}
small_winter_reserve = { 
	icon = 11
}
large_winter_reserve = { 
	icon = 11
}