500.1.1={ 
	liege="k_braavos"
	holding_dynasty = 300511 # Antaryon
}
7594.1.1={
	holder=1100511
}
7612.1.1={
	holder=1000511
}
7623.1.1={
	holder=900511
}
7658.1.1 = {
	holder=800511
}
7691.1.1={
	holder=700511
}
7714.1.1={
	holder=600511
}
7715.1.1={
	holder=15030511
}
7756.1.1={
	holder=500511
}
7794.1.1={
	holder=400511
}
7802.1.1={
	holder=300511
}
7823.1.1={
	holder=200511
}
7855.1.1 = {
	holder=100511
}
7881.1.1={
	holder=600000041 # Ferrego
}



