200.1.1={
	liege="c_elbateros"
}
7577.1.1 = { holder=100300548 } # Groleo (nc)
7623.1.1 = { holder=102300548 } # Brusco (nc)
7645.1.1 = { holder=104300548 } # Izembaro (nc)
7647.1.1 = { holder=106300548 } # Lotho (nc)
7683.1.1 = { holder=108300548 } # Ternesio (nc)
7690.1.1 = { holder=110300548 } # Roro (nc)
7714.1.1 = { holder=112300548 } # Tagganaro (nc)
7735.1.1 = { holder=114300548 } # Groleo (nc)
7740.1.1 = { holder=120300548 } # Yorko (nc)
7776.1.1 = { holder=123300548 } # Meralyn (nc)
7793.1.1 = { holder=125300548 } # Brusco (nc)
7795.1.1 = { holder=128300548 } # Pynto (nc)
7803.1.1 = { holder=133300548 } # Qarro (nc)
7838.1.1 = { holder=136300548 } # Orbelo (nc)
7851.1.1 = { holder=140300548 } # Pynto (nc)
7894.1.1 = { holder=142300548 } # Denyo (nc)
