500.1.1={ 
	liege="c_myr"
}

7570.1.1 = { holder=150300534 } # Tycho (nc)
7620.1.1 = { holder=100300534 } # Molloq (nc)
7653.1.1 = { holder=103300534 } # Izembaro (nc)
7691.1.1 = { holder=105300534 } # Moredo (nc)
7730.1.1 = { holder=111300534 } # Ordello (nc)
7740.1.1 = { holder=113300534 } # Daario (nc)
7747.1.1 = { holder=117300534 } # Ferrego (nc)
7807.1.1 = { holder=121300534 } # Pynto (nc)
7835.1.1 = { holder=123300534 } # Byan (nc)
7853.1.1 = { holder=126300534 } # Collio (nc)
7862.1.1 = { holder=130300534 } # Ferrego (nc)







