1123.1.1={ 
	liege="k_myr"
	holding_dynasty = 300516 # Lornel
}

7570.1.1 = { holder=150300516 } # Belequo (nc)
7623.1.1 = { holder=100300516 } # Vogarro (nc)
7662.1.1 = { holder=103300516 } # Areo (nc)
7669.1.1 = { holder=109300516 } # Terro (nc)
7675.1.1 = { holder=111300516 } # Mero (nc)
7705.1.1 = { holder=113300516 } # Cossomo (nc)
7733.1.1 = { holder=115300516 } # Tormo (nc)
7744.1.1 = { holder=118300516 } # Narbo (nc)
7782.1.1 = { holder=121300516 } # Moreo (nc)
7817.1.1 = { holder=126300516 } # Cossomo (nc)
7836.1.1 = { holder=133300516 } # Terro (nc)
7869.1.1 = { holder=135300516 } # Groleo (nc)
7890.1.1 = { holder=138300516 } # Roggo (nc)







