501.1.1={ 
	liege="k_lorath"
	holding_dynasty = 300537 # Reltis
}
7570.1.1 = { holder=100300537 } # Brusco (nc)
7611.1.1 = { holder=102300537 } # Myrmello (nc)
7627.1.1 = { holder=104300537 } # Allaquo (nc)
7652.1.1 = { holder=105300537 } # Ferrego (nc)
7682.1.1 = { holder=109300537 } # Collio (nc)
7694.1.1 = { holder=116300537 } # Gyloro (nc)
7708.1.1 = { holder=114300537 } # Ternesio (nc)
7710.1.1 = { holder=120300537 } # Lotho (nc)
7734.1.1 = { holder=124300537 } # Tycho (nc)
7775.1.1 = { holder=125300537 } # Pynto (nc)
7783.1.1 = { holder=130300537 } # Yorko (nc)
7820.1.1 = { holder=131300537 } # Tormo (nc)
7838.1.1 = { holder=135300537 } # Izembaro (nc)
7866.1.1 = { holder=138300537 } # Allaquo (nc)
7872.1.1 = { holder=140300537 } # Meralyn (nc)
7896.1.1 = { holder=141300537 } # Collio (nc)






