500.1.1={ 
	liege="k_tyrosh"
	holding_dynasty = 300544 # Tumitis
}

7570.1.1 = { holder=155300544 } # Denzo (nc)
7624.1.1 = { holder=100300544 } # Doniphos (nc)
7646.1.1 = { holder=101300544 } # Jaqen (nc)
7679.1.1 = { holder=106300544 } # Ordello (nc)
7711.1.1 = { holder=110300544 } # Pynto (nc)
7734.1.1 = { holder=114300544 } # Tormo (nc)
7735.1.1 = { holder=116300544 } # Lucerre (nc)
7741.1.1 = { holder=117300544 } # Ferrego (nc)
7767.1.1 = { holder=118300544 } # Allaquo (nc)
7779.1.1 = { holder=121300544 } # Ordello (nc)
7834.1.1 = { holder=126300544 } # Ezzelyno (nc)
7850.1.1 = { holder=127300544 } # Pynto (nc)
7853.1.1 = { holder=129300544 } # Tagganaro (nc)
# 7859.1.1={ liege="d_tyrosh" } #Ninepenny king
# 7859.12.31 = { liege="k_tyrosh" }
7874.1.1 = { holder=131300544 } # Moreo (nc)



