5600.1.1={
	liege="d_harrenhal"
	law = succ_primogeniture
}
6248.1.1 = {
    holder=650153 #Armistead (C)
}
6275.1.1 = {
	holder = 0
}
7371.1.1 = {
    holder=652153 #Robert (C)
}
7385.1.1 = {
	holder = 0
}

7567.1.1={
    holder=550153
}
7586.1.1={
    holder=560153
}	
7610.1.1={
	holder=21153
}
7625.1.1={
	holder=20153
}
7655.1.1={
	holder=18153
}
7690.1.1={
	holder=17153
}
7713.1.1={
	holder=16153
}
7724.1.1={
	holder=15153
}
7750.1.1={
	holder=14153
}
7779.1.1={
	holder=13153
}
7788.1.1={
	holder=12153
}