1123.1.1={
	liege="k_norvos"
}

7595.1.1 = { holder=100069137 } # Jaqen (nc)
7645.1.1 = { holder=100169137 } # Beqqo (nc)
7661.1.1 = { holder=100569137 } # Illyrio (nc)
7682.1.1 = { holder=100869137 } # Moreo (nc)
7703.1.1 = { holder=101269137 } # Ollo (nc)
7740.1.1 = { holder=101469137 } # Ollo (nc)
7786.1.1 = { holder=101769137 } # Terro (nc)
7787.1.1 = { holder=101869137 } # Ordello (nc)
7820.1.1 = { holder=102469137 } # Terro (nc)
7853.1.1 = { holder=102569137 } # Moreo (nc)
7876.1.1 = { holder=103069137 } # Tregar (nc)
