200.1.1={
	law = slavery_2
	law = succ_turkish_succession
	law = agnatic_succession
}
#Xhore
7596.1.1 = { 
	liege = d_eastern_isles
	holder=100350021  # Xandarro
} 
7624.1.1 = { 
	liege = 0
	holder=102350021  # Ordello (nc)
} 
7645.1.1 = { holder=103350021 } # Gorys (nc)
7672.1.1 = { holder=106350021 } # Regon (nc)
7718.1.1 = { holder=110350021 } # Wendello (nc)
7725.1.1 = {
	liege = k_basilisk_isles
}
7754.1.1 = { holder=112350021 } # Mathos (nc)
7755.1.1 = {
	liege = 0
}
7764.1.1 = { holder=117350021 } # Ordello (nc)
7813.1.1 = { holder=122350021 } # Egon (nc)
7863.1.1 = { holder=128350021 } # Nyessos (nc)
7881.1.1 = { holder=130350021 } # Sybassion (nc)

7900.1.1={
	liege = k_basilisk_isles
}
