200.1.1={
	liege="k_braavos"
}

7594.1.1={
	holder=1100515
}
7603.1.1={
	holder=1000515
}
7621.1.1={
	holder=900515
}
7645.1.1={
	holder=800515
}
7663.1.1={
	holder=700515
}
7706.1.1={
	holder=600515
}
7717.1.1={
	holder=500515
}
7756.1.1={
	holder=400515
}
7794.1.1={
	holder=300515
}
7810.1.1={
	holder=200515
}
7830.1.1={
	holder=100515
}
7875.1.1={
	holder=600000050 # Moredo
}