200.1.1={
	liege="d_zabhad"
}

7595.1.1 = { holder=100055937 } # Alim (nc)
7636.1.1 = { holder=100155937 } # Nizam (nc)
7642.1.1 = { holder=100255937 } # Is'mail (nc)
7676.1.1 = { holder=100355937 } # Isa (nc)
7718.1.1 = { holder=100755937 } # Faruk (nc)
7732.1.1 = { holder=101155937 } # Murad (nc)
7758.1.1 = { holder=101255937 } # Mirza (nc)
7786.1.1 = { holder=101955937 } # Jaleel (nc)
7787.1.1 = { holder=102055937 } # Uways (nc)
7837.1.1 = { holder=102255937 } # Sadiq (nc)
7854.1.1 = { holder=102755937 } # Jalil (nc)
7899.1.1 = { holder=102855937 } # Akin (nc)

