1123.1.1={
	liege="d_yunkai"
}
7595.1.1 = { holder=150360023 } # Grazdhan (nc)
7612.1.1 = { holder=100360023 } # Grazdan (nc)
7636.1.1 = { holder=102360023 } # Marghaz (nc)
7670.1.1 = { holder=106360023 } # Maezon (nc)
7713.1.1 = { holder=110360023 } # Gazdhor (nc)
7746.1.1 = { holder=112360023 } # Morghaz (nc)
7758.1.1 = { holder=116360023 } # Yurkhaz (nc)
7800.1.1 = { holder=121360023 } # Prendahl (nc)
7803.1.1 = { holder=122360023 } # Azzak (nc)
7821.1.1 = { holder=125360023 } # Kraznys (nc)
7864.1.1 = { holder=126360023 } # Grazdhar (nc)
7889.1.1={
	holder=6571004 # Yezzan
}
