200.1.1={
	liege="d_vahar"
}

7595.1.1 = { holder=100055940 } # Murad (nc)
7638.1.1 = { holder=100155940 } # Talib (nc)
7647.1.1 = { holder=100255940 } # Azam (nc)
7683.1.1 = { holder=100655940 } # Ubayd (nc)
7687.1.1 = { holder=101255940 } # Halil (nc)
7716.1.1 = { holder=101455940 } # Ali_Ali (nc)
7741.1.1 = { holder=101655940 } # Shujah (nc)
7769.1.1 = { holder=101755940 } # Burhanaddin (nc)
7799.1.1 = { holder=102055940 } # Qadir (nc)
7814.1.1 = { holder=102255940 } # Nizam (nc)
7844.1.1 = { holder=102455940 } # Wahab (nc)
7867.1.1 = { holder=102655940 } # Husam (nc)

