500.1.1={ law=succ_primogeniture law=cognatic_succession
	liege="d_brightwater"
}
7587.1.1 = { holder=3000254 } # Normund (nc)
7629.1.1 = { holder=3001254 } # Walys (nc)
7645.1.1 = { holder=3003254 } # Gyles (nc)
7687.1.1 = { holder=3006254 } # Morm (nc)
7691.1.1 = { holder=3010254 } # Russell (nc)
7712.1.1 = { holder=3011254 } # Wendell (nc)
7727.1.1 = { holder=3014254 } # Olyvar (nc)
7764.1.1 = { holder=3017254 } # Mervyn (nc)
7772.1.1 = { holder=3020254 } # Anslem (nc)
7827.1.1 = { holder=3022254 } # Olymer (nc)
7843.1.1 = { holder=3024254 } # Quentin (nc)
7853.1.1 = { holder=3028254 } # Waldon (nc)
7890.1.1={
	holder=254
}




