1523.1.1={
	liege = k_valyria
}

7595.1.1 = { holder=10006008 } # Orys (nc)
7638.1.1 = { holder=10016008 } # Aenar (nc)
7643.1.1 = { holder=10056008 } # Daeron (nc)
7672.1.1 = { holder=10066008 } # Aemond (nc)
7712.1.1 = { holder=10116008 } # Otherys (nc)
7768.1.1 = { holder=10146008 } # Maerys (nc)
7779.1.1 = { holder=10186008 } # Maekar (nc)
7799.1.1 = { holder=10226008 } # Haegon (nc)
7831.1.1 = { holder=10246008 } # Aerion (nc)
7872.1.1 = { holder=10286008 } # Viserys (nc)
7883.1.1 = { holder=10316008 } # Jaekar (nc)
7899.1.1 = { holder=10346008 } # Maekar (nc)
7938.1.1 = { holder=10366008 } # Rhaegar (nc)

