1.1.1 = { liege="d_wendwater" }

7594.1.1 = { holder=300313 }	# Rickard Fell (nc)
7612.1.1 = { holder=301313 }	# Raymund Fell (nc)
7637.1.1 = { holder=303313 }	# Selwyn Fell (nc)
7672.1.1 = { holder=304313 }	# Cedric Fell (nc)
7696.1.1 = { holder=306313 }	# Selwyn Fell (nc)
7717.1.1 = { holder=307313 }	# Raymund Fell (nc)
7731.1.1 = { holder=308313 }	# Donal Fell (nc)
7759.1.1 = { holder=309313 }	# Arstan Fell (nc)
7800.1.1 = { holder=310313 }	# Thurgood Fell (C)
7821.1.1 = { holder=311313 }	# Selwyn Fell (nc)
7851.1.1 = { holder=312313 }	# Rickard Fell (nc)
7877.1.1 = { holder=313 }		# Lucas Fell (C)
7883.1.1={
	holder=175313  # Michael Fell (nc)
}

