1123.1.1={
	liege="d_astapor"
}
7587.1.1 = { holder=150360027 } # Grazdan (nc)
7621.1.1 = { holder=100360027 } # Barghaz (nc)
7646.1.1 = { holder=103360027 } # Hizdhar (nc)
7685.1.1 = { holder=105360027 } # Grazdan (nc)
7733.1.1 = { holder=110360027 } # Marghaz (nc)
7737.1.1 = { holder=115360027 } # Grazdan (nc)
7743.1.1 = { holder=118360027 } # Reznak (nc)
7790.1.1 = { holder=120360027 } # Gorlaq (nc)
7830.1.1 = { holder=123360027 } # Skahaz (nc)
7837.1.1 = { holder=127360027 } # Gunzak (nc)
7862.1.1 = { holder=129360027 } # Grazdhan (nc)
7878.1.1 = { holder=132360027 } # Marghaz (nc)
7899.12.12={
	holder=0 # Dany happened !!
}
