7200.1.1={
	liege="e_stormlands"
	law = succ_primogeniture
}
7594.1.1 = { holder=3000022 } # Jaremy Blount (nc)
7601.1.1 = { holder=3002022 } # Barre Blount (nc)
7641.1.1 = { holder=3003022 } # Oswell Blount (nc)
7675.1.1 = { holder=3008022 } # Ollidor Blount (nc)
7707.1.1 = { holder=3010022 } # Bennard Blount (nc)
7738.1.1 = { holder=3012022 } # Boros Blount (nc)
7767.1.1 = { holder=3014022 } # Balman Blount (nc)
7816.1.1 = { holder=3015022 } # Duram Blount (nc)
7829.1.1 = { holder=3020022 } # Arianne Blount (nc)
7863.1.1 = { holder=3023022 } # Gyles Blount (nc)
7888.1.1 = { holder=3022022 } # Cyrenna Blount (nc)
7895.1.1 = { holder=2025022 } # Clayton Blount (nc)
