7580.1.1 = { 
	holder=100607303 
	liege = d_central_plains
} # Zaid (nc)
7619.1.1 = { holder=101607303 } # Edrees (nc)
7635.1.1 = { holder=106607303 } # Qader (nc)
7648.1.1 = { holder=107607303 } # Sabeir (nc)
7679.1.1 = { holder=109607303 } # Taj (nc)
7699.1.1 = { holder=110607303 } # Kahkazan (nc)
7755.1.1 = { holder=113607303 } # Usma (nc)
7776.1.1 = { holder=114607303 } # Naim (nc)
7778.1.1 = { holder=115607303 } # Faqar (nc)
7795.1.1 = { holder=117607303 } # Aarak (nc)
7826.1.1 = { holder=119607303 } # Ehsan (nc)
7852.1.1 = { holder=122607303 } # Parviz (nc)
7893.1.1 = { holder=126607303 } # Ramazan (nc)

