200.1.1={
	liege="d_hills_tiqui"
}
7595.1.1 = { holder=10069100 } # Ali_Ali (nc)
7641.1.1 = { holder=10169100 } # Youkhanna (nc)
7653.1.1 = { holder=10569100 } # Aram (nc)
7662.1.1 = { holder=10669100 } # Mubarak (nc)
7719.1.1 = { holder=10969100 } # Sami (nc)
7738.1.1 = { holder=11169100 } # Mahdi (nc)
7756.1.1 = { holder=11369100 } # Jibril (nc)
7774.1.1 = { holder=11769100 } # Hasan_Hasan (nc)
7805.1.1 = { holder=11869100 } # Bakr (nc)
7828.1.1 = { holder=12069100 } # Fadl (nc)
7831.1.1 = { holder=12469100 } # Idris (nc)
7898.1.1 = { holder=12669100 } # Ramadan (nc)


