7577.1.1 = { 
	holder=100607300 
	liege = d_jhogwin
} # Fardeen (nc)
7612.1.1 = { holder=101607300 } # Isak (nc)
7647.1.1 = { holder=103607300 } # Mahwak (nc)
7671.1.1 = { holder=106607300 } # Jakar (nc)
7682.1.1 = { holder=109607300 } # Wafa (nc)
7697.1.1 = { holder=110607300 } # Vida (nc)
7726.1.1 = { holder=111607300 } # Tahib (nc)
7742.1.1 = { holder=113607300 } # Lemar (nc)
7773.1.1 = { holder=116607300 } # Barialy (nc)
7780.1.1 = { holder=118607300 } # Sabry (nc)
7855.1.1 = { holder=121607300 } # Lida (nc)
7865.1.1 = { holder=123607300 } # Aarak (nc)
