7586.1.1 = { 
	holder=100607301
	liege = d_west_plains
} # Barialy (nc)
7628.1.1 = { holder=101607301 } # Kahkazan (nc)
7634.1.1 = { holder=103607301 } # Laimah (nc)
7688.1.1 = { holder=106607301 } # Sadaf (nc)
7700.1.1 = { holder=107607301 } # Zaid (nc)
7711.1.1 = { holder=111607301 } # Naim (nc)
7727.1.1 = { holder=115607301 } # Jakar (nc)
7763.1.1 = { holder=117607301 } # Abagull (nc)
7823.1.1 = { holder=118607301 } # Inzir (nc)
7830.1.1 = { holder=122607301 } # Malia (nc)
7858.1.1 = { holder=123607301 } # Ghulak (nc)
7862.1.1 = { holder=125607301 } # Yaldak (nc)
7882.1.1 = { holder=127607301 } # Fardeen (nc)
