1.1.1={ law=succ_primogeniture law=cognatic_succession
	liege="d_west_marches"
}

1.1.1 = { holder=6100292 } # Harlon the Hunter (C)
1.1.1 = { holder=0}

7420.1.1 = { holder=6300292 } # Hernarr (nc)
7480.1.1 = { holder=6400292 } # Samwell (nc)
7496.1.1 = { holder=6500292 } # Hylon (nc)
7531.1.1 = { holder=6800292 } # Oryan (nc)
7571.1.1 = { holder=6110292 } # Erren (nc)
7588.1.1 = { holder=6121292 } # Hyle (nc)
7593.1.1 = { holder=3000292 } # Herndon (nc)
7616.1.1 = { holder=3001292 } # Quentin (nc)
7650.1.1 = { holder=3006292 } # Martyn (nc)
7688.1.1 = { holder=3009292 } # Bertram (nc)
7714.1.1 = { holder=3011292 } # Jon (nc)
7744.1.1 = { holder=3015292 } # Petyr (nc)
7758.1.1 = { holder=3018292 } # Garlan (nc)
7777.1.1 = { holder=3021292 } # Hyle (nc)
7806.1.1 = { holder=3026292 } # Randyll (nc)
7829.1.1 = { holder=3029292 } # Renly (nc)
7833.1.1={
	holder=2292 # Imry (nc)
}
7878.1.1={
	holder=292 # Petyr (nc)
}



