1600.1.1 = {
	liege="d_ibbish"
	law = succ_primogeniture
	law = agnatic_succession
}
7590.1.1 = { holder=1055931 } # Cull (nc)
7629.1.1 = { holder=1255931 } # Gurn (nc)
7641.1.1 = { holder=1755931 } # Jogg (nc)
7649.1.1 = { holder=1955931 } # Brogg (nc)
7706.1.1 = { holder=2255931 } # Jogg (nc)
7732.1.1 = { holder=2655931 } # Durr (nc)
7758.1.1 = { holder=3355931 } # Bodger (nc)
7769.1.1 = { holder=3555931 } # Cull (nc)
7804.1.1 = { holder=3755931 } # Quort (nc)
7824.1.1 = { holder=3855931 } # Drogg (nc)
7832.1.1 = { holder=3955931 } # Joth (nc)
7864.1.1 = { holder=4155931 } # Howd (nc)
7889.1.1 = { holder=40555931 } # Eleogg (nc)
