#House Bado
7590.1.1 = { 
	holder=100304016 
	liege=d_walano
	law = succ_seniority
	law = cognatic_succession
} # Xhakan (nc)
7615.1.1 = { holder=101304016 } # Lusaxharo (nc)
7652.1.1 = { holder=103304016 } # Simbaya (nc)
7680.1.1 = { holder=106304016 } # Paro (nc)
7695.1.1 = { holder=107304016 } # Delmabhar (nc)
7697.1.1 = { holder=108304016 } # Udo (nc)
7716.1.1 = { holder=109304016 } # Bapato (nc)
7732.1.1 = { holder=111304016 } # Manahuru (nc)
7767.1.1 = { holder=114304016 } # Punuxharo (nc)
7800.1.1 = { holder=117304016 } # Odingaxho (nc)
7860.1.1 = { holder=119304016 } # Xhakan (nc)
7884.1.1 = { holder=121304016 } # Jalabhar (nc)
7895.1.1 = { holder=124304016 } # Jalahuru (nc)
