200.1.1={
	liege="d_yiti_delta"
}
7595.1.1 = { holder=10069104 } # Aram (nc)
7638.1.1 = { holder=10469104 } # Isa (nc)
7645.1.1 = { holder=10669104 } # Aram (nc)
7673.1.1 = { holder=10869104 } # Isa (nc)
7723.1.1 = { holder=11169104 } # Bakr (nc)
7732.1.1 = { holder=11669104 } # Hafiz (nc)
7751.1.1 = { holder=11969104 } # Shaiban (nc)
7784.1.1 = { holder=12069104 } # Jabir (nc)
7811.1.1 = { holder=12369104 } # Uways (nc)
7852.1.1 = { holder=12769104 } # Sadiq (nc)
7855.1.1 = { holder=12869104 } # Abdul (nc)
7888.1.1 = { holder=13169104 } # Mansur (nc)

