5600.1.1={
	liege="d_the_crag"
}
#House Algood
7576.1.1 = { holder=25224 }
7612.1.1 = { holder=16224 } # Alyn (nc)
7623.1.1 = { holder=17224 } # Lyle (nc)
7651.1.1 = { holder=18224 } # Quentyn (nc)
7673.1.1 = { holder=19224 } # Osbert (nc)
7701.1.1 = { holder=20224 } # Philip (nc)
7728.1.1 = { holder=21224 } # Addam (nc)
7754.1.1 = { holder=22224 } # Halman (nc)
7803.1.1 = { holder=23224 } # Sandor (nc)
7824.1.1 = { holder=24224 } # Regenald (nc)
7833.1.1 = { holder=10224 } # Daven (nc)
7884.1.1 = { holder=11224 } # Robert (nc)
7892.1.1 = { holder=12224 } # Ben (nc)
