5600.1.1={
	liege="d_wolfswood"
	law = succ_primogeniture
}

7567.1.1 = { holder=11446 } # Garth (nc)
7593.1.1 = { holder=21446 } # Ramsay (nc)
7625.1.1 = { holder=31446 } # Roose (nc)
7639.1.1= { holder=41446 } # Mikken (nc)
7654.1.1 = { holder=61446 } # Meliana (nc)
7700.1.1 = { holder=121446 } # Bernarr (nc)
7707.1.1 = { holder=141446 } # Benjen (nc)
7743.1.1 = { holder=161446 } # Barbrey (nc)
7758.1.1 = { holder=171446 } # Donnis (nc)
7805.1.1 = { holder=191446 } # Bass (nc)
7828.1.1 = { holder=211446 } # Torren (nc)
7851.1.1 = { holder=221446 } # Hugo (nc)
7884.1.1 = { holder=241446 } # Porther (nc)
7896.1.1 = { holder=291446 } # Yoren (nc)
