7200.1.1={
	liege="e_stormlands"
	law = succ_primogeniture
}

7575.1.1 = { holder=6000048 } # Dale (nc)



7612.1.1 = { holder=6000548 } # Clarence (nc)
7646.1.1 = { holder=6001048 } # Jon (nc)
7659.1.1 = { holder=6001448 } # Danos (nc)
7679.1.1 = { holder=6001548 } # Robin (nc)
7707.1.1 = { holder=6001748 } # Alliser (nc)
7733.1.1 = { holder=6002348 } # Morgan (nc)
7735.1.1 = { holder=6002548 } # Merrel (nc)
7756.1.1 = { holder=6002648 } # Lucifer (nc)
7806.1.1 = { holder=6002848 } # Florian (nc)
7840.1.1 = { holder=6003248 } # Jarman (nc)

7886.1.1={ holder=48 }
