200.1.1={
	liege="k_leng"
	law = succ_primogeniture
}
7564.1.1 = { holder=10065971 } # Yu (nc)
7623.1.1 = { holder=10165971 } # Xuan (nc)
7630.1.1 = { holder=10565971 } # Bai (nc)
7651.1.1 = { holder=10765971 } # Yu (nc)
7692.1.1 = { holder=11165971 } # Gai (nc)
7700.1.1 = { holder=11565971 } # Thinh (nc)
7734.1.1 = { holder=11665971 } # Bu (nc)
7736.1.1 = { holder=11865971 } # An (nc)
7788.1.1 = { holder=11965971 } # Fai (nc)
7798.1.1 = { holder=12465971 } # Mo (nc)
7807.1.1 = { holder=12665971 } # Hao (nc)
7847.1.1 = { holder=12965971 } # Han (nc)
7868.1.1 = { holder=13465971 } # Loi (nc)



