1.1.1 = { liege="d_red_watch" }

7594.1.1 = { holder=3000311 } # Michael Horpe (nc)
7607.1.1 = { holder=3002311 } # Beric Horpe (nc)
7643.1.1 = { holder=3006311 } # Eldon Horpe (nc)
7661.1.1 = { holder=3007311 } # Elyn Horpe (nc)
7697.1.1 = { holder=3008311 } # Eldon Horpe (nc)
7720.1.1 = { holder=3011311 } # Gowen Horpe (nc)
7750.1.1 = { holder=3013311 } # Alyn Horpe (nc)
7773.1.1 = { holder=3018311 } # Stannis Horpe (nc)
7783.1.1 = { holder=3021311 } # Alesander Horpe (nc)
7811.1.1 = { holder=3022311 } # Galladon Horpe (nc)
7856.1.1 = { holder=3023311 } # Guyard Horpe (nc)
7874.1.1 = { holder=3024311 } # Clifford Horpe (nc)
