1123.1.1={
	liege="d_saath"
	law = succ_primogeniture
}

7595.1.1 = { holder=100056807 } # Manaar (nc)
7624.1.1 = { holder=100156807 } # Harith (nc)
7637.1.1 = { holder=100556807 } # Kushal (nc)
7645.1.1 = { holder=100656807 } # Jaafar (nc)
7664.1.1 = { holder=100956807 } # Darshan (nc)
7704.1.1 = { holder=101256807 } # Etash (nc)
7724.1.1 = { holder=101556807 } # Ekavir (nc)
7745.1.1 = { holder=101656807 } # Kedaar (nc)
7776.1.1 = { holder=101956807 } # Uttamesh (nc)
7793.1.1 = { holder=102456807 } # Uttamesh (nc)
7857.1.1 = { holder=102656807 } # Balavant (nc)
7879.1.1 = { holder=103056807 } # Ritesh (nc)
7881.1.1 = { holder=103556807 } # Tarakesh (nc)
7885.1.1 = { holder=103956807 } # Mukesh (nc)
