5600.1.1={
	liege="e_vale"
	law = succ_primogeniture
}
7570.1.1 = { holder=3000163 } # Lyn (nc)
7605.1.1 = { holder=3003163 } # Alesandor (nc)
7616.1.1 = { holder=3004163 } # Walace (nc)
7634.1.1 = { holder=3006163 } # Waymar (nc)
7637.1.1 = { holder=3010163 } # Jasper (nc)
7657.1.1 = { holder=3012163 } # Vardis (nc)
7690.1.1 = { holder=3013163 } # Walace (nc)
7713.1.1 = { holder=3018163 } # Gerold (nc)
7743.1.1 = { holder=3020163 } # Rolley (nc)
7792.1.1 = { holder=3022163 } # Harrold (nc)
7799.1.1 = { holder=3023163 } # Eddison (nc)
7823.1.1 = { holder=3026163 } # Harlan (nc)
7851.1.1 = { holder=3029163 } # Robert (nc)

7870.1.1={
	holder=94033
}
