1123.1.1={
	liege="k_myr"
}

7595.1.1 = { holder=100300704 } # Byan (nc)
7637.1.1 = { holder=102300704 } # Tormo (nc)
7661.1.1 = { holder=109300704 } # Brusco (nc)
7662.1.1 = { holder=111300704 } # Luco (nc)
7692.1.1 = { holder=113300704 } # Beqqo (nc)
7719.1.1 = { holder=115300704 } # Tregar (nc)
7766.1.1 = { holder=116300704 } # Izembaro (nc)
7784.1.1 = { holder=118300704 } # Ordello (nc)
7791.1.1 = { holder=120300704 } # Luco (nc)
7833.1.1 = { holder=123300704 } # Moreo (nc)
7838.1.1 = { holder=128300704 } # Illyrio (nc)
7862.1.1 = { holder=130300704 } # Roggo (nc)
