6840.2.1={ 	
law = succ_feudal_elective
law = true_cognatic_succession
holder=6054001 # Chroyana
}
6882.10.1={holder=6000001} # Garin the Great
6899.4.4={ # About 700 years before the events of the books Nymeria was Queen.
	holder=2000001 # Nymeria
}
6900.1.1 = {
	holder=123457
}
