1.1.1={ law=succ_primogeniture law=cognatic_succession
	liege="e_reach"
}
1.1.1 = { holder=6000278} # Owen Oakenshield (C)

1.1.1 = { holder=0 }

7460.1.1 = { holder=6200278 } # Halin (nc)
7476.1.1 = { holder=6300278 } # Thorin (nc)
7490.1.1 = { holder=6400278 } # Oren (nc)
7512.1.1 = { holder=6600278 } # Gwayne (nc)
7540.1.1 = { holder=6700278 } # Sanyard (nc)
7580.1.1 = { holder=3000278 } # Durin(nc)

7615.1.1 = { holder=3002278 } # Willas (nc)
7619.1.1 = { holder=3004278 } # Leyton (nc)
7669.1.1 = { holder=3006278 } # Arryn (nc)
7702.1.1 = { holder=3009278 } # Luthor (nc)
7721.1.1 = { holder=3016278 } # Gunthor (nc)
7742.1.1 = { holder=3018278 } # Russell (nc)
7768.1.1 = { holder=3022278 } # Tristram (nc)
7803.1.1 = { holder=3024278 } # Paxter (nc)
7820.1.1 = { holder=3025278 } # Renly (nc)
7845.1.1={
	holder=88271
}
7871.1.1={
	holder=278
}
7900.2.1={
	holder=2278
}





