1523.1.1={
	liege = d_perzyria
}

7595.1.1 = { holder=10000257 } # Maekar (nc)
7626.1.1 = { holder=10010257 } # Rhaegar (nc)
7633.1.1 = { holder=10040257 } # Baelor (nc)
7664.1.1 = { holder=10080257 } # Daegar (nc)
7696.1.1 = { holder=10130257 } # Otherys (nc)
7742.1.1 = { holder=10150257 } # Vaekar (nc)
7759.1.1 = { holder=10170257 } # Haegon (nc)
7798.1.1 = { holder=10200257 } # Viserys (nc)
7851.1.1 = { holder=10220257 } # Gaemon (nc)
7859.1.1 = { holder=10250257 } # Otherys (nc)
7888.1.1 = { holder=10270257 } # Daemon (nc)
