1.1.1 = {liege="e_stormlands"}


7570.1.1 = { holder=300273 } # Rolland Peasebury (nc)

7608.1.1 = { holder=301273 } # Petyr Peasebury (nc)
7629.1.1 = { holder=302273 } # Renly Peasebury (nc)
7674.1.1 = { holder=303273 } # Patrek Peasebury (nc)
7698.1.1 = { holder=304273 } # Rolland Peasebury (nc)
7712.1.1 = { holder=305273 } # Robin Peasebury (nc)
7738.1.1 = { holder=307273 } # Raymund Peasebury (nc)
7754.1.1 = { holder=308273 } # Renfred Peasebury (nc)
7795.1.1 = { holder=309273 } # Rickard Peasebury (nc)
7849.1.1 = { holder=310273 } # Ronnet Peasebury (nc)
7850.1.1 = { holder=311273 } # Rolland Peasebury (nc)
7889.1.1 = { holder=200273 } # Robin Peasebury (C)

