200.1.1={
	liege="k_braavos"
}

7595.1.1 = { holder=100300003 } # Pynto (nc)
7638.1.1 = { holder=103300003 } # Beqqo (nc)
7657.1.1 = { holder=104300003 } # Terro (nc)
7668.1.1 = { holder=108300003 } # Myrmello (nc)
7675.1.1 = { holder=110300003 } # Lotho (nc)
7706.1.1 = { holder=111300003 } # Noho (nc)
7709.1.1 = { holder=118300003 } # Cossomo (nc)
7756.1.1 = { holder=119300003 } # Denyono (C)
7794.1.1 = { holder=121300003 } # Ternesio (nc)
7815.1.1 = { holder=122300003 } # Oro (nc)
7816.1.1 = { holder=127300003 } # Ordello (nc)
7849.1.1 = { holder=130300003 } # Oro (nc)
7877.1.1 = { holder=131300003 } # Terro (nc)
7891.1.1 = { holder=137300003 } # Gyleno (nc)
