200.1.1={
	liege="d_qal"
}
7555.1.1 = { holder=10035002 } # Pyat (nc)
7604.1.1 = { holder=10435002 } # Nyessos (nc)
7644.1.1 = { holder=10635002 } # Doniphos (nc)
7670.1.1 = { holder=10835002 } # Mathos (nc)
7682.1.1 = { holder=11235002 } # Semython (nc)
7721.1.1 = { holder=11535002 } # Navathos (nc)
7747.1.1 = { holder=11635002 } # Egon (nc)
7780.1.1 = { holder=11735002 } # Doniphos (nc)
7785.1.1 = { holder=11835002 } # Meralyn (nc)
7810.1.1 = { holder=12135002 } # Wendello (nc)
7819.1.1 = { holder=12435002 } # Sallor (nc)
7850.1.1 = { holder=13035002 } # Vogarro (nc)
7870.1.1 = { holder=13135002 } # Mathos (nc)


