7200.1.1={
	liege="d_hayford"
	law = succ_primogeniture
}
7593.1.1 = { holder=6000030 } # Arneld (nc)

7628.1.1 = { holder=6000130 } # Justin (nc)
7643.1.1 = { holder=6000430 } # Jacelyn (nc)
7659.1.1 = { holder=6000530 } # Alliser (nc)
7680.1.1 = { holder=6000930 } # Mortimer (nc)
7708.1.1 = { holder=6001230 } # Simon (nc)
7709.1.1 = { holder=6001330 } # Dontos (nc)
7757.1.1 = { holder=6001830 } # Hubard (nc)
7766.1.1 = { holder=6002130 } # Wallace (nc)
7800.1.1 = { holder=6002430 } # Devan (nc)


