7590.1.1 = { 
	holder=100600214 
	liege = d_west_ifeqevron
} # Haggo (nc)
7617.1.1 = { holder=101600214 } # Iggo (nc)
7643.1.1 = { holder=104600214 } # Haro (nc)
7650.1.1 = { holder=108600214 } # Jommo (nc)
7705.1.1 = { holder=110600214 } # Kovarro (nc)
7719.1.1 = { holder=114600214 } # Zekko (nc)
7736.1.1 = { holder=115600214 } # Fogo (nc)
7747.1.1 = { holder=123600214 } # Zerqollo (nc)
7789.1.1 = { holder=125600214 } # Jarbo (nc)
7790.1.1 = { holder=131600214 } # Jommo (nc)
7791.1.1 = { holder=134600214 } # Haro (nc)
7851.1.1 = { holder=135600214 } # Rovo (nc)
7872.1.1 = { holder=138600214 } # Bharbo (nc)