200.1.1={
	liege="d_samyriana"
	law = succ_seniority
	law = agnatic_succession
}
7545.1.1 = { holder=10055950 } # Sami (nc)
7603.1.1 = { holder=10155950 } # Najib (nc)
7619.1.1 = { holder=10455950 } # Alim (nc)
7632.1.1 = { holder=10755950 } # Alim (nc)
7681.1.1 = { holder=10955950 } # Qawurd (nc)
7682.1.1 = { holder=11355950 } # Isa (nc)
7729.1.1 = { holder=11655950 } # Mukhtar (nc)
7745.1.1 = { holder=11955950 } # Isa (nc)
7747.1.1 = { holder=12355950 } # Mirza (nc)
7763.1.1 = { holder=12755950 } # Jaleel (nc)
7787.1.1 = { holder=13055950 } # Shamir (nc)
7819.1.1 = { holder=13255950 } # Jalil (nc)
7875.1.1 = { holder=13555950 } # Mahdi (nc)
7885.1.1 = { holder=13655950 } # Abdul (nc)
