501.1.1={
	liege="k_lorath"
}
7575.1.1 = { holder=100300528 } # Denyo (nc)
7624.1.1 = { holder=102300528 } # Jaqen (nc)
7640.1.1 = { holder=104300528 } # Mero (nc)
7664.1.1 = { holder=105300528 } # Collio (nc)
7673.1.1 = { holder=111300528 } # Gyleno (nc)
7696.1.1 = { holder=112300528 } # Tagganaro (nc)
7711.1.1 = { holder=115300528 } # Ezzelyno (nc)
7740.1.1 = { holder=119300528 } # Ordello (nc)
7744.1.1 = { holder=120300528 } # Illyrio (nc)
7789.1.1 = { holder=123300528 } # Ezzelyno (nc)
7796.1.1 = { holder=124300528 } # Lotho (nc)
7822.1.1 = { holder=127300528 } # Pynto (nc)
7833.1.1 = { holder=130300528 } # Mellario (nc)
7842.1.1 = { holder=131300528 } # Gyleno (nc)
