
7578.1.1 = { holder=10559161 } # Toregg (nc)
7615.1.1 = { holder=11559161 } # Torwynd (nc)
7638.1.1 = { holder=13559161 } # Joramun (nc)
7668.1.1 = { holder=19559161 } # Jarl (nc)
7681.1.1 = { holder=20559161 } # Quent (nc)
7715.1.1 = { holder=23559161 } # Owen (nc)
7770.1.1 = { holder=24559161 } # Lenyl (nc)
7783.1.1 = { holder=26559161 } # Doss (nc)
7792.1.1 = { holder=31559161 } # Mors (nc)
7813.1.1={
	liege="k_beyond_wall"
}
7826.9.9={
	liege="0"
}
7828.1.1 = { holder=32559161 } # Ryk (nc)
7866.1.1 = { holder=33559161 } # Soren (nc)
7873.1.1 = { holder=36559161 } # Eyron (nc)
#7888.1.1 = { holder=38559161 } # Mors (nc)

7882.1.1={
	holder=157009
}
7898.1.1={
	liege="k_beyond_wall"
	holder=157009
}
7900.1.1={
	holder=999000666
}
