500.1.1={ law=succ_primogeniture law=cognatic_succession
	liege="d_highgarden"
}
7594.1.1 = { holder=6000272 } # Tommen (nc)
7632.1.1 = { holder=6002272 } # Hectyr (nc)
7639.1.1 = { holder=6005272 } # Olymer (nc)
7670.1.1 = { holder=6007272 } # Omer (nc)
7718.1.1 = { holder=6014272 } # Dareon (nc)
7770.1.1 = { holder=6018272 } # Martyn (nc)
7789.1.1 = { holder=6020272 } # Quenton (nc)
7803.1.1 = { holder=6025272 } # Wendell (nc)
7821.1.1 = { holder=6027272 } # Walys (nc)
7870.1.1 = { holder=6029272 } # Gyles (nc)

7879.1.1={
	holder=272
}



