500.1.1={
	liege="d_harlaw"
	law=succ_primogeniture law=cognatic_succession
}
7594.1.1 = { holder=6000120 } # Lucimore (nc)
7640.1.1 = { holder=6001120 } # Donnel (nc)
7644.1.1 = { holder=6004120 } # Aeron (nc)
7686.1.1 = { holder=6007120 } # Gevin (nc)
7709.1.1 = { holder=6011120 } # Adrack (nc)
7729.1.1 = { holder=6017120 } # Harmund (nc)
7759.1.1 = { holder=6019120 } # Urras (nc)
7805.1.1 = { holder=6021120 } # Ragnor (nc)
7849.1.1 = { holder=9120 }
7860.1.1 = {	
	holder=120
}
