5800.1.1={
	liege="d_the_sisters"
	law = succ_primogeniture
}
7570.1.1 = { holder=3050363 } # Robert (nc)
7595.1.1 = { holder=3000363 } # Marla (C)
7600.6.1 = { holder=3051363 } # Denys (nc)
7628.1.1 = { holder=3003363 } # Mandon (nc)
7629.1.1 = { holder=3004363 } # Jon (nc)
7680.1.1 = { holder=3006363 } # Wallace (nc)
7689.1.1 = { holder=3009363 } # Robert (nc)
7723.1.1 = { holder=3012363 } # Wyl (nc)
7748.1.1 = { holder=3016363 } # Elbert (nc)
7775.1.1 = { holder=3017363 } # Horton (nc)
7793.1.1 = { holder=3019363 } # Rolland (nc)
7803.1.1 = { holder=3020363 } # Osmund (nc)
7832.1.1 = { holder=3023363 } # Eustace (nc)
7840.1.1 = { holder=3024363 } # Mandon (nc)
7877.1.1={
	holder=10363
}
