1123.1.1={
	liege="k_pentos"
}

7595.1.1 = { holder=100300015 } # Allaquo (nc)
7636.1.1 = { holder=104300015 } # Moredo (nc)
7640.1.1 = { holder=107300015 } # Yorko (nc)
7654.1.1 = { holder=109300015 } # Joss (nc)
7706.1.1 = { holder=111300015 } # Areo (nc)
7717.1.1 = { holder=114300015 } # Ordello (nc)
7779.1.1 = { holder=115300015 } # Jaqen (nc)
7802.1.1 = { holder=116300015 } # Byan (nc)
7819.1.1 = { holder=118300015 } # Moreo (nc)
7841.1.1 = { holder=120300015 } # Roro (nc)
7854.1.1 = { holder=122300015 } # Gyleno (nc)
