1523.1.1 = { 
	liege = d_essaria
	law=succ_primogeniture 
	law=cognatic_succession
} 
7595.1.1 = { holder=10002902 } # Vaermon (nc)
7639.1.1 = { holder=10012902 } # Qavo (nc)
7665.1.1 = { holder=10022902 } # Parquello (nc)
7713.1.1 = { holder=10042902 } # Malaquo (nc)
7716.1.1 = { holder=10082902 } # Methyso (nc)
7742.1.1 = { holder=10112902 } # Vaermon (nc)
7757.1.1 = { holder=10162902 } # Malaquo (nc)
7785.1.1 = { holder=10172902 } # Vaekar (nc)
7831.1.1 = { holder=10222902 } # Vogarro (nc)
7838.1.1 = { holder=10242902 } # Qoherys (nc)

