200.1.1={
	liege="k_volantis"
}
7595.1.1 = { holder=10069117 } # Gorys (nc)
7626.1.1 = { holder=10269117 } # Doniphos (nc)
7648.1.1 = { holder=10869117 } # Navaphos (nc)
7671.1.1 = { holder=10969117 } # Colloquo (nc)
7693.1.1 = { holder=11369117 } # Horonno (nc)
7712.1.1 = { holder=11669117 } # Belicho (nc)
7773.1.1 = { holder=11869117 } # Methyso (nc)
7790.1.1 = { holder=11969117 } # Malaquo (nc)
7799.1.1 = { holder=12269117 } # Yorko (nc)
7841.1.1 = { holder=12569117 } # Nyessos (nc)
7885.1.1 = { holder=13169117 } # Allaquo (nc)
