5600.1.1={
	liege="e_north"
	law = succ_primogeniture
}
7568.1.1={
	holder=16084
}
7605.1.1={
	holder=15084
}
7621.1.1={
	holder=14084
}
7646.1.1={
	holder=13084
}
7660.1.1={
	holder=12084
}
7668.1.1={
	holder=11084
}
7714.1.1={
	holder=10084
}
7752.1.1={
    holder=9084
}	
7767.1.1={
	holder=8084
}
7789.1.1={
	holder=7084
}
7819.1.1={
	holder=5084
}
7864.1.1={
	holder=4084
}
7873.1.1={
	holder=3084
}
7882.1.1={
	holder=84
}
