20.1.1={
	holder=821059
	liege="d_winterfell"
	law = succ_primogeniture
	#Brandon the Builder
}
110.1.1 = {
    holder = 826059 # Brandon, son of Bran the builder
}
130.1.1 = {
    holder = 827059 # Jon
}	    
150.1.1 = { 
    holder = 0 
}

6450.1.1={
	holder = 8115059 #Brandon
}

6460.1.1={
	holder = 815059 #Jon
}
6503.1.1={
	holder = 814059 #Rickard
}
6531.1.1 = {
	holder = 0
}
6597.1.1 = {
	holder = 820059 #Theon the Hungry Wolf
}
6638.1.1 = {
	holder = 0
}

7227.1.1= {
    holder = 1120159 # Brandon the Daughterless
}
7267.12.12= {
    holder = 1120459 # Jon, Bael's son
}
7298.9.9= {
    holder = 8311059 # Harlon
}
7324.9.9= {
    holder = 81321059 # Ellard
}
7352.1.1= {
    holder = 8331059 # Barth
}

7391.1.1 = {
	holder = 0
}


7452.1.1 = {
	holder = 819059 #Brandon the Shipwright
}
7461.1.1={
	holder = 818059 #Brandon the Burner
}
7527.1.1={
	holder = 817059 #Jonnel
}
7532.1.1={
	holder = 816059 #Dorren
}
7582.1.1 = {
	holder = 850059 #Brandon
}

7590.1.1 = {
	holder = 8150059 #Brandon
}
7609.1.1 = {
	holder = 813059 #Rodrik
}
7620.1.1 = {
	holder = 812059 #Edrick
}
7709.1.1 = {
	holder = 811059 #Brandon
}
7715.1.1 = {
	holder = 810059 #Rodrik
}
7722.1.1={
	holder = 809059 #Brandon ice Eyes
}
7742.1.1={
	holder = 808059 #Benjen
}
7765.1.1={
	holder = 807059 #Benjen
}
7779.1.1={
	holder = 806059 #Eyron
}
7812.1.1 ={
	holder = 805059 #Edderion
}
7835.1.1 ={
	holder = 804059 #Walton
}
7856.1.1 ={
	holder = 803059 #Brandon the Bad
}
7892.1.1  ={
	holder = 802059 #Jorah
}