7595.1.1 = { holder=10056821 } # Ordello (nc)
7624.1.1 = { holder=10156821 } # Moreo (nc)
7657.1.1 = { holder=10456821 } # Moredo (nc)
7666.1.1 = { holder=10856821 } # Jaqen (nc)

7702.1.1 = { holder=10956821 } # Terro (nc)
7706.1.1 = { holder=11156821 } # Narbo (nc)

7749.1.1 = { holder=600000062 } # Vaario (c)

7759.1.1 = { 
	holder=11656821 # Noho (nc)
}
7778.1.1 = { holder=11856821 } # Ferrego (nc)
7818.1.1 = { holder=12256821 } # Meralyn (nc)
7831.1.1 = { holder=12556821 } # Roro (nc)

