1923.1.1={
	liege="k_skahazadhan"
	law=succ_primogeniture 
	law=cognatic_succession
}
7495.1.1 = { holder=1000213 } # Miklaz (nc)
7523.1.1 = { holder=1001213 } # Skahaz (nc)
7543.1.1 = { holder=1007213 } # Maezon (nc)
7557.1.1 = { holder=1010213 } # Hizdhar (nc)
7609.1.1 = { holder=1011213 } # Fendahl (nc)
7612.1.1 = { holder=1015213 } # Morghaz (nc)
7637.1.1 = { holder=1017213 } # Paezhar (nc)
7684.1.1 = { holder=1021213 } # Mazdhan (nc)
7698.1.1 = { holder=1022213 } # Faezdhar (nc)
7731.1.1 = { holder=1023213 } # Kraznys (nc)
7767.1.1 = { holder=1029213 } # Ghazdor (nc)
7772.1.1 = { holder=1031213 } # Paezhar (nc)
7789.1.1 = { holder=1033213 } # Skahaz (nc)
7824.1.1 = { holder=1036213 } # Reznak (nc)

