1123.1.1={
	liege="d_yunkai"
}
7595.1.1 = { holder=150360024 } # Yurkhaz (nc)
7617.1.1 = { holder=100360024 } # Yezzan (nc)
7628.1.1 = { holder=103360024 } # Gorzhak (nc)
7673.1.1 = { holder=104360024 } # Grazdan (nc)
7687.1.1 = { holder=106360024 } # Sharkaz (nc)
7735.1.1 = { holder=109360024 } # Grazdan (nc)
7766.1.1 = { holder=112360024 } # Ghazdor (nc)
7787.1.1 = { holder=113360024 } # Skahaz (nc)
7824.1.1 = { holder=118360024 } # Hizdharo (nc)
7845.1.1 = { holder=123360024 } # Haznak (nc)

7875.1.1={
	holder=6571003 # Yurkhaz
}
