1.1.1={
	liege="d_masseys_hook" 
	law = succ_primogeniture
	holder=150046 #Maldon Massey
}
1.1.1 = { holder = 0 }

6053.1.1 = {
	holder = 1052046 #Josua
}
6073.1.1 = {
	holder = 152046 #Justin Massey
}
6112.1.1 = {
	holder = 1153046 #Morden
}
6134.1.1 = {
	holder = 153046 #Josua Massey Softspear
}
6144.1.1 = { holder = 154046 }

6151.1.1 = { holder = 0 liege="e_stormlands" }
7532.1.1 = { holder = 157046 }
7552.1.1 = { holder = 158046 }
7592.1.1 = { holder=6000046 } # Tristan (c)


7623.1.1 = { holder=6000146 } # Morgan (nc)
7641.1.1 = { holder=6000646 } # Jacelyn (nc)
7670.1.1 = { holder=6001346 } # Boros (nc)
7728.1.1 = { holder=6001846 } # Gorman (C)
7729.4.1={ holder=6002246 } # Florian (nc)
7760.1.1 = { holder=6002746 } # Robin (nc)
7779.1.1 = { holder=6002946 } # Florian (nc)
7805.1.1 = { holder=6003546 } # Oswell (nc)
7843.1.1 = { holder=6004046 } # Will (nc)

7858.1.1 = { holder = 77153 }	#Massey
7899.1.4 = { liege=0 }
