200.1.1={
	liege="k_volantis"
}

7595.1.1 = { holder=88000700 } # Methyso (nc)
7637.1.1 = { holder=88000701 } # Lotho (nc)
7649.1.1 = { holder=88000702 } # Nyessos (nc)
7668.1.1 = { holder=88000703 } # Qarro (nc)
7709.1.1 = { holder=88000704 } # Ordello (nc)
7734.1.1 = { holder=88000705 } # Vogarro (nc)
7769.1.1 = { holder=88000706 } # Parquello (nc)
7801.1.1 = { holder=88000707 } # Colloquo (nc)
7842.1.1 = { holder=88000708 } # Methyso (nc)
7861.1.1 = { holder=88000709 } # Vysarro (nc)
7887.1.1={
	holder=600000056 # Benerro
}
