5000.1.1={
	#liege="k_sarnor"
	effect = {
		holder_scope = { 
			k_sarnor = {
				holder_scope = {
					make_tributary = { who = PREVPREV percentage = 0.1 }
				}
			}
		}	
	}
	law = succ_primogeniture
}
7595.1.1 = { holder=10056817 } # Jash (nc)
7619.1.1 = { holder=10156817 } # Chanak (nc)
7661.1.1 = { holder=10656817 } # Shyam (nc)
7665.1.1 = { holder=10856817 } # Kedaar (nc)
7700.1.1 = { holder=10956817 } # Harith (nc)
7753.1.1 = { holder=11256817 } # Lokesh (nc)
7762.1.1 = { holder=11756817 } # Yogesh (nc)
7800.1.1 = { holder=11956817 } # Vishruth (nc)
7804.1.1 = { holder=12256817 } # Nishad (nc)
7848.1.1 = { holder=12456817 } # Manish (nc)
7883.1.1 = { holder=12556817 } # Shyam (nc)
7899.1.1 = { holder=12856817 } # Nishi (nc)
