1.1.1={
	law = succ_primogeniture
	law = cognatic_succession
}
6053.1.1 = {
	holder = 1052046 #Josua
}
6073.1.1 = {
	holder = 152046 #Justin Massey
}
6112.1.1 = {
	holder = 1153046 #Morden
}
6134.1.1 = {
	holder = 153046 #Josua Massey Softspear
}
6144.1.1 = { holder = 0 }

6146.1.1 = {
	holder = 150049 #Togarion Bar Emmon
}
6158.1.1 = { holder = 0 }
