200.1.1={
	liege="e_yi_ti"
	law = succ_primogeniture
	law = agnatic_succession
	law = slavery_2
	law = privilege_vassal_king
	effect = {
		add_law = privilege_vassal_king
	}
}
7595.1.1 = { holder=10069193 } # Najib (nc)
7628.1.1 = { holder=10269193 } # Aghlab (nc)
7629.1.1 = { holder=10369193 } # Mansur (nc)
7665.1.1 = { holder=10669193 } # Mubarak (nc)
7710.1.1 = { holder=11069193 } # Qawurd (nc)
7716.1.1 = { holder=11569193 } # Talib (nc)
7742.1.1 = { holder=11669193 } # Shaiban (nc)
7777.1.1 = { holder=11769193 } # Aghlab (nc)
7798.1.1 = { holder=11969193 } # Jalil (nc)
7825.1.1 = { holder=12169193 } # Halil (nc)
7844.1.1 = { holder=12469193 } # Abdullah (nc)
7864.1.1 = { holder=12869193 } # Aghlab (nc)



