900.1.1={ law=succ_primogeniture law=cognatic_succession
	liege="d_goldengrove"
}
#House Rhysling
7845.1.1={holder=1001423}
7895.1.1={holder=1011423}
7920.1.1={holder=1021423}
7945.1.1={holder=1031423}
7970.1.1={holder=1041423}
7995.1.1={holder=1051423}
8020.1.1={holder=1061423}
8045.1.1={holder=1071423}
8070.1.1={holder=1081423}
8095.1.1={holder=1091423}
8120.1.1={holder=1101423}
8145.1.1={holder=1111423}
8170.1.1={
	holder=88227
}
8219.1.1={
	holder=88228
}
8235.1.1={
	holder=88229
}
8260.1.1={
	holder=88230
}
8290.1.1={
	holder=88232
}








