202.1.1 = { liege="d_cape_wrath" }
#Herston
7866.1.1 = { holder=344324 } # Galbert (nc)
7884.1.1 = { holder=343324 } # Podrick (nc)
7896.1.1 = { holder=342324 } # Addam (nc)
7919.1.1 = { holder=341324 } # Selwyn (nc)
7949.1.1 = { holder=340324 } # Ralph (nc)

7994.1.1 = { holder=300324 } # Jester (nc)
8001.1.1 = { holder=301324 } # Jon (nc)
8037.1.1 = { holder=302324 } # Brus (nc)
8040.1.1 = { holder=303324 } # Jester (nc)
8083.1.1 = { holder=304324 } # Joffrey (nc)
8090.1.1 = { holder=305324 } # Ben (nc)
8093.1.1 = { holder=306324 } # Jeren (nc)
8109.1.1 = { holder=307324 } # Jacelyn (nc)
8135.1.1 = { holder=308324 } # Justin (nc)
8157.1.1 = { holder=309324 } # Joffrey (nc)
8194.1.1 = { holder=310324 } # Jasper (nc)
8213.1.1 = { holder=312324 } # Jaime (nc)
8254.1.1 = { holder=314324 } # Jester (nc)
8283.1.1 = { holder=315324 } # Jeren (nc)