900.1.1={ law=succ_primogeniture law=cognatic_succession
	liege="d_old_wyk"
}
7820.1.1={holder=6026108}
7870.1.1={holder=6025108}
7895.1.1={holder=6024108}
7920.1.1={holder=6023108}
7945.1.1={holder=6005108}
7980.1.1 = { holder=6004108 }
8000.1.1 = { holder=6002108 }
8023.1.1 = { holder=6000108 } # Lenwood (nc)
8054.1.1 = { holder=6001108 } # Tristifer (nc)
8058.1.1 = { holder=6003108 } # Denys (nc)
8087.1.1 = { holder=6006108 } # Gorold (nc)
8111.1.1 = { holder=6011108 } # Lucimore (nc)
8134.5.1 = { holder=6012108 } # Germund (nc)
8172.1.1 = { holder=6015108 } # Urrigon (nc)
8179.1.1 = { holder=6019108 } # Euron (nc)
8222.1.1 = { holder=6022108 } # Sigrin (nc)

8240.1.1 = {	
	holder=3000108 
}
8277.1.1 = {	
	holder=3002108 
}





