1.1.1={
	liege="k_carcosa"
	law = succ_primogeniture
	law = cognatic_succession
}
7878.1.1={
	holder = 5643002 
}	
7899.1.1={
	holder = 5643003 
}	
7983.1.1={
	holder = 5643004 
}	
7990.1.1={
	holder = 5543002 
}	
7994.1.1={
	holder = 5543004
}	
8050.1.1={
	holder = 5543006
}	
8060.1.1={
	holder = 5543008
}	
8080.1.1={
	holder = 5543010
}	
8111.1.1={
	holder = 5543012
}	
8113.1.1={
	holder = 5543014
}	
8135.1.1={
	holder = 5543016
}	
8159.1.1={
	holder = 5543018
}	
8172.1.1={
	holder = 5543020
}	
8192.1.1={
	holder = 5543022
}	
8202.1.1={
	holder = 5543024
}	
8227.1.1={
	holder = 5543026
}	
8267.1.1={
	holder = 5543028
}	
8283.1.1={
	holder = 5543030
}	
8290.1.1={
	holder = 5543032
}	
