#House Massey
185.1.1={
	liege="d_masseys_hook" 
	law = succ_primogeniture
	holder=150046 #Maldon Massey
}
219.1.1 = { holder = 0 }

6453.1.1 = {
	holder = 1052046 #Josua
}
6473.1.1 = {
	holder = 152046 #Justin Massey
}
6512.1.1 = {
	holder = 1153046 #Morden
}
6534.1.1 = {
	holder = 153046 #Josua Massey Softspear
}
6544.1.1 = { holder = 154046 }

6551.1.1 = { holder = 0 liege="e_stormlands" }

7844.1.1 = { holder = 343046 } # Justin (nc)
7875.1.1 = { holder = 342046 } # Jon (nc)
7888.1.1 = { holder = 341046 } # Leo (nc)
7910.1.1 = { holder = 340046 } # Maric (nc)

7932.1.1 = { holder = 157046 }
7952.1.1 = { holder = 158046 }
7992.1.1 = { holder=6000046 } # Tristan (c)
7998.2.27 = {
	liege = k_dragonstone
	de_jure_liege = k_dragonstone
}

8023.1.1 = { holder=6000146 } # Morgan (nc)
8042.6.1 = { holder=6000646 } # Lucifer
8047.1.1={ holder=6001246 } # Albin (C)
8059.2.1 = { holder=6001346 } # Boros (nc)
8128.1.1 = { holder=6001846 } # Gormon (C)
8129.4.1={ holder=6002146 } # Florian (nc)
8165.1.1={ holder=6002246}
8170.1.1 = { holder=6002746 } # Robin (nc)
8179.1.1 = { holder=6002946 } # Florian (nc)
8205.1.1 = { holder=6003546 } # Oswell (nc)
8243.1.1 = { holder=6004046 } # Will (nc)

8258.1.1 = { holder = 77153 }	#Massey
