900.1.1={
	liege="c_crakehall"
}
###House Stilwood###
7846.1.1={holder=1174842}
7885.1.1={holder=2174842}
7920.1.1={holder=3174842}
7945.1.1={holder=4174842}
7970.1.1={holder=5174842}
7995.1.1={holder=6174842}
8020.1.1={holder=7174842}
8045.1.1={holder=8174842}
8070.1.1={holder=9174842}
8095.1.1={holder=10174842}
8120.1.1={holder=11174842}
8145.1.1={holder=12174842}
8170.1.1={holder=13174842}
8195.1.1={holder=14174842}
8220.1.1={holder=15174842}
8245.1.1={holder=16174842}
8270.1.1={holder=17174842}
8283.6.1={holder=18174842}