90.1.1={
	liege="c_castamere" # Barony under Castamere
}
200.1.1 = { holder=319197 } # Ryon (nc)
7810.1.1 = { holder=300197 } # Damion (nc)
7852.1.1 = { holder=301197 } # Roger (nc)
7903.1.1 = { holder=305197 } # Beron (nc)
7907.1.1 = { holder=307197 } # Lorent (nc)
7956.1.1 = { holder=311197 } # Bertram (nc)
7981.1.1 = { holder=314197 } # Raynhart (nc)
7984.1.1 = {
holder=150197
}
7998.7.6 = {
	liege="k_westerlands"
}
8021.1.1 = {
holder=140197
}
8058.1.1 = {
holder=130197
}
8078.1.1 = {
holder=120197
}
8105.1.1 = {
holder=110197
}
8126.1.1 = {
holder=10197
}
8130.1.1 = {
holder=9197
}
8176.1.1 = {
holder=8197
}
8188.1.1 = {
holder=6197
}
8195.3.7={
	liege = 0
}
8196.1.1={
liege = "k_westerlands"
}
8201.1.1 = {
holder=5197
}
8233.6.1 = {
holder=197
}
#Reynes lose to Lannisters
8261.11.1 = {
holder=1190	# Tytos Lannister
}
8267.1.1 = {	
holder=190 # Tywin
}
#Spicers
8299.11.5 = {
holder=3192 #Rolph Spicer
}