600.1.1={
	liege="c_oldvolantis"
	law = succ_seniority
	law = agnatic_succession
}
#House Votar
7998.1.1 = { holder=100174602 } # Doniphos (nc)
8008.1.1 = { holder=104174602 } # Horonno (nc)
8044.1.1 = { holder=105174602 } # Colloquo (C)
8064.1.1 = { holder=107174602 } # Nyessos (nc)
8071.1.1 = { holder=111174602 } # Qavo (nc)
8097.1.1 = { holder=112174602 } # Daegar (nc)
8118.1.1 = { holder=114174602 } # Alios (nc)
8149.1.1 = { holder=118174602 } # Benerro (nc)
8160.1.1 = { holder=124174602 } # Gorys (nc)
8165.1.1 = { holder=125174602 } # Matarys (nc)
8203.1.1 = { holder=129174602 } # Belicho (nc)
8232.1.1 = { holder=133174602 } # Vaekar (nc)
8244.1.1 = { holder=134174602 } # Moqorro (nc)
8263.1.1 = { holder=137174602 } # Moqorro (nc)