900.1.1={ 
	liege="d_oldtown"
	law = cognatic_succession
	law = succ_catholic_bishopric
	holder= 0  
}
8010.1.1 = {	
	holder=889904
}
8080.1.1 = {	
	holder=60620496
}
8096.1.1 = {	
	holder=0
}
8241.1.1 = {	
	holder=212306
}



