#House Myrakis
900.1.1={ 
	liege="k_pentos"
}
7850.1.1 = { holder=345174366 } # Pytho (nc)
7871.1.1 = { holder=344174366 } # Essalo (nc)
7890.1.1 = { holder=343174366 } # Myrmello (nc)
7910.1.1 = { holder=342174366 } # Noro (nc)
7937.1.1 = { holder=341174366 } # Donicho (nc)
7958.1.1 = { holder=340174366 } # Nakorno (nc)

7980.1.1 = { holder=100174366 } # Roggo (nc)
8019.1.1 = { holder=102174366 } # Moredo (nc)
8027.1.1 = { holder=104174366 } # Denyo (nc)
8089.1.1 = { holder=108174366 } # Brusco (nc)
8098.1.1 = { holder=110174366 } # Allaquo (nc)
8122.1.1 = { holder=114174366 } # Lotho (nc)
8171.1.1 = { holder=116174366 } # Gyloro (nc)
8175.1.1 = { holder=120174366 } # Terro (nc)
8182.1.1 = { holder=125174366 } # Brusco (nc)
8200.1.1 = { holder=126174366 } # Ternesio (nc)
8258.1.1 = { holder=129174366 } # Terro (nc)
8285.1.1 = { holder=130174366 } # Moreo (nc)
8290.1.1 = { holder=132174366 } # Joss (nc)








