#House Ghazeen
900.1.1={ 
	liege="c_nomansland"
}
7820.1.1 = { holder=358360030 } # Oznak (nc)
7839.1.1 = { holder=357360030 } # Fendahl (nc)
7887.1.1 = { holder=355360030 } # Yarkaz (nc)
7901.1.1 = { holder=354360030 } # Zhezzan (nc)
7933.1.1 = { holder=353360030 } # Razdar (nc)
7950.1.1 = { holder=352360030 } # Garnhak (nc)
7989.1.1 = { holder=351360030 } # Haznak (nc)
8022.1.1 = { holder=350360030 } # Azzhak (nc)
8027.1.1 = { holder=349360030 } # Miznahl (nc)
8069.1.1 = { holder=348360030 } # Grazdan (nc)
8097.1.1 = { holder=347360030 } # Larraq (nc)
8101.1.1 = { holder=346360030 } # Zadrak (nc)
8119.1.1 = { holder=345360030 } # Maklan (nc)
8142.1.1 = { holder=344360030 } # Leshahl (nc)
8170.1.1 = { holder=343360030 } # Grazdan (nc)
8198.1.1 = { holder=342360030 } # Omkhaz (nc)
8211.1.1 = { holder=341360030 } # Oznak (nc)
8244.1.1 = { holder=340360030 } # Gorghan (nc)
8267.1.1 = { holder=101360030 } # Azzak (nc)
8300.1.1 = { holder=102360030 } # Miklaz (nc)