900.1.1={ law=succ_primogeniture law=cognatic_succession
	liege="c_redwater"
}
7845.1.1={holder=6039243}
7900.1.1={holder=6038243}
7920.1.1={holder=6037243}
7940.1.1={holder=6036243}
7970.1.1={holder=6035243}
8000.1.1 = { holder=6000243 } # Quentin (nc)
8019.1.1 = { holder=6001243 } # Eustace (nc)
8048.1.1 = { holder=6006243 } # Gauter (nc)
8069.1.1 = { holder=6016243 } # Theodore (nc)
8105.1.1 = { holder=6017243 } # Loras (nc)
8140.1.1 = { holder=6018243 } # Edwyn (nc)
8165.1.1 = { holder=6022243 } # Wendell (nc)
8177.1.1 = { holder=6026243 } # Mathis (nc)
8194.1.1 = { holder=6030243 } # Edgerran (nc)
8231.1.1 = { holder=6034243 } # Runceford (nc)
8265.1.1={
	holder=3243
}
8273.1.1={
	holder=243
}






