900.1.1={ 
	liege="k_tyrosh"
	holding_dynasty = 300533 # Ryndoon
}
7859.1.1 = { holder=345300533 } # Roggo (nc)
7875.1.1 = { holder=344300533 } # Luco (nc)
7911.1.1 = { holder=342300533 } # Tormo (nc)
7929.1.1 = { holder=341300533 } # Tregar (nc)
7952.1.1 = { holder=340300533 } # Roggo (nc)

7968.1.1 = { holder=150300533 } # Illyrio (nc)
8015.1.1 = { holder=100300533 } # Groleo (nc)
8041.1.1 = { holder=102300533 } # Ferrego (nc)
8062.1.1 = { holder=104300533 } # Meralyn (nc)
8106.1.1 = { holder=108300533 } # Racallio Ryndoon (C)
8134.1.1 = { holder=109300533 } # Areo (nc)
8154.1.1 = { holder=114300533 } # Denyo (nc)
8159.1.1 = { holder=118300533 } # Byan (nc)
8218.1.1 = { holder=122300533 } # Illyrio (nc)
8228.1.1 = { holder=123300533 } # Roggo (nc)
8256.1.1 = { holder=127300533 } # Ollo (nc)
# 8259.1.1={ liege="d_tyrosh" } #Ninepenny king
# 8259.12.31 = { liege="k_tyrosh" }




