#House Rogers
900.1.1 = {liege="e_stormlands"}
7862.1.1 = { holder=344322 } # Rogar (nc)
7871.1.1 = { holder=343322 } # Benedict (nc)
7908.1.1 = { holder=342322 } # Edric (nc)
7933.1.1 = { holder=341322 } # Gulian (nc)
7950.1.1 = { holder=340322 } # Gerald (nc)

7994.1.1 = { holder=300322 } # Dermot (nc)
7998.2.27={
	liege = k_stormlands
}
8014.1.1 = { holder=301322 } # Cortnay (nc)
8029.1.1 = { holder=302322 } # Matthos (nc)
8046.1.1 = { holder=304322 } # Alaric (nc)
8063.1.1 = { holder=305322 } # Dermot (nc)
8104.1.1 = { holder=306322 } # Alaric (nc)
8137.1.1 = { holder=308322 } # Tymos (nc)
8153.1.9 = { holder=309322 } # Arson Storm (sc)
8167.1.1 = { holder=315322 } # Endron (sc)
8188.1.1 = { holder=30010322 } # Benedict (nc)
8225.1.1 = { holder=322322 } # Rickard (nc)
8283.1.1 = { holder=328322 } # Alaric (nc)
8300.1.1 = { 
	liege="d_rainwood"	#Davos gets High Lordship
}