#c_lotus_port
#House Xhaxos
7800.1.1 = { 
	liege=d_walano
	law = succ_seniority
	law = cognatic_succession
}
7856.1.1 = { holder=340304008 } # Xhakan (nc)
7880.1.1 = { holder=341304008 } # Jiradhar (nc)
7894.1.1 = { holder=342304008 } # Kwasya (nc)
7923.1.1 = { holder=343304008 } # Tapuhuru (nc)
7963.1.1 = { holder=100304008 } # Adeyemu (nc)
8003.1.1 = { holder=101304008 } # Odingaxho (nc)
8020.1.1 = { holder=103304008 } # Bapato (nc)
8042.1.1 = { holder=107304008 } # Doshuru (nc)
8102.1.1 = { holder=108304008 } # Rudo (nc)
8117.1.1 = { holder=112304008 } # Odingaxho (nc)
8144.1.1 = { holder=114304008 } # Quhura (nc)

8158.1.1 = { holder=114304005 } # Xanda (C)
8178.1.1 = { holder=118304005 } # Isingodo (nc)
8203.1.1 = { holder=121304005 } # Thabo (nc)
8221.1.1 = { holder=122304005 } # Xhelimo (nc)
8235.1.1 = { holder=124304005 } # Jalahuru (nc)

#House Xho usurps the Islands
8258.1.1 = { holder=122304000 } # Udo (nc)
8287.1.1 = { holder=126304000 } # Qubhar (nc)

8289.6.1 = { holder=127304005 } #Usurped by House Ko
