600.1.1 = { liege = "d_baomi" }
7869.1.1 = { holder = 34469105 } 
7883.1.1 = { holder = 34369105 } 
7921.1.1 = { holder = 34269105 }
7948.1.1 = { holder = 34169105 }
7988.1.1 = { holder = 34069105 }
7995.1.1 = { holder = 10069105 }
8029.1.1 = { holder = 10169105 }
8046.1.1 = { holder = 10669105 }
8059.1.1 = { holder = 10769105 }
8090.1.1 = { holder = 11269105 }
8098.1.1 = { holder = 11469105 }
8125.1.1 = { holder = 11569105 }
8168.1.1 = { holder = 11969105 }
8177.1.1 = { holder = 12469105 }
8221.1.1 = { holder = 12569105 }
8233.1.1 = { holder = 12969105 }
8292.1.1 = { holder = 13169105 }