#House Kaporys
600.1.1={
	liege="k_pentos"
}
7858.1.1 = { holder=34569127 } # Cassan (nc)
7879.1.1 = { holder=34469127 } # Illaro (nc)
7901.1.1 = { holder=34369127 } # Belyo (nc)
7920.1.1 = { holder=34269127 } # Adareno (nc)
7949.1.1 = { holder=34169127 } # Nereo (nc)
7971.1.1 = { holder=34069127 } # Zoro (nc)

7995.1.1 = { holder=100069127 } # Collio (nc)
8036.1.1 = { holder=100369127 } # Syrio (nc)
8039.1.1 = { holder=100869127 } # Qarro (nc)
8086.1.1 = { holder=100969127 } # Allaquo (nc)
8107.1.1 = { holder=101069127 } # Qarro (nc)
8141.1.1 = { holder=101569127 } # Collio (nc)
8153.1.1 = { holder=101869127 } # Ferrego (nc)
8166.1.1 = { holder=102569127 } # Brusco (nc)
8179.1.1 = { holder=102669127 } # Ordello (nc)
8248.1.1 = { holder=102869127 } # Ollo (nc)
8253.1.1 = { holder=103369127 } # Ternesio (nc)
8273.1.1 = { holder=103569127 } # Yorko (nc)
8283.1.1 = { holder=103769127 } # Moreo (nc)
