#House Hayes
6000.1.1={
	liege="d_flintsfinger"
	law = succ_primogeniture
}
7864.1.1 = { holder=344076 } # Hendry (nc)
7876.1.1 = { holder=343076 } # Gregor (nc)
7899.1.1 = { holder=342076 } # Lonnel (nc)
7928.1.1 = { holder=341076 } # Lorick (nc)
7951.1.1 = { holder=340076 } # Ecton (nc)

7995.1.1 = { holder=12076 } # Morgan (nc)
8012.1.1 = { holder=11076 } # Hullen (nc)
8034.1.1 = { holder=10076 } # Karlon (nc)
8081.1.1 = { holder=9076 } # Leobald (nc)
8091.1.1 = { holder=8076 } # Beren (nc)
8111.1.1 = { holder=7076 } # Cley (nc)
8143.1.1 = { holder=6076 } # Morgan (nc)
8184.1.1 = { holder=4076 } # Benfred (nc)
8224.1.1 = { holder=3076 } # Arthor (nc)
8262.1.1 = {
	holder = 4500091
}
