600.1.1={
	liege="d_linqi"
}
7855.1.1 = { holder=34569196 } # Gan (nc)
7868.1.1 = { holder=34469196 } # Bai (nc)
7902.1.1 = { holder=34369196 } # Vo (nc)
7919.1.1 = { holder=34269196 } # Zi (nc)
7947.1.1 = { holder=34169196 } # Wan (nc)
7970.1.1 = { holder=34069196 } # Jhoq (nc)

7988.1.1 = { holder=10069196 } # Mahdi (nc)
8026.1.1 = { holder=10169196 } # Jibril (nc)
8051.1.1 = { holder=10569196 } # Akin (nc)
8083.1.1 = { holder=10969196 } # Talib (nc)
8097.1.1 = { holder=11369196 } # Bakr (nc)
8144.1.1 = { holder=11569196 } # Ali_Ali (nc)
8164.1.1 = { holder=11869196 } # Shaiban (nc)
8171.1.1 = { holder=12069196 } # Hasan_Hasan (nc)
8223.1.1 = { holder=12569196 } # Abdul (nc)
8237.1.1 = { holder=12969196 } # Mahdi (nc)
8259.1.1 = { holder=13169196 } # Najib (nc)
8282.1.1 = { holder=13369196 } # Shokouh (nc)



