#House Gtuhanai
600.1.1={
	liege="k_leng"
}
7860.1.1 = { holder=34455988 } # Vibur (nc)
7884.1.1 = { holder=34355988 } # Zanthu (nc)
7895.1.1 = { holder=34255988 } # Hastur (nc)
7939.1.1 = { holder=34155988 } # Hastalyk (nc)
7954.1.1 = { holder=34055988 } # Abdul (nc)

7979.1.1 = { holder=10055988 } # Shathak (nc)
8016.1.1 = { holder=10155988 } # Vibur (nc)
8022.1.1 = { holder=10255988 } # Yakthoob (nc)
8074.1.1 = { holder=10555988 } # Japhet (nc)
8090.1.1 = { holder=11055988 } # Pharol (nc)
8124.1.1 = { holder=11155988 } # Hastalyk (nc)
8143.1.1 = { holder=11555988 } # Summanus (nc)
8175.1.1 = { holder=11755988 } # Kaalut (nc)
8182.1.1 = { holder=11855988 } # Kassogtha (nc)
8237.1.1 = { holder=12055988 } # Abdul (nc)
8262.1.1 = { holder=12255988 } # Chaugnar (nc)
8278.1.1 = { holder=12355988 } # Byatis (nc)



