#NOTE: The holder of this title has the House Estermont dynasty tracker set in roberts_rebellion_events
#House Estermont
202.1.1 = { liege="d_cape_wrath" }
7844.1.1 = { holder=334330 } # Gawen (nc)
7880.1.1 = { holder=333330 } # Leomar (nc)
7897.1.1 = { holder=332330 } # Ector (nc)
7913.1.1 = { holder=331330 } # Reynard (nc)
7951.1.1 = { holder=330330 } # Lomas (nc)

7963.1.1 = { holder=311330 } # Edric (nc)
8002.1.1 = { holder=300330 } # Gunthor (nc)
8031.1.1 = { holder=301330 } # Alyn (nc)
8060.1.1 = { holder=303330 } # Ronald (nc)
8088.1.1 = { holder=304330 } # Gunthor (nc)
8115.1.1 = { holder=305330 } # Lomas (nc)
8161.1.1 = { holder=306330 } # Davos (nc)
8172.1.1 = { holder=307330 } # Herbert (nc)
8196.1.1 = { holder=200330 } # Gunthor (C)
8244.1.1 = { holder=330 } # Edwyn (nc)
8300.1.4 = { holder=2330 } # Eldon (C)