#House Albersan
600.1.1={
	liege="k_myr"
}
7862.1.1 = { holder=344300703 } # Ferrego (nc)
7898.1.1 = { holder=343300703 } # Pynto (nc)
7921.1.1 = { holder=342300703 } # Lazaario (nc)
7945.1.1 = { holder=341300703 } # Syrio (nc)
7966.1.1 = { holder=340300703 } # Aryos (nc)

7995.1.1 = { holder=100300703 } # Gyleno (nc)
8034.1.1 = { holder=110300703 } # Izembaro (nc)
8040.1.1 = { holder=120300703 } # Thoros (nc)
8078.1.1 = { holder=107300703 } # Thoros (nc)
8089.1.1 = { holder=111300703 } # Ezzelyno (nc)
8100.1.1 = { holder=112300703 } # Moreo (nc)
8128.1.1 = { holder=113300703 } # Morosh (nc)
8168.1.1 = { holder=115300703 } # Mero (nc)
8205.1.1 = { holder=156300703 } # Areo (nc)
8232.1.1 = { holder=121300703 } # Joss (nc)
8268.1.1 = { holder=125300703 } # Myrmello (nc)
8273.1.1 = { holder=130300703 } # Qarro (nc)
8292.1.1 = { holder=131300703 } # Allaquo (nc)
