900.1.1={
	liege="d_oldstones"
}
7835.1.1={
	holder=73142
}
7880.1.1={
	holder=72142
}
7912.1.1={
	holder=71142
}
7934.1.1={
	holder=70142
}
7960.1.1={
	holder=19142
}
7994.1.1={
	holder=18142
}
8021.1.1={
	holder=17142
}
8041.1.1={
	holder=16142
}
8061.1.1={
	holder=15142
}
8075.1.1={
	holder=14142
}
8107.1.1={
	holder=12142
}
8149.1.1={
	holder=11142
}
8171.1.1={
	holder=21142
}
8195.1.1={
	holder=9142
}
8213.1.1={
	holder=8142
}
8231.1.1={
	holder=7142
}
8246.1.1={
	holder=6142
}
8281.1.1={
	holder=142
}