#House Hastwyck
900.1.1={ law=succ_primogeniture law=cognatic_succession
	liege="d_blueburn"
}
7877.1.1 = { holder=6044267 } # Morald (nc)
7886.1.1 = { holder=6043267 } # Warryn (nc)
7922.1.1 = { holder=6042267 } # Morgan (nc)
7949.1.1 = { holder=6041267 } # Olmond (nc)
7988.1.1 = { holder=6040267 } # Durton (nc)

7995.1.1 = { holder=6000267 } # Arys (nc)
8026.1.1 = { holder=6001267 } # Olyvar (nc)
8029.1.1 = { holder=6003267 } # Wendell (nc)
8059.1.1 = { holder=6006267 } # Renly (nc)
8081.1.1 = { holder=6008267 } # Raymund (nc)
8104.1.1 = { holder=6013267 } # Aemon (nc)
8125.1.1 = { holder=6015267 } # Amelryc (nc)
8147.1.1 = { holder=6019267 } # Gunthor (nc)
8177.1.1 = { holder=6021267 } # Olymer (nc)
8209.1.1 = { holder=6024267 } # Arys (nc)
8242.1.1 = { holder=6027267 } # Lucas (nc)
8253.1.1 = { holder=6031267 } # Franklyn (nc)
8283.1.1 = { liege="k_reach" }
8285.1.1={
	holder=267
}




