#House Hollard
800.1.1={
	liege="d_duskendale"
	law = succ_primogeniture
}
7859.1.1 = { holder=344037 } # Greydon (nc)
7873.1.1 = { holder=343037 } # Loreth (nc)
7905.1.1 = { holder=342037 } # Leslyn (nc)
7939.1.1 = { holder=341037 } # Harbert (nc)
7959.1.1 = { holder=340037 } # Hoster (nc)

7983.1.1 = { holder=6000037 } # Davos (nc)
8021.1.1 = { holder=6000337 } # Guncer (nc)
8033.1.1 = { holder=6000537 } # Will (nc)
8069.1.1 = { holder=6000937 } # Arneld (nc)
8076.1.1 = { holder=6001037 } # Lucos (nc)
8083.1.1 = { holder=6001337 } # Denys (nc)
8112.1.1 = { holder=6001437 } # Rolland (nc)
8133.1.1 = { holder=6001837 } # Jaremy (nc)
8174.1.1 = { holder=6001937 } # Symon (nc)
8204.1.1 = { holder=6002337 } # Bryen (nc)
8219.1.1 = { holder=77140 } # Monford (nc)
8241.1.1={
	holder = 77143 	#Osmund
}
8270.1.1={
	holder = 77145  #Jon Hollard (C)
}

#House Rykker
8277.10.1={
	holder = 36 	#Dylan Rykker
	name = c_crown_keep #Ruined
	effect = { 
		location = { set_name = c_crown_keep }
	}
}
8280.1.1={
	holder = 2036 	#Renfred Rykker
}