#House Drogikh
600.1.1={
	liege="d_kosrak"
	law = succ_ultimogeniture
}
7849.1.1 = { holder=34455901 } # Manas (nc)
7877.1.1 = { holder=34355901 } # Manasseh (nc)
7894.1.1 = { holder=34255901 } # Samsam (nc)
7909.1.1 = { holder=34155901 } # Bastu (nc)
7930.1.1 = { holder=34055901 } # Arslan (nc)

7952.1.1 = { holder=10055901 } # Moro (nc)
8004.1.1 = { holder=10455901 } # Mago (nc)
8046.1.1 = { holder=10855901 } # Ogo (nc)
8047.1.1 = { holder=11155901 } # Cohollo (nc)
8098.1.1 = { holder=11655901 } # Jommo (nc)
8110.1.1 = { holder=11455901 } # Cohollo (nc)
8128.1.1 = { holder=12255901 } # Rakharo (nc)
8144.1.1 = { holder=12555901 } # Jhaquo (nc)
8183.1.1 = { holder=12755901 } # Zollo (nc)
8217.1.1 = { holder=13155901 } # Pono (nc)
8250.1.1 = { holder=13555901 } # Jhaquo (nc)
8279.1.1 = { holder=13955901 } # Drogo (nc)

