#House Dalt
7240.1.1={
	liege="d_brokenarm"
	law = true_cognatic_succession
}
7850.1.1 = { holder=45146 } # Deziel (nc)
7881.1.1 = { holder=45126 } # Tremond (nc)
7923.1.1 = { holder=45096 } # Allanys (nc)
7931.1.1 = { holder=45086 } # Manfrey (nc)
7959.1.1 = { holder=35026 } # Liane (nc)
8007.1.1 = { holder=35036 } # Trystane (nc)
8021.1.1 = { holder=35016 } # Donyse (nc)
8035.1.1 = { holder=35046 } # Alaric (nc)
8062.1.1 = { holder=35076 } # Larra (nc)
8102.1.1 = { holder=35106 } # Donyse (nc)
8129.1.1 = { holder=35116 } # Trebor (nc)
8157.1.1 = { holder=35136 } # Allar (nc)
8179.1.1 = { holder=35176 } # Maron (nc)
8197.1.1 = { holder=35186 } # Deziel (nc)
8226.1.1 = { holder=35236 } # Myriah (nc)
8240.1.1 = { holder=35286 } # Timeon (nc)
8259.2.9 = { holder=2006 } # Mynia (nc)
8291.4.5 = { holder=6 } # Deziel (c)