#House Monye
7800.1.1 = { 
	liege=d_moluu
	law = succ_seniority
	law = cognatic_succession
} 
7841.1.1 = { holder=340304026 } # Xhal (nc)
7869.1.1 = { holder=341304026 } # Paro (nc)
7889.1.1 = { holder=342304026 } # Delmabhar (nc)
7899.1.1 = { holder=343304026 } # Lusala (nc)
7940.1.1 = { holder=344304026 } # Makya (nc)
7964.1.1 = { holder=345304026 } # Qaro (nc)
8023.1.1 = { holder=103304026 } # Doshuru (nc)
8044.1.1 = { holder=106304026 } # Mermesbhar (nc)
8077.1.1 = { holder=111304026 } # Xhakan (nc)
8099.1.1 = { holder=116304026 } # Xhelimo (nc)
8119.1.1 = { holder=118304026 } # Jaramogo (nc)
8142.1.1 = { holder=119304026 } # Orengo (nc)
8166.1.1 = { holder=122304026 } # Tapuhuru (nc)
8225.1.1 = { holder=125304026 } # Xhelimo (nc)
8235.1.1 = { holder=130304026 } # Mermesbhar (nc)
8245.1.1 = { holder=131304026 } # Xhelimo (nc)
8271.1.1 = { holder=133304026 } # Jalabhar (nc)
8289.1.1 = { holder=137304026 } # Jarado (nc)
