#Order of Nyel
7000.1.1 = {
	liege = k_norvos
}
7880.1.1 = { holder=34369118 } # Zargano (nc)
7900.1.1 = { holder=34269118 } # Irricho (nc)
7931.1.1 = { holder=34169118 } # Lyan (nc)
7960.1.1 = { holder=34069118 } # Daarius (nc)

7992.1.1 = { holder=100069118 } # Illyrio (nc)
8039.1.1 = { holder=100269118 } # Pynto (nc)
8042.1.1 = { holder=100569118 } # Yorko (nc)
8058.1.1 = { holder=100869118 } # Qarro (nc)
8110.1.1 = { holder=101169118 } # Collio (nc)
8150.1.1 = { holder=101569118 } # Gyloro (nc)
8151.1.1 = { holder=101869118 } # Joss (nc)
8209.1.1 = { holder=102069118 } # Tagganaro (nc)
8224.1.1 = { holder=102569118 } # Ternesio (nc)
8241.1.1 = { holder=102669118 } # Roggo (nc)
8272.1.1 = { holder=102969118 } # Tagganaro (nc)
8281.1.1 = { holder=103169118 } # Terro (nc)
