#Order of the Black Axe
7000.1.1 = {
	liege = k_norvos
}
7878.1.1 = { holder=34369116 } # Boro (nc)
7901.1.1 = { holder=34269116 } # Garraro (nc)
7925.1.1 = { holder=34169116 } # Maraphos (nc)
7955.1.1 = { holder=34069116 } # Brachadhor (nc)

7995.1.1 = { holder=10069116 } # Moreo (nc)
8027.1.1 = { holder=10269116 } # Myrmello (nc)
8039.1.1 = { holder=10469116 } # Moredo (nc)
8053.1.1 = { holder=10569116 } # Joss (nc)
8062.1.1 = { holder=11169116 } # Terro (nc)
8084.1.1 = { holder=11369116 } # Myrmello (nc)
8108.1.1 = { holder=11469116 } # Beqqo (nc)
8136.1.1 = { holder=11969116 } # Daario (nc)
8146.1.1 = { holder=12069116 } # Cossoma (nc)
8184.1.1 = { holder=12169116 } # Narba (nc)
8225.1.1 = { holder=12269116 } # Gyleno (nc)
8260.1.1 = { holder=12569116 } # Izembara (nc)
8279.1.1 = { holder=12869116 } # Beqqo (nc)
8294.1.1 = { holder=12969116 } # Moredea (nc)
