#House Prestayn
7600.1.1={
	liege="k_braavos"
}
7855.1.1 = { holder=344300515 } # Phario (nc)
7873.1.1 = { holder=343300515 } # Cossoquo (nc)
7900.1.1 = { holder=342300515 } # Qycho (nc)
7919.1.1 = { holder=341300515 } # Terrio (nc)
7941.1.1 = { holder=340300515 } # Tycho (nc)

7994.1.1 = { holder=1100515 } # Obaro (nc)
8003.1.1 = { holder=1000515 } # Luco (nc)
8021.1.1 = { holder=900515 } # Syrio (nc)
8045.1.1 = { holder=800515 } # Badir (nc)
8063.1.1 = { holder=700515 } # Lotho (nc)
8106.1.1 = { holder=600515 } # Daario (nc)
8117.1.1 = { holder=500515 } # Pynto (nc)
8156.1.1 = { holder=400515 } # Donalo (sc)
8194.1.1 = { holder=300515 } # Oro (nc)
8210.1.1 = { holder=200515 } # Noho (nc)
8230.1.1 = {
	holder=100515 # Gyleno
}