600.1.1={
	liege="d_qohor"
}
7886.1.1 = { holder=344300564 } # Zarys Togott (nc)
7888.1.1 = { holder=344300520 } # Vargio Zhander (nc)
7893.1.1 = { holder=344300565 } # Zyrio Baroat (nc)
7895.1.1 = { holder=343300567 } # Qiran Qarit (nc)
7901.1.1 = { holder=342300564 } # Qargo Togott (nc)
7919.1.1 = { holder=342300529 } # Rargo Reymnos (nc)
7935.1.1 = { holder=341300564 } # Arar Togott (nc)
7952.1.1 = { holder=341300520 } # Zeleqor Zhander (nc)

7971.1.1 = { holder=100300567 } # Daario Qarit (nc)
8007.1.1 = { holder=100300564 } # Meralyn Togott (nc)
8008.1.1 = { holder=101300564 } # Tagganaro Togott (nc)
8046.1.1 = { holder=101300520 } # Beqqo Zhander (nc)
8049.1.1 = { holder=105300520 } # Luco Zhander (nc)
8078.1.1 = { holder=105300564 } # Collio Togott (nc)
8082.1.1 = { holder=108300564 } # Tagganaro Togott (nc)
8104.1.1 = { holder=109300520 } # Byan Zhander (nc)
8110.1.1 = { holder=113300529 } # Ternesio Reymnos (nc)
8133.1.1 = { holder=117300520 } # Beqqo Zhander (nc)
8153.1.1 = { holder=119300520 } # Moreo Zhander (nc)
8164.1.1 = { holder=116300529 } # Vargo Reymnos (nc)
8174.1.1 = { holder=124300565 } # Ordello Baroat (nc)
8185.1.1 = { holder=129300565 } # Moredo Baroat (nc)
8218.1.1 = { holder=131300565 } # Tobho Baroat (nc)
8224.1.1 = { holder=125300520 } # Joss Zhander (nc)
8227.1.1 = { holder=128300520 } # Myrmello Zhander (nc)
8230.1.1 = { holder=130300520 } # Brusco Zhander (nc)
8241.1.1 = { holder=132300520 } # Collio Zhander (nc)
8275.1.1 = { holder=133300564 } # Tagganaro Togott (nc)
8294.1.1 = { holder=134300564 } # Groleo Togott (nc)