#House Thorne
7600.1.1={
	liege="d_hayford"
	law = succ_primogeniture
}
7855.1.1 = { holder=344030 } # Richard (nc)
7869.1.1 = { holder=343030 } # Alliser (nc)
7901.1.1 = { holder=342030 } # Robert (nc)
7917.1.1 = { holder=341030 } # Osmund (nc)
7938.1.1 = { holder=340030 } # Edmyn (nc)

7968.1.1 = { holder=6000230 } # Alyn (nc)
8006.1.1 = { holder=6000030 } # Arneld (nc)
8028.1.1 = { holder=6000130 } # Justin (nc)
8043.1.1 = { holder=6000430 } # Jacelyn (nc)
8059.1.1 = { holder=6000530 } # Alliser (nc)
8080.1.1 = { holder=6000930 } # Mortimer (nc)
8108.1.1 = { holder=6001330 } # Dontos (nc)
8157.1.1 = { holder=6001830 } # Hubard (nc)
8166.1.1 = { holder=6002130 } # Wallace (nc)
8200.1.1 = { holder=6002430 } # Devan (nc)

8252.1.1={
	holder = 9030	#Geoffrey Thorne
}
8276.1.1={
	holder = 30 	#Denly Thorne
}