900.1.1={
	liege="d_great_wyk"
}
7875.1.1 = { holder=3019114 }
7900.1.1 = { holder=3018114 }
7917.1.1 = { holder=3020114 }
7940.1.1 = { holder=3021114 }
7969.1.1 = { holder=3015114 }
8000.1.1 = { holder=3000114 } # Ragnor (nc)
8016.1.1 = { holder=3003114 } # Drennan (nc)
8032.1.1 = { holder=3006114 } # Falia (nc)
8070.1.1 = { holder=3007114 } # Bennarion (nc)
8080.1.1 = { holder=3011114 } # Brella (nc)
8135.1.1 = { holder=3012114 } # Aeron (nc)
8148.1.1 = { holder=3014114 } # Tristifer (nc)
8189.1.1 = { holder=3016114 } # Denys (nc)
8211.1.1 = { holder=3017114 } # Ulf (nc)
8239.1.1 = { holder=3024114 } # Harl (nc)
8257.1.1 = { holder=3025114 } # Eerl (nc)
8273.1.1 = { holder=114 } # Triston (c)