#House Hogg
800.1.1={
	liege="d_hayford"
	law = succ_primogeniture
}
7852.1.1 = { holder=344031 } # Buford (nc)
7859.1.1 = { holder=343031 } # Ormund (nc)
7899.1.1 = { holder=342031 } # Bronn (nc)
7912.1.1 = { holder=341031 } # Hubard (nc)
7947.1.1 = { holder=340031 } # Rolland (nc)

7966.1.1 = { holder=6000231 } # Allard (nc)
8004.1.1 = { holder=6000031 } # Sefton (nc)
8016.1.1 = { holder=6000131 } # Ollidor (nc)
8025.1.1 = { holder=6000431 } # Blind Jon Hogg (C)
8044.1.1 = { holder=6000631 } # Osfryd (nc)
8083.1.1 = { holder=6000931 } # Lothar (nc)
8108.1.1 = { holder=6001531 } # Dontos (nc)
8159.1.1 = { holder=6001631 } # Balman (nc)
8191.1.1 = { holder=6002031 } # Lucifer (nc)
8219.1.1 = { holder=6002331 } # Perkin (nc)
8262.1.1 = { holder=6002831 } # Simon (nc)
8290.1.1={
	holder = 31 	#Roger Hogg (C)
}