#House Torgodorio
600.1.1={
	liege="k_pentos"
}
7866.1.1 = { holder=344300015 } # Tregar (nc)
7898.1.1 = { holder=343300015 } # Alios (nc)
7919.1.1 = { holder=342300015 } # Lysar (nc)
7938.1.1 = { holder=341300015 } # Pallos (nc)
7960.1.1 = { holder=340300015 } # Caryos (nc)

7993.1.1 = { holder=100300015 } # Allaquo (nc)
8036.1.1 = { holder=104300015 } # Moredo (nc)
8040.1.1 = { holder=107300015 } # Yorko (nc)
8054.1.1 = { holder=109300015 } # Joss (nc)
8106.1.1 = { holder=111300015 } # Areo (nc)
8117.1.1 = { holder=114300015 } # Ordello (nc)
8179.1.1 = { holder=115300015 } # Jaqen (nc)
8202.1.1 = { holder=116300015 } # Byan (nc)
8219.1.1 = { holder=118300015 } # Moreo (nc)
8241.1.1 = { holder=120300015 } # Roro (nc)
8254.1.1 = { holder=122300015 } # Gyleno (nc)
