600.1.1={
	liege="d_taichen"
}
7995.1.1 = { holder=10069196 }
8026.1.1 = { holder=10169196 }
8051.1.1 = { holder=10569196 }
8083.1.1 = { holder=10969196 }
8097.1.1 = { holder=11369196 }
8144.1.1 = { holder=11569196 }
8164.1.1 = { holder=11869196 }
8171.1.1 = { holder=12069196 }
8223.1.1 = { holder=12569196 }
8237.1.1 = { holder=12969196 }
8259.1.1 = { holder=13169196 }
8282.1.1 = { holder=13369196 }



