#House Quanis
7860.1.1 = { holder=34556821 } # Alassor (nc)
7874.1.1 = { holder=34456821 } # Saathos (nc)
7910.1.1 = { holder=34356821 } # Tigaro (nc)
7923.1.1 = { holder=34256821 } # Pereno (nc)
7950.1.1 = { holder=34156821 } # Essanos (nc)
7972.1.1 = { holder=34056821 } # Qorelo (nc)

7995.1.1 = { holder=10056821 } # Ordello (nc)
8024.1.1 = { holder=10156821 } # Moreo (nc)
8057.1.1 = { holder=10456821 } # Moredo (nc)
8066.1.1 = { holder=10856821 } # Jaqen (nc)
8096.6.1={
	liege="d_central_stepstones"
}
8102.1.1 = { holder=10956821 } # Terro (nc)
8106.1.1 = { holder=11156821 } # Narbo (nc)
8109.1.1={
	liege="k_stepstones"
}
8116.1.1={
	liege="0"
}
8131.9.1 = {
	liege="k_stepstones"
}
8134.1.1 = {
	liege="0"
}
8149.1.1 = { holder=600000062 } # Vaario (c)
8157.1.1={
	liege="k_stepstones"
}
8159.1.1 = { 
	liege="0"
	holder=11656821 # Noho (nc)
}
8178.1.1 = { holder=11856821 } # Ferrego (nc)
8218.1.1 = { holder=12256821 } # Meralyn (nc)
8231.1.1 = { holder=12556821 } # Roro (nc)
8258.1.1={
	liege="k_stepstones"
}
8260.12.31={
	liege="0"
}
8265.1.1 = { holder=12756821 } # Khorane (nc)
