7600.1.1={
	liege="d_willowwood"
	law = succ_primogeniture
}
7825.1.1={
	holder=29141
}
7875.1.1={
	holder=28141
}
7900.1.1={
	holder=27141
}
7930.1.1={
	holder=26141
}
7960.1.1={
	holder=25141
}
7980.1.1={
	holder=23141
}
8006.1.1={
	holder=22141
}
8040.1.1={
	holder=24141
}
8069.1.1={
	holder=19141
}
8102.1.1={
	holder=18141
}
8133.1.1={
	holder=17141
}
8141.1.1={
	holder=16141
}
8176.1.1={
	holder=15141
}
8201.1.1={
	holder=13141
}
8233.1.1={
	holder=12141
}
8256.1.1={
	holder=11141
}
8274.1.1={
	holder=141
}
8283.6.1={
	liege="k_riverlands"
}
