#House Laurila
600.1.1={
	law = succ_seniority
	law = agnatic_succession
}
7850.1.1 = { holder=34455951 } # Jarkko (nc)
7862.1.1 = { holder=34355951 } # Hyrkoon (nc)
7901.1.1 = { holder=34255951 } # Pyrrko (nc)
7930.1.1 = { holder=34155951 } # Taptora (nc)
7944.1.1 = { holder=34055951 } # Kaipia (nc)

7979.1.1 = { holder=10055951 } # Qawurd (nc)
8003.1.1 = { holder=10155951 } # Abdullah (nc)
8019.1.1 = { holder=10455951 } # Husam (nc)
8032.1.1 = { holder=10755951 } # Sadiq (nc)
8081.1.1 = { holder=10955951 } # Mirza (nc)
8082.1.1 = { holder=11355951 } # Bakr (nc)
8129.1.1 = { holder=11655951 } # Nizam (nc)
8145.1.1 = { holder=11955951 } # Nizam (nc)
8147.1.1 = { holder=12355951 } # Hafiz (nc)
8163.1.1 = { holder=12755951 } # Abdul (nc)
8187.1.1 = { holder=13055951 } # Isa (nc)
8219.1.1 = { holder=13255951 } # Mirza (nc)
8275.1.1 = { holder=13555951 } # Shamir (nc)
8285.1.1 = { holder=13655951 } # Youkhanna (nc)
