#House Pazaq
490.1.1={
	liege="k_skahazadhan"
	law=succ_primogeniture 
	law=cognatic_succession
}
7825.1.1 = { holder=100360208 } # Yezzan (nc)
7870.1.1 = { holder=101360208 } # Harghaz (nc)
7871.1.1 = { holder=103360208 } # Hizdhar (nc)
7903.1.1 = { holder=106360208 } # Faezdhar (nc)
7920.1.1 = { holder=0 }