600.1.1={
	liege="k_norvos"
	law="republic_law_0"
	effect = { 
		b_norvos = { ROOT = { holder_scope = { capital = PREVPREV } } }
	}
}
7875.1.1 = { holder=344300561 } # Lysan Morvdys (nc)
7898.1.1 = { holder=343300562 } # Doro Narlan (nc)
7904.1.1 = { holder=343300563 } # Tybero Votyris (nc)
7905.1.1 = { holder=342300561 } # Cassan Morvdys (nc)
7919.1.1 = { holder=342300562 } # Syran Narlan (nc)
7925.1.1 = { holder=342300522 } # Byresso Nyelossos (nc)
7929.1.1 = { holder=341300531 } # Horio Daryth (nc)
7944.1.1 = { holder=340300561 } # Syrno Morvdys (nc)
7955.1.1 = { holder=100300561 } # Gyloro Morvdys (nc)
8003.1.1 = { holder=100300531 } # Ezzelyno Daryth (nc)
8018.1.1 = { holder=100300522 } # Roggo Nyelossos (nc)
8021.1.1 = { holder=104300561 } # Myrmello Morvdys (nc)
8030.1.1 = { holder=108300561 } # Meralyn Morvdys (nc)
8060.1.1 = { holder=111300561 } # Syrio Morvdys (nc)
8089.1.1 = { holder=107300562 } # Narbo Narlan (nc)
8091.1.1 = { holder=110300562 } # Allaquo Narlan (nc)
8097.1.1 = { holder=113300531 } # Daario Daryth (nc)
8110.1.1 = { holder=116300531 } # Tagganaro Daryth (nc)
8129.1.1 = { holder=118300531 } # Yorko Daryth (nc)
8142.1.1 = { holder=122300531 } # Gyleno Daryth (nc)
8179.1.1 = { holder=124300563 } # Narbo Votyris (nc)
8191.1.1 = { holder=129300522 } # Myrmello Nyelossos (nc)
8231.1.1 = { holder=127300563 } # Orbelo Votyris (nc)
8244.1.1 = { holder=132300531 } # Cossomo Daryth (nc)
8274.1.1 = { holder=134300531 } # Gyloro Daryth (nc)
8297.1.1 = { holder=135300561 } # Tormo Morvdys (nc)
8299.1.1 = { holder=138300561 } # Luco Morvdys (nc)