7980.1.1 = { 
	holder=340600219 # Haggo (nc)
	historical_nomad = yes
	liege = d_painted_mountains
}
7986.1.1 = { holder=100600219 } # Harro (nc)
8023.1.1 = { holder=103600219 } # Harro (nc)
8045.1.1 = { holder=105600219 } # Mengo (nc)
8060.1.1 = { holder=108600219 } # Mosko (nc)
8112.1.1 = { holder=114600219 } # Zhako (nc)
8146.1.1 = { holder=116600219 } # Virsallo (nc)
8154.1.1 = { holder=119600219 } # Marro (nc)
8166.1.1 = { holder=124600219 } # Rogo (nc)
8194.1.1 = { holder=128600219 } # Najaho (nc)
8199.1.1 = { holder=131600219 } # Harro (nc)
8231.1.1 = { holder=133600219 } # Haggo (nc)
8262.1.1 = { holder=140600219 } # Motho (c)