1.1.1={ law=succ_primogeniture}
8191.1.1={
    liege="e_iron_throne"
	holder=77026
	effect = {
		set_title_flag = military_command
		holder_scope = {
			if = {
				limit = { primary_title = { title = PREVPREV } }
				set_government_type = military_command_government 
				PREV = { succession = appointment }
				recalc_succession = yes
			}
		}
	}
} 
8233.6.1={	
    liege=0
	holder=0
}