600.1.1={
	liege="k_qarth"
}
7863.1.1 = { holder=34435018 } # Proto (nc)
7872.1.1 = { holder=34335018 } # Kybassion (nc)
7899.1.1 = { holder=34235018 } # Damasto (nc)
7944.1.1 = { holder=34135018 } # Agon (nc)
7959.1.1 = { holder=34035018 } # Tebos (nc)

7973.1.1 = { holder=10035018 } # Egon (nc)
8010.1.1 = { holder=10235018 } # Vogarro (nc)
8011.1.1 = { holder=10335018 } # Methyso (nc)
8033.1.1 = { holder=10635018 } # Vogarro (nc)
8046.1.1 = { holder=10735018 } # Zathor (nc)
8059.1.1 = { holder=11335018 } # Urrathon (nc)
8100.1.1 = { holder=11835018 } # Gorys (nc)
8118.1.1 = { holder=12335018 } # Xaro (nc)
8137.1.1 = { holder=12535018 } # Gorys (nc)
8151.1.1 = { holder=12635018 } # Navathos (nc)
8159.1.1 = { holder=13035018 } # Gathril (nc)
8169.1.1 = { holder=13135018 } # Regon (nc)
8182.1.1 = { holder=13435018 } # Sybassion (nc)
8202.1.1 = { holder=13835018 } # Mundello (nc)
8237.1.1 = { holder=13935018 } # Gorys (nc)
8289.1.1 = { holder=14335018 } # Egon (nc)
