20.1.1={
	active = no
	government = feudal_government
}
7998.1.2={
	holder = 77000		#Aegon I 'the Conqueror'
	effect = { 
		holder_scope = {
			if = {
				limit = { NOT = { dynasty = 57 } }
				character_event = { id = blackfyre_rebellion.104 days = 1 } #destroy this title
			}
		}	
	}
}
8037.9.9={
	holder = 77004		#Aenys I
}
8042.1.1={
	holder = 77005		#Maegor I 'the Cruel'
}
8048.3.7={
	holder = 77006		#Jaehaerys I 'the Conciliator'
}
8103.1.1={
	holder = 77009		#Viserys I
}
8129.3.3={
	holder = 77013		#Aegon II
}
8131.1.8={
	holder = 77015		#Aegon III the Unlucky
}
8157.1.1={
	holder = 77016		#Daeron I the Young Dragon
}
8161.1.1={
	holder = 77017		#Baelor I the Blessed
}
8171.1.1={
	holder = 77019		#Viserys II
}
8172.1.1={
	holder = 77020		#Aegon IV the Unworthy
}
8184.1.1={
	holder = 0
}
8195.3.7 = {
	active = yes
	holder=77024 #Daemon I
	liege="e_iron_throne"
	law = succ_primogeniture
	law = cognatic_succession
}
8196.6.1={
	holder = 10257 #Daemon II
	active = no
	liege = 0
	name = "D_BLACKFYRE_LINEAGE"
	effect = {
		c_77024 = {
			any_dynasty_member = {
				remove_claim = ROOT
			}
		}
	}	
}
8218.6.1={
	holder = 10357 #Haegon I
}
8219.1.1={
	name = "D_BLACKFYRE_HOST"
}
8220.1.1 = {
	holder = 60000057 #Daemon III
	name = "D_BLACKFYRE_LINEAGE"
}
8236.1.1={
	name = "D_BLACKFYRE_HOST"
}
8236.3.2={
	holder = 0
	name = "D_BLACKFYRE_LINEAGE"
}
8251.1.1={ 
	holder = 10757 #Maelys I
}
8260.12.31={
	holder = 0
}
