600.1.1={
	holder=0
	law = slavery_2
	law = succ_turkish_succession
	law = agnatic_succession
	law = centralization_1
}
8109.1.1={
	holder=779496 #Daemon Targaryen
}
8116.1.1={
	holder=0
}
8131.9.1 = {
	holder=105030533 #Racallio Ryndoon
}
8134.1.1={
	holder=0
}
8157.1.1={
	holder=600000062 #Vaario Quanis
}
8159.1.1={
	holder=0
}
8258.1.1={
	holder=10757 #Maelys the Monstrous
	law = succ_primogeniture
}
8260.12.31={
	holder=0
	law = succ_turkish_succession
}
8300.2.1={
	holder = 15052 #Aurane Waters	
}