7898.1.1 = { 
	holder=344360023 # Reznak zo Qaggaz (nc)
	law = slavery_2
	law = centralization_2
}
7900.1.1 = { holder=344360024 } # Yuznak zo Yunzak (nc)
7907.1.1 = { holder=343360022 } # Yezzan zo Myraq (nc)
7920.1.1 = { holder=343360023 } # Prendahl zo Qaggaz (nc)
7928.1.1 = { holder=342360023 } # Yezzan zo Qaggaz (nc)
7939.1.1 = { holder=342360024 } # Paezhar zo Yunzak (nc)
7949.1.1 = { holder=341360023 } # Zarraq zo Qaggaz (nc)
7969.1.1 = { holder=341360024 } # Lazhak zo Yunzak (nc)
7977.1.1 = { holder=340360020 } # Dhazzar mo Eraz (nc)
7979.1.1 = { holder=340360023 } # Barkhaz zo Qaggaz (nc)

7995.1.1 = { holder=150360023 } # Grazdhan zo Qaggaz (nc)
8012.1.1 = { holder=100360024 } # Yezzan zo Yunzak (nc)
8028.1.1 = { holder=100360022 } # Maezon zo Myraq (nc)
8050.1.1 = { holder=101360020 } # Haezdhar mo Eraz (nc)
8072.1.1 = { holder=106360023 } # Maezon zo Qaggaz (nc)
8113.1.1 = { holder=106360024 } # Sharkaz zo Yunzak (nc)
8135.1.1 = { holder=109360022 } # Mizlak zo Myraq (nc)
8142.1.1 = { holder=116360020 } # Grazdan mo Eraz (nc)
8170.1.1 = { holder=112360024 } # Ghazdor zo Yunzak (nc)
8187.1.1 = { holder=116360023 } # Yurkhaz zo Qaggaz (nc)
8200.1.1 = { holder=117360022 } # Lazhak zo Myraq (nc)
8218.1.1 = { holder=113360024 } # Skahaz zo Yunzak (nc)
8224.1.1 = { holder=122360020 } # Grazdhan mo Eraz (nc)
8239.1.1 = { holder=125360023 } # Kraznys zo Qaggaz (nc)
8264.1.1 = { holder=130360020 } # Gazdhor mo Eraz (nc)
8280.1.1 = {
	holder=6571003 # Yurkhaz zo Yunzak (C)
}
8300.7.3 = {
	holder=6571004 # Yezzan zo Qaggaz (C)
}
8300.7.14 = {
	holder=6571006 # Morghaz zo Zhaerzyn (C)
}