castle = {
	trigger = {
	}
}

city = {
	trigger = {
	}
}

temple = {
	trigger = {
	}
}

trade_post = {
	trigger = {
		hidden_tooltip = { 
			FROM = {
				NOT = { culture_group = winter_group }
				NOT = { culture_group = unoccupied_group }
			}
		}
		conditional_tooltip = {
			trigger = {				
				OR = {
					FROM = {
						is_patrician = no
					}
					AND = {
						port = no
						FROM = {
							is_patrician = yes
						}
					}
				}
			}
			custom_tooltip = {
				text = TOOLTIPtrade_post_LANDCENTRE
				OR = {
					conditional_tooltip = {
						trigger = { trade_route = far_east_trade_route }
						far_east_trade_route_post_trigger = yes
					}	
					conditional_tooltip = {
						trigger = { trade_route = central_trade_route }
						central_trade_route_post_trigger = yes
					}
					conditional_tooltip = {
						trigger = { trade_route = southern_trade_route }
						southern_trade_route_post_trigger = yes
					}
					conditional_tooltip = {
						trigger = { trade_route = rhoyne_trade_route }
						rhoyne_trade_route_post_trigger = yes
					}
					conditional_tooltip = {
						trigger = { trade_route = valyria_trade_route }
						valyria_trade_route_post_trigger = yes
					}
					conditional_tooltip = {
						trigger = { trade_route = narrowsea_route }
						narrowsea_route_post_trigger = yes
					}
					conditional_tooltip = {
						trigger = { trade_route = kingsroad_route }
						kingsroad_route_post_trigger = yes
					}
					conditional_tooltip = {
						trigger = { trade_route = goldroad_route }
						goldroad_route_post_trigger = yes
					}
					conditional_tooltip = {
						trigger = { trade_route = river_road_route }
						river_road_route_post_trigger = yes
					}
					conditional_tooltip = {
						trigger = { trade_route = high_road_route }
						high_road_route_post_trigger = yes
					}
					conditional_tooltip = {
						trigger = { trade_route = roseroad_route }
						roseroad_route_post_trigger = yes
					}
					conditional_tooltip = {
						trigger = { trade_route = oceanroad_route }
						oceanroad_route_post_trigger = yes
					}
					conditional_tooltip = {
						trigger = { trade_route = reach_coast_route }
						reach_coast_route_post_trigger = yes
					}
					conditional_tooltip = {
						trigger = { trade_route = dorneroad_route }
						dorneroad_route_post_trigger = yes
					}
					conditional_tooltip = {
						trigger = { trade_route = princespass_route }
						princespass_route_post_trigger = yes
					}
					conditional_tooltip = {
						trigger = { trade_route = southern_trade_route }
						southern_trade_route_post_trigger = yes
					}
					conditional_tooltip = {
						trigger = { trade_route = rhoyne_trade_route }
						rhoyne_trade_route_post_trigger = yes
					}
					#conditional_tooltip = {
					#	trigger = { trade_route = valyria_trade_route }
					#	valyria_trade_route_post_trigger = yes
					#}
				}
			}
		}
	}
}

family_palace = {
	trigger = {
	}
}

tribal = {
	trigger = {
		FROM = { NOT = { government = order_government } }
	}
}

nomad = {
	trigger = {
	}
}

fort = {
	trigger = {
	}
}

hospital = {
	trigger = {
	}
}
